Sender: LSF System <lsfadmin@lo-g2-009>
Subject: Job 14278260: <python 02_3_generating_answers.py 8610 8620> in cluster <leonhard> Done

Job <python 02_3_generating_answers.py 8610 8620> was submitted from host <lo-login-01> by user <stygerma> in cluster <leonhard> at Sat Feb 20 23:17:30 2021
Job was executed on host(s) <2*lo-g2-009>, in queue <gpu.4h>, as user <stygerma> in cluster <leonhard> at Sun Feb 21 00:52:42 2021
</cluster/home/stygerma> was used as the home directory.
</cluster/home/stygerma/Robot_Judge_Project> was used as the working directory.
Started at Sun Feb 21 00:52:42 2021
Terminated at Sun Feb 21 01:04:32 2021
Results reported at Sun Feb 21 01:04:32 2021

Your job looked like:

------------------------------------------------------------
# LSBATCH: User input
python 02_3_generating_answers.py 8610 8620
------------------------------------------------------------

Successfully completed.

Resource usage summary:

    CPU time :                                   800.60 sec.
    Max Memory :                                 4993 MB
    Average Memory :                             3458.20 MB
    Total Requested Memory :                     25600.00 MB
    Delta Memory :                               20607.00 MB
    Max Swap :                                   -
    Max Processes :                              3
    Max Threads :                                25
    Run time :                                   710 sec.
    Turnaround time :                            6422 sec.

The output (if any) follows:

WARNING:tensorflow:
The TensorFlow contrib module will not be included in TensorFlow 2.0.
For more information, please see:
  * https://github.com/tensorflow/community/blob/master/rfcs/20180907-contrib-sunset.md
  * https://github.com/tensorflow/addons
  * https://github.com/tensorflow/io (for I/O related ops)
If you depend on functionality not listed there, please file an issue.

2021-02-21 00:52:49.247290: I tensorflow/core/platform/cpu_feature_guard.cc:142] Your CPU supports instructions that this TensorFlow binary was not compiled to use: AVX2 AVX512F FMA
2021-02-21 00:52:49.253982: I tensorflow/core/platform/profile_utils/cpu_utils.cc:94] CPU Frequency: 2600000000 Hz
2021-02-21 00:52:49.254307: I tensorflow/compiler/xla/service/service.cc:168] XLA service 0x5ee5c40 initialized for platform Host (this does not guarantee that XLA will be used). Devices:
2021-02-21 00:52:49.254327: I tensorflow/compiler/xla/service/service.cc:176]   StreamExecutor device (0): Host, Default Version
2021-02-21 00:52:49.256829: I tensorflow/stream_executor/platform/default/dso_loader.cc:44] Successfully opened dynamic library libcuda.so.1
2021-02-21 00:52:49.438699: I tensorflow/compiler/xla/service/service.cc:168] XLA service 0x5ee7cc0 initialized for platform CUDA (this does not guarantee that XLA will be used). Devices:
2021-02-21 00:52:49.438733: I tensorflow/compiler/xla/service/service.cc:176]   StreamExecutor device (0): GeForce RTX 2080 Ti, Compute Capability 7.5
2021-02-21 00:52:49.439972: I tensorflow/core/common_runtime/gpu/gpu_device.cc:1618] Found device 0 with properties: 
name: GeForce RTX 2080 Ti major: 7 minor: 5 memoryClockRate(GHz): 1.545
pciBusID: 0000:3d:00.0
2021-02-21 00:52:49.440167: W tensorflow/stream_executor/platform/default/dso_loader.cc:55] Could not load dynamic library 'libcudart.so.10.0'; dlerror: libcudart.so.10.0: cannot open shared object file: No such file or directory; LD_LIBRARY_PATH: /cluster/apps/lsf/10.1/linux3.10-glibc2.17-x86_64/lib:/cluster/apps/gcc-6.3.0/nccl-2.4.8-1-2tfa3dfv7h4nq45vphxcout4mbo3m5ju/lib:/cluster/apps/gcc-6.3.0/libpng-1.6.27-7vevbsio2diw5xquq7oxg7fphkppf2kx/lib:/cluster/apps/gcc-6.3.0/jpeg-9b-742nyforj7mfuhcfzbsbqjlmiya2wi5e/lib:/cluster/apps/gcc-6.3.0/cudnn-7.6.4-45t3bf3foruki6ijeylccnqwph5zdbe2/lib64:/cluster/apps/gcc-6.3.0/cuda-10.1.243-n6qg6z5js3zfnhp2cfg5yjccej636czm/extras/CUPTI/lib64:/cluster/apps/gcc-6.3.0/cuda-10.1.243-n6qg6z5js3zfnhp2cfg5yjccej636czm/lib64:/cluster/apps/gcc-6.3.0/openblas-0.2.19-jusdys62qhv52qjbsoewvthriekuaynw/lib:/cluster/apps/python/3.7.4_gpu_gcc630/x86_64/lib64/python3.7/site-packages/torch/lib:/cluster/apps/python/3.7.4_gpu_gcc630/x86_64/lib64:/cluster/apps/python/3.7.4_cpu_gcc630/x86_64/lib64:/cluster/spack/apps/linux-centos7-x86_64/gcc-4.8.5/gcc-6.3.0-d7fey5ouwb3cw26w5zqafqcse7q3fs6d/lib64:/cluster/spack/apps/linux-centos7-x86_64/gcc-4.8.5/gcc-6.3.0-d7fey5ouwb3cw26w5zqafqcse7q3fs6d/lib
2021-02-21 00:52:49.440267: W tensorflow/stream_executor/platform/default/dso_loader.cc:55] Could not load dynamic library 'libcublas.so.10.0'; dlerror: libcublas.so.10.0: cannot open shared object file: No such file or directory; LD_LIBRARY_PATH: /cluster/apps/lsf/10.1/linux3.10-glibc2.17-x86_64/lib:/cluster/apps/gcc-6.3.0/nccl-2.4.8-1-2tfa3dfv7h4nq45vphxcout4mbo3m5ju/lib:/cluster/apps/gcc-6.3.0/libpng-1.6.27-7vevbsio2diw5xquq7oxg7fphkppf2kx/lib:/cluster/apps/gcc-6.3.0/jpeg-9b-742nyforj7mfuhcfzbsbqjlmiya2wi5e/lib:/cluster/apps/gcc-6.3.0/cudnn-7.6.4-45t3bf3foruki6ijeylccnqwph5zdbe2/lib64:/cluster/apps/gcc-6.3.0/cuda-10.1.243-n6qg6z5js3zfnhp2cfg5yjccej636czm/extras/CUPTI/lib64:/cluster/apps/gcc-6.3.0/cuda-10.1.243-n6qg6z5js3zfnhp2cfg5yjccej636czm/lib64:/cluster/apps/gcc-6.3.0/openblas-0.2.19-jusdys62qhv52qjbsoewvthriekuaynw/lib:/cluster/apps/python/3.7.4_gpu_gcc630/x86_64/lib64/python3.7/site-packages/torch/lib:/cluster/apps/python/3.7.4_gpu_gcc630/x86_64/lib64:/cluster/apps/python/3.7.4_cpu_gcc630/x86_64/lib64:/cluster/spack/apps/linux-centos7-x86_64/gcc-4.8.5/gcc-6.3.0-d7fey5ouwb3cw26w5zqafqcse7q3fs6d/lib64:/cluster/spack/apps/linux-centos7-x86_64/gcc-4.8.5/gcc-6.3.0-d7fey5ouwb3cw26w5zqafqcse7q3fs6d/lib
2021-02-21 00:52:49.440345: W tensorflow/stream_executor/platform/default/dso_loader.cc:55] Could not load dynamic library 'libcufft.so.10.0'; dlerror: libcufft.so.10.0: cannot open shared object file: No such file or directory; LD_LIBRARY_PATH: /cluster/apps/lsf/10.1/linux3.10-glibc2.17-x86_64/lib:/cluster/apps/gcc-6.3.0/nccl-2.4.8-1-2tfa3dfv7h4nq45vphxcout4mbo3m5ju/lib:/cluster/apps/gcc-6.3.0/libpng-1.6.27-7vevbsio2diw5xquq7oxg7fphkppf2kx/lib:/cluster/apps/gcc-6.3.0/jpeg-9b-742nyforj7mfuhcfzbsbqjlmiya2wi5e/lib:/cluster/apps/gcc-6.3.0/cudnn-7.6.4-45t3bf3foruki6ijeylccnqwph5zdbe2/lib64:/cluster/apps/gcc-6.3.0/cuda-10.1.243-n6qg6z5js3zfnhp2cfg5yjccej636czm/extras/CUPTI/lib64:/cluster/apps/gcc-6.3.0/cuda-10.1.243-n6qg6z5js3zfnhp2cfg5yjccej636czm/lib64:/cluster/apps/gcc-6.3.0/openblas-0.2.19-jusdys62qhv52qjbsoewvthriekuaynw/lib:/cluster/apps/python/3.7.4_gpu_gcc630/x86_64/lib64/python3.7/site-packages/torch/lib:/cluster/apps/python/3.7.4_gpu_gcc630/x86_64/lib64:/cluster/apps/python/3.7.4_cpu_gcc630/x86_64/lib64:/cluster/spack/apps/linux-centos7-x86_64/gcc-4.8.5/gcc-6.3.0-d7fey5ouwb3cw26w5zqafqcse7q3fs6d/lib64:/cluster/spack/apps/linux-centos7-x86_64/gcc-4.8.5/gcc-6.3.0-d7fey5ouwb3cw26w5zqafqcse7q3fs6d/lib
2021-02-21 00:52:49.440417: W tensorflow/stream_executor/platform/default/dso_loader.cc:55] Could not load dynamic library 'libcurand.so.10.0'; dlerror: libcurand.so.10.0: cannot open shared object file: No such file or directory; LD_LIBRARY_PATH: /cluster/apps/lsf/10.1/linux3.10-glibc2.17-x86_64/lib:/cluster/apps/gcc-6.3.0/nccl-2.4.8-1-2tfa3dfv7h4nq45vphxcout4mbo3m5ju/lib:/cluster/apps/gcc-6.3.0/libpng-1.6.27-7vevbsio2diw5xquq7oxg7fphkppf2kx/lib:/cluster/apps/gcc-6.3.0/jpeg-9b-742nyforj7mfuhcfzbsbqjlmiya2wi5e/lib:/cluster/apps/gcc-6.3.0/cudnn-7.6.4-45t3bf3foruki6ijeylccnqwph5zdbe2/lib64:/cluster/apps/gcc-6.3.0/cuda-10.1.243-n6qg6z5js3zfnhp2cfg5yjccej636czm/extras/CUPTI/lib64:/cluster/apps/gcc-6.3.0/cuda-10.1.243-n6qg6z5js3zfnhp2cfg5yjccej636czm/lib64:/cluster/apps/gcc-6.3.0/openblas-0.2.19-jusdys62qhv52qjbsoewvthriekuaynw/lib:/cluster/apps/python/3.7.4_gpu_gcc630/x86_64/lib64/python3.7/site-packages/torch/lib:/cluster/apps/python/3.7.4_gpu_gcc630/x86_64/lib64:/cluster/apps/python/3.7.4_cpu_gcc630/x86_64/lib64:/cluster/spack/apps/linux-centos7-x86_64/gcc-4.8.5/gcc-6.3.0-d7fey5ouwb3cw26w5zqafqcse7q3fs6d/lib64:/cluster/spack/apps/linux-centos7-x86_64/gcc-4.8.5/gcc-6.3.0-d7fey5ouwb3cw26w5zqafqcse7q3fs6d/lib
2021-02-21 00:52:49.440488: W tensorflow/stream_executor/platform/default/dso_loader.cc:55] Could not load dynamic library 'libcusolver.so.10.0'; dlerror: libcusolver.so.10.0: cannot open shared object file: No such file or directory; LD_LIBRARY_PATH: /cluster/apps/lsf/10.1/linux3.10-glibc2.17-x86_64/lib:/cluster/apps/gcc-6.3.0/nccl-2.4.8-1-2tfa3dfv7h4nq45vphxcout4mbo3m5ju/lib:/cluster/apps/gcc-6.3.0/libpng-1.6.27-7vevbsio2diw5xquq7oxg7fphkppf2kx/lib:/cluster/apps/gcc-6.3.0/jpeg-9b-742nyforj7mfuhcfzbsbqjlmiya2wi5e/lib:/cluster/apps/gcc-6.3.0/cudnn-7.6.4-45t3bf3foruki6ijeylccnqwph5zdbe2/lib64:/cluster/apps/gcc-6.3.0/cuda-10.1.243-n6qg6z5js3zfnhp2cfg5yjccej636czm/extras/CUPTI/lib64:/cluster/apps/gcc-6.3.0/cuda-10.1.243-n6qg6z5js3zfnhp2cfg5yjccej636czm/lib64:/cluster/apps/gcc-6.3.0/openblas-0.2.19-jusdys62qhv52qjbsoewvthriekuaynw/lib:/cluster/apps/python/3.7.4_gpu_gcc630/x86_64/lib64/python3.7/site-packages/torch/lib:/cluster/apps/python/3.7.4_gpu_gcc630/x86_64/lib64:/cluster/apps/python/3.7.4_cpu_gcc630/x86_64/lib64:/cluster/spack/apps/linux-centos7-x86_64/gcc-4.8.5/gcc-6.3.0-d7fey5ouwb3cw26w5zqafqcse7q3fs6d/lib64:/cluster/spack/apps/linux-centos7-x86_64/gcc-4.8.5/gcc-6.3.0-d7fey5ouwb3cw26w5zqafqcse7q3fs6d/lib
2021-02-21 00:52:49.440556: W tensorflow/stream_executor/platform/default/dso_loader.cc:55] Could not load dynamic library 'libcusparse.so.10.0'; dlerror: libcusparse.so.10.0: cannot open shared object file: No such file or directory; LD_LIBRARY_PATH: /cluster/apps/lsf/10.1/linux3.10-glibc2.17-x86_64/lib:/cluster/apps/gcc-6.3.0/nccl-2.4.8-1-2tfa3dfv7h4nq45vphxcout4mbo3m5ju/lib:/cluster/apps/gcc-6.3.0/libpng-1.6.27-7vevbsio2diw5xquq7oxg7fphkppf2kx/lib:/cluster/apps/gcc-6.3.0/jpeg-9b-742nyforj7mfuhcfzbsbqjlmiya2wi5e/lib:/cluster/apps/gcc-6.3.0/cudnn-7.6.4-45t3bf3foruki6ijeylccnqwph5zdbe2/lib64:/cluster/apps/gcc-6.3.0/cuda-10.1.243-n6qg6z5js3zfnhp2cfg5yjccej636czm/extras/CUPTI/lib64:/cluster/apps/gcc-6.3.0/cuda-10.1.243-n6qg6z5js3zfnhp2cfg5yjccej636czm/lib64:/cluster/apps/gcc-6.3.0/openblas-0.2.19-jusdys62qhv52qjbsoewvthriekuaynw/lib:/cluster/apps/python/3.7.4_gpu_gcc630/x86_64/lib64/python3.7/site-packages/torch/lib:/cluster/apps/python/3.7.4_gpu_gcc630/x86_64/lib64:/cluster/apps/python/3.7.4_cpu_gcc630/x86_64/lib64:/cluster/spack/apps/linux-centos7-x86_64/gcc-4.8.5/gcc-6.3.0-d7fey5ouwb3cw26w5zqafqcse7q3fs6d/lib64:/cluster/spack/apps/linux-centos7-x86_64/gcc-4.8.5/gcc-6.3.0-d7fey5ouwb3cw26w5zqafqcse7q3fs6d/lib
2021-02-21 00:52:49.444996: I tensorflow/stream_executor/platform/default/dso_loader.cc:44] Successfully opened dynamic library libcudnn.so.7
2021-02-21 00:52:49.445019: W tensorflow/core/common_runtime/gpu/gpu_device.cc:1641] Cannot dlopen some GPU libraries. Please make sure the missing libraries mentioned above are installed properly if you would like to use GPU. Follow the guide at https://www.tensorflow.org/install/gpu for how to download and setup the required libraries for your platform.
Skipping registering GPU devices...
2021-02-21 00:52:49.445043: I tensorflow/core/common_runtime/gpu/gpu_device.cc:1159] Device interconnect StreamExecutor with strength 1 edge matrix:
2021-02-21 00:52:49.445050: I tensorflow/core/common_runtime/gpu/gpu_device.cc:1165]      0 
2021-02-21 00:52:49.445057: I tensorflow/core/common_runtime/gpu/gpu_device.cc:1178] 0:   N 
Running from 8610 to 8620
Loading checkpoint checkpoint/NZ_Parliament_QA/model-1800
First generated output Question           [Question]: Are you voting for it or against i...
Labour-answer      [Question]: Are you voting for it or against i...
National-answer    [Question]: Are you voting for it or against i...
Name: 8610, dtype: object
