Sender: LSF System <lsfadmin@lo-s4-029>
Subject: Job 14279350: <python 02_3_generating_answers.py 6410 6420> in cluster <leonhard> Done

Job <python 02_3_generating_answers.py 6410 6420> was submitted from host <lo-login-02> by user <stygerma> in cluster <leonhard> at Sun Feb 21 10:06:32 2021
Job was executed on host(s) <2*lo-s4-029>, in queue <gpu.4h>, as user <stygerma> in cluster <leonhard> at Sun Feb 21 10:06:38 2021
</cluster/home/stygerma> was used as the home directory.
</cluster/home/stygerma/Robot_Judge_Project> was used as the working directory.
Started at Sun Feb 21 10:06:38 2021
Terminated at Sun Feb 21 10:17:23 2021
Results reported at Sun Feb 21 10:17:23 2021

Your job looked like:

------------------------------------------------------------
# LSBATCH: User input
python 02_3_generating_answers.py 6410 6420
------------------------------------------------------------

Successfully completed.

Resource usage summary:

    CPU time :                                   720.62 sec.
    Max Memory :                                 5080 MB
    Average Memory :                             3581.58 MB
    Total Requested Memory :                     25600.00 MB
    Delta Memory :                               20520.00 MB
    Max Swap :                                   -
    Max Processes :                              3
    Max Threads :                                25
    Run time :                                   661 sec.
    Turnaround time :                            651 sec.

The output (if any) follows:

WARNING:tensorflow:
The TensorFlow contrib module will not be included in TensorFlow 2.0.
For more information, please see:
  * https://github.com/tensorflow/community/blob/master/rfcs/20180907-contrib-sunset.md
  * https://github.com/tensorflow/addons
  * https://github.com/tensorflow/io (for I/O related ops)
If you depend on functionality not listed there, please file an issue.

2021-02-21 10:06:47.755055: I tensorflow/core/platform/cpu_feature_guard.cc:142] Your CPU supports instructions that this TensorFlow binary was not compiled to use: AVX2 FMA
2021-02-21 10:06:47.765327: I tensorflow/core/platform/profile_utils/cpu_utils.cc:94] CPU Frequency: 2199875000 Hz
2021-02-21 10:06:47.765652: I tensorflow/compiler/xla/service/service.cc:168] XLA service 0x5141420 initialized for platform Host (this does not guarantee that XLA will be used). Devices:
2021-02-21 10:06:47.765678: I tensorflow/compiler/xla/service/service.cc:176]   StreamExecutor device (0): Host, Default Version
2021-02-21 10:06:47.769184: I tensorflow/stream_executor/platform/default/dso_loader.cc:44] Successfully opened dynamic library libcuda.so.1
2021-02-21 10:06:48.053582: I tensorflow/compiler/xla/service/service.cc:168] XLA service 0x5143560 initialized for platform CUDA (this does not guarantee that XLA will be used). Devices:
2021-02-21 10:06:48.053626: I tensorflow/compiler/xla/service/service.cc:176]   StreamExecutor device (0): GeForce GTX 1080, Compute Capability 6.1
2021-02-21 10:06:48.057468: I tensorflow/core/common_runtime/gpu/gpu_device.cc:1618] Found device 0 with properties: 
name: GeForce GTX 1080 major: 6 minor: 1 memoryClockRate(GHz): 1.7335
pciBusID: 0000:04:00.0
2021-02-21 10:06:48.057847: W tensorflow/stream_executor/platform/default/dso_loader.cc:55] Could not load dynamic library 'libcudart.so.10.0'; dlerror: libcudart.so.10.0: cannot open shared object file: No such file or directory; LD_LIBRARY_PATH: /cluster/apps/lsf/10.1/linux3.10-glibc2.17-x86_64/lib:/cluster/apps/gcc-6.3.0/nccl-2.4.8-1-2tfa3dfv7h4nq45vphxcout4mbo3m5ju/lib:/cluster/apps/gcc-6.3.0/libpng-1.6.27-7vevbsio2diw5xquq7oxg7fphkppf2kx/lib:/cluster/apps/gcc-6.3.0/jpeg-9b-742nyforj7mfuhcfzbsbqjlmiya2wi5e/lib:/cluster/apps/gcc-6.3.0/cudnn-7.6.4-45t3bf3foruki6ijeylccnqwph5zdbe2/lib64:/cluster/apps/gcc-6.3.0/cuda-10.1.243-n6qg6z5js3zfnhp2cfg5yjccej636czm/extras/CUPTI/lib64:/cluster/apps/gcc-6.3.0/cuda-10.1.243-n6qg6z5js3zfnhp2cfg5yjccej636czm/lib64:/cluster/apps/gcc-6.3.0/openblas-0.2.19-jusdys62qhv52qjbsoewvthriekuaynw/lib:/cluster/apps/python/3.7.4_gpu_gcc630/x86_64/lib64/python3.7/site-packages/torch/lib:/cluster/apps/python/3.7.4_gpu_gcc630/x86_64/lib64:/cluster/apps/python/3.7.4_cpu_gcc630/x86_64/lib64:/cluster/spack/apps/linux-centos7-x86_64/gcc-4.8.5/gcc-6.3.0-d7fey5ouwb3cw26w5zqafqcse7q3fs6d/lib64:/cluster/spack/apps/linux-centos7-x86_64/gcc-4.8.5/gcc-6.3.0-d7fey5ouwb3cw26w5zqafqcse7q3fs6d/lib
2021-02-21 10:06:48.058104: W tensorflow/stream_executor/platform/default/dso_loader.cc:55] Could not load dynamic library 'libcublas.so.10.0'; dlerror: libcublas.so.10.0: cannot open shared object file: No such file or directory; LD_LIBRARY_PATH: /cluster/apps/lsf/10.1/linux3.10-glibc2.17-x86_64/lib:/cluster/apps/gcc-6.3.0/nccl-2.4.8-1-2tfa3dfv7h4nq45vphxcout4mbo3m5ju/lib:/cluster/apps/gcc-6.3.0/libpng-1.6.27-7vevbsio2diw5xquq7oxg7fphkppf2kx/lib:/cluster/apps/gcc-6.3.0/jpeg-9b-742nyforj7mfuhcfzbsbqjlmiya2wi5e/lib:/cluster/apps/gcc-6.3.0/cudnn-7.6.4-45t3bf3foruki6ijeylccnqwph5zdbe2/lib64:/cluster/apps/gcc-6.3.0/cuda-10.1.243-n6qg6z5js3zfnhp2cfg5yjccej636czm/extras/CUPTI/lib64:/cluster/apps/gcc-6.3.0/cuda-10.1.243-n6qg6z5js3zfnhp2cfg5yjccej636czm/lib64:/cluster/apps/gcc-6.3.0/openblas-0.2.19-jusdys62qhv52qjbsoewvthriekuaynw/lib:/cluster/apps/python/3.7.4_gpu_gcc630/x86_64/lib64/python3.7/site-packages/torch/lib:/cluster/apps/python/3.7.4_gpu_gcc630/x86_64/lib64:/cluster/apps/python/3.7.4_cpu_gcc630/x86_64/lib64:/cluster/spack/apps/linux-centos7-x86_64/gcc-4.8.5/gcc-6.3.0-d7fey5ouwb3cw26w5zqafqcse7q3fs6d/lib64:/cluster/spack/apps/linux-centos7-x86_64/gcc-4.8.5/gcc-6.3.0-d7fey5ouwb3cw26w5zqafqcse7q3fs6d/lib
2021-02-21 10:06:48.058360: W tensorflow/stream_executor/platform/default/dso_loader.cc:55] Could not load dynamic library 'libcufft.so.10.0'; dlerror: libcufft.so.10.0: cannot open shared object file: No such file or directory; LD_LIBRARY_PATH: /cluster/apps/lsf/10.1/linux3.10-glibc2.17-x86_64/lib:/cluster/apps/gcc-6.3.0/nccl-2.4.8-1-2tfa3dfv7h4nq45vphxcout4mbo3m5ju/lib:/cluster/apps/gcc-6.3.0/libpng-1.6.27-7vevbsio2diw5xquq7oxg7fphkppf2kx/lib:/cluster/apps/gcc-6.3.0/jpeg-9b-742nyforj7mfuhcfzbsbqjlmiya2wi5e/lib:/cluster/apps/gcc-6.3.0/cudnn-7.6.4-45t3bf3foruki6ijeylccnqwph5zdbe2/lib64:/cluster/apps/gcc-6.3.0/cuda-10.1.243-n6qg6z5js3zfnhp2cfg5yjccej636czm/extras/CUPTI/lib64:/cluster/apps/gcc-6.3.0/cuda-10.1.243-n6qg6z5js3zfnhp2cfg5yjccej636czm/lib64:/cluster/apps/gcc-6.3.0/openblas-0.2.19-jusdys62qhv52qjbsoewvthriekuaynw/lib:/cluster/apps/python/3.7.4_gpu_gcc630/x86_64/lib64/python3.7/site-packages/torch/lib:/cluster/apps/python/3.7.4_gpu_gcc630/x86_64/lib64:/cluster/apps/python/3.7.4_cpu_gcc630/x86_64/lib64:/cluster/spack/apps/linux-centos7-x86_64/gcc-4.8.5/gcc-6.3.0-d7fey5ouwb3cw26w5zqafqcse7q3fs6d/lib64:/cluster/spack/apps/linux-centos7-x86_64/gcc-4.8.5/gcc-6.3.0-d7fey5ouwb3cw26w5zqafqcse7q3fs6d/lib
2021-02-21 10:06:48.058615: W tensorflow/stream_executor/platform/default/dso_loader.cc:55] Could not load dynamic library 'libcurand.so.10.0'; dlerror: libcurand.so.10.0: cannot open shared object file: No such file or directory; LD_LIBRARY_PATH: /cluster/apps/lsf/10.1/linux3.10-glibc2.17-x86_64/lib:/cluster/apps/gcc-6.3.0/nccl-2.4.8-1-2tfa3dfv7h4nq45vphxcout4mbo3m5ju/lib:/cluster/apps/gcc-6.3.0/libpng-1.6.27-7vevbsio2diw5xquq7oxg7fphkppf2kx/lib:/cluster/apps/gcc-6.3.0/jpeg-9b-742nyforj7mfuhcfzbsbqjlmiya2wi5e/lib:/cluster/apps/gcc-6.3.0/cudnn-7.6.4-45t3bf3foruki6ijeylccnqwph5zdbe2/lib64:/cluster/apps/gcc-6.3.0/cuda-10.1.243-n6qg6z5js3zfnhp2cfg5yjccej636czm/extras/CUPTI/lib64:/cluster/apps/gcc-6.3.0/cuda-10.1.243-n6qg6z5js3zfnhp2cfg5yjccej636czm/lib64:/cluster/apps/gcc-6.3.0/openblas-0.2.19-jusdys62qhv52qjbsoewvthriekuaynw/lib:/cluster/apps/python/3.7.4_gpu_gcc630/x86_64/lib64/python3.7/site-packages/torch/lib:/cluster/apps/python/3.7.4_gpu_gcc630/x86_64/lib64:/cluster/apps/python/3.7.4_cpu_gcc630/x86_64/lib64:/cluster/spack/apps/linux-centos7-x86_64/gcc-4.8.5/gcc-6.3.0-d7fey5ouwb3cw26w5zqafqcse7q3fs6d/lib64:/cluster/spack/apps/linux-centos7-x86_64/gcc-4.8.5/gcc-6.3.0-d7fey5ouwb3cw26w5zqafqcse7q3fs6d/lib
2021-02-21 10:06:48.058865: W tensorflow/stream_executor/platform/default/dso_loader.cc:55] Could not load dynamic library 'libcusolver.so.10.0'; dlerror: libcusolver.so.10.0: cannot open shared object file: No such file or directory; LD_LIBRARY_PATH: /cluster/apps/lsf/10.1/linux3.10-glibc2.17-x86_64/lib:/cluster/apps/gcc-6.3.0/nccl-2.4.8-1-2tfa3dfv7h4nq45vphxcout4mbo3m5ju/lib:/cluster/apps/gcc-6.3.0/libpng-1.6.27-7vevbsio2diw5xquq7oxg7fphkppf2kx/lib:/cluster/apps/gcc-6.3.0/jpeg-9b-742nyforj7mfuhcfzbsbqjlmiya2wi5e/lib:/cluster/apps/gcc-6.3.0/cudnn-7.6.4-45t3bf3foruki6ijeylccnqwph5zdbe2/lib64:/cluster/apps/gcc-6.3.0/cuda-10.1.243-n6qg6z5js3zfnhp2cfg5yjccej636czm/extras/CUPTI/lib64:/cluster/apps/gcc-6.3.0/cuda-10.1.243-n6qg6z5js3zfnhp2cfg5yjccej636czm/lib64:/cluster/apps/gcc-6.3.0/openblas-0.2.19-jusdys62qhv52qjbsoewvthriekuaynw/lib:/cluster/apps/python/3.7.4_gpu_gcc630/x86_64/lib64/python3.7/site-packages/torch/lib:/cluster/apps/python/3.7.4_gpu_gcc630/x86_64/lib64:/cluster/apps/python/3.7.4_cpu_gcc630/x86_64/lib64:/cluster/spack/apps/linux-centos7-x86_64/gcc-4.8.5/gcc-6.3.0-d7fey5ouwb3cw26w5zqafqcse7q3fs6d/lib64:/cluster/spack/apps/linux-centos7-x86_64/gcc-4.8.5/gcc-6.3.0-d7fey5ouwb3cw26w5zqafqcse7q3fs6d/lib
2021-02-21 10:06:48.059106: W tensorflow/stream_executor/platform/default/dso_loader.cc:55] Could not load dynamic library 'libcusparse.so.10.0'; dlerror: libcusparse.so.10.0: cannot open shared object file: No such file or directory; LD_LIBRARY_PATH: /cluster/apps/lsf/10.1/linux3.10-glibc2.17-x86_64/lib:/cluster/apps/gcc-6.3.0/nccl-2.4.8-1-2tfa3dfv7h4nq45vphxcout4mbo3m5ju/lib:/cluster/apps/gcc-6.3.0/libpng-1.6.27-7vevbsio2diw5xquq7oxg7fphkppf2kx/lib:/cluster/apps/gcc-6.3.0/jpeg-9b-742nyforj7mfuhcfzbsbqjlmiya2wi5e/lib:/cluster/apps/gcc-6.3.0/cudnn-7.6.4-45t3bf3foruki6ijeylccnqwph5zdbe2/lib64:/cluster/apps/gcc-6.3.0/cuda-10.1.243-n6qg6z5js3zfnhp2cfg5yjccej636czm/extras/CUPTI/lib64:/cluster/apps/gcc-6.3.0/cuda-10.1.243-n6qg6z5js3zfnhp2cfg5yjccej636czm/lib64:/cluster/apps/gcc-6.3.0/openblas-0.2.19-jusdys62qhv52qjbsoewvthriekuaynw/lib:/cluster/apps/python/3.7.4_gpu_gcc630/x86_64/lib64/python3.7/site-packages/torch/lib:/cluster/apps/python/3.7.4_gpu_gcc630/x86_64/lib64:/cluster/apps/python/3.7.4_cpu_gcc630/x86_64/lib64:/cluster/spack/apps/linux-centos7-x86_64/gcc-4.8.5/gcc-6.3.0-d7fey5ouwb3cw26w5zqafqcse7q3fs6d/lib64:/cluster/spack/apps/linux-centos7-x86_64/gcc-4.8.5/gcc-6.3.0-d7fey5ouwb3cw26w5zqafqcse7q3fs6d/lib
2021-02-21 10:06:48.069366: I tensorflow/stream_executor/platform/default/dso_loader.cc:44] Successfully opened dynamic library libcudnn.so.7
2021-02-21 10:06:48.069404: W tensorflow/core/common_runtime/gpu/gpu_device.cc:1641] Cannot dlopen some GPU libraries. Please make sure the missing libraries mentioned above are installed properly if you would like to use GPU. Follow the guide at https://www.tensorflow.org/install/gpu for how to download and setup the required libraries for your platform.
Skipping registering GPU devices...
2021-02-21 10:06:48.069445: I tensorflow/core/common_runtime/gpu/gpu_device.cc:1159] Device interconnect StreamExecutor with strength 1 edge matrix:
2021-02-21 10:06:48.069462: I tensorflow/core/common_runtime/gpu/gpu_device.cc:1165]      0 
2021-02-21 10:06:48.069478: I tensorflow/core/common_runtime/gpu/gpu_device.cc:1178] 0:   N 
Running from 6410 to 6420
Loading checkpoint checkpoint/NZ_Parliament_QA/model-1800
First generated output Question           [Question]: What initiatives is the Government...
Labour-answer      [Question]: What initiatives is the Government...
National-answer    [Question]: What initiatives is the Government...
Name: 6410, dtype: object
Cleaned the output Question           What initiatives is the Government taking to a...
Labour-answer      Housing supply in the Auckland market has been...
National-answer    We are very pleased to announce a new initiati...
Name: 6410, dtype: object
Output in correct format question    NaN
party       NaN
answer      NaN
Name: 0, dtype: object
Whole output: 
 [['What initiatives is the Government taking to address housing supply in pressured markets like Auckland and Christchurch?'
  'Labour'
  "Housing supply in the Auckland market has been the subject of considerable debate at the moment. I have just said the member should not scapegoat anybody. The Government is working hard to ensure that housing supply is not diverted from the real economy. There are well-known examples of that. In Auckland there is a shortage of houses. The Government's policy is to reduce the number of houses to 50,000, which is what people want. It is not a policy that has been adopted by the Opposition."]
 ['What initiatives is the Government taking to address housing supply in pressured markets like Auckland and Christchurch?'
  'National'
  'We are very pleased to announce a new initiative to help address the housing crisis in our city, Christchurch.<|endoftext|>\n\n']
 ['What other actions has this Government taken to attract New Zealand teachers overseas to return home?'
  'Labour'
  'New Zealand students are not being expelled or deported because of the policies put in place by this Government, they are being deported to the Philippines, to Australia, to Japan, and to Singapore to ensure the safety of their families and of their students.<|endoftext|>\n\n']
 ['What other actions has this Government taken to attract New Zealand teachers overseas to return home?'
  'National'
  'The Government is working hard to attract New Zealand teachers overseas to return to New Zealand. This includes the placement of trainers in schools in Australia, New Zealand, and elsewhere, and the Government is also encouraging schools to offer placements where they are able to. We are looking to attract New Zealand teachers overseas to teach in New Zealand.<|endoftext|>\n\n']
 ['why are none of those products affected?' 'Labour'
  'I have no information about that. But the point I want to make is that the bill extends the period of time for which those products can be re-labelled to ensure that they are safe and that they will not harm consumers.<|endoftext|>\n\n']
 ['why are none of those products affected?' 'National'
  'I do not know. I ask the member to explain to me whether the extent of those products is affected. Does he mean the extent of the products affected? I am trying to find out whether the extent of the products affected is the extent of the products affected.<|endoftext|>\n\n']
 ['What is the estimated value of public sector construction completed and underway in Christchurch?'
  'Labour'
  'The figures from the Christchurch Earthquake Mission announce that Christchurch has been hit by a major earthquake. The earthquake has been felt all over the country and across the country, and it has affected 7,000 people. It has caused damage to nearly 14,000 homes and destroyed or damaged many businesses, and it has caused severe damage to the infrastructure of Christchurch and the Canterbury region. The damage has been received by Christchurchers who are trying to recover from the quake. The Christchurch Earthquake Mission']
 ['What is the estimated value of public sector construction completed and underway in Christchurch?'
  'National'
  'The estimated value of public sector construction completed and underway in Christchurch is $100 million in Christchurch. This outlay represents approximately $300 million of Government spending in this capital city, a very good start, but it is just a start. we need to go further and get private sector investment.<|endoftext|>\n\n']
 ['What services has the Department of Internal Affairs provided to assist new parents?'
  'Labour'
  'I am very pleased to say that it is an excellent service. I am pleased to say that the staff are very good at what they do. In fact, they are very good at what they do. the main thing is that they are very good at what they do. The staff are looking after both the children and the mothers and fathers. They do a wonderful job. They are there for the mother and the father, and they do a superb job. I have a number of people who are']
 ['What services has the Department of Internal Affairs provided to assist new parents?'
  'National'
  "The department has provided free childcare to all new parents, free daycare, free house care, free friends' day, free family care, free gym membership, free clothing, free train tickets, and various other services to help them to get through the difficult times. The department has also offered free meals to pregnant and new mothers at the Department of Social Welfare in the past. There are also about 250 free meals a week offered to low-income families and free meals at Easter for low-income families"]
 ['What have you actually achieved while you’ve been in Parliament, Russel?'
  'Labour'
  'I’ve been in Parliament for 4 years now, and the New Zealand First member for Auckland Central and his boss are now saying to me, “This is the only way to go, ”, and I’m saying to him that if New Zealand First would have had that member for Auckland Central, and if the Government had listened to him, the National Party would not have had a member of the National Party who wants to be on the front bench of this Government. I']
 ['What have you actually achieved while you’ve been in Parliament, Russel?'
  'National'
  'Did he not tell the House that his second reading speech was going to be the most popular in the House? I think he would have been surprised to find that the Government had taken a lot of heat from the Opposition.<|endoftext|>\n\n']
 ['How many referees have been appointed since 1988?' 'Labour'
  'The Minister of Police says that there are now four. I have been told that there are three. If that is the case, then we have a problem. There has been a huge increase in the number of referees appointed to the force. I have been told that there are now five. I have been told that there are now six. The Minister has not been able to explain the situation, and I am sure that he will have to explain it to the press.<|endoftext|>']
 ['How many referees have been appointed since 1988?' 'National'
  'Two, and I think that is too many. I think that is too many, particularly as the numbers go up and down.<|endoftext|>\n\n']
 ['Mr Brownlee, was that your question?' 'Labour'
  'We are not talking about any particular one of the questions, Mr Brownlee. We are talking about one of the three substantive questions. But I understand the important point that we have to finish our discussion, because if we do not finish this conversation, we will not finish the debate on this bill. But I think we have got to finish this debate on this bill. The second point I want to make is the fact that we have got a very serious problem here. We have got a very serious']
 ['Mr Brownlee, was that your question?' 'National'
  'I was asked that question. My answer was that you are talking about the group of people who are not in the market where they live, what they do, and what they make. That is what I am saying.<|endoftext|>\n\n']
 ['Is it appropriate in a parliamentary question to describe Government members as stealing money?'
  'Labour'
  'The member seeking leave for the second reading of this bill was the member of the National Party who is now in Opposition. He was a member of the National Party who was sworn in to Parliament as a member of the National Party, at that time, he was in Opposition. He was one of the lesser members of the National Party. He was a member of the National Party who was sworn in to Parliament as a member of the National Party. I think it is wrong to describe him as stealing money']
 ['Is it appropriate in a parliamentary question to describe Government members as stealing money?'
  'National'
  'I think that it is an appropriate word to use.<|endoftext|>\n\n']
 ['Is this a press statement, or a statement published by the press?'
  'Labour'
  'The press statement is a press statement because it was published in the Dominion on 22 March this year.<|endoftext|>\n\n']
 ['Is this a press statement, or a statement published by the press?'
  'National'
  'We are not talking about a press statement, because this is a press statement.<|endoftext|>\n\n']]
