Sender: LSF System <lsfadmin@lo-s4-043>
Subject: Job 14278055: <python 02_3_generating_answers.py 6560 6570> in cluster <leonhard> Done

Job <python 02_3_generating_answers.py 6560 6570> was submitted from host <lo-login-01> by user <stygerma> in cluster <leonhard> at Sat Feb 20 23:16:14 2021
Job was executed on host(s) <2*lo-s4-043>, in queue <gpu.4h>, as user <stygerma> in cluster <leonhard> at Sun Feb 21 00:36:56 2021
</cluster/home/stygerma> was used as the home directory.
</cluster/home/stygerma/Robot_Judge_Project> was used as the working directory.
Started at Sun Feb 21 00:36:56 2021
Terminated at Sun Feb 21 00:48:43 2021
Results reported at Sun Feb 21 00:48:43 2021

Your job looked like:

------------------------------------------------------------
# LSBATCH: User input
python 02_3_generating_answers.py 6560 6570
------------------------------------------------------------

Successfully completed.

Resource usage summary:

    CPU time :                                   797.60 sec.
    Max Memory :                                 4983 MB
    Average Memory :                             3498.00 MB
    Total Requested Memory :                     25600.00 MB
    Delta Memory :                               20617.00 MB
    Max Swap :                                   -
    Max Processes :                              3
    Max Threads :                                25
    Run time :                                   719 sec.
    Turnaround time :                            5549 sec.

The output (if any) follows:

WARNING:tensorflow:
The TensorFlow contrib module will not be included in TensorFlow 2.0.
For more information, please see:
  * https://github.com/tensorflow/community/blob/master/rfcs/20180907-contrib-sunset.md
  * https://github.com/tensorflow/addons
  * https://github.com/tensorflow/io (for I/O related ops)
If you depend on functionality not listed there, please file an issue.

2021-02-21 00:37:02.996314: I tensorflow/core/platform/cpu_feature_guard.cc:142] Your CPU supports instructions that this TensorFlow binary was not compiled to use: AVX2 FMA
2021-02-21 00:37:03.004525: I tensorflow/core/platform/profile_utils/cpu_utils.cc:94] CPU Frequency: 2200015000 Hz
2021-02-21 00:37:03.004810: I tensorflow/compiler/xla/service/service.cc:168] XLA service 0x48e4b80 initialized for platform Host (this does not guarantee that XLA will be used). Devices:
2021-02-21 00:37:03.004834: I tensorflow/compiler/xla/service/service.cc:176]   StreamExecutor device (0): Host, Default Version
2021-02-21 00:37:03.007942: I tensorflow/stream_executor/platform/default/dso_loader.cc:44] Successfully opened dynamic library libcuda.so.1
2021-02-21 00:37:03.246988: I tensorflow/compiler/xla/service/service.cc:168] XLA service 0x48e6cc0 initialized for platform CUDA (this does not guarantee that XLA will be used). Devices:
2021-02-21 00:37:03.247027: I tensorflow/compiler/xla/service/service.cc:176]   StreamExecutor device (0): GeForce GTX 1080 Ti, Compute Capability 6.1
2021-02-21 00:37:03.248902: I tensorflow/core/common_runtime/gpu/gpu_device.cc:1618] Found device 0 with properties: 
name: GeForce GTX 1080 Ti major: 6 minor: 1 memoryClockRate(GHz): 1.582
pciBusID: 0000:0c:00.0
2021-02-21 00:37:03.249333: W tensorflow/stream_executor/platform/default/dso_loader.cc:55] Could not load dynamic library 'libcudart.so.10.0'; dlerror: libcudart.so.10.0: cannot open shared object file: No such file or directory; LD_LIBRARY_PATH: /cluster/apps/lsf/10.1/linux3.10-glibc2.17-x86_64/lib:/cluster/apps/gcc-6.3.0/nccl-2.4.8-1-2tfa3dfv7h4nq45vphxcout4mbo3m5ju/lib:/cluster/apps/gcc-6.3.0/libpng-1.6.27-7vevbsio2diw5xquq7oxg7fphkppf2kx/lib:/cluster/apps/gcc-6.3.0/jpeg-9b-742nyforj7mfuhcfzbsbqjlmiya2wi5e/lib:/cluster/apps/gcc-6.3.0/cudnn-7.6.4-45t3bf3foruki6ijeylccnqwph5zdbe2/lib64:/cluster/apps/gcc-6.3.0/cuda-10.1.243-n6qg6z5js3zfnhp2cfg5yjccej636czm/extras/CUPTI/lib64:/cluster/apps/gcc-6.3.0/cuda-10.1.243-n6qg6z5js3zfnhp2cfg5yjccej636czm/lib64:/cluster/apps/gcc-6.3.0/openblas-0.2.19-jusdys62qhv52qjbsoewvthriekuaynw/lib:/cluster/apps/python/3.7.4_gpu_gcc630/x86_64/lib64/python3.7/site-packages/torch/lib:/cluster/apps/python/3.7.4_gpu_gcc630/x86_64/lib64:/cluster/apps/python/3.7.4_cpu_gcc630/x86_64/lib64:/cluster/spack/apps/linux-centos7-x86_64/gcc-4.8.5/gcc-6.3.0-d7fey5ouwb3cw26w5zqafqcse7q3fs6d/lib64:/cluster/spack/apps/linux-centos7-x86_64/gcc-4.8.5/gcc-6.3.0-d7fey5ouwb3cw26w5zqafqcse7q3fs6d/lib
2021-02-21 00:37:03.249598: W tensorflow/stream_executor/platform/default/dso_loader.cc:55] Could not load dynamic library 'libcublas.so.10.0'; dlerror: libcublas.so.10.0: cannot open shared object file: No such file or directory; LD_LIBRARY_PATH: /cluster/apps/lsf/10.1/linux3.10-glibc2.17-x86_64/lib:/cluster/apps/gcc-6.3.0/nccl-2.4.8-1-2tfa3dfv7h4nq45vphxcout4mbo3m5ju/lib:/cluster/apps/gcc-6.3.0/libpng-1.6.27-7vevbsio2diw5xquq7oxg7fphkppf2kx/lib:/cluster/apps/gcc-6.3.0/jpeg-9b-742nyforj7mfuhcfzbsbqjlmiya2wi5e/lib:/cluster/apps/gcc-6.3.0/cudnn-7.6.4-45t3bf3foruki6ijeylccnqwph5zdbe2/lib64:/cluster/apps/gcc-6.3.0/cuda-10.1.243-n6qg6z5js3zfnhp2cfg5yjccej636czm/extras/CUPTI/lib64:/cluster/apps/gcc-6.3.0/cuda-10.1.243-n6qg6z5js3zfnhp2cfg5yjccej636czm/lib64:/cluster/apps/gcc-6.3.0/openblas-0.2.19-jusdys62qhv52qjbsoewvthriekuaynw/lib:/cluster/apps/python/3.7.4_gpu_gcc630/x86_64/lib64/python3.7/site-packages/torch/lib:/cluster/apps/python/3.7.4_gpu_gcc630/x86_64/lib64:/cluster/apps/python/3.7.4_cpu_gcc630/x86_64/lib64:/cluster/spack/apps/linux-centos7-x86_64/gcc-4.8.5/gcc-6.3.0-d7fey5ouwb3cw26w5zqafqcse7q3fs6d/lib64:/cluster/spack/apps/linux-centos7-x86_64/gcc-4.8.5/gcc-6.3.0-d7fey5ouwb3cw26w5zqafqcse7q3fs6d/lib
2021-02-21 00:37:03.249859: W tensorflow/stream_executor/platform/default/dso_loader.cc:55] Could not load dynamic library 'libcufft.so.10.0'; dlerror: libcufft.so.10.0: cannot open shared object file: No such file or directory; LD_LIBRARY_PATH: /cluster/apps/lsf/10.1/linux3.10-glibc2.17-x86_64/lib:/cluster/apps/gcc-6.3.0/nccl-2.4.8-1-2tfa3dfv7h4nq45vphxcout4mbo3m5ju/lib:/cluster/apps/gcc-6.3.0/libpng-1.6.27-7vevbsio2diw5xquq7oxg7fphkppf2kx/lib:/cluster/apps/gcc-6.3.0/jpeg-9b-742nyforj7mfuhcfzbsbqjlmiya2wi5e/lib:/cluster/apps/gcc-6.3.0/cudnn-7.6.4-45t3bf3foruki6ijeylccnqwph5zdbe2/lib64:/cluster/apps/gcc-6.3.0/cuda-10.1.243-n6qg6z5js3zfnhp2cfg5yjccej636czm/extras/CUPTI/lib64:/cluster/apps/gcc-6.3.0/cuda-10.1.243-n6qg6z5js3zfnhp2cfg5yjccej636czm/lib64:/cluster/apps/gcc-6.3.0/openblas-0.2.19-jusdys62qhv52qjbsoewvthriekuaynw/lib:/cluster/apps/python/3.7.4_gpu_gcc630/x86_64/lib64/python3.7/site-packages/torch/lib:/cluster/apps/python/3.7.4_gpu_gcc630/x86_64/lib64:/cluster/apps/python/3.7.4_cpu_gcc630/x86_64/lib64:/cluster/spack/apps/linux-centos7-x86_64/gcc-4.8.5/gcc-6.3.0-d7fey5ouwb3cw26w5zqafqcse7q3fs6d/lib64:/cluster/spack/apps/linux-centos7-x86_64/gcc-4.8.5/gcc-6.3.0-d7fey5ouwb3cw26w5zqafqcse7q3fs6d/lib
2021-02-21 00:37:03.250121: W tensorflow/stream_executor/platform/default/dso_loader.cc:55] Could not load dynamic library 'libcurand.so.10.0'; dlerror: libcurand.so.10.0: cannot open shared object file: No such file or directory; LD_LIBRARY_PATH: /cluster/apps/lsf/10.1/linux3.10-glibc2.17-x86_64/lib:/cluster/apps/gcc-6.3.0/nccl-2.4.8-1-2tfa3dfv7h4nq45vphxcout4mbo3m5ju/lib:/cluster/apps/gcc-6.3.0/libpng-1.6.27-7vevbsio2diw5xquq7oxg7fphkppf2kx/lib:/cluster/apps/gcc-6.3.0/jpeg-9b-742nyforj7mfuhcfzbsbqjlmiya2wi5e/lib:/cluster/apps/gcc-6.3.0/cudnn-7.6.4-45t3bf3foruki6ijeylccnqwph5zdbe2/lib64:/cluster/apps/gcc-6.3.0/cuda-10.1.243-n6qg6z5js3zfnhp2cfg5yjccej636czm/extras/CUPTI/lib64:/cluster/apps/gcc-6.3.0/cuda-10.1.243-n6qg6z5js3zfnhp2cfg5yjccej636czm/lib64:/cluster/apps/gcc-6.3.0/openblas-0.2.19-jusdys62qhv52qjbsoewvthriekuaynw/lib:/cluster/apps/python/3.7.4_gpu_gcc630/x86_64/lib64/python3.7/site-packages/torch/lib:/cluster/apps/python/3.7.4_gpu_gcc630/x86_64/lib64:/cluster/apps/python/3.7.4_cpu_gcc630/x86_64/lib64:/cluster/spack/apps/linux-centos7-x86_64/gcc-4.8.5/gcc-6.3.0-d7fey5ouwb3cw26w5zqafqcse7q3fs6d/lib64:/cluster/spack/apps/linux-centos7-x86_64/gcc-4.8.5/gcc-6.3.0-d7fey5ouwb3cw26w5zqafqcse7q3fs6d/lib
2021-02-21 00:37:03.250371: W tensorflow/stream_executor/platform/default/dso_loader.cc:55] Could not load dynamic library 'libcusolver.so.10.0'; dlerror: libcusolver.so.10.0: cannot open shared object file: No such file or directory; LD_LIBRARY_PATH: /cluster/apps/lsf/10.1/linux3.10-glibc2.17-x86_64/lib:/cluster/apps/gcc-6.3.0/nccl-2.4.8-1-2tfa3dfv7h4nq45vphxcout4mbo3m5ju/lib:/cluster/apps/gcc-6.3.0/libpng-1.6.27-7vevbsio2diw5xquq7oxg7fphkppf2kx/lib:/cluster/apps/gcc-6.3.0/jpeg-9b-742nyforj7mfuhcfzbsbqjlmiya2wi5e/lib:/cluster/apps/gcc-6.3.0/cudnn-7.6.4-45t3bf3foruki6ijeylccnqwph5zdbe2/lib64:/cluster/apps/gcc-6.3.0/cuda-10.1.243-n6qg6z5js3zfnhp2cfg5yjccej636czm/extras/CUPTI/lib64:/cluster/apps/gcc-6.3.0/cuda-10.1.243-n6qg6z5js3zfnhp2cfg5yjccej636czm/lib64:/cluster/apps/gcc-6.3.0/openblas-0.2.19-jusdys62qhv52qjbsoewvthriekuaynw/lib:/cluster/apps/python/3.7.4_gpu_gcc630/x86_64/lib64/python3.7/site-packages/torch/lib:/cluster/apps/python/3.7.4_gpu_gcc630/x86_64/lib64:/cluster/apps/python/3.7.4_cpu_gcc630/x86_64/lib64:/cluster/spack/apps/linux-centos7-x86_64/gcc-4.8.5/gcc-6.3.0-d7fey5ouwb3cw26w5zqafqcse7q3fs6d/lib64:/cluster/spack/apps/linux-centos7-x86_64/gcc-4.8.5/gcc-6.3.0-d7fey5ouwb3cw26w5zqafqcse7q3fs6d/lib
2021-02-21 00:37:03.250624: W tensorflow/stream_executor/platform/default/dso_loader.cc:55] Could not load dynamic library 'libcusparse.so.10.0'; dlerror: libcusparse.so.10.0: cannot open shared object file: No such file or directory; LD_LIBRARY_PATH: /cluster/apps/lsf/10.1/linux3.10-glibc2.17-x86_64/lib:/cluster/apps/gcc-6.3.0/nccl-2.4.8-1-2tfa3dfv7h4nq45vphxcout4mbo3m5ju/lib:/cluster/apps/gcc-6.3.0/libpng-1.6.27-7vevbsio2diw5xquq7oxg7fphkppf2kx/lib:/cluster/apps/gcc-6.3.0/jpeg-9b-742nyforj7mfuhcfzbsbqjlmiya2wi5e/lib:/cluster/apps/gcc-6.3.0/cudnn-7.6.4-45t3bf3foruki6ijeylccnqwph5zdbe2/lib64:/cluster/apps/gcc-6.3.0/cuda-10.1.243-n6qg6z5js3zfnhp2cfg5yjccej636czm/extras/CUPTI/lib64:/cluster/apps/gcc-6.3.0/cuda-10.1.243-n6qg6z5js3zfnhp2cfg5yjccej636czm/lib64:/cluster/apps/gcc-6.3.0/openblas-0.2.19-jusdys62qhv52qjbsoewvthriekuaynw/lib:/cluster/apps/python/3.7.4_gpu_gcc630/x86_64/lib64/python3.7/site-packages/torch/lib:/cluster/apps/python/3.7.4_gpu_gcc630/x86_64/lib64:/cluster/apps/python/3.7.4_cpu_gcc630/x86_64/lib64:/cluster/spack/apps/linux-centos7-x86_64/gcc-4.8.5/gcc-6.3.0-d7fey5ouwb3cw26w5zqafqcse7q3fs6d/lib64:/cluster/spack/apps/linux-centos7-x86_64/gcc-4.8.5/gcc-6.3.0-d7fey5ouwb3cw26w5zqafqcse7q3fs6d/lib
2021-02-21 00:37:03.261339: I tensorflow/stream_executor/platform/default/dso_loader.cc:44] Successfully opened dynamic library libcudnn.so.7
2021-02-21 00:37:03.261375: W tensorflow/core/common_runtime/gpu/gpu_device.cc:1641] Cannot dlopen some GPU libraries. Please make sure the missing libraries mentioned above are installed properly if you would like to use GPU. Follow the guide at https://www.tensorflow.org/install/gpu for how to download and setup the required libraries for your platform.
Skipping registering GPU devices...
2021-02-21 00:37:03.261419: I tensorflow/core/common_runtime/gpu/gpu_device.cc:1159] Device interconnect StreamExecutor with strength 1 edge matrix:
2021-02-21 00:37:03.261437: I tensorflow/core/common_runtime/gpu/gpu_device.cc:1165]      0 
2021-02-21 00:37:03.261454: I tensorflow/core/common_runtime/gpu/gpu_device.cc:1178] 0:   N 
Running from 6560 to 6570
Loading checkpoint checkpoint/NZ_Parliament_QA/model-1800
First generated output Question           [Question]: I am on the right bill, am I not? ...
Labour-answer      [Question]: I am on the right bill, am I not? ...
National-answer    [Question]: I am on the right bill, am I not? ...
Name: 6560, dtype: object
