question;party;answer
Can the Prime Minister advise what role, the Government's economic growth policy plays in enhancing social cohesion?;Labour;The Government's economic policy plays a very important role in strengthening social cohesion in New Zealand. The Government has in place a business growth strategy, which will be reflected in the business surveys, and this will be reflected in the Government's economic policy. The Government’s economic policy will be reflected in the business surveys. The Government’s economic policy plays a very important role in strengthening social cohesion in New Zealand. The Government’s economic policy is the key driver of the Government’
Can the Prime Minister advise what role, the Government's economic growth policy plays in enhancing social cohesion?;National;"That is a very good question. It is a question that I have had when I have tried to answer it.<|endoftext|>

"
Was this Labour Government legislation or was it not?;Labour;I am not sure about that statement. It is the National Government. It is quite possible that that was the legislation that was passed in the House of Representatives. It is not certain if that was the House of Representatives. It has been there since, and I am not sure about the Government's intention. I am not sure whether it was the House of Representatives or the National Government, but I am sure that it was in the hands of the National Government just as it is now in the hands of
Was this Labour Government legislation or was it not?;National;"Labour's bill was introduced in December.<|endoftext|>

"
What progress has been made with fines collections since the Department for Courts was established?;Labour;Since the Department for Courts was established, fines has been collected, and we have collected a total of $13 million for summonses in the past 2 years. This has been collected by the department since 1997. It is estimated that fines will be collected by the end of the year. In the current year fines are estimated to be collected to be $1,649 million. That is an increase of $25 million over the previous year, and that is a significant increase. It is estimated that fines
What progress has been made with fines collections since the Department for Courts was established?;National;The Minister of Justice makes it clear that the department continues to make progress in dealing with both fines and court costs. The most significant improvements in fines are the efforts of the Department of Corrections to comply with the new system of fines collection. In the last year, the number of fines issued was up by 11 percent and in the year to March this year the number was up by 14 percent, and this year in cases where fines were issued the number of fine suspensions was down by 7 in the same period
What other humanitarian aid has been provided under the official development assistance programme so far this year?;Labour;It is good to see the Minister in my office today, and also receive the welcome news that the year will end on a positive note. It is encouraging to see the confidence in the Minister of Social Welfare and the confidence in the Government in a positive and positive way. I have also received reports of the high level of funding in the Budget, for the Ministry of Social Development, and the incredible amount of money that is being spent on the Ministry of Social Development. It is great to see that the
What other humanitarian aid has been provided under the official development assistance programme so far this year?;National;About $26 million. It is not a huge amount of money, but it is a good start. I thought it was a good start, but I thought that when I was travelling around the country I would have had to get a bus. I thought I would have to get a bus after half an hour-and it is not good to have to get a bus after half an hour. I thought I would have to go all the way to the airport or the nearest train station in the centre
How many days has the member spent in Opposition now?;Labour;I am not in the House, but I am here to tell you that the member for Tuakau has gone from the Opposition, and the member for Selwyn has gone from the Opposition. The member for Northern Maori, the member for Whangarei, and the member for Selwyn have all gone from the Opposition, and the member for Whangarei has gone from the Opposition. Members of the Opposition have, all gone from the Opposition. The member for Te Tai Toker
How many days has the member spent in Opposition now?;National;I spent about an hour-that is how much the member for Selwyn came in for. He came in for about an hour. That is the extent of that time-and he is now facing the question of which of his colleagues he has been with. He was with the National Party, then he was with the Alliance, then he was with the Alliance, then he was with the Labour Party, then he was with the Alliance, then he was with the Alliance, then he was with the
How many fulltime, equivalent student places that will be funded in 1995?;Labour;The numbers are about 75,000. That is the number to which I refer. The Government is saying that it wants to give $1.5 million to the education sector in the first year of this session, but the Opposition says that it wants to give $11 million. But the member for South Auckland says that it was a waste of $11 million. That is not the substance of the debate. He is not saying that he is going to give it to the education sector. He is
How many fulltime, equivalent student places that will be funded in 1995?;National;"Since the late 1980s there have been a total of 1130 fulltime, equivalent student places. This represents a reduction of about 21 percent in the number of fulltime, equivalent student positions. The number of fulltime, equivalent student places currently available to New Zealanders has been a total of 1327. In 1995, there will be a total of 1261 fulltime, equivalent student positions.<|endoftext|>

"
How will the new non-emergency number work?;Labour;"I will not speculate on that, but I do want to make it clear that the new number will be administered by the Department of Labour and will not be a direct line for the Department of Labour. It will be part of the department's system of reporting, and it will be used to handle the bulk of the routine work that is done. The number will be used for the purposes of reporting.<|endoftext|>

"
How will the new non-emergency number work?;National;The new non-emergency number will be used by staff of the Ministry of Health and the Primary Health Care Trust, and by the New Zealand Health Improvement Trust. It will be used for urgent matters such as providing information to primary health care providers, and it will be used to deal with urgent emergencies. If an emergency occurs, the number will be used to contact emergency services, and then if the situation is not urgent, it will be used to contact the local fire service. The number will also
What specifically caused the Prime Minister to lose confidence in Meka Whaitiri?;Labour;It was a clear indication of the problem that the Minister of Finance, at the time, was not able to come up with a solution. I quote from the news media the statement of the National Party spokesman on finance, who said, in the words of the media
What specifically caused the Prime Minister to lose confidence in Meka Whaitiri?;National;As I said last week, I think it was really the Minister of Finance acting as a minister. She was ridiculous, and she was acting as a minister. I wanted to ask her what exactly she was acting as a Minister, and why did she get to the point of having her Minister of Finance sacked? That is a very, very disgraceful act. I think we can see where this week's headline, was the Reserve Bank of New Zealand statement on the Prime Minister’s statement on
Is the member raising a point of order?;Labour;We are talking about a matter that is of some considerable concern to many people, and it was raised in the course of debate. It has been raised repeatedly. It is part of a range of issues that is on the agenda of many members of the House, and a member of the House who is not being entirely forthright is asking the member to make a decision and to give some detailed explanation. The member for North Shore has made it clear that he has been approached by many people, and that
Is the member raising a point of order?;National;It is a very important point. The member for Papatoetoe is under urgency, and he will not be able to get to his feet before the end of the week to give a very clear and concise, and, honestly, convincing, case for why he or she should vote against the Bill. The member for Tamaki is under urgency, and I believe that he will not be able to provide any satisfactory reply to that question. It is the very point I have been making. He is
How will this ongoing growth affect the inflation outlook?;Labour;The inflation outlook is looking positive, and the agriculture sector is seeing a very positive year. It is a very good year for New Zealand agriculture, and I say to the member for Bay of Islands that it is a very good year for New Zealand agriculture. It is a very good year for New Zealand agriculture, and I say to the member for Bay of Islands that it is a very good year for New Zealand agriculture. I say to the member for Nelson that it is a very good year for New
How will this ongoing growth affect the inflation outlook?;National;The growth in the average wage, as measured by the latest official report, is expected to be about the same as it was in November, and to remain the same as it is in January. The Government has decided that it will be prudent to continue to allow that growth to continue, in order to maintain the flexibility of the economy. That is what the Government has decided. It is not selling the economy, and the Government is not selling the public. The Government has decided that it will need to
