question;party;answer
How many jobs does the member need?;Labour;To support the minister's assertion that the number of jobs that the member needs actually is up by 2.5, he needs to read the latest figures published by the New Zealand Institute of Economic Research. That will tell him what is happening. The numbers are up by a very substantial 1.1 percent, and I think that is the most important one. That is the number of jobs that the member needs to support. If he is going to support the Minister, he needs to read the figures.<
How many jobs does the member need?;National;The member for Tarawera is actually asking a very good question, but I think that he is asking it too much. The member has asked a very good question. It is very important for the country that members of Parliament do not have to wait for their future to see how they are going to perform. The member for Pahiatua has been a member of Parliament for only 5 months. He was a member of Parliament for 5 months. The member for St. Kilda has been a
What has been the Government's response to the latest nuclear test which was conducted yesterday by China?;Labour;"The latest nuclear test in China is well under way, and I am pleased to report that the Chinese have indicated that they have been making good progress and are expected to be ready for the first test of a new type of nuclear device in the year 2000.<|endoftext|>

"
What has been the Government's response to the latest nuclear test which was conducted yesterday by China?;National;The latest test by China has been very successful. It was conducted in the eastern part of the country. It was conducted in a medium-range range and dropped approximately a kilometre long. It was at that range where the test was likely to have been conducted. The test was conducted in daylight, which was obviously not the result of a successful test, and the test was carried out in full daylight. The test was carried out in a confined area where training could be carried out, and the training
But are you going to vote for it?;Labour;"It is a very good Bill. It gives the Minister of Health the flexibility to support the bill by amendment, and to allow an extension of time for submissions. It is a very good Bill.<|endoftext|>

"
But are you going to vote for it?;National;"I have to say that it has got a little bit more than a little bit more, in terms of its substance. It is a measure of what is going on in terms of the Government’s policy.<|endoftext|>

"
Is New Zealand still a signatory to the 1951 United Nations Convention on the Status of Refugees?;Labour;New Zealand is a signatory to the 1951 United Nations Convention on the Status of Refugees. I thank the member for Tamaki for his contribution in this area, and I thank the member for Tauranga for his contribution in that area. I also thank the member for Napier for his contribution in this area. I have talked to the member for Napier, and I think that his words and his views are very useful. I think he is right, and I hope that the member for T
Is New Zealand still a signatory to the 1951 United Nations Convention on the Status of Refugees?;National;I am not aware of that. I was not aware of the convention until I was asked to comment on it in the House of Representatives a few years ago. Once I had one item on my mind, but it was not until I heard the member for Maramarua say that the convention was not a signed convention. That was the last thing that I wanted to hear that member say. He said that the convention was not a signed convention. That was the last thing that I wanted to hear in
Are you raising a point of order?;Labour;"I have just raised one of the technicalities in the bill, and I am not sure whether it is legal to raise another one.<|endoftext|>

"
Are you raising a point of order?;National;You raised a point of order. It was raised by the Hon Trevor Mallard, who has just resumed his seat in the Chamber. The point is that the Hon Trevor Mallard raises the point of order again, and I am not sure whether he is aware that the Minister of Transport has told the House that the Government is considering giving the ``Kiwi'' car to the driver of the ``Kiwi'' car, who is the registered owner of the car? The Government is considering giving
When will the people of the Hutt Valley area see the benefits of this necessary and important investment?;Labour;I make it very clear that the investment we are putting in the Hutt Valley will be a long-term investment, and I do not believe that any Government in this country should waste the time of the people of the Hutt Valley with such a short-term investment. I think that there is an enormous amount of potential for the Hutt Valley, but I think it is time we got to work and invested in the area. The Hutt Valley has a great capacity for accident prevention, and
When will the people of the Hutt Valley area see the benefits of this necessary and important investment?;National;The additional money will see the introduction of a new rail link that will allow people in the Hutt Valley area to travel to Wellington, to Christchurch, and to the Northern Hemisphere. It will bring New Zealand closer to the rest of the world. The Government is investing $3.5 million for this new rail link. I think it will be very interesting to see the beneficiaries of this investment. I think that is the kind of people that we need as a country. I think we need to
What benefits have New Zealand consumers received from the deregulated telecommunications environment in this country?;Labour;"I absolutely agree that there has been a very positive change for the better, and that this will be an ongoing contribution to benefit New Zealanders. I would like to emphasise the point I have made before that is the importance of the reform of the telecommunications industry, this is important for New Zealanders.<|endoftext|>

"
What benefits have New Zealand consumers received from the deregulated telecommunications environment in this country?;National;It is a very good example. In the time since the Telecommunications Act was introduced, the average cost of telecommunications in New Zealand has dropped by 3.7 percent. It is far more than that. New Zealanders are getting the benefits, not the costs. The main benefit of the telecommunications industry in New Zealand is the fact that it is responsible for the cost of telecommunications, and that it is providing a reasonably competitive environment in which to operate. There is also an excellent specialisation that is occurring,
How is the Government supporting small businesses to be innovators?;Labour;The Government has been working hard to promote innovation. Last year the Innovation Week programme was launched, where hundreds of New Zealanders went to universities and colleges to develop and demonstrate their innovative thinking. The Government's focus is on the economy. Innovation has been an important part of our economy since the early 1980s, and the Government is continuing to encourage innovation. New Zealand is looking at the businesses of the future and making it easier for small businesses to grow. This year the Government has added $10 million
How is the Government supporting small businesses to be innovators?;National;My colleague the Hon Phil Goff is pointing out that there are fewer than 500 small companies being represented on this National Business Roundtable team. We are working hard to increase that number to 1,000. Even though it is small, we will not be including every small company in this roundtable. The National Business Roundtable team will be working on innovative ways to grow our economy. It is important that we give our young people the confidence to start their business and jobs and to start their careers. The
That doesn’t say much about men, does it?;Labour;I think that the member’s question is very good. I would like to leave the member with a question, but I would like to have some say in this debate about the way in which this piece of legislation will be interpreted. I think that the interpretation of the title of the bill is very important. This is a piece of legislation that has been drafted by a select committee. So I think it would be useful if the select committee could hear some submissions about the title and the wording of
That doesn’t say much about men, does it?;National;I’m just getting a bit annoyed with the member for Christchurch North, who is getting a little bit annoyed with his own Party. I think the member for Christchurch North is doing something wrong in that his Government does not want to look after the needs of the rural community. I think it is important that we have a rural Parliament. I think it is necessary. I think it is important that we look at the rural community. I do not think that is what the National Party should
Will the Minister support the review panel’s report?;Labour;I support the panel’s report. It was prepared by the department’s management and I think it’s an excellent set of things that we’ve done. I think the panel is a good example of how the Department of Conservation has been involved in this area, because, I think what we’re doing is a very good model for how to do it. It’s not a perfect model, but the idea is, it has been really good.
Will the Minister support the review panel’s report?;National;The review panel has reviewed the actions of the police and the criminal justice system in New Zealand. The review panel has found that the service has not taken sufficiently seriously the issue of violence against women in New Zealand, and has recommended further work to improve the way in which the police deal with the issue. The review panel has recommended that the police meet a new goal of having 100 police officers in New Zealand in 2004. To achieve the target of 100 police officers by 2004, the police will need to increase
