question;party;answer
With regard to the alcohol comment?;Labour;I think we have to look at the point of amendment. There is no point in making any further comment on that other than to say the whole issue has been thoroughly sorted out. I just want to point out to the members of the House that the Crown Law Office is now a Crown law office. That is the reality of that. The associate is now the chief of the Crown Law Office. That is one example, which is why I have spoken in this House to the point of amendment, and
With regard to the alcohol comment?;National;I think that the member that I am referring to may have misunderstood the question. I was sometimes in Auckland last week to see the police stand off the road to stop the vehicles that were being driven by drunk drivers. The last time I saw that was in the last 10 years, and I have seen it again. I believe that the members should have read the answer to the previous question because the Cabinet document that I have read states that all traffic-related offences were dealt with in the most effective,
Is the Prime Minister’s position that the three-strikes repeal law is not off the table for all time?;Labour;"I can assure the member that it is not. But he is suggesting that it is not off the table and he is not prepared to tell us that it is not at all. I am not going to go down that road. The member who has just resumed his seat, the member for Tokelau, deserves a standing ovation.<|endoftext|>

"
Is the Prime Minister’s position that the three-strikes repeal law is not off the table for all time?;National;"The Prime Minister is saying that the legislation is not off the table. What she is doing is putting it on the table so that the Court of Appeal can consider it, and so that the member for Maramarua can consider it, because the Government has decided that it wants to proceed with the legislation.<|endoftext|>

"
Why was the Homestart scheme introduced, and when were difficulties first apparent?;Labour;Its introduction was in 1993. It was not until late 1996 that the administrator of the scheme decided to begin the development of a national target. This is when the programme began to achieve its objectives. It was not until that time that the scheme was fully operationalised. It is not surprising that the scheme is now under a fresh financial crisis. A number of schemes have been established to assist low-income families since the mid-1990s. The scheme has been well managed, and the programme has been
Why was the Homestart scheme introduced, and when were difficulties first apparent?;National;The Homestart scheme was introduced in the 1990s. The scheme's success was based on the recommendations of the Homestart Allowance Advisory Committee and the Homestart Allowance Study Group. The scheme was successful because it was working, and had a positive effect on the number of families which received the award. The scheme was a very good one and the families received a substantial increase in the number of families who benefited from it. The annual average benefit for a family in Hauraki,
Why was the senior statesman in the House, the member for Tamaki, not called?;Labour;She was sitting in the gallery. She is the deputy spokesman on international affairs, and she was not in the gallery. She was not there, not with the minister. She was in the gallery when we went through the Minister of External Relations and Trade’s statement on the Bill. She even had the papers in her hands, and she is quite happy to let that slip out. She is a bit disappointed in the comments made by Mr Peters, who made quite a public and quite a condesc
Why was the senior statesman in the House, the member for Tamaki, not called?;National;"As a consequence of the fact that he is to be appointed the assistant speaker, I am calling him the member for Tamaki. The member for Tamaki is to be the member for Tamaki. He is to be the member for Tamaki. He is to be the member for Tamaki.<|endoftext|>

"
Can I just clarify-is the member disputing a ruling I have just given? Because if so,;Labour;I have just been told that the member is lying. But I must ask the member whether she has read the ruling. I have read the ruling, and I am not aware that she has read it. I am telling her that it is in writing in the law. I am not aware that she has read it. I am telling her that it is in writing. That is the kind of put-down that we have. It is a little bit like the member for Auckland Central who has taken
Can I just clarify-is the member disputing a ruling I have just given? Because if so,;National;I am asking you to allow me to question the member for Tauranga, Mr Revell, who is asking a very interesting question. I ask you to allow me to occasionally make a contribution to this debate, and I do appreciate that, but I do not think that is an appropriate use of time. It was not a debate and it is not a decision that I am making. I have said that I am running a campaign, and I have been running a campaign for some time. I
What will the Government do to increase employment?;Labour;The Government has taken action to renew the New Zealand Standard and New Zealand Standard Time industries. Many more skilled New Zealanders are being drawn to New Zealand from overseas. The Government has taken no action to ensure that employers can share the success of their companies with their employees. The Government has not taken any action to increase productivity. The Government has taken no action to ensure that New Zealanders can manage their finances in a sustainable way. The Government has taken no action to ensure that New Zealanders can use
What will the Government do to increase employment?;National;"The Government’s employment programme is designed to increase employment in the short term by enabling more people to work, and to slow down the increase in the number of people in work over the longer term by supporting more people to get more work. The Government has implemented a range of productivity improvements, including a $13 million programme for the training of people to help them achieve a higher standard of employment.<|endoftext|>

"
What is the extent of benefit fraud in recent years, and is this calculated differently from other benefit overpayments?;Labour;Fraud has been a serious issue in this country for some time. The fraud and abuse of the benefit system has been going on for some time. The Department of Social Welfare has been investigating the problem over a period of some months. The Department of Social Welfare, which is the department responsible for the fraud, has been saying that it has found only a handful of cases of abuse. The Department of Social Welfare has been making that statement in the past. However, there is a growing problem of abuse in
What is the extent of benefit fraud in recent years, and is this calculated differently from other benefit overpayments?;National;The figures are very small, because there are no breakdowns of the number of beneficiaries who have been fraudulently charged. That is probably the most important detail. The number of beneficiary fraud charges has been a matter of concern for many years, as the numbers are now well under 35,000. This is why the Government has been very concerned about the number of fraudulent charges recently. It also means that the number of beneficiaries who have been given false benefit numbers during the course of the benefit fraud charges
Is it a personal explanation or a point of order?;Labour;"He is a very good one. He has just asked you not to oppose the bill, and I am happy to give you the confidence we are all asking for.<|endoftext|>

"
Is it a personal explanation or a point of order?;National;"I am referring to the member's question.<|endoftext|>

"
Did you just hear the interjection from the member?;Labour;I did not hear the member say that, I just heard the member say, that he was talking about his colleague. That is what the member said, and we agree that that is what the member said. I do not know whether that was the intention, and I suggest that he be responsible for the comments he made, because it is the second time he has said that he is not responsible for what he has said. I say that if the member can speak to the member for Selwyn,
Did you just hear the interjection from the member?;National;"I think that was a waste of time.<|endoftext|>

"
What's the member's attendance like?;Labour;I have been out of this House for 6 years and it is time I got the chance to contribute to the debate on this very important bill. I want to say, that it is interesting to hear the comments made by the National member for Selwyn. He is the spokesperson on finance. I have to say that the National member for Selwyn is completely right, because the honesty of the National members is an important attribute in this House. The National members were asked a question. It is one that
What's the member's attendance like?;National;"The member is where he is because I am here. He is not here, he is not in the House.<|endoftext|>

"
