question;party;answer
Did the Minister fail to get treatment of dairy products into the Indonesian package?;Labour;I did not know that the Government had decided that it would send dairy products to Indonesia, and that the dairy industry, which is the biggest employer in Indonesia, would be the best target for the dairy industry in terms of the number of dairymen who were sent to Indonesia. I think that is really disappointing. I think that we have got the wrong answer. I think that is a really good one. We have got the wrong answer, because the person who has been asked the question asked why he
Did the Minister fail to get treatment of dairy products into the Indonesian package?;National;I first learned of the milk crisis when the press of the dairy industry was up and down the country. The milk industry is one of the most important industries in the world. The milk industry is one of the richest in the world, and it is important to New Zealand. It is the single most important industry in the world. Dairy farmers tend to be small, and their income is pretty remote from the average New Zealander, so they are likely to be well off. There is no question that
Will any institution-imposed fee mean that students will pay more for tertiary education?;Labour;The Government has turned the tables on the student sector by introducing a fee of up to $600 per year. Students will pay up to $600 extra for a degree in education. That is reasonable, and it is a fair move to take the student sector from the sector in which there was an almost constant turnover of students. The student sector is not as well managed as it was when we were in Government. The Government has put in place a system that will allow those students who are already enrolled to
Will any institution-imposed fee mean that students will pay more for tertiary education?;National;"I am talking about the first year, not about the term.<|endoftext|>

"
What proportion of all places available on the training opportunities programme nationwide has been filled?;Labour;"The total number of places available on the training opportunities programme in New Zealand is now about 2 percent.<|endoftext|>

"
What proportion of all places available on the training opportunities programme nationwide has been filled?;National;The number of places on the training opportunities programme has been filled in 2009-10, as shown by the figures we have supplied to the Department of Labour. There is no doubt that more than 1,400 people have taken up the offer of training. of those, 1,500 are in the skilled trades and trades, and are employed in industries such as health and conservation, and they pay a very small proportion of the wage as a result of their work. There is no doubt that there are many
What's this got to do with the bill?;Labour;The bill amends the Land Registration Act 1977. it is being reported back today, in a form that is still the subject of an ongoing review by the Land Registration Office. It is a relatively small piece of legislation, and I suggest that the House adjourn for a few moments. I would like to thank the select committee and the member for Auckland Central, for their work on the bill, and the previous speaker for his contribution. he has been criticised in the House for not spending as much time on
What's this got to do with the bill?;National;I think the member is confused about what the bill actually does. The bill is about a requirement that a bank must report on its annual and quarterly statements to the public, The member is saying that the bill is about a requirement that a bank must report to the public. I think the member has got a misunderstanding of what the bill actually provides for, or what it does not require in terms of the banking industry. Regardless of how you look at it, that is totally negative.<|endoftext
Are any major announcements relating to the ``workfare'' scheme or other schemes pending?;Labour;"A number of programmes have been announced and will be announced at the next election. I have been working with my colleagues to secure key support for the Government's predicated workfare policy, which I have outlined in the House today.<|endoftext|>

"
Are any major announcements relating to the ``workfare'' scheme or other schemes pending?;National;"I seek leave to table the latest news reports and to indicate the current number of work-related injuries in New Zealand, as reported by the Ministry of Social Development, which lists work-related injuries both in New Zealand and overseas. This will also indicate to the House what the current number of work-related injuries in New Zealand is.<|endoftext|>

"
Is the Government indicating that it will take the first reading, of those three Bills and then proceed to other business?;Labour;"it is a good sign. The Government is suggesting the introduction of another Bill. I wonder whether the member for Dunedin North has had a look at the Bill introduced today. He knows the name and the title and the title of it. I think it is a good example. He has not had a look at it. It is quite a different matter from the one the Minister is suggesting.<|endoftext|>

"
Is the Government indicating that it will take the first reading, of those three Bills and then proceed to other business?;National;"The Opposition does not want to see a repetition of the situation of the last few days, as we have seen in the House. The select committee process means that the views of the Opposition are factored into the National Party's thinking. It is not the Government's decision to take the first reading of the Bill, but that is not necessarily the case.<|endoftext|>

"
Do you think farmers will be better off?;Labour;"I think it will be better for them in the longer term. the Labour-Alliance Government in its 1983 Budget was asked to balance the books. It did not balance the books. It cut spending from the Government by $200 million.<|endoftext|>

"
Do you think farmers will be better off?;National;They will be better off. They have been at the bottom of the heap for some years and they are getting a little bit better. Those who earn $5,000 or $10,000 a year will be better off. The Government is encouraging them to look at their options. The Government is going to give them a choice. That is why they are getting out of poverty. That is why they are getting out of the mines, the forestry, and the places they have been in. The
Did the Minister obtain some advice on them?;Labour;"Yes, I received advice from the Minister of Finance about them.<|endoftext|>

"
Did the Minister obtain some advice on them?;National;"I did not. The member who asked the question asked for the exemption of the Department of Conservation from the Local Government Act. I will give the member the benefit of her own experience and say that it is not as bad as the member for Auckland Central thought. If the member had been a member of the National Party she would not have been the Minister of Local Government. He is entitled to his opinion.<|endoftext|>

"
What about the Business Roundtable?;Labour;All the business roundtable stuff is done by the Business Roundtable. The member’s desire to bring this legislation to the House is to get the Business Roundtable to agree in good faith with the Government. The amendments to the Bill made by the previous speaker will see that happening. I think it is important that the House debate the Bill in its entirety and that the next speaker is not dropped in with a competence issue. I think it is appropriate that we debate the Bill in its entirety.
What about the Business Roundtable?;National;At least we have a Labour member of Parliament who is prepared to make a contribution when the House is sitting. I think that is a very good thing, and it is full of good points. I congratulate the member on her inclusion in the list. She is a very good member of Parliament. I have and I think I will continue to have her support in the House. I will not take anything away from the member for Tarawera, who is a very good member. I think she is
How will printing more money help?;Labour;The Government’s plan to put more money into the economy will help the economy, but it is not enough. Over the past few months the economy has been in good shape. we had a good start, and we are now looking forward to improving our economic performance in the future. More money will not do much. It will not help the economy. More money will not help the economy. It will not help the economy. More money will not help the economy. That is why we need
How will printing more money help?;National;"I think it will help the economy, but I do not know of any particular benefits. I do not know of any particular benefits. I think it is a great idea to print more money. I think it will help, but I do not know of any particular benefit.<|endoftext|>

"
