question;party;answer
What initiatives will be undertaken to deal with the major problems of alcohol and speed?;Labour;"The Minister of Transport has been looking at some of the issues around alcohol-impaired driving and the seat-belt ban. I put it down on record, because it is a matter of serious public safety.<|endoftext|>

"
What initiatives will be undertaken to deal with the major problems of alcohol and speed?;National;"I can only assume that the Minister of Transport will want to address the issue in a new bill that will be introduced on 1 July.<|endoftext|>

"
Is there any impact on the provision of services in the hospital and health services after the deadline of 30 June?;Labour;The last time that I was here I asked the Minister why it is not longer an issue. I was told that it is an issue that I have to sort out and that it is an issue of public interest. The Minister then said that it would not affect the booking system. It is not an issue of public interest. I am told that it is an issue of public interest because it is a matter that the Minister has to sort out. The Minister then said that it was a matter that the
Is there any impact on the provision of services in the hospital and health services after the deadline of 30 June?;National;"I suggest the question not be put.<|endoftext|>

"
Is the member moving in that way?;Labour;The member is keeping his foot on the pedal. I have to make two points. The first of them relates to the original question. The second relates to the wording that has been used in the House. It is very important that we keep in mind that the member for Auckland Central is a member of Parliament from the ACT Party, and his party has no intention of standing in this House in the future. I make a couple of points to become clear. it is important that we do not get an
Is the member moving in that way?;National;I have not moved that way. I think that the member is on the point of the member for Auckland Central, who is talking about a Government that is bringing forward the abolition of the standing army. I shall put that matter to rest by a few words that will be included in the report that shows what the Government is doing. I shall quote to the member for Auckland Central the facts, the figures, and the figures that the National Government undertook in the Budget debate. The member for Auckland Central has
Does it allow the Fire Service Commission to mortgage the Wainuiomata Fire Station?;Labour;"Does the Fire Service Commission have a mortgage that allows it to mortgage the Wainuiomata fire station?<|endoftext|>

"
Does it allow the Fire Service Commission to mortgage the Wainuiomata Fire Station?;National;some of the items that were dealt with in the bill will be transferred to the commission. Some of the issues that were dealt with in the bill are that of which concern the public interest, such as the use of a section of the Fire Service Commission. The public interest is the most important issue, the second most important issue, and the third most important issue. The new powers will be transferred to the commission and will apply to the entire New Zealand Fire Service. The Fire Service Commission will be managed
What is the Government doing to support the development of the fashion, textiles, clothing and footwear industries?;Labour;That is an interesting question. I will give the member an example from the clothing industry. If one looks at the industry, one sees that there is a clear division between the hairdressers, who are in the middle, and the garment industry-the hairdresser. The hairdressers are in the middle, and the garment industry is at the bottom. It is a very important division in the industry, and it is vital to the development of the industry. The industry is
What is the Government doing to support the development of the fashion, textiles, clothing and footwear industries?;National;There are a number of initiatives in the sector. The Government, is investing more in the industry than it has in the past, and now is looking to provide a range of benefits to support the industry. New Zealand has a strong reputation for working hard in the fashion and clothing industries. It is cheaper than overseas markets, it is easier to operate, and it is more competitive. The Government is also investing more in the area of apparel, and I want to highlight that in this year alone. the
We're not starting a ping-pong match are we?;Labour;I think we are very disappointed that that was not the case in the Committee stage. The member for Selwyn and the member for Dunedin West make a good start, I am happy to support their views. I think that one of the nice thing about this legislation is that it is not a terribly technical legislation, and it is not a very interesting part of the bill. I think that if members do not know what the technical part of the bill is, then they should come to a select committee
We're not starting a ping-pong match are we?;National;"The member is misinterpreting it as if we are not starting a ping-pong match. The member is misinterpreting it as if we are not starting a ping-pong match. the member is misinterpreting it as if we are not starting a ping-pong match.<|endoftext|>

"
What about the personal guarantees?;Labour;"That was the second point. the Government has committed to the Member for Tarawera to continue the work that has been done in the area of financial assistance, and that will continue in the future.<|endoftext|>

"
What about the personal guarantees?;National;There are a number of people who are worried about who will be paid by the council, whether they will be paid by the council, and what will happen to them. There is a risk that people will be paid by the council or, by the council’s reserve fund, or by the council’s business pool, and that will be an option to consider. I do not have any particular concern with this Bill, but Ms Shuker and others have been talking about it a
is the point of having a standard?;Labour;I am sorry that you have to ask a question. There are a number of points I want to make. The point of having a standard is to ensure that we have a very clear picture of what is being discussed, and it is to ensure that the Minister of Transport can make a contribution to the debate in his statements. I think it is very important that the Speaker can make a contribution, and we have a clear picture of what is being considered. On the subject of the issue of the new
is the point of having a standard?;National;I think that a standard is the best way of saying to the public of New Zealand that something is wrong, or that something is missing. That is the way the National Government has been operating, that is the way it has been running the economy, and it is not good. That is why this Government is about to go through a series of steps. Did the Minister hear about a referendum on the issue of the $500 million that was involved, or did he just tell his colleagues that it was
So who’s going to enforce it in a primary school?;Labour;In the case of the Māori Party, the Government has put out a press statement saying that it is a Labour Party policy, and that it is a Labour Party bill. That is very misleading. I think the members of the National Party are also going to be confused to find out why we are not enforcing it. I think it is a shame that we are not enforcing it in this country. I say to my colleague that the main reason why we are not enforcing it is to avoid having
So who’s going to enforce it in a primary school?;National;"The Department of Education has been the primary beneficiary in the reform of the curriculum, and I am pleased that it has been able to do so. The State Services Commission has been a very visible beneficiary in the work-up.<|endoftext|>

"
Is that more or less than the normal early repayments?;Labour;That's a fair amount, Less than normal. I am advised that Labor has in its hand the Government's second reading statement on the issue of the payment of a contribution on top of the amount already paid. So it is a fair amount. The fact that it is a fair amount and it is not the original amount paid shows that the Government did not have any idea of the level of contribution that would be paid. The member from New Zealand First might say that that is very strange. In this
Is that more or less than the normal early repayments?;National;These are the repayments that are made under the provisions of the scheme
