question;party;answer
What steps has the Government taken to reduce the isolation of the region?;Labour;The Government has taken a number of steps to improve the logistics of the region. The health service is substantially efficient. There are now 92 staff at the airport, compared with 50 staff at the previous time. The time available to the regional health authorities for their staff has been cut by more than half. The regional health authorities have been able to continue to provide services, including to their people who are stranded overseas, to support them in their current roles without the cost of providing them with future services. In
What steps has the Government taken to reduce the isolation of the region?;National;The minister has addressed the issue and will continue to do so. The Minister has suggested that the regional health authorities be given a mandate to manage decisions on their own, I am very happy to inform the member that I think is a very good idea. I do not see why the Government should be concentrating its attention on the problem of the isolation of New Zealand. I think it is important to recognise that New Zealanders are very good at cooperating with their Government and with other countries. My colleague the member
Does the Minister, agree that 29 percent is bigger than 3 percent?;Labour;I think it is important to realise that that is not the case. The Minister has just been revealed in the media as being a laughing stock. When he comes to the House, he will be the laughing stock. But I am pleased to hear the member for Manawatu-Wanganui, who is a former member of the Labour Party, has been able to say that the Labour Party is in a good way, and that it is not in a good way. What I am pleased about
Does the Minister, agree that 29 percent is bigger than 3 percent?;National;"I accept the member’s point of order and would be delighted to see that figure increased to 29 percent. That is a very good argument. I would be delighted to see a figure of 29 percent. I would be delighted to see it increased to 29 percent. It is a very good argument.<|endoftext|>

"
What about members who have changed parties?;Labour;"they cannot do that.<|endoftext|>

"
What about members who have changed parties?;National;I think the most important thing that we have to say about this bill is that we think that once we have got it through the select committee, we can put it before the House. the House is not scheduled to go through this part of the bill until this week. So I think we are saying that we are going to wait until next week and then we will be going to the select committee for the third reading. I think that is a very good move, and I think it is a very
What about at a principled level?;Labour;"But there is the point I made in my first answer, that the Government is not going to allow the revenue bill to progress. The House adjourned at 9.30 p.m.<|endoftext|>

"
What about at a principled level?;National;"That is another question.<|endoftext|>

"
Does the member support urban Maori now, does he?;Labour;I support urban Maori now. I support urban Maori now. I support urban Maori now. I support urban Maori now. I support urban Maori now. I support urban Maori now. I support urban Maori now. I support urban Maori now. I support urban Maori now. We have had a great discussion. I support the member for St. Kilda, and I support my colleague the member for Tauranga. We have had a great discussion and we
Does the member support urban Maori now, does he?;National;The member is right. I do not know that any Maori would be opposed to this Bill. There is no doubt that it is the right thing to do. I take exception to the comments by the member for Tauranga that the Bill is, not the wrong thing to do. The Bill is the wrong thing to do. The Bill is the wrong thing to do. It is the wrong thing to do. I think that the member for Tauranga, the member for Napier,
Was the Prime Minister reading from an official document?;Labour;"I am not making any comment about that. The Prime Minister has a copy of a briefing note from the Department of Labour, which states that there is no significant change in the definition of ``defence'', acting as a result of this legislation.<|endoftext|>

"
Was the Prime Minister reading from an official document?;National;"I am talking about a briefing paper, and I am not sure whether the Prime Minister was talking about the briefing paper. I am not going to read any further.<|endoftext|>

"
As the member in charge of the Smoke, yes or no?;Labour;and now that I have been given the opportunity to speak, I thank the member, and his staff for their diligence and dedication. I think it is remarkable to see so many contributions from the Opposition members, as the National Party gets back into Government, and I congratulate the member on winning his seat. I want to thank the member for Whangarei. He is a very talented member of Parliament. He is not one to be overshadowed by the Government, but I think the member has made a
As the member in charge of the Smoke, yes or no?;National;Yes, as the member in charge of the Smoke, I am happy to take a call to explain why I accept the fact that, if we are to take the tobacco industry this way, then we will have to have more than 15,000 smokers a year, and that is something that the tobacco industry will have to be prepared to accept. Has the Government tried to calculate that, and what is the impact of allowing people to buy tobacco at a lower price to ensure that the tobacco companies can take
How is the Government working with Christchurch City Council on the Metro Sports Facility project?;Labour;I would like to talk about the other great achievement of this National Government’s term in office. We have had a great meeting with Christchurch City Council. What I have seen from that meeting is that we have been able to promote our suite of projects. We are able to promote them, we are able to make them happen, and we are able to make them a reality. We are talking about a very important regional project that will be shared by the National Party with the Labour Party.
How is the Government working with Christchurch City Council on the Metro Sports Facility project?;National;"The Government is working very closely with the council to ensure that the facility can be delivered in a cost-effective manner. The council is providing the money to help ensure that the facility can be delivered in a cost-effective manner. The Government is also supporting the project through the Bill by providing the money for the management of the project. The Government is working very closely with the council to ensure that the facility can be delivered in a cost-effective manner.<|endoftext|>

"
What does the Minister intend to do about this very dangerous health hazard?;Labour;"I have received the report of the Health and Safety Committee on the situation of asbestos in New Zealand.<|endoftext|>

"
What does the Minister intend to do about this very dangerous health hazard?;National;The Minister of Health is committed to making sure that the health of the people of New Zealand is at the top of the priority list for New Zealand. The Minister has been involved in the development of the plan, and we are proud of the progress we have made. We have made the development of that plan public, and we would like to share it with the New Zealand public. The plan is now being developed and will be ready for public consultation later this year. The plan is now being prepared by
Or at the direction of Te Runanga o Ngai Tahu?;Labour;I think that the way in which this has been handled is a bit odd. I think the whole issue of the chairperson of the committee, the member for Tarawera, has been a matter of controversy. I think that it is time the House dealt with that now. The main question that the member has raised is whether it is a matter of administrative decision, or whether it is about the chairman of the committee, who I think is quite an important matter. I am aware that the chair
Or at the direction of Te Runanga o Ngai Tahu?;National;The member for Papakura said that there was a lack of faith in the National Party. I will tell the House what message that is sending to this country. The National Party is not in its place, not in its time, and it does not deserve to be in Government. National members cannot be trusted to lead this country. The National Party is not in its place. It is not in its time. The National Party needs to be in Opposition. National members are not in Opposition because they are
