question;party;answer
Will this new funding reduce waiting lists?;Labour;"The new funding will improve the quality of the Care and Support Agency's services. It will also improve the efficiency of the organisation, and help to keep the agency in the right frame of operations.<|endoftext|>

"
Will this new funding reduce waiting lists?;National;"The Government believes that the key to reducing the numbers of people on welfare is to focus on the very people who are most in need, on those people affected by the Government's policies. Only then can we start to have an impact.<|endoftext|>

"
Do you think I am going to listen to you, Trevor?;Labour;"I think you are going to listen to what I have to say, and I think you will agree that that is not the case.<|endoftext|>

"
Do you think I am going to listen to you, Trevor?;National;"I think I am going to listen to the member for Nelson, but I think that that is not good enough. If we look at the sector that is the most important, we see that it is in the Auckland area, in the Auckland region, in the Auckland region. I think that that is the most important and I am going to listen to the member for Nelson.<|endoftext|>

"
What sectors of the economy have grown most strongly in the past year?;Labour;According to the latest statistics from the Ministry of Business, Innovation and Employment, in the last 12 months the growth in employment is in the public sector, in services, in retail, in accommodation and food services, in education, in the accommodation and food services industries, in accommodation and food services, in health and social welfare, and in health and social welfare. The overall growth in employment is in the public sector, in services, in retail, in accommodation and food services, in education, in health
What sectors of the economy have grown most strongly in the past year?;National;The main sectors of economic activity in New Zealand have been in the forestry sector, the forestry sector has seen the growth in exports and the growth in exports of businesses that are seeking to export. The forestry industry has been in the top 10 in general, and it has been in the top 10 in the dairy sector, and in the top 10 in the resource sector, and in the top 10 in the manufacturing sector, and in the top 10 in the mining sector. It has been the timber industry for
So why doesn't the Government attach more importance to health?;Labour;"It is a great honourable member of Parliament who has just focused on health. But I say to the member for Christchurch West that I think that the most important thing that we should be focusing on is health. The health of the nation is the most important thing. I do not think that it is the only thing that should be the most important. It is a great honourable member who is talking about health.<|endoftext|>

"
So why doesn't the Government attach more importance to health?;National;"I am quite sure that the member for Manawatu-Wanganui has a plan. Some of the principles were laid out by the member for St. Kilda; I am not sure about the system. But I am quite sure that the member for Mangere is getting behind his policy. He has a plan. He is getting behind the scheme, and probably will be in Government when the scheme is finished. But I am sure that the member for Rangiora is behind his"
Is it in order for the member for Auckland Central to refer to a Minister as being a ``twit''?;Labour;What has the Minister done to reassure the people of Auckland? He must have been worried that his Government was in serious trouble. The Government has made it clear that it is on the verge of a collapse. The Government has done very little to reassure the people of Auckland in the last few days. The Government has been caught flat-footed. It is not prepared to listen to the people of Auckland. It has been caught flat-footed. The Government has been caught flat-footed. The Government is
Is it in order for the member for Auckland Central to refer to a Minister as being a ``twit''?;National;"Does he then have to apologise to the members of the House?<|endoftext|>

"
With reference to the crime statistics released this morning, what strategies are the police pursuing to reduce the crime rate?;Labour;"The statistics show that the current police officer recruitment programme is not working. The programme is not meeting the needs of the police. The programme needs to be reviewed. The programme needs to be complemented by some of the important programmes. The programme needs to be reviewed so that it is working for the police. If a programme is working, it shouldn't be working.<|endoftext|>

"
With reference to the crime statistics released this morning, what strategies are the police pursuing to reduce the crime rate?;National;The Crime Statistics released this morning show a very encouraging crime rate in New Zealand. The crime rate decreased in some areas. The crime rate dropped in Tauranga, and the rates were down in Northland, in the North Shore of the North Island, in Dunedin, in Rotorua, and in the North Island. I commend the Crime Statistics released this morning to Government members of Parliament as a very encouraging result of the Police Service, because it shows that the police are carrying out a very
Is it a New Zealand rule or a British rule?;Labour;That is the principle of the Bill. There is no way in New Zealand that we can possibly be in the business of breaking any of the rules set down in the Bill. the Bill is in reality a very good Bill. It does have one glaring weakness, which is that it does not provide a mechanism for the New Zealand Police to reassure the public that the New Zealand Police will be made up of New Zealanders. I have talked to some of my colleagues in the House tonight and I have found
Is it a New Zealand rule or a British rule?;National;"The New Zealand rule is that when the Prime Minister is the speaker, the Prime Minister appoints the speakers. That is certainly the case in this country. The Prime Minister appoints the speakers. On this particular occasion, I do not expect that the Prime Minister will make it clear that that is the case in relation to Mr Elwood and that he is not a member of the National Party.<|endoftext|>

"
What new programmes has Industry New Zealand announced to promote industry and regional development?;Labour;The Ministry of Business, Innovation and Employment has announced a new one, which I will come to in a minute. The National Government has announced a new one, which will be implemented on 1 July. I know that the Minister of Finance has been giving talks in Auckland, and I have been doing that in my own electorate, so I am sure that he will be here this afternoon in my electorate. I also know that the figures in the election are relatively small, but they are not insignificant. The
What new programmes has Industry New Zealand announced to promote industry and regional development?;National;"Industry New Zealand announces plans for the first time to promote industry and regional development with a national launch event at the end of this year. We have also developed a $70 million marketing campaign to promote the industry, to get people talking to their favourite manufacturers, and to get their ideas. The company is currently looking at an additional $90 million of investment, which will give the industry the best start in the industry.<|endoftext|>

"
Is the Government doing all it can to support low-income people?;Labour;I am not looking at what the Government can do, but I am looking at what the community can do. I am talking about the community of the people. What I have heard today are words of encouragement from the Government. This Government's answer to the crisis in Canterbury is to take money from the people of Canterbury. If that is what the Government wants, it will take it from the people of Canterbury. I do not think that is the answer. I think that it is a good idea to
Is the Government doing all it can to support low-income people?;National;I have been asking the question, as I have done for many, many years. I think the Government has done a lot of good things, and I think it has done its best. I am very pleased that those Ministers have come back and endorsed the Bill. I believe that the current Ombudsman will be a very competent person, and I am sure that she will not have to be in opposition to the Government’s welfare reforms. I think that she will be able to bring to the
How has the Government responded to applications for assistance under the school property financial assistance scheme?;Labour;The Ministry of Education has received hundreds of applications for assistance through the department’s programme, and I expect to receive many more. I am advised that the Ministry of Education has been able to assist approximately 200 schools in the last 2 years, and the number of schools receiving assistance has increased from approximately 8,000 in 2003 to almost 10,000 in this year. Since this Government became the Government the number of schools receiving assistance has increased from 7,000 to approximately 14,000. The number
How has the Government responded to applications for assistance under the school property financial assistance scheme?;National;"I have been very pleased with the response to the first round of applications. The majority of applications have been received on time for the financial assistance scheme, and the Government is continuing to receive applications that are timely and on budget.<|endoftext|>

"
