question;party;answer
In addition to tourism, what other business activities are showing potential on the West Coast?;Labour;The tourism sector is showing potential, on the West Coast. The Hipster Central example was a multi-city, multi-venue, multi, -all in one place. It was the first event in a series of events that is planned in the future. The number of events being planned across New Zealand is expected to be around 50 a year. That is a bit short of a plan, but it is a very good example and it should be a standard in future events. The trend of how
In addition to tourism, what other business activities are showing potential on the West Coast?;National;I am listing off a few of them with my colleague the member for Selwyn, and I believe that we are all probably going to have to look at the West Coast, the South Island, the Western Bay of Plenty, and the Northern Territory in respect of any initiatives that might be undertaken by the Government. The Minister of Tourism and Tourism is a very busy person. The West Coast is a good one, and I think there are opportunities for us to grow tourism in that region.<|endof
What about the member’s policy on Auckland airport?;Labour;"It will be the Government’s policy. It will be a Government’s policy. We can't stand this Labour-led Government’s policies. It is not the Labour Government’s policy, it is the National-led Government’s policy.<|endoftext|>

"
What about the member’s policy on Auckland airport?;National;It's interesting to see the member’s policy. I have good reasons for being interested in Auckland. I am a New Zealand citizen, and I have a family and a country to protect. I have a great interest in New Zealand, and I want to see New Zealand prosper. I want to see our country prosper, and I want to see our economy prosper. I want to see our people prosper, and I want to see our economy prosper. I want to see New Zealand prosper.
What benefits will New Zealanders miss out on if we are not part of TPP?;Labour;I do not have any figures to give you. We have been told that it is worth $15 billion or $20 billion, but we know that it is actually much smaller than that. What we have heard in the House is that we have to have a fair deal. We have heard that if we are not part of TPP, we will lose $10 billion worth of exports, that is $10 billion worth of exports. What we have heard is that it is worth $15 billion or $
What benefits will New Zealanders miss out on if we are not part of TPP?;National;The benefits will be very small, and the downside to them will be very great. I am concerned that we have gone so far in the negotiation process as a Government and, as a nation, many New Zealanders will be looking to Canada and other countries to follow for their next TPP negotiations. I ask those people why they are voting for this. Why is it that these countries have been able to get TPP ratified, and the opposition parties, if they are going to be part of a package,
There is no ministerial responsibility?;Labour;"I was not talking about ministerial responsibility.<|endoftext|>

"
There is no ministerial responsibility?;National;I think that is the point at which it is best to move on. There is no ministerial responsibility. I am pleased that the member for Tamaki made a contribution, and I think it is a real shame that the member for Auckland Central did not make a contribution, because we know that the member for Auckland Central is a member of the House who has a considerable amount of experience in a variety of areas, and I think that she is capable of saying a number of things that over the period of
What other incidents might have necessitated additional security measures to protect members of Parliament?;Labour;"There is the case of the member for Papakura, who was attacked at his electorate office. The police are seeking to establish whether or not the incident was an incident of violence or vandalism. It appears that the member for Papakura is, in any way, involved in that incident.<|endoftext|>

"
What other incidents might have necessitated additional security measures to protect members of Parliament?;National;I submit that it is a serious matter. I do not know whether the member for Bay of Islands would accept that, but I suggest that he should put his mind to it. He is a member of a Government whose members are very rarely in Government. His last Government was in office for just 8 months, and if the member for Bay of Islands admires the current Government he should have never been in it. I think we would all agree that the member for Whangaruru is a very
Will there be any exemptions from the brightline test?;Labour;"there will be. The criteria will be very much the same as the criteria for the Department of Conservation. The Minister of Conservation will be the only one who will be subject to the brightline test. The Department of Conservation will not be subject to the brightline test.<|endoftext|>

"
Will there be any exemptions from the brightline test?;National;The brightline test is the one on the membership of a body or organisation. That is what the member for Tauranga wants to do in New Zealand. He does not want to go through all the business that arises from a business that sells fish. I know that the member for Tauranga is the member who has been talking about the business that he has a vested interest in. He has a vested interest in fishing, and he has a vested interest in selling fish. The member for T
How many of them went to private schools?;Labour;I do not know the answer to that question, but it is probably $1 million. I assure the member that the organisation has tried to get the numbers down to $200, but the numbers have never been reduced below $20. So I think it is probably at $400,000. I am sure that members on the other side of the House would have to agree that they would be willing to accept a price tag of $200,000, if they could get one. I can say
How many of them went to private schools?;National;There are no figures available to me. I would suggest that the number of private school pupils in this country today is about 3,000. I do not want to talk about the number of students, I would suggest that it is about 5,000. The number of private school pupils in the Wellington area is about 3,000. I see a number of the smaller schools in Wellington that have not had a number this year. The largest school in Wellington is the Wellington School, and it has been
What is the effect of excessive speed, and what are the possible strategies for addressing the problem?;Labour;It is a fairly straightforward question. I was at a conference a few days ago where there was a long debate about the question of speed. I was not there because of any of the other issues, but I do recall that the question was debated a number of times, each time we were looking at the issue of speed. This afternoon the question was debated again, and I would like to address it briefly. I think the Minister has the right to be concerned about the issue of speed, and I
What is the effect of excessive speed, and what are the possible strategies for addressing the problem?;National;The evidence is clear that the incidence of speeding is at a very low level, and that is why a very focused and targeted programme of enforcement has been put in place. In 1996, 92 percent of certain youth offenders had been caught speeding. In 1995, 94 percent had been caught speeding. The new policy will reduce the incidence of speeding incidents by 90 percent by 1998-99. In 1996, 100,000 offenders had been caught speeding. The target will be to reduce the number of speeding offences by
Well then, I should not be apologising, should I?;Labour;I should like to thank the member for St. Kilda for the very important statement that he made in the House yesterday that the new policy is part of a Government policy that is working. How many of those new policies will come into effect by the end of this year? How many new policies will come into effect by the end of this year? If the member for Auckland Central is referring to the announcement of the new policy that will come into effect after the election, I think he is thinking the
Well then, I should not be apologising, should I?;National;The member should find that the problem with this bill is that it does not solve the problem. This is an attempt to fix it, not to get rid of it, because that would require a change in the law. I mention this because members will be aware that the law currently provides that a taxpayer can only be paid for the benefit of another taxpayer. I make a comment about that because I think that the member will be aware that the previous Government has legislated that that was the case. We
The Minister is saying that a letter has been written to the Justice and Law Reform Committee?;Labour;I know that a letter has been written to the Justice and Law Reform Committee, and it is a very good one, and I think that it is very important that the public should get a sense of the kind of letter that the Hon Phil Goff has written to the committee. He has advised that it is a very good one. I think it is quite a gentlemanly letter. It is a very good one, and there is no need for it to be rushed. So I do not think it
The Minister is saying that a letter has been written to the Justice and Law Reform Committee?;National;That is correct. It was sent to the committee in December last year. The letter states that, ``We have not received the response we have sought from the Minister of Justice, but we are happy to assist you in your further enquiries.'' It goes on to say
