question;party;answer
Is there any objection to leave being granted?;Labour;"I am talking about leave being granted but I think the member could have put it down on the Order Paper.<|endoftext|>

"
Is there any objection to leave being granted?;National;I think it is appropriate to give some consideration to the date of the Bill, given that the chairman of the select committee has indicated that he intends to give the Bill a deadline of 2 September. The select committee has informed me that the date of the Bill is 2 September this year, so that the committee could give consideration to the Bill with a view to it being passed by Christmas. If the select committee has given the Bill a deadline of 2 September, I think that would be appropriate.<|end
Was there a New Zealand First candidate?;Labour;"I am sure that was one-off, but I am sure that the member for Auckland Central, who received the majority of the vote in the last election, will remember that. The member for Tauranga, who received the majority of the vote in the last election, is in good company, and I think that he is probably doing a good job.<|endoftext|>

"
Was there a New Zealand First candidate?;National;I am not aware of any other New Zealand First candidates in the House. New Zealand First has not been on the Opposition front bench since the election. It is interesting to note that in the past week or so the Leader of the House has talked about a number of issues, and the rest of the House has been talking about the Government's plan to deal with the economy. That is not a coincidence. The Government is wasting its time on the economy, on a plan to handle the economy, and
Has aerially spread poison been used in the kakapo conservation programme?;Labour;"There have been a number of reports of the use of the butterfly net in kakapo conservation programmes.<|endoftext|>

"
Has aerially spread poison been used in the kakapo conservation programme?;National;"I am talking about the poison that has been sprayed. I am not sure whether the word ``spotted'' is less effective; I think it more appears to be the word ``poison''. What is the point of spraying the compound in a way that makes it visible to the enemy? The consequences of that action are, that that compound is not only visible to the enemy but also it is known to the enemy. The Minister for Conservation, when he was Minister of Conservation, said that he was"
Would United New Zealand take them off the Boundaries Commission on the same argument?;Labour;"I am not aware of any such case. I do not think it is necessary to have a declaration to the Boundaries Commission. I commend the bill to the House.<|endoftext|>

"
Would United New Zealand take them off the Boundaries Commission on the same argument?;National;I would like to thank the member for Auckland Central for speaking in this debate. I appreciate that she has an interest in the Boundaries Commission. I wish to thank the member for Auckland Central for her contribution in this debate. It is a pleasure to see her in this House, and I think that she will be a major asset. She is a very good speaker, and I thank her for her contribution. I think it is a pleasure to see her in the House and to hear her speak.
Could we possibly have from the member, just occasionally, the kind of language that is appropriate to an Education Bill?;Labour;I am talking about the word “not”. That is the word that I use in this House, and the member for Auckland Central has used it in the House before. Why there are so many signs of a Government taking the lead in education, is no surprise to me. I am not suggesting that we look at a matter of principle, that we take a stand and say that we do not encourage students to take up a trade or a profession. But we could look at a matter
Could we possibly have from the member, just occasionally, the kind of language that is appropriate to an Education Bill?;National;"I think we should take a call and explain what we mean by that.<|endoftext|>

"
When is the department likely to have information on the consultation rates for patients?;Labour;"The consultation is planned for early next year.<|endoftext|>

"
When is the department likely to have information on the consultation rates for patients?;National;"The department is likely to have information on the consultation rates for patients, on which they are expected to be based, by the end of the year. The Deputy Minister for Social Welfare is also expected to be in the chair, because the department has made it clear that he is not a specialist in the field of recruiting people. He is one of the specialists in the department.<|endoftext|>

"
Could the existing station hours be adjusted to provide extra coverage during week nights and weekends?;Labour;"That is the proper thing to do.<|endoftext|>

"
Could the existing station hours be adjusted to provide extra coverage during week nights and weekends?;National;"I am unable to list them at the moment.<|endoftext|>

"
What has the response been from stakeholders?;Labour;That was the question that the select committee examine
What has the response been from stakeholders?;National;It is absolutely fantastic. The first thing I have heard from stakeholders is that they are concerned that the project will be a little too much in the way of the original bill. The National Party is supportive of the original bill, but we have some concerns about how the project will be managed. The first thing that I heard from the industry is that a lot of the issues that were raised in the committee stage have been answered. There were some minor amendments and clarifications. They were not as major as
What other interventions is Corrections targeting at offenders with alcohol and drug issues?;Labour;I have just been told by the Corrections spokesperson, the Hon. Phil Goff, that the Department of Corrections has been making plans in the last year to address the problem of alcohol abuse and the capacity of the Department of Corrections to do that is still within the department’s capabilities. The department has made a huge number of changes in recent years, in terms of staff numbers, for a variety of reasons. We are focused on the changes that will make a difference to the effectiveness of our services.
What other interventions is Corrections targeting at offenders with alcohol and drug issues?;National;The focus of the team’s activities is on getting the best outcomes for offenders. One example of the work that was undertaken is a new initiative that has seen the number of cases being represented in a video format. The video is a way of communicating the situation to offenders so that they understand the issue and can make a plan to get the best outcome for their offending. My colleague Shane Jones has already spoken about the importance of enabling those who have experienced offending to stay in their offending and get help
What progress is being made with the roll-out of a national bowelscreening programme?;Labour;"The roll-out of a national bowelscreening programme is progressing well. The programme has been through the screening of bowel-screening patients and includes both primary and secondary bowel screening. The roll-out is well underway, with the first patients being admitted to the programme on 18 July. The programme has already undergone a number of tests and has been completed after a total of 30 screenings in eight different centres.<|endoftext|>

"
What progress is being made with the roll-out of a national bowelscreening programme?;National;"There is no progress in the roll-out of the programme. The Government is not considering a national bowelscreening programme. The rollout of the programme will be led by the Ministry of Health and will take place at a later date. The programme is likely to be rolled out nationally by the end of this year. The Government is not considering a national bowelscreening programme.<|endoftext|>

"
