question;party;answer
Where does it say that in the Speakers' rulings you were referring to?;Labour;it says that it was a misunderstanding of the Committee’s ruling in the second reading of the bill. The decision was made the day before the bill was due to be reported back, and the Speaker has made it clear that the Speaker of the House, is responsible for the decision. So the second part of the question is
Where does it say that in the Speakers' rulings you were referring to?;National;"The Speakers' rulings state that the first question must be asked in the affirmative, and it says that the second question must be asked in the affirmative.<|endoftext|>

"
Have you paid the money back yet?;Labour;"I am not sure that I have paid it back. I am sure it is not in the hands of the Government.<|endoftext|>

"
Have you paid the money back yet?;National;"I have paid it back, but I am talking about the money I received when I obtained it in the illicit dealings of the member for St Kilda. The member for St Kilda was not the only member of the National Party who had been involved in the illicit dealings of the member for St Kilda. The member for St Kilda also received money from the member for Papakura, who is the head of the party in New Zealand.<|endoftext|>

"
Did the Minister of Finance reply to the letter from the member for Tauranga?;Labour;I was talking about the payment that the member received. The Minister has already been quite clear that the Government will not be paying them. I can tell the House that the member's office is not a totally separate business from the Government House. He is a member of the National Party. That is not a simple matter. The member pays all his salary to the National Party. The member is based in the Waikato. He is a National Party member. The member for Tauranga is a
Did the Minister of Finance reply to the letter from the member for Tauranga?;National;The member for Tauranga is probably aware that the Minister of Finance has been very busy, but he did not reply to the letter. He said that he had not had a call from the member, so he did not answer the question. He would not have known that the Minister of Finance was dealing with this matter. The member is likely to be informed of the importance of the issue, and, that the Government would not put up with that. I have been advised that, in the period
How could that possibly be addressing the question?;Labour;"It is not the question that was asked earlier. I think the member should stop asking it again.<|endoftext|>

"
How could that possibly be addressing the question?;National;"I think that is another answer that the member has been able to get to. The member should not be so concerned that I have to interrupt him on this point.<|endoftext|>

"
And the $45 windfall for married couples from this October?;Labour;The $45 windfall for married couples from this October is a windfall of $19 million, and that is a good deal for the future of this country and for the future of this country. The reality of the future of this country is that this measure is not a windfall. A windfall of $19 million is not a windfall. The reality of the future of this country is that this measure is a windfall. It is a windfall of $19 million-a wind
And the $45 windfall for married couples from this October?;National;"I think the expert is saying that that is a good Government policy to have. I think it is a good policy that is in a good supply of windfall revenue to be spent on most purposes. I think it is a good policy for the future. I think it is a good policy for New Zealand.<|endoftext|>

"
Will the Government be releasing the full written statement to the international court?;Labour;The full written statement will be released to the court. I commend the Minister of Justice for his very good work to get this Bill through the House and the House of Representatives. I congratulate the Hon Helen Clark for her work on the select committee, and the Hon Ruth Dyson for her excellent work with the select committee. I commend the deputy chairperson of the select committee, and also the chairperson of the committee for the work that they did. I commend the committee for the work that they did
Will the Government be releasing the full written statement to the international court?;National;"the full written statement will be released to the court.<|endoftext|>

"
What financing options does the Government have to respond to the Kaikōura earthquake?;Labour;We are looking at the most viable options, including the private sector. As a matter of fact, this is the first time in the history of this Government that we have had private sector response capability in Kaikōura. So it is really amazing that we have had to build a new hospital of this type in Kaikōura. It is really, really bad. We had to build a new hospital in Kaikōura. It is a disgrace, because we had to build a new
What financing options does the Government have to respond to the Kaikōura earthquake?;National;The Government has received information from Kaikōuraia Hospital, and the Government is in the process of assessing the situation. The Government has said that it will have to be a capital campaign. There are a very large number of people who have had to leave their homes for their lives. People who have had to go to Kaikōuraia Hospital have had to leave their homes because of a disaster, and that is why they have been stranded. The Government is working very closely with Kaik
What steps is the Government taking to reduce the harm caused by methamphetamine in New Zealand?;Labour;The Government is taking a number of major steps to reduce the harm caused by methamphetamine in New Zealand. A number of these include the introduction of awareness, intervention, and treatment programmes. The New Zealand Drug Foundation has been working closely with the Ministry of Health and the Ministry of Social Development, and also with the Child, Youth and Family Advisory Council. These include the setting up of the National Drug Information Centre, which will oversee the misuse of methamphetamine. The National Drug Information Centre will be responsible for ensuring that
What steps is the Government taking to reduce the harm caused by methamphetamine in New Zealand?;National;The Government is currently considering the introduction of a package of drug-impaired driving measures that will reduce the harm caused by methamphetamine. The Government is also providing money to help police with the investigation of methamphetamine trafficking. The Government is also supporting the introduction of laws to deal with the manufacture, supply, and sale of methamphetamine. The Government has been developing a strategy to stop the manufacture of methamphetamine. The strategy focuses on the supply of methamphetamine, the manufacture of methamphetamine, and the sale of methamphetamine to be
Would that figure be closer to 100 or 200?;Labour;"The figures are higher at 62,000, and are in the top half of the figure. That is a very good figure.<|endoftext|>

"
Would that figure be closer to 100 or 200?;National;"That figure is far too low. Mr Brownlee has not balanced the books, and the Government is not fully prepared to have that figure.<|endoftext|>

"
Which Parliamentary Under-Secretary?;Labour;The new Administrator of the Education Service is a very good man who has a great deal of experience in this area. He will do a very good job. His experience will be a big help, particularly as a result of the substantial reforms that he has made in the past 2 years. I ask Mr Speaker to explain why he is so concerned about having to consult with the members of his own caucus in this particular area, when a very good job in education is being done in his area of responsibility.
Which Parliamentary Under-Secretary?;National;There is one who I am aware of, and I am sure it is a very senior Secretary in the Department of Fisheries, who is not as well known as the others. I just wish to refer to some of the comments made by my colleague the member for Waikato. I want to pay tribute to the work of the public affairs staff, to the work of the caucus managers, and to the work of the Deputy Whip, who is regarded as one of the best in the world.<|
