question;party;answer
What steps has the Government taken to rebalance the economy towards savings, exports, and paying its way in the world?;Labour;"The Government has a four-pronged approach to rebalancing the economy, and it is an approach that the country and its people are overwhelmingly in favour of.<|endoftext|>

"
What steps has the Government taken to rebalance the economy towards savings, exports, and paying its way in the world?;National;I have provided a list to the Finance and Expenditure Committee of some of the steps that have been taken. I would like to thank the members of the committee for their contribution and assistance. The committee has been able to resolve the issue of the Chief of Defence Force, because it is a matter of some considerable importance to the country, and I suppose that it is not the only one. It is an issue of considerable importance to the Government, and I think it is that the chief of defence force
Does Australia have an affordable housing market?;Labour;I am not aware of any housing market that is not going to be funded by the Government. I am not talking about the State houses or the National houses or the cars that are going to be built in Auckland. I am talking about the fact that there is no housing market, no housing supply, no housing affordability, and no housing aplenty. I want to start by talking about the Opposition's housing policy, because that is going to be the first thing that we have to talk about.
Does Australia have an affordable housing market?;National;"This is an excellent question.<|endoftext|>

"
What's wrong with the present one?;Labour;The current one is the one that was recently quashed. I want to make it clear that the member will be aware, as he begins to ask a very long and very important question, that the decision made by the Treasury to make the Treasury bill the last bill before the House is very much the decision that the Government has made since September 1999. That is why the member will be aware that the decision made by the Treasury was made at the beginning of 1999, and that was why we were able
What's wrong with the present one?;National;The present one has been put on to make the national debt appear to have gone up by $700 million. That is not the case. The national debt is down by $700 million, and in the last 7 years the deficit has been down by $2 billion. The present national debt is down by $1.5 billion. The present deficit is down by $1.5 billion. The present debt does not have to grow by $1.5 billion. I think that that is a
What data does the Minister have, on the number of fatal accidents today and historically?;Labour;I have a chart that shows the number of fatal accidents, because the number of fatal accidents in New Zealand in the last 10 years has been well under 3,000. As we go back to 1994, the number of fatal accidents has been going up. In 1994, there were about 900 fatal accidents. We now have 1,000 fatal accidents, and we are going to achieve that number again by the end of this year. This is a very good thing. There are a couple of things that
What data does the Minister have, on the number of fatal accidents today and historically?;National;I have a list of all the fatalities
Is the Minister saying that the Dominion is lying?;Labour;I am saying that it is time for the Government to do something about the act. That is why it is not the Government's first priority when it comes to the subject of ACT. The Government is listening to the advice from the business community. It is not interested in making it an act of Parliament, because that is what the ACT party wants. It wants ACT to be an act of Parliament, and it is interested in the business community's view, and that is why it is not the Government
Is the Minister saying that the Dominion is lying?;National;"That is what he is saying. The Dominion is lying. The Dominion can lie on the federal register-that is what it is doing. It has not had the question asked by the member for Nelson. It has not had the question asked by the member for Nelson.<|endoftext|>

"
In the light of the improving labour market, what do the latest indicators say about wage growth?;Labour;"The latest quarterly figures mean that the economy is just 5 percent below what it was in February of last year, as the Minister pointed out, there is still a lot of growth in the economy. It will not be as good as that for a while, and it is not the good growth that the Government was talking about in the last speech.<|endoftext|>

"
In the light of the improving labour market, what do the latest indicators say about wage growth?;National;The latest job figures are showing that the economy is producing more jobs than last year. The rate of job growth has been very good, and the unemployment rate is down to about 4 percent. It is good news in a very bad economy. unemployment is down to about 4 percent. It is a very bad economy. The Government has learned that in the economic downturn. The Government is focussing on the economy, but the economy is not focussing on the Government. If the Government was foc
Does the information provided indicate an improvement or otherwise in compliance rates?;Labour;The information does not indicate an improvement in compliance rates. The information does not indicate any improvement in compliance rates because, as the Minister mentioned earlier, the consumer agency has been well-staffed in the last few months. Without the information that the Minister has provided, it would not be possible to say that a compliance rate of 77 percent has been achieved. Those figures are in line with the figures for the previous financial year. The information that I have provided shows that the consumer agency has been well-
Does the information provided indicate an improvement or otherwise in compliance rates?;National;The information provides a very strong indication of compliance. The data also shows that the overall compliance rate by the end of this year has increased by 14 percent and, the overall compliance rate by the end of this year will be around 20 percent. This is a very good result and shows that there is no reason to believe that there will be any difficulties with compliance. The overall compliance rate is very good, and it is consistent with the figures provided to the National Party by the Auditor-General in the Auditor
Has there been any followup after this year's business development quality awards?;Labour;"I am aware of the reports that the Labour Party is being asked to provide an answer to. I am sure that the members of the Business and Innovation Committee, and the Commerce Committee, will be seeking to respond to the questions on this bill.<|endoftext|>

"
Has there been any followup after this year's business development quality awards?;National;"It has been a good term, Business Development Excellence Award 2014, because there is a lot of work on the front line. There are some very good awards this year, including this one, that I think are going to be very, very well received by the business community; it is a good year to be in business.<|endoftext|>

"
Then why in recent days has the Prime Minister been reluctant to actually verify that it will be 100,000 houses over 10 years?;Labour;The National Government is putting into effect a programme that will ensure that the new houses will not be built in more than 10 years. That was the most significant development in the whole of the first 10 years of this Government's term in office, and it is a programme that will be honoured by our people. I thank my colleague the member for Kaimai for the transparency that has been shown in the first 10 years of this Government’s term in office, and the fact that we are now
Then why in recent days has the Prime Minister been reluctant to actually verify that it will be 100,000 houses over 10 years?;National;"because that is not a foolproof formula; it is a formula that will not work in a city where there are not enough houses, yet it has worked in other cities around the country. In Palmerston North, 1,000 houses have not been built in the last year. That is a formula that will not work. I think it is a good thing that the Prime Minister has decided that the formula is not foolproof.<|endoftext|>

"
When will the Government announce its loss-making ``People's Bank''?;Labour;I have to say that it is a very different story from that of the Māori Party. Its members have not been in Parliament for a long while. My colleague the member for Tarawera has just finished a very short speech on the previous Bill. I would think that he had an interest in what the second Bill talks about, but the member for Mangere, the member for Akarohe, the member for Maramarua, the member for Tamaki-all have been in
When will the Government announce its loss-making ``People's Bank''?;National;In the meantime I give to the member for Papakura a personal reminder to be mindful of his decisions in this House. I take him back to a time when he was not in Parliament, in the last 12 or so years. He has gone through a sequence of bankruptcies, an inability to make ends meet, a change in direction, and a change in attitude to issues. All of those things are now the currency of it all, and we know what that will do to him. That member
