question;party;answer
What further reports has the Minister seen regarding science investment in New Zealand?;Labour;I have seen an article in the Dominion last week, which makes it clear that science is an important investment in New Zealand. The article states
What further reports has the Minister seen regarding science investment in New Zealand?;National;I can just choose to listen to the member for Auckland Central, who is talking about a Government that is so confused about science that it has not been able to put its mind to the puzzle of the research that it needs. The member has to keep his mind on the puzzle of research, which is why he is so confused about the Government’s research policy. The Government is spending $117 million on research, a figure that the member was so confused about. I just say to him that
can you confirm for me that we are now up to the fifteenth speaker in the debate?;Labour;I can confirm that. The last speaker for the National Party introduced the Bill and said that it was the first time the Labour Government had introduced a national child-care scheme. I do not know whether that is true, but the only way to prove it is to have a national scheme. There are some interesting suggestions in the Bill. I will try to explain them. The first suggestion is to have the organisation of the scheme be a National Childcare Board. That is not the most sensible of the
can you confirm for me that we are now up to the fifteenth speaker in the debate?;National;"I can confirm that it is now the fifteenth speaker. The Chairperson asked what substantive legislation had been introduced into the House on the Throne, and I said that the Bill was the first of many important legislation that will be introduced.<|endoftext|>

"
What reports has the Minister received on whether the new provisions are working?;Labour;"I am very pleased to have had a report from the Ministry of Education this week, which showed that the introduction of this new legislation has reduced fraud in the system from a record high of $1.8 million in 1998 to a record low of $1.3 million last year, when it was $2 million. the Minister has never uttered that statistic in the House, and I have never given it to her.<|endoftext|>

"
What reports has the Minister received on whether the new provisions are working?;National;"I have received a number of reports. The first one is from the Ministry of Health, which says that the new rules for retrospective surgery are working. It states that the availability of clear, concise, and unambiguous information is making it easier for patients to make informed decisions about their care. I commend the Minister for Health for this legislation to the House.<|endoftext|>

"
Why is it important for our communities to adapt to the effects of climate change?;Labour;"The risks associated with climate change are very real, and a number of communities around the country have many of the very, very high risks that have caused concern in recent years. The most important route to dealing with climate change is carbon dioxide removal.<|endoftext|>

"
Why is it important for our communities to adapt to the effects of climate change?;National;"Climate change impacts in all parts of our world. Climate change impacts in the tropics, in the polar regions, and in the coldest places, where the impacts of climate change are particularly dangerous. Climate change impacts in our homeland, in our cities, and in our countryside, and many other places. In our region, the impacts of climate change are not just about warming up or cooling down, they are about the need for us to adapt.<|endoftext|>

"
Why is the member looking through the job vacancies?;Labour;"I am looking through the job vacancies. It is to see which vacancies are available and what the figures will be. That is what I want to see. Under the Labour-Alliance Government we have had a vacancy increase of 1,000 in the State Services.<|endoftext|>

"
Why is the member looking through the job vacancies?;National;The member is looking through the job vacancies. The Government's decision is clear
What progress is the Government making with its multi-billion dollar infrastructure programme?;Labour;The Government has been working hard to deliver a number of projects and projects that will help to move forward New Zealand’s economy. The Government is returning to the economic policy debate for the first time in more than a decade. New Zealanders need to have confidence in the Government and in the Government’s plans. We have a plan in place to reduce the debt by spending less. We have confidence in the Government and in the Government’s economic programme. We know that the Government
What progress is the Government making with its multi-billion dollar infrastructure programme?;National;I am pleased to report that a significant improvement has been made in the performance of our roads. We have made a number of changes in the roading market, including a continued focus on regional roads, and we have set a new goal for the roading industry that is the best and most sustainable, and a recent report indicates that even with this new emphasis, our roads are improving. There are improvements in the performance of our roads and that we have made in a number of areas, including the Gard
Why was no transitional provision included in the Hauraki Marine Park Act?;Labour;The Hauraki Marine Park Act was introduced in 1990 as an interim measure. The Hauraki Marine Park Commission, which was set up to deal with the problems with the marine park, became the Hauraki Marine Park Act and has not been updated since then. The Hauraki Marine Park Act is in need of revision. In 1992 the Act was amended to clarify the requirements of the commission and the management and control of the marine park. The Act also provides for the Hauraki Marine
Why was no transitional provision included in the Hauraki Marine Park Act?;National;"There was a transitional provision in the Hauraki Marine Park Act saying that, the federal public trust had to be established by the commencement date of the bill. We have been told by the Government that in the Hauraki Marine Park Act there is no transitional provision. I am sure that the Minister will be able to find one in the bill. I am very pleased to be able to support the bill.<|endoftext|>

"
What is the Government doing to deliver better public services within its wider economic programme?;Labour;"The Government has announced a new series of programmes. The Government has also announced a new policy on the management of the prison and detention centres, with the addition of a new prison in Auckland, in the process of establishing a new centre at Whangarei.<|endoftext|>

"
What is the Government doing to deliver better public services within its wider economic programme?;National;What is the Government doing to deliver better public services within its broader economic programme? Will the Government be more than a mere kingpin in the development of new technology? The Government is in the business of getting innovation off the stage and into the marketplace. Up till now technology is still suffering technological stagnation, and we are at a critical juncture in that development. It is time we got into the market, and that is why the Government is spending $3 billion on a major programme to encourage the development
What policies does the Government have to support employment growth?;Labour;The Government has a plan. It is not yet complete, but it is moving very rapidly. It is investing a lot of money in the years ahead. It will be more than $2 billion. It will be $6 billion by the end of the year and $32 billion by the end of next year. That is $4 billion over 4 years. The Government will be spending $2 billion on the Employment Contracts legislation. It will be $2 billion by the end of next year and $
What policies does the Government have to support employment growth?;National;"The Government is committed to maintaining the momentum of growth in employment, and it is investing heavily in new jobs. The Government is investing in new companies through the Self Employed programme, the job programme, the new apprenticeships programme, and the SIS programme, and many others. We are also making significant improvements to the way in which we recruit and train people.<|endoftext|>

"
Would the member like to put the motion please?;Labour;I would like to put the question of whether the member for Mangere could be called to order, because he has been in a holding the chairmanship for most of the debate. The member for Mangere has been in a holding the chairmanship all the time. I think that he may wish to take a call. I hope that he will be interested in the fact that the member for Tamaki has been chairing the Commerce Committee. I think that the member for Tamaki has been
Would the member like to put the motion please?;National;"I think that the member has made a mistake.<|endoftext|>

"
