question;party;answer
What measures might New Zealand take against North Korea?;Labour;North Korea is a country which has been involved in international conflict for some time. I have a formula that shows how close we are to having a North Korean missile testing capability. I have been told that the missile testing capability of North Korea is now so small that the North Koreans could just leave it in the hands of a UN member country. That is the formula that the Leader of the Opposition has been using. I have heard similar comments from members opposite who claim to be experts in international affairs. They
What measures might New Zealand take against North Korea?;National;the Government has made a commitment to strengthen and expand trade in New Zealand, and the public are aware that New Zealand has been a beneficiary of that trade, in the last 3 years $2 billion worth of trade has been brought into New Zealand. It is not just at the moment that New Zealanders are getting their trade, it has been bringing trade into New Zealand through the North American Free Trade Agreement. That has been the main driver of the growth in trade across the board, and New Zealand is
What is the source of the report?;Labour;The report is from the Tasman Institute, a think-tank. There were some minor changes in the original report. The report is a major document, and it has been subject to a number of minor changes. I will just go over the major changes. The first change is the elimination of the suggestion to require the Tasman Institute to publish within 1 year an annual report on its future efforts in this area. The report is due to be published by the institute in May. In terms of the second change
What is the source of the report?;National;"The report is a report prepared by the New Zealand Institute of Economic Research. I am sure that the member will be able to hear it.<|endoftext|>

"
Is she, as Minister responsible for Ministerial Services, committed to good-faith bargaining for both employers and employees?;Labour;I have a number of commitments to ensure that good-faith bargaining for employers and employees are met. Success, prosperity, and stability of the New Zealand economy will depend on good-faith bargaining practices. The Minister has indicated in the House today that no action is required to change that. The Government has asked the member for Tamaki to present a bill to bring the policy to fruition. In response, the member for Tamaki has pointed out to the House the present policy of excluding members of the public
Is she, as Minister responsible for Ministerial Services, committed to good-faith bargaining for both employers and employees?;National;I am very pleased that the member for Waitaki has been in the House today. I admit that our negotiations initially appeared to be based on good faith and not on the good-faith bargaining that has been shown by the member for Waitaki. I am pleased to see that he is now in the House to support the Bill in its second readings, and I congratulate him on that. I have to say that the Opposition members are not happy with the substitute that has been proposed. They are saying that
What steps is the Government taking to introduce more competition into the housing construction market?;Labour;"I am pleased to say that there are measures in place to make it more attractive to give houses to more people.<|endoftext|>

"
What steps is the Government taking to introduce more competition into the housing construction market?;National;I am not in a position to give that advice, but it is clear that the Government will be introducing more competition into the housing market. As with the existing scheme, the Government will continue to provide equity for low, to moderate and to high-income earners to build in more housing for all New Zealanders. As in the reform of the existing Housing Corporation, the Government will continue to provide the provision of equity for low to moderate income earners, and for those earning up to $25,000
What did the High Court say about your expenditure?;Labour;"We are reviewing the decision, and we will have a report back on that by the end of this week.<|endoftext|>

"
What did the High Court say about your expenditure?;National;The High Court said that you would have to repay or destroy the money you took from the taxpayers. It said that it was quite clear from the reporting back of the Minister's bill that the number of weeks that you were paid was $25, meaning that you would have to repay $5,000. You did not do that. you did nothing. The High Court said that it was quite clear that you were paid half the amount you took in. So that was the Government’s solution
In the light of the original question and the Minister's answer, how many schools have opted for direct resourcing?;Labour;"the number of schools declined from 1800 to 1300, and schools with available funds have gone from one end of the country to another, for a total of about $10 million.<|endoftext|>

"
In the light of the original question and the Minister's answer, how many schools have opted for direct resourcing?;National;"It is the standard practice in all school districts to ressource the teachers of the schools. It is a matter of choice, and it is a matter of budgeting.<|endoftext|>

"
Is the member seeking clarification?;Labour;The member is seeking clarification. I am not sure that the member is correct in the statement she made. I am not familiar with the legislation, and I am not aware of any such regulatory impact statement. I do not think that it would be appropriate to take on the member for Tauranga that the Government has made a decision to support a change to the minimum wage. I think that that is an entirely improper comment, and I think it would be inappropriate to comment on an issue that is a
Is the member seeking clarification?;National;"I suggest that the member should ask the question; he is not the one who just got in trouble for asking a question. The member who just got in trouble for asking a question is the member who is making a contribution to the debate, but I wonder whether he is asking for clarification. I am referring to the question that was raised by the member for Tarawera and I am wondering whether he is asking for clarification. I say that the member should ask the question. He is not the one"
Would the member buy back the forests?;Labour;"The member will not. Private owners have the responsibility of protecting the health and safety of their flock.<|endoftext|>

"
Would the member buy back the forests?;National;"The member is buying them. She is buying them, because she is the honourable member who sits on the Agriculture and Fisheries Committee. She is the member who wants to stand up and talk about the issue; she is the member who wants to talk about there being no problem with the Maori Affairs Amendment Bill. she is the member who has had a very clear discussion with Maori Affairs Committee members. she has had a very clear discussion with them. She has had a discussion with them about the"
Has the tendering system reduced the cost of school bus transport?;Labour;The Government has in place a tender for a tender for a new bus system. The cost of the system will be less than the cost of the bus service. The cost of the new bus system will be $103 million less than that of the current system, and the cost of the current system will be $62 million less than that of the new system. The total cost of the new system will be $72 million less than that of the current system, and the cost of the current system will
Has the tendering system reduced the cost of school bus transport?;National;I am not aware of any such reduction. The reason for such a reduction is that the system is not subject to the same level of competition as it is the previous revenue system. The Government has decided that its members will have to give up a bit of the money that is left over to pay for this new system. It has appointed a special committee to examine the system and to look at the efficacy of it. I am not aware of any of that. The committee will look at whether it is
Is there any objection to that course of action being taken?;Labour;That is a very good point, and I would like to congratulate Ms Shipley on introducing this bill. There is no objection to that course of action. I would like to congratulate the select committee members on their work on this issue, which is very important. It is a very significant bill, and I think we need to look at it in a very, very careful and well-balanced way. I know the member for Papatoetoe thought that that was a very good point. I think
Is there any objection to that course of action being taken?;National;"I believe that the member is referring to the Bill as a whole. I have no objection to the course of action being taken by the Minister. There is no objection to a course of action in which a member's name is omitted, or the name of a member is used only during the deliberations of the select committee.<|endoftext|>

"
