question;party;answer
are taken to ensure that public hospital patients are given the treatment intended for them and not for an adjacent patient?;Labour;That is the case, and I am pleased that the member for Tauranga has chosen to take a call to answer that question. I am sure that he will do so again in the next few minutes. In my view the member for Tauranga has answered the question that the member for New Zealand First raised. I thank the member for New Zealand First for his efforts and for the fact that his previous answer was so unsatisfactory. It was not good enough to answer the question in a satisfactory
are taken to ensure that public hospital patients are given the treatment intended for them and not for an adjacent patient?;National;"yes, that is the reason why they are being taken. I am not afraid to say that at least the camphor will be able to be used in that regard. I think that the Bill is a good one and that it will allow the public hospital to continue to be run in a more sustainable fashion. I think that is a good thing. I am going to finish by saying that I think that it is very important that the Bill be passed this afternoon.<|endoftext|>
"
What action is the Government taking to increase oil and gas exploration in New Zealand?;Labour;We are also working hard to increase the number of wells drilled in New Zealand in order to meet the needs of our energy needs. We are currently working closely with New Zealand First to introduce a new exploration activity in the south. I want to highlight that activity for the benefit and well-being of the communities in our regions. The Regional Petroleum Safety Authority is currently working closely with industry experts to develop a new oil and gas exploration activity in south Auckland. This activity is expected to lead to the exploration of
What action is the Government taking to increase oil and gas exploration in New Zealand?;National;Following on from the recent announcement of the National Energy Strategy, the Government is continuing to close the initial exploration windows to natural gas exploration in New Zealand, which will make the country more competitive. This is in addition to the Government’s lifting of the exploration exploration standards for oil and gas drilling, which will make New Zealand more competitive. Natural gas exploration is a very important source of gas for New Zealand, as the exploration of oil and gas exploration is very different from the exploration of oil and gas
How many submissions were received on the Royal Society of New Zealand Amendment Bill?;Labour;I can confirm that there were more than one million out there. The submission that I have received on the bill states that it is an effective and efficient means of creating employment opportunities for the overall workforce. The Royal Society of New Zealand is the second employer in New Zealand to be involved in the employment development programme. The Royal Society of New Zealand is also the New Zealand employer of record. The Royal Society of New Zealand is the third employer to target employment participation for the overall workforce. I am sure my
How many submissions were received on the Royal Society of New Zealand Amendment Bill?;National;The Royal Society of New Zealand Amendment Bill No. 2) is the first of its kind in New Zealand. The bill amends the Royal Society of New Zealand Act, which was enacted on 1 June 1972. The amendment bill was introduced under the auspices of the Registrar of Companies Act. It allows the Royal Society of New Zealand to be incorporated. The bill also provides for the amendment of the Royal Society's Trustee Act. The Royal Society of New Zealand Act, which was enacted in 1972,
In what way will schools be disadvantaged by the Labour Party's intention?;Labour;"Opposition members will be disappointed by Opposition members’ willingness to tell the truth.<|endoftext|>

"
In what way will schools be disadvantaged by the Labour Party's intention?;National;The Labour Party's intention is to put the kibosh on the Labour Party’s policies, to put the kibosh on the Government’s policies, and to put the kibosh on the plans of the National Party. The Labour Party is trying to push the National Party back to the centre. That will not do. The National Party is focused on getting back to the centre of the New Zealand community, on getting back to the centre of the people of New Zealand,
Will this option be available for the next local authority elections in 2001?;Labour;This option is available for elections in 2001. The member is commenting that it is not a local issue, when it is a local issue. The member is very concerned that it is not working. He is quoted in the report as saying
Will this option be available for the next local authority elections in 2001?;National;I do not know of any particular date that the Government would like to see for the next local authority elections. The Government is very happy to accept the advice of the New Zealand Herald to move the date, but it does not want it to be the date on which the next election is held. So the Government is accepting the advice of the New Zealand Herald to move it, but it does not want it to be the date that this clause is debated. The reason that I have taken that position is
Where will the responsibility for retirement income lie when the retirement savings scheme proceeds?;Labour;In the new system the responsibility for retirement income will be placed on the New Zealand Superannuitants and New Zealanders (NZNZNZS) Commissioner. The Commissioner will be responsible for the management of the scheme, and he or she will be able to determine when and where a person's retirement income will be paid. The Commissioner has been given a very wide scope of responsibilities, and he or she will be able to determine where a person's retirement income will be paid. The Commissioner will be
Where will the responsibility for retirement income lie when the retirement savings scheme proceeds?;National;"The responsibility will lie with the next Government. The responsibility is with the next Government, and that is the Government that will be in office after the election. The Government will be the responsible Government for the housing crisis. It will be the responsible Government for the housing crisis. It will be the responsible Government for the housing crisis.<|endoftext|>

"
You are going to withdraw and apologise, aren’t you?;Labour;"I am not going to withdraw and apologise. I am going to be here.<|endoftext|>

"
You are going to withdraw and apologise, aren’t you?;National;"I have no comment on that.<|endoftext|>

"
What did the member for Raglan say?;Labour;I would like to ask the member who is advocating this motion, the member for St. Kilda, for a few reasons. I think it is a good thing to get these bills to this stage. I think it is good to have a bill that actually gives a status to the long-term good, solid, taxpaying citizen who is going to be affected by the changes that are going to be made in this bill. I think the Government has got it right. I think the member for
What did the member for Raglan say?;National;He did not say that. He said that the member for Raglan wanted to bring the legislation to the House. Thirty-eight amendments were taken up by that member, and the member for Raglan said that those amendments were needed by the House to get the legislation through. The member for Raglan said that the amendments were necessary because of the submissions he received. The member for Raglan said that he would be happy to accept those amendments, but that members would not accept them. That member was
Did the member sell it for Government valuation?;Labour;I have sold it for Government valuation. The member is asking a question and that is a proper one. I can tell the House that the member who has just resumed his seat, Mr Hone Harawira, has been out of his office for a while. He has not been in the House since I have been here, and I hope he will be back soon to take his place. The member who has just resumed his seat, Mr John Wright, has been in the House for 9 years
Did the member sell it for Government valuation?;National;"The member would have to ask the member of Parliament who sold it to him or he would have to ask the member of Parliament who bought it. I have no doubt that he bought it for Government valuation. That member is certainly not the owner of it. He has probably sold it to the member for Papakura.<|endoftext|>

"
Did the Minister say “Yes” or “No”?;Labour;"That’s not good enough.<|endoftext|>

"
Did the Minister say “Yes” or “No”?;National;"I did not say “Yes” or “No”; I said that he was not prepared to commit to supporting the legislation. He is not prepared to commit to supporting it, and I did not say that he was not prepared to support the legislation. I am sure that the member will think that I was talking about the bill.<|endoftext|>

"
