question;party;answer
What steps has the Government taken to get on top of spending and return the books to balance?;Labour;We are well on the way to doing that, and because of the policies that have been put in place that are in place, we are good to go. I am sure that the member for North Shore will be very disappointed, he may well want to go into the electorate, because I am sure that he will be disappointed when he returns to the House from the National Party caucus. I want to conclude by saying that the Government has a programme to cut spending and return the budget to surplus. It
What steps has the Government taken to get on top of spending and return the books to balance?;National;There are three parts to this question. The first part is about the Government’s spending commitments. The Government has committed to reduce spending by $7.4 billion in the 2013-14 Budget. That will be a huge simplification of the spending commitments to achieve the Government’s stated goal of reducing spending by $7.4 billion. The second part is about the NZQA savings. The NZQA savings will make a huge difference to the economy. The NZQA
Has the Department of Social Welfare made any submissions on this matter?;Labour;"I have. The department has been interested in this issue, and I will not go into that at this stage because it is wholly irrelevant to the preparation of this bill. It is a very good concern, and I commend it to the House.<|endoftext|>

"
Has the Department of Social Welfare made any submissions on this matter?;National;"I have heard from the Department of Education, and I have been advised that it is not planning to be involved in the collection of the money, because it is not a fee, but it has been referred to the department for the purpose of analysis as a cost of doing business.<|endoftext|>

"
-or was it the massive counting debacle that has resulted in tens of thousands of votes not being counted in official results?;Labour;"the counting fiasco has resulted in tens of thousands of votes not being counted in official results.<|endoftext|>

"
-or was it the massive counting debacle that has resulted in tens of thousands of votes not being counted in official results?;National;I say to those members who are concerned, who are anxious, who are crying, saying that this is a serious matter. I think that they have just had a very good night's sleep and a very good morning. This is a very serious matter. I say to those members who are concerned, who are anxious, who are crying, who are crying because of the fact that they are dealing with a serious matter, and they are saying that it is a very serious matter. I think that is
What other initiatives is the Associate Minister considering?;Labour;"We are looking at a couple of major initiatives. the National Party is looking at a few different things, but I can tell the member that this bill is a key part of the National Government's package, and I am pleased to see the bills being passed in the last hour.<|endoftext|>

"
What other initiatives is the Associate Minister considering?;National;"The Government has not made any announcement on any of the initiatives.<|endoftext|>

"
Why has there been an increase in the number of children in the care of Oranga Tamariki?;Labour;I do acknowledge the fact that there has been an increase in the number of children in the care of the Oranga Tamariki. What we have seen is the trend. In the last 12 months, the number of children in the care of the Oranga Tamariki has dropped from 11,000 to 8,000. That is an improvement of 130 thousand children. We need to see that trend continue. The fact that it is dropping from 11,000 to 8,000 is a good
Why has there been an increase in the number of children in the care of Oranga Tamariki?;National;Oranga Tamariki is now a national leader in the area of early childhood education. It has recently become the first school that has a partnership with the Government to deliver early childhood education to the community. It now has the capability to be funded through the existing Government funding system. This can be achieved by a combination of funding support and the increasing funding of the community back in real terms. The school’s operational challenges in the area of the critical early childhood education workforce and the new role of
Can the member still do a flying tackle?;Labour;"A flying tackle is the term of the member who has just resumed her seat in the House. I wonder what the member is doing in the House in relation to the member who has just resumed her seat, because I am sure she is not really sitting on the Government benches. She is very much in the waiting-list for that.<|endoftext|>

"
Can the member still do a flying tackle?;National;I can still do a flying tackle, but I think I would be better off if I did not look around. Not one of them has come out with a policy. The member is not allowed to have a policy. I do not have a policy. I think we have been a lot better since we started the debate. There is a policy. I think it is a very good policy, and if I could get my head round why we are not spending a lot of time talking about it,
Do reports show any improvement for young people?;Labour;"I have the report from the Department of Social Welfare. It gives some, but it does not show any improvement in the KiwiSaver programme, and it does not show any improvement in the number of young people who are enrolled in the program.<|endoftext|>

"
Do reports show any improvement for young people?;National;what reports do show is that the number of children falling from age 5 to age 15 is at a record low. The number of children aged under 14 falling from 762,000 in 1998 to 547,000 in 1999 is a very, very good result. The results are that this Government is getting people back into school to look forward to a new millennium. I want to finish by saying that the key thing we are doing is ensuring that the economy is strong. That is what this Government is
Could I please reply to what you have just said?;Labour;"I could not see that,<|endoftext|>

"
Could I please reply to what you have just said?;National;"I am not aware of any such report. The member asked me whether I had any reports on the costs of the commission of inquiry. I am not aware of any such reports. I am not aware of any such report. I am not aware of any reports that say that there is any cost to the commission of inquiry. I am not aware of any such report and I am not aware of any such report.<|endoftext|>

"
What did the Fitch Ratings release say about the New Zealand economy?;Labour;What did the Fitch Ratings release say about the New Zealand economy? We are seeing a great recovery in the economic outlook. There is a lot of good news for New Zealand. I draw to the attention of the member who has just resumed his seat that the unemployment figures have come down by half a million in the last year, and the best news the last year has had in New Zealand was the drop in the number of people on the unemployment benefit. That is a very good news for New Zealand
What did the Fitch Ratings release say about the New Zealand economy?;National;I am sure the member will be interested to know that the National Bank of New Zealand said this week that the New Zealand economy was growing faster than at any time in the past 12 months. It said that the New Zealand economy was growing faster than it had been for 2 years or more. The National Bank of New Zealand said that there was a good outlook for growth in the economy, we had a good outlook for growth and, we had a good outlook for growth. The member for Waitaki is
What support is there for the community and grassroots providers?;Labour;The community and grassroots providers are supported by the Minister. I did say in my answer that it would be a challenging task to water down the decision at the select committee. I think it is a combination of the fact that there is a large number of submissions, and the fact that the select committee is funding it. The select committee has had some difficulties in the past because of the funding allocation, and there are some new issues for the committee to deal with. The select committee heard from different perspectives on
What support is there for the community and grassroots providers?;National;the community and grassroots providers have been a great help. There is a new trust centre at Whangarei, where new clinics are being established, and there are clinics up and down the country working with people who need help to the best of their ability. I was particularly touched by the announcement last week that the council of the East Coast is being replaced by the Howard County Council. The council is a community organisation that provides a service for the community and provides community support for its staff and for its
