question;party;answer
Could the Minister remind the House when and why the Ministry of Consumer Affairs was established and what its role is?;Labour;"The Ministry of Consumer Affairs has been established to provide a framework in relation to the marketing of products and services that can be used to improve consumer welfare. It is not a Commission of Audit body; it is not a body of experts; it is not a body of people; it is the Ministry of Advertising; it is the ministry that provides the best representation of the Ministry of Consumer Affairs back into the market. The ministry provides the best representation of the ministry back into the market, and the ministry does"
Could the Minister remind the House when and why the Ministry of Consumer Affairs was established and what its role is?;National;I have not the slightest idea of what that role is, I have not been involved in the organisation of New Zealand's consumer affairs. In line with normal practice, I refer to my contribution from my time as a member of Parliament, which focussed on the role of the Ministry of Consumer Affairs. I do not know whether it is appropriate for me to speculate on what the role of the ministry is now, but I do not think it is appropriate for us to speculate as to what it might be
Is that the American definition of a solicitor?;Labour;As I understand it, that is the American definition, but it is not a definition that applies to a particular profession. I am not aware of any circumstances where a solicitor has gone to the trouble of telling the public that he or she has received a professional degree. I doubt whether such a lawyer would be welcome in New Zealand. He or she may have to find someone else, and the public might say that it was a lawyer or a person who had received a professional degree. In New Zealand,
Is that the American definition of a solicitor?;National;"That is what the public calls them.<|endoftext|>

"
Will the Government be following the recommendations of the committee on changes to the antinuclear law?;Labour;I certainly shall be following the committee’s recommendations. I do not think that I would not want to see a change to the legislation. I think that we do need to take more time this time around. I am aware that the member for St. Kilda is aiming to introduce a supplementary order paper, and it might be a good idea to have a look at that matter in the House for some discussion. The member for Selwyn is proposing a supplementary order paper but it is not going
Will the Government be following the recommendations of the committee on changes to the antinuclear law?;National;The Government is following the committee’s recommendations. The committee’s report is an excellent example of how the National Government values its people and how it has developed a plan. It is a plan for a Government that is committed to making New Zealand the place it deserves to be, and that is the place in which we must aspire to be. What we see today is an indication of where that is. We see a Labour Government in the House, hoping to continue to sell the City of
Can you, sort of, clarify why it’s not in order?;Labour;I can. I think it is important that the member gets it right. He is looking for a policy that is going to make a difference. I think we need to look at this bill to see how it will make a difference to New Zealand. I think it is sensible for this to be a policy that is going to make a difference to New Zealand, as opposed to one that is going to make a difference to the Labour Party, which is going to drive up the costs. I think that
Can you, sort of, clarify why it’s not in order?;National;"The member’s question was about the fact that the Government has cut redundancy payments, and I am very disappointed that that is not in order. It is absolutely important that that is in order.<|endoftext|>

"
What is a word I could use, perhaps ``communicate favourably''?;Labour;That is an excellent compliment. I would not use ``considerably'' to describe the way in which the Hon. Phil Goff would describe his speech. Surely he would have been impressed with the way in which the Hon. John Tamihere described his speech. I think that Mr Goff should get his word, and I believe that the Hon. Phil Goff would appreciate that. But I think that the Hon. John Tamihere would appreciate that, because he is the one who has been the voice
What is a word I could use, perhaps ``communicate favourably''?;National;Yes, I am quite sure that is a word that would be helpful. The member is quite right that it is an issue of some importance. But it is also a question of the trust, and that is the major question we are having. The member is quite right that the trust is a very large trust, but it is a very small trust. It is important that there is a public record of what is happening, and it is important that the trust is well protected, and the Minister and
Are the Treasurer's optimistic forecasts for the economy backed up by any recent surveys?;Labour;"There is a lot of telecommunications under the National Party. The Government is here to give the people a good laugh, to tell them that they are being sent to work, and that the Government has not let them down.<|endoftext|>

"
Are the Treasurer's optimistic forecasts for the economy backed up by any recent surveys?;National;My colleague the member for Waimakariri is correct. The survey that has just been published by the New Zealand Herald shows that the economy is growing at about 3.7 percent, which is a far better rate of growth than the national average of 2.4 percent. The New Zealand Corporation has also reported that the income level of New Zealanders has increased by only 3 percent in the last 2 years, and that wages have increased by only 2.6 percent. The unemployment rate has increased
Does this high level of growth relate to any one sector or economic activity?;Labour;"In the past 8 years the growth rate of the economy has averaged about 2 percent, according to the Department of Statistics. That is a pretty good economy; it will last. The key indicator of the economy is the gross domestic product. The Government is projecting net growth of 6.9 percent for the domestic economy, which is a good result from a Government.<|endoftext|>

"
Does this high level of growth relate to any one sector or economic activity?;National;It has been a very good year, and it sets a record for the amount of new jobs. In the last 2 years the economy has added about 47,500 jobs, which is an average of 7,000 a week. In the past 6 months the number of jobs has increased by around 7,000, which means that the number of people who are now in the workforce has been passed to the future. There are good things to report. The Government is spending $3 million on the national
Could the member expand a little?;Labour;I wish to ask that the member who raised the issue of the member for Whangarei, who is the member who is occupying the chair of the Government Administration Committee, that he stand up and give an answer to the question that I have asked, that is why he is sitting there. I am sure that the member for Hamilton West has a copy of the letter that he has been examining. The member for Whangarei has an interesting history with this bill. He has been involved in
Could the member expand a little?;National;"I think this is a very, very good question. I would be interested to hear the member for Selwyn, who is in Opposition to get his first answer on the new legislation. I think that the Minister is making a very good point. It is one that I certainly think the member should put to rest, because it is a very good one.<|endoftext|>

"
What initiatives have been put in place for those children whose school has not yet reopened?;Labour;There is a programme for those children. There is a programme for those children that is in place at present. There is a programme for those children who have not yet reopened their schools. There is a programme for those children who have not yet reopened their schools. There is a programme for those children who have not yet reopened their schools. There is a programme for those children who have not yet reopened their schools. There is a programme for those children who have not yet reopened their schools. There is a
What initiatives have been put in place for those children whose school has not yet reopened?;National;The Government is committed to using the resources available to them to meet the needs of those children, and the initial results of the programme will soon be announced. The programme will be extended to include children in other schools, although the question of whether schools will reopen will be decided by the Minister. The programme will be extended to include children in other schools because the Government has decided that it will help to meet the needs of those children. The Government has been working very hard to ensure that the programme is extended
Could the member read somebody else’s lines?;Labour;I am not sure I have. I think it is undoubtedly the work of the Hon. Dr Michael Cullen, who did a very good job of speaking in the debate this evening. I think it is an honourable display that a former Prime Minister is now a member of the National Party. I do not think that is a bad thing. I think that the fact that one of the members of the National Party has now been a member of the National Party is a good thing. I think that is
Could the member read somebody else’s lines?;National;I think it is a good idea to have a quote from the member for St. Kilda, who was the chairperson of the committee, and who was asked whether she believed that the changes should be made. She said that they should not be made. So I am going to go through what was said by the member for St. Kilda. She said that the changes should be made so that the committee will become a committee for the good of Maori. That is not what it should
