question;party;answer
Who on the Maori Affairs Committee owns an airline?;Labour;I own a company that is not a wholly owned subsidiary of the Government. I am allowed to do that because the Government told us about it by exercising its discretion. I understand that that is what the Government did. I think that if it had exercised its discretion in the wider sense, it would have found that the company was not wholly owned by the Government, and therefore it would not have been able to exercise that discretion in this particular instance. It is a very good example of what can happen when
Who on the Maori Affairs Committee owns an airline?;National;There is quite a high category of airline on the airlines that I am aware of. I am not aware of any air carrier that owns a airline, but the airlines would be quite different to give a definition of that. I am not aware of any private airline that owns a carrier, but I am aware that there is a private airline that is owned by the Maori Affairs Committee. I am not aware of any other private airline that owns a carrier. I am not aware of any private airline that
Can the Minister tell the House who owns the forests that generate carbon credits?;Labour;The Minister owns them. I am not aware of who owns the forest that generates carbon credits, but it is a common belief in New Zealand that the Minister owns them. I am a member of the Environment Committee. I have to say that it is interesting that the Minister actually has to answer the question. It raises a very good point. I have to tell the Minister that the Government does not have to answer it, but the members of the committee have to answer it. I tell the Minister to
Can the Minister tell the House who owns the forests that generate carbon credits?;National;There are some resources that are not owned by property owners, but by the Crown. The number of trees that can be harvested can be estimated by the Minister of Conservation. A very large number of trees can be harvested through the forestry industry. The amount of carbon dioxide that can be used is estimated by the Minister of Conservation. The highest estimate I have is that the carbon dioxide that could be used would be as much as 1.8 percent of the national carbon dioxide emission as not being owned by property
What is the intention of the Reserve Bank of New zealand Amendment bill?;Labour;"The intention of the bill is to improve the quality of our money and our economy by increasing the transparency of our financial statements and by improving the effectiveness of our financial reporting.<|endoftext|>

"
What is the intention of the Reserve Bank of New zealand Amendment bill?;National;The intention of the bill is to remove the need for the Reserve Bank of New Zealand to have a managing director or chief executive, and the subsequent changes to the structure of the Reserve Bank of New Zealand will enable that to happen. The bill also provides for the appointment of a special committee to hear submissions on the bill, and it provides for the appointment of a special committee to consider submissions on the bill. Similar changes are proposed for the Reserve Bank of New Zealand Act 1994, the Reserve Bank of New
What does the member want clarification about?;Labour;The member wants clarification about the fact that the Government does not want to see the Corrections and Rehabilitation of Offenders Act 1998, which has been a failure in the past, applied to all offenders in the community, and that the numbers are actually fairly down. That is why the Government's policy is to set them at the current level, which is
What does the member want clarification about?;National;"I want clarification as to how the Minister can say that I will take a call if he does not want to, so that he can explain to the House what the member is talking about.<|endoftext|>

"
What are the goals of this new prevention strategy?;Labour;This new strategy provides for the growth of a network of well-resourced frontline staff to assist frontline staff-to ensure that their effectiveness and effectiveness are monitored. The strategy should be expanded in scope to include the development of a network of support staff and the support of the community-focused programme, to ensure the effectiveness of the network. The strategy should also be expanded to include community-focused programmes to include the development of skills and communication skills-as well as the development of a new strategy for voluntary
What are the goals of this new prevention strategy?;National;"The goal of the new strategy is to reduce the number of young people who are likely to commit serious sexual offences or who are at risk of committing them. For the first time in my electorate I have seen a reduction of over 100 students a year from entering college. It is a significant increase in the numbers of students who are likely to commit sexual offences, and it is also a significant increase compared with the number of students who are now entering college.<|endoftext|>

"
What were the reasons for this cost overrun?;Labour;It is not a waste of time, but it is a cost overrun for the country. Not only are the costs of the water supply and the water infrastructure that we are now talking about being $60 million or $100 million, but we are talking about $30 million, $50 million, or $100 million. That is the cost of a water supply that is not as good as it could be, and it is costing $30 million. If we take that into account, and if we
What were the reasons for this cost overrun?;National;The Government has been busy. I want to thank the staff of the West Coast dockyard, which is one of the most important in the world. They do a good job of maintaining the dockyard's services in a modern, modern way. The West Coast dockyard is owned by the Crown and operated by the New Zealand Dockyard Corporation. It is well managed and is responsible for a lot of work. It takes care of a lot of work that is not being done. The West Coast dock
Who exactly is in charge of macroeconomic policy?;Labour;"The Government is to be congratulated on the progress made in the Budget, given that the statement of the Prime Minister stated that the Government had achieved a record surplus. The statement of the National Party states that the Government had achieved a surplus. Is that the case?<|endoftext|>

"
Who exactly is in charge of macroeconomic policy?;National;"It is the Minister of Finance. He is the leader of the Opposition. He is the one who has the most to answer for. He has the most to answer for. He has not yet decided what he will do; he has not yet decided what he will do. He is in the middle of a policy that has, been described by the economist as being the worst he has had in 10 years. That is what is being said about the member for Tauranga, because he has the"
What am I being asked to withdraw?;Labour;What I am being asked to withdraw is the fact that I am being asked to withdraw my resignation. It is the fact that in the House today I made it clear that I have resigned. I have resigned because I have not been able to fulfill my role as Minister of Māori Affairs. The comment of the Minister of Māori Affairs from the previous speaker that it is my resignation that has been withdrawn is utterly wrong. In the House today I made it clear that I have resigned. I
What am I being asked to withdraw?;National;"I am being asked to withdraw the statement that, as the member for Tauranga, ``The Government is focused on improving the economic recovery, and that the Government is committed to deficit reduction.'' I am sure that is one of the reasons that the Government is focussing on deficit reduction.<|endoftext|>

"
so I’m just hearing from a Government member stating in the House-do you not need the National Party to pass this legislation?;Labour;What I need to hear from the Labour Party is an assurance that the National Government will follow through on its promise of a $4 billion health-care package. That is the kind of assurance that National is giving to New Zealanders. National members are very concerned about the ratepayer rebate at the moment, which is about $100 a year, and they are going to be voting for it as soon as we can. That is what they are going to be voting for. National members are going to
so I’m just hearing from a Government member stating in the House-do you not need the National Party to pass this legislation?;National;I do need the National Party to pass this legislation, because it is one of the areas in which we are very, very concerned. I think it has been said that we need a Labour Party that is prepared to take any opportunity to get a little bit more in this Parliament, and we need a National Party that is prepared to stand up and say that we should be talking about this legislation, and to discuss it with the Opposition party. But I think the National Party does not actually think that people
What sorts of improvements have been reported?;Labour;"The list of improvements includes the refurbishment of the new Waikato offices, which recently received an upgrade to the state of the project. Other areas include strengthening the management of the Waikato region and the introduction of a new visitor centre.<|endoftext|>

"
What sorts of improvements have been reported?;National;There has been a significant improvement in the number of people in the employ of Employment Service staff, particularly in the area of counselling. A number of staff are being trained to assist those who may be affected by the recent changes in the Employment Relations Act. I am pleased to see that the number of temporary managers has increased from 250 to 300, because we are working very hard to get the numbers up. We are working hard to ensure that the staff get the best time possible out of their work, and
