question;party;answer
Madam Speaker, I assume that you would like me to start again?;Labour;"I am passing into order that the question that is before the House, and I want to ask you some questions in that regard, is one that I think you would like to answer.<|endoftext|>

"
Madam Speaker, I assume that you would like me to start again?;National;I submit that it is unfair for the Minister of Housing, who has just resumed his seat, to use the word “mistake”. We have had numerous other misstatements in the House this year. The Minister should focus his energies on his main subject, on housing, and on the issues affecting people in Auckland. I would like to put to rest any lingering questions about the comments made by the member for Auckland Central who has just resumed his seat. He is a very talented speaker
Madam Chairman, can I be heard in silence?;Labour;I have been on this Chamber for about 45 minutes when the member next to me, the member for Waikato, asks that question. I feel that I have to ask it again. I believe that the member for Kapiti has indicated that the member who is Ms Tolley's opposite is not answering the question. She is not answering the question. She is trying to convey to the House that the member for Papakura is not answering the question. The member for Ngāti Manu,
Madam Chairman, can I be heard in silence?;National;"Madam Chairman.<|endoftext|>

"
Why has the Government not implemented a financial transactions tax?;Labour;The Government has not implemented a financial transactions tax. It will not have a financial transactions tax because it will not have anyone who will be taxed by it. The whole purpose of the tax is to take away money from the honest people of New Zealand. That is what the Government has been trying to do. It is a very good idea, it is efficient and it is effective. It is the time that New Zealanders should be focussed on the issue of our currency and the way that we use
Why has the Government not implemented a financial transactions tax?;National;I have to say that I am not sure I have the right to comment on that particular case. I do not think that this is a particularly good example of how to tax, because it involves a small number of people and the New Zealand dollar is not in recession and the Government is not talking about a tax that is going to increase the consumption tax rate in the future, although I think it is important that we bring it down. If this legislation is going to be passed we should be talking about
How many petitions are currently before the committee?;Labour;The committee has considered and approved the petition of the National Party of New Zealand dated 10 June 1996, and the petition of the National Party of New Zealand dated 13 January 1997. The committee has considered and approved the petition of the Labour Party of New Zealand dated 27 June 1999, and the petition of the Labour Party of New Zealand dated 26 June 2000. The committee has considered the petition of the Labour Party of New Zealand dated 6 July 2000, and the petition of the Labour Party of New Zealand dated 17
How many petitions are currently before the committee?;National;"That is a very good question.<|endoftext|>

"
What reports has the Minister seen on addressing skills shortages in key growth industries?;Labour;Not exactly. It’s not a problem in NZ in the sense that we’re seeing it, but it did not happen in Australia, and it hasn’t happened in New Zealand. I know there are some good things in New Zealand, and I think we’re seeing good things in New Zealand. The main thing we’re not seeing is the skills crisis. The main thing we’re seeing is the skills crisis in New Zealand. This Government does
What reports has the Minister seen on addressing skills shortages in key growth industries?;National;I have seen reports from the Ministry of Business, Innovation and Employment that show that the skills shortages in major industries are growing. I am particularly concerned to see what the Government's plan is to address the shortages in the arts and crafts industry, which is some 412,000 people. I hope that it is a plan that will be in place by the end of the year. I have also seen another report that shows that the skill shortages in New Zealand are not only in the arts and crafts, but
Will the member put up an amendment?;Labour;"The member should not be taking his instructions from the member for Tauranga; he should be asking her to ask him to put up an amendment. I do not know that the member's eyesight will be improved if he does that.<|endoftext|>

"
Will the member put up an amendment?;National;I will have to give an amendment, but I thank the member for Eastern Maori for the assistance she gave. I congratulate the Labour Party on a very good showing in the election. Although the Labour Party has never been as successful as it has been, it is in a good position to make a good contribution to the future. The member for Tamaki has been making some noise about some of the policy measures that will be taken at the next election. I think that is the best way to go
What proportion of the Crown health enterprise staff reported today as earning over $100,000 are managers?;Labour;We have a great deal of regional health workers. The regional health workforce is a very, very diverse group of people. I would like to refer to one or two comments made by the member for Tauranga, who was a member of the National Party and a member of the Nats. They were very important. They are very important. My colleague the member for Selwyn, the member for Tauranga, who is also a member of the National Party, has been involved in the debate
What proportion of the Crown health enterprise staff reported today as earning over $100,000 are managers?;National;"The number of managers earned in the commercial sector increased from 27 percent in 2006 to 94 percent in 2006, and the number of managers earning over $100,000 increased from 56 percent in 2006 to 97 percent in 2006. The number of managers earning over $100,000 has increased from 1,183 in 2006 to 3,715 in 2006.<|endoftext|>

"
What other reports of support has the Minister seen?;Labour;There has been a number of support for the Government's package of education reforms, and I have had a number of reports from the ministry about public support. In respect of the funding mechanisms and how they are developed, I have seen the results of the need to have a fully funded, fully operated school. On behalf of the Minister, I thank the ministry for its work in the area of the budget and the amount that parents can contribute to their children. I think that is an important issue.<|
What other reports of support has the Minister seen?;National;I will not have the member go into the details of all the reports. I have seen reports that are of concern to the Minister. I have seen reports that make the Minister extremely concerned, and that are of concern to the Government. I have seen reports that are of concern to the Department of Corrections and the Department of Corrections. This is the sort of report that the Minister must be concerned about. The Minister is taking the report to Cabinet, where he has to be concerned. I have not seen
Is the member seeking leave for that purpose?;Labour;"I think it would be better if the members of the House voted for the motion. I do not think that the motion should be put or that the member should be allowed to speak on the Bill, as I thought we should have a vote in the Chamber.<|endoftext|>

"
Is the member seeking leave for that purpose?;National;"The member is seeking leave to table a report that he will present this afternoon.<|endoftext|>

"
To what extent in the first half of this century does the Superannuation Fund actually pre-fund New Zealand superannuation?;Labour;I am asking the member for Tarawera whether the Government is spending $1.1 billion of taxpayers' money on post-election campaign purposes. I say to the member for Tarawera that it is $1.1 billion of taxpayers' money and is not a pre-election expenditure. It is a pre-election expenditure. It is a pre-election expenditure. It is not a pre-election expenditure. It is a pre-election expenditure. It is not a pre-election
To what extent in the first half of this century does the Superannuation Fund actually pre-fund New Zealand superannuation?;National;"The Superannuation Fund is pre-fundable but not fully pre-fundable. This is consistent with the Government's statement that it will not prefund Superannuation in the first year of the new millennium.<|endoftext|>

"
