question;party;answer
What is Government policy on paid parental leave?;Labour;The Government is focused on the health and well-being of our people and on ensuring that we can take care of our families. In the period from 1 April this year until 31 March next year, Government members will be trying to persuade the House that there is nothing wrong with a return to paid parental leave. Opposition members say that we should pursue paid parental leave, and they will continue to do so until Labor is in Government. For those who are listening, they will be saying that paid parental leave
What is Government policy on paid parental leave?;National;The Government’s policy is to give longer leave to all New Zealanders who are eligible for it, and that is the policy that the Australian Labor Party has been labelling as our policy on paid parental leave. National has been labelling the Australian Labor Party’s policy as our policy. This is the Labour Party’s policy, and it is the Labour Party’s policy. The New Zealand Labour Party has been labelling the Australian Labour Party’s policy as
Do you want to come too, Winston?;Labour;"I am very satisfied that the member for Rotorua is taking the appropriate steps, and that the Minister has a responsibility to ensure that this legislation is effective.<|endoftext|>

"
Do you want to come too, Winston?;National;Your question is one of the most important in the history of this House. You will have to sort it out with the Labour members of this House, because they are so busy talking to each other that they do not have the time to be here. I have been here, talking to the member for Tauranga and the member for Auckland Central, and they are talking to me, just like the member for Auckland Central did tonight. That is why I have been here. I have been here,
What about the Land Transport Safety Authority?;Labour;"I mean the land transport safety authority, and that is a very good organisation, in the long-term.<|endoftext|>

"
What about the Land Transport Safety Authority?;National;"We are talking about the Transport Safety Authority. What I can tell the member, because of the number of accidents that have taken place, is that the number of accidents that have been reported to the Transport Safety Authority has been a very low number. I can tell the member that the number of accidents that have been reported to the Transport Safety Authority is a very low number.<|endoftext|>

"
So is the House to take it that the Acting Prime Minister doesn’t know either?;Labour;I don’t think that’s good enough. I think the Minister is quite right to say that the member for Tauranga knows, but we don’t know. I have to say that the member for Waitaki’s performance is not always the best. I think that that is more than just a matter of the outcome of the election. I think that the member for Tauranga has not quite achieved his political goals as he wants to see them achieved.
So is the House to take it that the Acting Prime Minister doesn’t know either?;National;I think that is the latest one. I am not a member of the House of Representatives. But I can see it is not the case. I apologise for that. I think that it shows quite correctly that the Acting Prime Minister does not know either. I think that that was an error in judgment. There have been several examples of that, and I think it is time for a change of attitude. That is why I am saying that it is time to change the wording.<|endoftext
What was the apology about by the member T Mallard?;Labour;It was about the very fact that the Minister of Finance, the Minister of Finance, has failed to give this country a clear message that it is time to get serious about the issues. What we have had from the member for Auckland Central is another Government that is all of a sudden becoming serious about the issues of the future. He is changing his tune, and he is changing his policy. He is taking a definite and definite look at the future of the country. I think that is quite a change
What was the apology about by the member T Mallard?;National;"The apology is that I was less than truthful in that statement. The apology is that I did not think it was a serious question.<|endoftext|>

"
Why is the Minister waiting a year to set them up?;Labour;there is no time to set up this system. There are two reasons why the Minister should not wait. The first reason is that there are no partners for the network of phone call centres in New Zealand, just two, with an operating base in Matamata. I have not got any of that information. The second reason is that the competition will not be so great. I am not aware of any decision by the Government that will do that. I think that the competition will be a lot better
Why is the Minister waiting a year to set them up?;National;"I do not understand the difference between the two questions. The Minister might be waiting a year to set them up. But the member might be asking the right question. He asked the right question. There is a difference between the two questions.<|endoftext|>

"
can you advise whether the comment was out of order?;Labour;"That is a view that I express not only in my first answer to the question, but also strongly in any reply to the question. I am pleased to say that the Opposition spokesman on finance said the same thing today, and that the member who was doing the research is a fine scholar. I have a lot of respect for that one.<|endoftext|>

"
can you advise whether the comment was out of order?;National;"The comment is not out of order.<|endoftext|>

"
What does the Government intend to achieve by the saving measures announced yesterday?;Labour;We intend to save about $500 million, because we are doing something right. We are saving about $500 million. That is a good start, and we hope to be saving another $50 million by the time the new Government is in office next year. I want to compare that with what we have done in the past. In the past, we had a surplus of as much as $8 billion. We had a surplus of $10 billion. We had a surplus of $9 billion.
What does the Government intend to achieve by the saving measures announced yesterday?;National;"It is a very good result indeed. The Government will save about $450 million in the current year. I am very pleased that the Government has announced a savings programme, given the context and the savings that we are talking about. One unfortunate thing about the current crisis, which is a genuine crisis, is that it has been carried out for 2 years by a Labour-led Government.<|endoftext|>

"
how would I know? I do not know Ms Longstone,;Labour;If I were a member of the House I would be able to answer that question, because I believe that the bill is important. I believe that the bill will make an impact on the way in which New Zealand was governed in the early 21st century. I believe that the bill will reduce the cost of living and improve the quality of life of New Zealanders by reducing the number of people living in poverty by 30 percent by the year 2010. This will make a positive difference to the quality of life
how would I know? I do not know Ms Longstone,;National;"I would be very interested in seeing the report.<|endoftext|>

"
is the Government taking to give New Zealand - owned businesses greater opportunity for securing Government contracts?;Labour;"The Government has already announced that it will be purchasing the letters of defence, testing the effectiveness of new Defence Force weaponry, and the Chief of Defence Force. These measures will enhance the effectiveness of the New Zealand Defence Force.<|endoftext|>

"
is the Government taking to give New Zealand - owned businesses greater opportunity for securing Government contracts?;National;The Government is taking to give New Zealand-owned businesses greater opportunity for securing Government contracts. There is no doubt that it is time for the Government to do something about the business environment in New Zealand. I think it is appropriate that the Government should introduce legislation, rather than continuing to ignore it. I think it is good advice to take it seriously, that is what I think is the best way forward, and that is what the National Party should be doing. I serve on a select committee, and
