question;party;answer
How did the Budget last month contribute to the Government’s long-term programme to build a more competitive economy?;Labour;"The Budget was a successful Budget for the Government.<|endoftext|>

"
How did the Budget last month contribute to the Government’s long-term programme to build a more competitive economy?;National;In relation to the Budget from 1 October, I have been briefed by the Minister of Transport that the Government’s long-term programme is to build a more competitive economy. This means we will continue to invest in infrastructure, which will ensure New Zealand has a strong economy and a competitive economy. This includes the four roading projects that were announced in the Budget. They will also include the infrastructure investment in the area of transport, which will be announced in the near future. This Government is committed
What about when you wrap your Christmas presents using sellotape?;Labour;"I am not sure whether that is considered to be a proper way of selling your Christmas presents. But my colleague Mr Hide, is the one who finds it most offensive that the Government is selling off our assets and our overseas debt, and that is why it is time to be more open in this Parliament, to take a more open approach to our economy, and to realise that our economy is so much more important now than it ever was when we were in Opposition.<|endoftext|>
"
What about when you wrap your Christmas presents using sellotape?;National;"I am not sure whether sellotape is a good thing or a bad thing. The point is that the minister has got it wrong. Our review process has been one of the most effective and reliable in the world, and we are making good progress.<|endoftext|>

"
Can the member be concise and to the point?;Labour;The member is probably too busy answering questions to be clear. I have no doubt that he is referring to the final week of the election campaign. I will steer off at that point. the member is confusing the last week of the election campaign with the last 2 weeks of the previous 4 years. In the period from 1992-93 to 1993-94 the National Party won the election with a total of 36 percent of the vote. The National Party then lost that proportion of the vote. The National Party
Can the member be concise and to the point?;National;"I am not going to end my speech on that. It is a great pleasure to be speaking in this debate.<|endoftext|>

"
Are we having an across, floor discussion, Madam Chairperson?;Labour;Good morning to all members of the House. I just want to make a few observations about this debate and to comment on some of the comments made by my colleague the Hon. Phil Goff. I just want to say that I am aware of the comments made by my colleague Phil Goff. He has been in this House for the last 2 months, and I think it is important that he gets an opportunity to comment on the debate, because we have had a very interesting debate, and I think we all
Are we having an across, floor discussion, Madam Chairperson?;National;"I do not know what the question is.<|endoftext|>

"
Unless the Government is about to deny its own figures, is the Minister now calling me a liar?;Labour;"What figures have the Minister been referring to? I can tell the member that the figures are the same as they were in the last round of the election. The member is just trying to confuse me.<|endoftext|>

"
Unless the Government is about to deny its own figures, is the Minister now calling me a liar?;National;"I am not referring to me as a member of the Government; I am referring to the Minister of State Services. If the Minister is not prepared to admit that the figures are not right, then I would suggest that the Minister of State Services is being deliberately misleading.<|endoftext|>

"
Then the member for Tauranga would be on the Boundaries Commission?;Labour;That is correct. He should be on the Boundaries Commission as well. I have to say that I think it would be interesting to have that member on the Boundaries Commission, because it indicates that he is not the party that is leading in the polls, and that he is not the leader of the Alliance in the polls. He is simply the MP of the Alliance, and that is not the case at all. The member for Tauranga is much more interesting than the member for St.
Then the member for Tauranga would be on the Boundaries Commission?;National;"The member for Tauranga was on the Boundaries Commission at the time. I do not think that that actually sets a precedent for future Boundaries Commission members.<|endoftext|>

"
What steps is the Government taking to encourage businesses to be more energy-efficient?;Labour;"The Government is working with the industry to develop a range of new and innovative ways of reducing the energy cost of some of our most important business assets. The Government has been working on this issue since 1994, and has been recommending a range of measures to help reduce the energy cost of some of our most important business assets.<|endoftext|>

"
What steps is the Government taking to encourage businesses to be more energy-efficient?;National;The Government is investing $35 million in a pilot programme to encourage businesses to be more energy-efficient by up to 10 percent by 2020. The Government is also supporting the growth of the sector by extending the programme to 66,000 businesses over the next 4 years. The programme will consist of a new 3,000-kilowatt power plant, and will require a minimum of 25 megawatts of electricity generation by 2020. The Government has been working with industry and our trading partners to develop the programme
Does the Housing Corporation intend to increase the number of rental units available for special tenancies?;Labour;"The Housing Corporation is considering announcing a further increase in the number of units available for special tenancies. The housing corporation is aware that the number of units available for special tenancies will increase from 50 to 90 with the new policy being introduced. The corporation is aware that it will take 3 years to make the housing provision, but that it will take 5 years for the housing policy to be fully implemented.<|endoftext|>

"
Does the Housing Corporation intend to increase the number of rental units available for special tenancies?;National;"The Housing Corporation intends to increase the number of rental units available for special tenancies. In the second bill the Housing Corporation is shifting from a contractual arrangement to a contractual arrangement. Although it is an arrangement, it does not involve a lease.<|endoftext|>

"
Why are there 30 percent more young people on the job seeker allowance today than in 2012?;Labour;We are not answering that question. We have a much better way of measuring those numbers. As the member for Maramarua said earlier, since June the number of young people on the job seeker allowance has increased by 24 percent, from 1,000 to 3,000. We are not talking about a mere increase. The number of young people on the job seeker allowance has increased by 24 percent. They have increased by 24 percent. They have increased by 23 percent. They have increased by 20 percent
Why are there 30 percent more young people on the job seeker allowance today than in 2012?;National;The Government’s record, as it stands today, is negative. The Opposition points to a number of things. It points to the fact that the number of people on the benefit has increased by 17,000. The Opposition points to the fact that the number of people on the benefit has increased by 8,000 in the last 5 years. That is what the Opposition points to. It points to the fact that the number of people on the benefit has increased by 10,000. It points
Where are the other 27 members of the Opposition?;Labour;"That is what I would like to ask. Could the Minister tell me what other members of the Opposition have been called.<|endoftext|>

"
Where are the other 27 members of the Opposition?;National;"They are in the House.<|endoftext|>

"
