question;party;answer
Does this member not believe in law and order?;Labour;I do not believe in law and order. I think that the members opposite know that. They are doing a great job. So I concur with the National Party when I say that this is a very good bill. I concur with the National Party when I say that this is a very good bill. I concur with the National Party when I say that this is a very, very good bill. I concur with the National Party when I say that this is a very, very good
Does this member not believe in law and order?;National;I think he would say that I am passing on a duty of vigilance to ensure that we do not get the evidence that would be of use to the Police. I think the member is right. I think that this is a very important bill. It is an example of the work that we have done in the last year. This bill is an example of the work that our local elected representatives have done on the Local Government and Environment Committee. This is a bill that will make it easier for the people
Did the Minister say ``Yes'' or ``No''?;Labour;He did not say that, because it is a totally different matter. I have the assurance that he was saying
Did the Minister say ``Yes'' or ``No''?;National;He has said the answer to that question. In answer to the second question of the member, I have been asked a very simple question of whether the member is a member of the Labour Party or the Alliance. I have been asked that question twice, and three times I have answered it in an affirmative. I have never been asked whether the member is a member of the Alliance. I am not sure whether the member is a member of the Alliance, but I have answered that question.<|endof
Is the honourable member seeking leave?;Labour;"I am seeking leave to table the annex to the report of the select committee.<|endoftext|>

"
Is the honourable member seeking leave?;National;He is interested in the amendments provided for by the amendments to the Bill. He is also interested, and I am sure he will be interested to know, that the amendment to the legislation provides for the Government to seize the assets of a corporation, or a trust, or an association, or a company, or a company, or a trust, if the corporation or association presents a valid certificate of incorporation that states that it is a corporation, or a trust, or a company, or a company.
How will the good-faith provisions of the bill apply to negotiations for collective agreements?;Labour;As I have said, it is important that we listen to the submissions and consider them carefully. The good-faith provisions of the bill will apply to collective agreements if they are consistent with the proposal to a significant extent. That has been shown to be the case with agreements with farmers and with buildings. I believe that it is possible to get good-faith agreements, and I am confident that we have them in place for a majority of them. I want to say again that the good-faith provisions
How will the good-faith provisions of the bill apply to negotiations for collective agreements?;National;The good-faith provisions of the legislation will apply to collective bargaining. Members of the terms of collective agreements will be able to negotiate for collective agreements. The bill also provides for collective agreements to be entered into if they are agreed to by the parties, the parties are willing to enter into collective agreements, and one of the parties has agreed to enter into collective agreements. Under the National Party's legislation collective agreements would not be entered into if one party did not agree to enter into collective agreements. Under the
Why has no appointment been made of a Minister for regional development?;Labour;"The Minister for Regional Development, for whom I have a good relationship, has been unavailable for appointment. I have been advised that the Minister for Regional Development is not at present available for appointment. That is an error. The member for Panmure is busy in Auckland, and I cannot be sure about the advice from him. The Minister for Regional Development is not available for appointment. The Minister for Regional Development was unavailable for appointment.<|endoftext|>

"
Why has no appointment been made of a Minister for regional development?;National;What is happening? The Minister for regional development has become the Minister of Local Government. He is there for the good of the whole country. I heard the Minister of Local Government say that the region has had an improvement in its services in the last 2 years, and that it is now the second-class level of government. I know that this Minister, who is the future Minister of Local Government, knows nothing about the service level and that the Minister for service delivery knows nothing about the service levels.
Does the Prime Minister accept that the cleaner the water is before treatment, the cleaner the water is at the tap?;Labour;"I am not aware of that, but I say that we must be very careful to ensure that the water is safe and that the standards are maintained. I say that we must be very careful not to use our water for other purposes.<|endoftext|>

"
Does the Prime Minister accept that the cleaner the water is before treatment, the cleaner the water is at the tap?;National;"What we have seen so far is a huge improvement on the level of water that was in the water supply.<|endoftext|>

"
How will this announcement help more young people succeed?;Labour;"It will help more young people succeed. That is what this announcement will mean.<|endoftext|>

"
How will this announcement help more young people succeed?;National;"It will greatly increase the amount of people who can aspire to tertiary education and tertiary education, and it will also assist the number of people who can participate in tertiary education and tertiary education activities. This will be an enormous undertaking, and I commend the announcement to the House.<|endoftext|>

"
Why can you not call it cowboys and Indians?;Labour;because the current Prime Minister is a cowboy, and that is an unparliamentary term. I think it is important to remind the House that the Labour Party was a party of cowboys. It was a party of cowboys. It was a party of cowboys. It was the party of cowboys and cowboys. It was the party of cowboys and cowboys, and that is what we are talking about today. The Government of which the member for Dunedin West is a
Why can you not call it cowboys and Indians?;National;"It is ridiculous to argue that due to the fact that the member is a New Zealander, she can be put in a different category.<|endoftext|>

"
Why are international carbon prices low?;Labour;for the first time in 20 years, the world is seeing that the annual cost of carbon is actually lower than it was in 1999. In 1999 the global cost of carbon was about $20 billion, and that was $60 billion in 1999. That was a reduction of $60 billion, in 1999, and it is only $20 billion higher in 1999. I am very pleased to see that, under the National Government, we are seeing that the cost of carbon is lower than it was in 1999
Why are international carbon prices low?;National;What we see is that the carbon price is being low, and it is actually being much lower than it was a few years ago, when it was at $8.6 million. That is why we are seeing that carbon price in the low end of the market. The price is being low, so it is actually being much lower than it was. What we see is that the price is being kept low and the price is actually being kept low. It is actually lower than it was when we
Has that document been placed on the website?;Labour;"it has been placed on the website. The member for New Plymouth answered that he did not know. He did not know that the document was on the website. the member for New Plymouth did not know that the document was on the website.<|endoftext|>

"
Has that document been placed on the website?;National;"The document has been placed on the website. Was it on the website before the member was aware that he had it?<|endoftext|>

"
