question;party;answer
I thought you were the member for Northern Maori?;Labour;"I am the member for Northern Maori. I think that member thinks that the member for Tauranga is a Minister of Maori Affairs. The member for Ngāti Rōkiri is a Minister of Maori Affairs. That member is not a Minister of Maori Affairs. The member for Tauranga is not a Minister of Maori Affairs; the member for Tauranga is a member of the Maori Affairs Committee. The member for Tauranga is not a member of"
I thought you were the member for Northern Maori?;National;I am very pleased to speak to the second reading of the Business Committee report, and to acknowledge its recommendations. I would like to wish Aro Valley Council, the council that I represent, and the other members of the Auckland Council the very best. I would like to acknowledge the very helpful advice provided by the select committee. I certainly commend the work that has been done by our local councillors to try to work through the issues that are faced by the people of Auckland. I would like to acknowledge the
Is the management of the proposed three new prisons by the private sector a fait accompli?;Labour;I believe that the management of the proposed three new prisons by the private sector is a fait accompli. The Opposition was not expected to be up front with the member. I am pleased to say that the member is in agreement. He has been very, very helpful, and I believe that the Government is making progress. The member knows that he will get access to the new prisons on an ongoing basis. I believe that the Government has been very, very helpful. The Opposition wants access to the
Is the management of the proposed three new prisons by the private sector a fait accompli?;National;It is a fait accompli. I have shared the study with the previous speakers. It is a fait accompli. I am not saying that any investment that is made in the public sector is a good investment. I am saying that there is a lot of money available in the public sector. there is a lot of money available in the public sector. I hope that that money goes to the investment in prisons. It is about time that that money went to the good public sector. I
When does the committee intend to continue with consideration of the Income Tax Amendment Bill?;Labour;"I think it is a good time. I am not able to give the member the precise date. I have indicated to the committee that it will be a week after the major functions are held, and I think that it would be appropriate to provide an indication of that.<|endoftext|>

"
When does the committee intend to continue with consideration of the Income Tax Amendment Bill?;National;"The committee's intention is to finish its consideration of the Bill before the close of the Easter break. As I have indicated to the House, the committee intends to continue with the committee’s consideration of the Bill at that point.<|endoftext|>

"
How many submissions has the committee received on the Forests Amendment Bill?;Labour;"The committee received nearly 180 submissions, and it is expected that we will hear at least another 20 this week. As the chairman of the committee I am satisfied that the bill will provide a better environment for the forestry sector in New Zealand.<|endoftext|>

"
How many submissions has the committee received on the Forests Amendment Bill?;National;"the committee received 824 submissions on the bill, including 830 from the forestry industry, 885 from the forestry industry, and 810 from the non-farming sector. The committee reviewed the submissions at a meeting of the committee on 10 September 2004-before a select committee.<|endoftext|>

"
Is the member against free trade?;Labour;The member for Tamaki is opposed to free trade in the sense of the free trade agreements that were signed by the previous Government, and there is an ongoing debate recently in the House about the importation of New Zealand fruit and vegetables. I think that is absolutely a step in the right direction, and I think it is appropriate, as a matter of principle, that the Government should not have to decide between the Government and the Opposition. I am not opposed to free trade in fruit and vegetables, but
Is the member against free trade?;National;"He is not opposed to free trade. He is opposing free trade because of the Government's one-sided support for free trade.<|endoftext|>

"
Is that member excusing incompetence?;Labour;I am saying to the member for Tamaki that that is a highly unsatisfactory policy, but it is not as bad as it was. I do not want to hang on to this issue at all. The member for Tamaki is attempting to propose to amend the Act, and that is not acceptable. I do not want to be the policeman of the House or the member who is trying to get the attention of the House. I want the Minister to come forward and explain to me where the line
Is that member excusing incompetence?;National;I am not excusing incompetence, but I think it is a pretty important issue. I was just asking what the Government is proposing at this stage. I am surprised that the member for Whangarei was not here when I said that the Opposition was only focusing on the performance of the National Party. I think the member should be here to explain what this Government is doing. The Opposition is focusing only on the Government's performance, not on what is happening to the economy. I think the Government
Is this a separate point of order?;Labour;"I am very grateful that the member for Sydenham has entered into a separate part of the Bill. the member for Maramarua is using that part of the Bill.<|endoftext|>

"
Is this a separate point of order?;National;"The member is asking a very long question.<|endoftext|>

"
Why does the member not write it in?;Labour;I guess he is not aware that the Government said
Why does the member not write it in?;National;"Because he is not prepared to do that.<|endoftext|>

"
Does the Fiscal Responsibility Act 1994 still reflect Government policy?;Labour;It does, the detail of the legislation is the same. I am pleased to say that the Government is introducing the Supplementary Estimates Bill to provide clearer rules and to better deal with some of the difficulties that the previous Labour Government had to deal with. The purpose of this legislation is to improve the management of the New Zealand economy. The Government is making the business environment clearer, and the Government supports their actions. The key objective of the legislation is to ensure that the Government's objectives have an impact on the
Does the Fiscal Responsibility Act 1994 still reflect Government policy?;National;The fiscal responsibility act, introduced by the previous National Government, was aimed at providing the Government with a more effective and competitive economy. It afforded the Government the opportunity to consider the future of the economy and to improve its performance. The fiscal responsibility act was removed from the Fiscal Responsibility Act 1995, and replaced by the Fiscal Responsibility Act 1999. The fiscal responsibility act is still being reviewed in the second reading debate. I am not sure whether the committee has considered whether it is appropriate to review the bill.<|
What about sites that Shane Jones looks at?;Labour;The Government’s position is that I am not going to talk about the sites. I have been to a number of sites, and I have always been amazed at the level of interest and engagement that you have got from all the sites, because they are community sites, they are family sites, and they are regional sites. They are all very nice, very supportive, and very hopeful. It is not just the National Party, it is also the Rotorua Expressway, the Koomen
What about sites that Shane Jones looks at?;National;There are sites that Shane Jones looks at. It is not as though I have got a clue about what he is doing. He is the Minister of Transport. He is the Minister who has been the chief executive of the Transport Industry Authority for a couple of years now and has received advice and guidance from the Government on a number of matters. I will just turn to the details of the Bill. I will outline the Bill, because I think it is important to know what is in it. I think
