question;party;answer
Why do you not stand and take a call, Mr Hide, rather than sitting in your chair like a chump?;Labour;I do not want to take a call. I want to take a call because I think it is important to raise the issue of this decision. I am delighted to see that the select committee report the bill. I think I could go on to the other aspects of the bill, but I can only say that I think it is a very good bill, and I think it is a very good thing that we have had a select committee report it. I think it is really important that we do what
Why do you not stand and take a call, Mr Hide, rather than sitting in your chair like a chump?;National;The member asks about the ban. It is for a whole variety of reasons, including the National Party’s participation in the conference. National Party members were not present at the conference. We are committed to the conference. I am not aware of any National Party being banned and it is a matter for dispute that has been involved. I have received no complaints to the Conference of Trade Unions and there has been no complaint raised by the Conference of Trade Unions, who are seeking to have the
Am I entitled to ask a supplementary question?;Labour;I am entitled to ask a supplementary question, because it is a question of fact. The member for Wellington West asked a supplementary question. We have heard a number of such questions in the Committee stage of the Bill. I have to say that I find those questions somewhat amusing. I have to say that the member for Wellington West, for whom the main question was the question of who was the Minister of Health, asked a supplementary question. I find that a little bit funny, and I do not think
Am I entitled to ask a supplementary question?;National;I am not. The member for Selwyn asked a supplementary question, and I have just answered that I have done so. I have answered that I have asked a supplementary question. I have made it very clear the member for Selwyn was saying that the Secretary of Finance and the Chief Executive of the Department of Corrections were not in cahoots with the Minister as a result of the decision made by the member for Selwyn and the Government. That is absolutely untrue. The member for Selwyn raised
What is the Government doing to extend access to free flu vaccines?;Labour;"The Government is increasing the number of free flu vaccines offered, which is a very good thing. I think it is appropriate that this year we have another trial of the flu vaccine.<|endoftext|>

"
What is the Government doing to extend access to free flu vaccines?;National;The Government is extending the availability of free flu vaccinations to children under the age of 2 years. We are also ensuring that more children are getting access to free flu vaccine than they were last year, as well as increasing the number of children who have access to free flu vaccines. We are also aware that in the last few weeks we have seen a dramatic increase in the number of children who have access to free flu vaccines, and this is a positive development. It is one of the first steps that the
What are some specific projects that were supported?;Labour;I have to say that the main part of the National Party's agenda for the election is to create jobs by fighting the next election. The National Party's opponent in the election is the Auckland Alliance, and that is why it will not be allowed to get any of its agenda right. the National Party will not be able to get its agenda right. What we have is a National Government that is trying to get its agenda right, and this is what we are talking about. We are talking about the
What are some specific projects that were supported?;National;It is a huge undertaking and a huge amount of work. My colleagues are busy trying to put together a number of things, and I think it is very important that we ensure that we are doing it well. I have to say that the work that has been done in the last couple of weeks, and I will not talk into the numbers for a moment, is absolutely phenomenal. It is not as if we are not supporting the building of the new centre. We are investing $16 million in that
Why does the Minister not believe that the same laws should apply to all New Zealanders?;Labour;"That is a very good question. The Minister is saying that the same laws should apply to all New Zealanders. I believe that the same laws should apply to all New Zealanders. I believe that the same laws should apply to all New Zealanders. I am sure that the Minister has some questions that she can answer. I do not have any questions of that nature.<|endoftext|>

"
Why does the Minister not believe that the same laws should apply to all New Zealanders?;National;The Government did not control the legislation, and it is now in the hands of the courts. The Government has said
What is the total funding proposed for off-job training for employment in 1995?;Labour;In 1995 the total funding announced by the Government is $12.6 million, although there are differences between what was announced in 1995 and what is in the Budget. In 1995 the Government announced a total of $12.6 million for off-job training for employment. That figure includes $1.6 million for a training programme for those with a limited number of jobs, $4.3 million for those with a severe disability, $6 million for those with a severe disability, $8.
What is the total funding proposed for off-job training for employment in 1995?;National;The Government's Strategic Workforce Strategy has increased the number of people in the workforce from about 2,000 in 1990 to about 4,000 in 1995, and the number of people employed in New Zealand has increased from about 600 to more than 2,000. I do not have a breakdown of all the numbers. I do have the figures, and I have them in front of me. The number of jobs in New Zealand has increased from 6,000 in 1990 to about 7,000 in 1995
Why don’t you ban the use of cellphones?;Labour;That was my first question, and I shall now move to the second part of the question. The first part of the question is why don’t you put in a new Bill to ban the use of cellphones when you have a Bill which would do the same thing on the other side of the House? Why don’t you put in a new Bill to ban the use of cellphones when you have a Bill that would do the same thing on the other side of the House?
Why don’t you ban the use of cellphones?;National;I am not having any difficulty with that, but I want to say that we have to restrict the use of cellphones, and I think the Commissioner of Police has done a lot of work in that regard. I agree with the previous speaker that we have to take an active role in limiting the usage of cellphones. there are a number of ways of doing it, and I think there is a lot of work being done by the police to address that problem. In the next 2 years we will
Has this bill already been tabled in the House?;Labour;There is no suggestion that this bill should be referred to a select committee. This bill is a very minor piece of legislation, and I think that it is appropriate that the House have the opportunity to debate it in the select committee in the second reading. The main thrust of the bill is to remove a negative impact of the use of tobacco products, and that is done through the use of tobacco products in the form of tobacco products marketed by the tobacco companies. So I think that it is appropriate that the
Has this bill already been tabled in the House?;National;"The bill will be tabled in the House after the Government's majority has been achieved.<|endoftext|>

"
How big an area will be planted north of the Uawa by this time next year?;Labour;"That is the question put by the member for Selwyn. If we had a 3-year programme of planting, as I certainly think we should have been doing, well north of the Uawa, we would be able to plant 5 acres. I think that we should have been planting all that way. I think that we should have been planting all the way south, west, north, and south of the Uawa.<|endoftext|>

"
How big an area will be planted north of the Uawa by this time next year?;National;The Government has committed to planting 65,000 hectares of bush by the end of this year. That is a pretty big number. We will have a lot of bush in our area next year. The bush will be in bush for quite a long time, so we would need to come up with a whole bunch of rules to make sure that it is all managed in this way. So in my piece of advice to you, may need to think about some of the rules that you have on the table
How does the fall in the dollar compare with previous years, and what is the impact on exporters?;Labour;The fall in the dollar is more than twice as large as the fall in the dollar over the same period last year, and it is about a fifth as big. That means that the dollar today is about 12 percent lower than it was last year, and the dollar in the future will be about 12 percent lower. One of the most significant factors affecting the dollar today is the weakness in the euro, which is a major factor in the fall in the dollar. That is not to say that the euro
How does the fall in the dollar compare with previous years, and what is the impact on exporters?;National;"We are certainly not seeing the impact of the Washington Post article, which states that a strong dollar has led to ongoing difficulties, including the recent collapse in the dollar and related factors. It is important to note that the dollar has fallen below the level at which we had in the year prior to that collapse.<|endoftext|>

"
