question;party;answer
Do I understand that you are going to seek the leave of the House?;Labour;"I seek leave of the House, and I am sure Mr Mathews will get to his feet to speak for a couple of minutes. I am happy to have another brief call as long as I have got a few minutes to spare.<|endoftext|>

"
Do I understand that you are going to seek the leave of the House?;National;"I am going to ask you to give me an answer. I am asking you to give me an answer. I am asking you to give me an answer. The member is just trying to confuse me, because he is trying to make it sound as if you are being very brief. You are not being brief, because you are being very brief.<|endoftext|>

"
What key political element of the approach has so far been difficult to resolve?;Labour;"I have a lot of people who are in turmoil in their lives. The major issue I have to deal with is the growth in the number of educational corporates in New Zealand. This is not under control; this is quite different from the growth rate of the previous cycle. I am sure that a lot of people are in trouble. I have been saying that a lot of those people would have been out of a job much sooner if the Government had taken the advice of the National Party and decided to"
What key political element of the approach has so far been difficult to resolve?;National;The Government is committed to a policy of supporting voluntary employment and the availability of training and education in a manner that is consistent with the Government’s policies and the Government’s approach. In reality, the issue of compulsory education in New Zealand is complex and it can be disputed, with a small number of those who have objected to compulsory education being excluded from participation in compulsory education. The vast majority of schools in New Zealand are voluntary. Many of them are in the bottom of the heap of
Is this the only funding that the Lottery Grants Board has provided for the restoration efforts?;Labour;I think that is the best way of putting it. The Lottery Grants Board has provided a significant sum of money to restore and improve the situation in our area. This has not been raised in any of the submissions that we have taken up with the Government. I hear that the Lottery Grants Board is worried about the fact that it has lost its KiwiSaver. I would like to know how this has been managed, and whether this is the only money that has been provided. I would
Is this the only funding that the Lottery Grants Board has provided for the restoration efforts?;National;"I am advised that when the Lottery Grants Board was still operating, it had a surplus of $20 million and that it was in financial trouble. It was in financial trouble.<|endoftext|>

"
That’s where you live, isn’t it, Sue?;Labour;I am very happy to have this debate in front of the House, because I’m going to do it. I may not have got all my points right, but I’m very excited for this debate. I think that the member who raised the point of order a little earlier, which was not quite right and I’m going to pick up on it, is going to pick up on a misunderstanding that I made earlier. I think that the member who is introducing the Bill
That’s where you live, isn’t it, Sue?;National;"What is the Minister doing?<|endoftext|>

"
How motivated is Foreign Affairs?;Labour;I am very, very motivated to do my job as a Member of Parliament. Labour members however are not. They are not as motivated as they should be. I am excited to be a member of this House, and I am excited to take that next step as a member of Parliament. I am excited to be a member of this House. I certainly am excited to hear the National Party say that it has a plan for New Zealand. For the first time in a generation someone has said to the
How motivated is Foreign Affairs?;National;I am very, very motivated. It is a very good thing that so many people have gone to China to study, and to learn. In developing this bill, we are very interested in helping New Zealand, the world, and New Zealanders. But we have to be realistic about what the impact of the bill will be. We are concerned about ensuring that New Zealanders are aware of how they are affected by the bill. I will direct my comments to the member for Tauranga. It
What other reports has the Minister seen on support for the foreshore and seabed review?;Labour;I have seen reports that talk about a review of the seabed, but it is not the seabed that the Minister is talking about. The seabed is not the seabed that the Minister is talking about. The seabed is not the seabed that the Minister is talking about. This is just another example of a Government that has bought into the Government’s advisers. It is time for us to say that the Government's advisers are definitely not the experts
What other reports has the Minister seen on support for the foreshore and seabed review?;National;"I have read several reports on support for the foreshore and seabed review. I have read them in the context of the ongoing review. The report to date indicates that there is support for the review, and that there is a need to do more, particularly in the context of the review of the seabed.<|endoftext|>

"
Can I ask for a point of explanation?;Labour;You can ask for one, but there is no point of explanation. I have just said that it is a very important issue. I think that the Minister's comments were about as interesting as the language that was used by the member for St. Kilda, and in that respect it is quite interesting that the member for St. Kilda chose to take the opportunity of her colleague, the Hon. Lillian Fitzgibbon, to give a brief supplementary answer that was just a little bit different
Can I ask for a point of explanation?;National;"The member who asked the question was referring to the fact that the figure is about $9.7 million less than it was just a few days ago. That is a reduction of about $9.7 million to $9.7 million.<|endoftext|>

"
What will the process for the inquiry be from here?;Labour;The process will be the same as the previous one. The media is a very important part of the inquiry. The media has been a very important part of the inquiry, and the media will be present at the hearings. In the course of the inquiry in respect of the Nauru issue, the media will be present in the House. The media are the strongest force in the community and they are the media that will be consulted. As the Minister of Immigration has said, the media will be a
What will the process for the inquiry be from here?;National;"The process will be for the select committee to report to the House and for the House to consider the report, as it has done in the past.<|endoftext|>

"
Are the Government’s proposals final policy?;Labour;The Government’s proposal is final policy because it has not been adjudicated. It is not final policy. it is something that is being decided by the select committee. It is an idea that is being taken to the select committee for adjudication, and it is something that is being put to the select committee for adjudication. It is not final policy. It is something that is being decided by the select committee. It is not final policy. It is a very simple matter. It is
Are the Government’s proposals final policy?;National;"The Government’s proposals are final policy.<|endoftext|>

"
How much land has been surrendered from pastoral leases over the last 3 years?;Labour;I cannot confirm that, but the figure is somewhere around $4 million. That is not including the rest of the land that has been surrendered, as I am sure that the member can confirm. The figure I am referring to is $4 million, which is about $14,000. That is the figure that is discussed in the bill. That figure includes the land that has been surrendered, the land that has been sold, and the land that has been transferred to the State. I do not
How much land has been surrendered from pastoral leases over the last 3 years?;National;The number of pastoral leases surrendered has doubled since the introduction of the new legislation. The number of pastoral leases surrendered in the first year of this legislation was just over 1,000, in the second year, just under 5,000. There have been a number of land-shorteners, but I would like to simply pick up on a couple of points that have been made by a number of people. One is that the new legislation has been developed to involve a substantial number of land-holders,
