question;party;answer
Why didn't the member support it 3 years ago?;Labour;I am happy to do that because I think that it is a pretty good idea. I think that it is a pretty good idea to have a compulsory early childhood education system. I think that the principal reason why we did not have one 3 years ago is that we had some very good reforms in New Zealand. The second reason is that the third most impressive thing was the National Government’s education policy. That policy was a shame. It was a policy that said, “We'll push
Why didn't the member support it 3 years ago?;National;"I think that the member for Tamaki knows what happened when she first introduced the Bill, and I think that she would have been aware of the effect that the Bill has had on the employment status of the young person, had only she been in Parliament. I think that the member for Tamaki knows what happened when she introduced the Bill.<|endoftext|>

"
What benefits does the Minister expect from the criminal procedure reforms?;Labour;"The Minister of Corrections, has indicated that the reforms will be implemented by the end of this year. I expect that the reforms will bring noticeable improvements to the detention of young offenders and will bring a sense of security to families. The reforms will also reduce the likelihood of incidents of violence, and will improve the quality of detention services, which is the type of service that the Minister has said will be introduced in 2005.<|endoftext|>

"
What benefits does the Minister expect from the criminal procedure reforms?;National;"Overall, I think it is positive; I think it is very positive. I think this is a very good piece of legislation and I commend it to the House.<|endoftext|>

"
With a limited authority to teach?;Labour;"In the last year of the Labour Government the Education and Science Committee considered more than an extra $1.4 million of expenditure on education than it did for the whole of the previous year.<|endoftext|>

"
With a limited authority to teach?;National;I am delighted to speak on the Bill. It is a very important Bill, and I think the members opposite would agree with me that it is a very important Bill. This Bill deals with the issue surrounding the awarding of scholarships to students from overseas. I shall move on from that point. It is interesting to note that unlike the Government's policy, the Bill is not about awards. The Bill states that it is all about scholarships. I think that is a very interesting comment. There is no mention
How have consumers benefited from these changes?;Labour;I think that the key thing is that they are all being done with efficiency and quality, and that they are a lot cheaper than they were in the past. That is a really good testament to the fact that we have had a whole series of changes in the last 6 years, and I think that people are finding that out. I think it is a bit like the roading industry. I think that everyone in this House would have thought that if we had had roading improvements, people would have
How have consumers benefited from these changes?;National;"The consumer price index has increased by 7.9 percent since the introduction of the new policies in March 2007. Less than 1 percent have been offset by rising food prices.<|endoftext|>

"
What about the Court of Appeal case?;Labour;The Court of Appeal case is a very interesting case. I say to the member for Otaki that I do not think it has reflected very well in the debate or in the debate on this part of the bill. I think it should have been referred to the select committee, as it is not in the best interests of New Zealand. I say to the member for Waitaki that the case will be referred to a select committee, because I think it would be much better if it had been referred to
What about the Court of Appeal case?;National;As a result of the court case heard in September, which involved a child who had been produced to the court after being taken from the hospital's care, there was no record of the court hearing, and no reference to the child or to the fact that it was not in the care of the court. The court then decided that the court had to pay, so the court was fined $10,000 and had to make the child available for their care. That is the case in this case.
What other reports has the Minister seen on the economy?;Labour;I have seen a report in the Herald on Monday that outlines the economic situation in the West Coast region. The report said that growth is expected to be at around 5.5 percent next year, and the unemployment rate is expected to be 6.2 percent in 2001. This is a job gain of almost 3,000 jobs. On a negative note, the report said that the West Coast still has a low unemployment rate because of the economic recovery. The report also said that the jobs and growth trend
What other reports has the Minister seen on the economy?;National;"I have seen a number of reports from the New Zealand Herald, the New Zealand Herald, and the Dominion.<|endoftext|>

"
Talking about fish, how about scampi?;Labour;Sorry, I was thinking of changing it. It is a very clever and clever change. the member may have been referring to the halibut, rather than to the scampi. I will take her word, because it is the word that is used in the bill. The bill states that the council must establish and maintain a fish reserves board, and that it must not appoint members of the Board of Trustees without the consent of the member. The member may have been referring to a different
Talking about fish, how about scampi?;National;I am talking about the Blues, the Hawke’s Bay, and the North Island. Some of the people in the north have not had a good day. I heard the member for Papakura talk about the issue of the fishing industry, but I have not heard him support it. I wish to add to that by saying that the Opposition has a very different view on this matter from that of the Labour Party. It has said that we should have more fishing for our children's children to
Is there anything in the latest New Zealand Police Association newsletter about those matters?;Labour;There are a number of things that have been centred on in the new year. I have heard from my colleague the Hon. Phil Goff that the membership of the police has increased by 20 percent since the Labour Government was in office and that the membership is now down to 11.5 percent. I think that is pretty good. I have heard from my colleague the Hon. Phil Goff that it has increased by 28 percent since the Labour Government was in office, and that the membership has now dropped to
Is there anything in the latest New Zealand Police Association newsletter about those matters?;National;The latest newsletter, dated 15 December, states
Is this the man who campaigned against National?;Labour;I am not sure whether I have ever been in the House-I do not know. I am not sure whether I have ever been in the House. But I am not sure whether I have ever been in the House. I am not sure whether I have ever been in the House. I am not sure whether I have ever been in the House. That is the kind of man the National Party has been. I am not sure whether I have ever been in the House, but I am sure
Is this the man who campaigned against National?;National;I am not sure. I would have thought that had the poll that we have now in front of us been about a third of the way through the year, that is the extent of the man's life. We all want that sort of life. We all want a good, strong, secure, and caring family. We all want the security of a decent, healthy, decent-looking home. We all want a child who can come home to in the winter to be safe, warm, and
So you want to put the motion, do you?;Labour;"I am not sure whether you want to put it or whether I have to put it. It is not as if we want to put it.<|endoftext|>

"
So you want to put the motion, do you?;National;"I am giving an indication of the time. It is a little later than the last one.<|endoftext|>

"
