question;party;answer
Is the member asking whether it was the Minister who introduced the Bill?;Labour;"The member is asking whether the Minister introduced the Bill, the Minister of Education, or the Minister of Social Welfare.<|endoftext|>

"
Is the member asking whether it was the Minister who introduced the Bill?;National;I am asking whether it was the Minister who introduced the Bill. I think it is acceptable that the member should clarify that. He did not ask whether it was the Minister who introduced the Bill. I shall come to that later. I want to raise an issue that will come up in this debate. I think it is significant that, on the one hand, the member for Papakura was, as I have said, a member of the National Party. He is a member of the National Party.
How many individuals had expressed an interest in the conference?;Labour;"There have been about 12,000 people who have expressed an interest. They are not the only ones; approximately a million people have expressed interest. The conference is a very important event. It is not just a conference; it has been the topic of a number of presentations, speeches, and discussions. There have been some very interesting submissions, which are just some of the things that have been discussed so far. If you look at the issue of the American election, you see that it was the largest"
How many individuals had expressed an interest in the conference?;National;I have no idea, but it has certainly been made known to all those people who have expressed an interest in the conference and those who are involved in the conferences. Many people have expressed interest in the conference, and many have expressed interest in the conference itself. A number of people have come to the conference to see it actually begin. I have heard that some of the speakers were invited to come to the conference and that some of them had been there for the conference, so this is a very,
How much was not taken out of the consolidated account, is that not the point?;Labour;"The only point that has been made is that I am saying to the member that the annual report of the Ministry of Economic Development and Employment is one of the most reliable in the world. There is no need for me to keep on repeating it.<|endoftext|>

"
How much was not taken out of the consolidated account, is that not the point?;National;I have to tell the member that the numbers have been taken out of the consolidated account. The reason for that is that the member is asking me to disclose some information that is necessary. I do not know what the member is asking me to disclose. I must say that the list of items that I have passed to the member is more than 100,000. That is the number that I have passed. I have passed to the member more than 100,000 items. It goes on to the member
Why are we having this commentary?;Labour;The commentary is an important part of the Bill and I hope that will be the case in the committee stage. We have had the opportunity to take this opportunity to discuss the Bill in the House. I want to say to the member for Whangarei, who has just resumed her seat, that I am sure that we will return to a review of the Act again in the future. I hope that we will be able to bring back the practice of having a select committee to consider the controversial parts
Why are we having this commentary?;National;The commentary was done by the Ministry of Social Development and Employment on a programme of consultation for a report that will be released on the 6th, and I believe it has been completed. The publication of the report will be a significant achievement in the work we have undertaken to ensure that the Government's policy of reducing the number of children living in poverty is carried out. I think it is a shame that some of the basis for the involvement of the Ministry of Social Development and Employment in the development of this
Can the member explain what word was unparliamentary?;Labour;I do not wish to start with a comment that was made in response to a question that was asked in the House last night, and which was answered by the member for Selwyn. It was in reply to a question from the member for Maramarua. That questioner asked the member for Selwyn whether he could commit to a timetable for the building of a ``triple-dipping'' hospital in Dunedin. The member for Maramarua showed a series of statistics, which were in
Can the member explain what word was unparliamentary?;National;I want to thank the member for New Zealand First for his suggestion of that word. It is a word that is not unparliamentary, but I put it in the order of the day. It is a word that is not unparliamentary, but I put it in the order of the day. I put it in the order of the minute, and I put it in the order of the year. That is unparliamentary, but I know that it is unparliament
Has the Government discussed the possibility of leasing frigates from any other Government than Australia's?;Labour;"I have discussed a number of options with the Ministry of Transport, including the sale of New Zealand's submarines and ships. It would be inappropriate for the Government to sell New Zealand ships to foreign nations when there are no plans for substantial sales of New Zealand ships.<|endoftext|>

"
Has the Government discussed the possibility of leasing frigates from any other Government than Australia's?;National;"The Government has not. The Government has not discussed the possibility of leasing frigates from any other Government.<|endoftext|>

"
Will the Government provide funding and resources for the tertiary sector in the 1991 academic year?;Labour;"The Government has committed to providing a funding package of $16.9 million for the tertiary sector in the 1991 academic year. The Government has allocated $500,000 to the sector in 1991, and $100,000 is being devoted in the current academic year to support the achievement of our young people. The Government will continue to pursue this policy for the foreseeable future.<|endoftext|>

"
Will the Government provide funding and resources for the tertiary sector in the 1991 academic year?;National;"I am afraid that I would have to ask the Minister of Social Welfare to send me such a question.<|endoftext|>

"
When will the Minister start caring about people?;Labour;"When the member for Bay of Islands asks the question, I will be sure to answer that question.<|endoftext|>

"
When will the Minister start caring about people?;National;"It is not the point.<|endoftext|>

"
What is the Government's view on the best way to boost the regions?;Labour;The best way to boost the regions would be to return to a more appropriate rate structure. it is important that the regions remain at the present level of funding, which is $2.6 million, and that they continue to receive a percentage of the total capital expenditure in the capital region. There is no doubt that the capital is not adequate to cover the current anticipated expenditure on the health sector. As has been mentioned before, the capital is more than $2.6 million. There is no doubt
What is the Government's view on the best way to boost the regions?;National;The Minister of Local Government has decided that a better way to go would be to take up a bill that has been sitting in the House since 1971. I know that there is a select committee process that is going on now, I am advised by the Minister of Local Government. It is chaired by the Hon John Key and it has a number of senior members who are being invited to join the committee in this effort. The bill will make a number of changes to the current multi-annual back-
Can the Minister give any instruction that safety work must be undertaken?;Labour;As a result of the Minister’s comments, I would like to suggest that a review of safety across the board be undertaken. I am not aware of that, and I would like to be told. It is of no use to have safety work in place. The Minister has made it clear that safety work must be undertaken. Safety issues have been a priority for the Government since it took office, and that is why it is so concerned about the safety of the $1 million train that was
Can the Minister give any instruction that safety work must be undertaken?;National;"I have directed that the Safety and Standards Committee report on and on and on, and it will take no more than a fortnight to do so, so I can advise the member that I am sure the committee, will be able to get the report right away. The member who asked the question is entitled to that information.<|endoftext|>

"
