question;party;answer
What is the Government doing to raise educational achievement for Pasifika students?;Labour;I have just given the Minister and the Minister of Education the latest statistics. That is about the highest number of Pasifikis in education that I have heard in any jurisdiction since 1992. If we are to believe that education is about teaching people skills for employment, then we have to provide the skills for them to be employed in the first place. I have had Pasifika pupils tell me that they have had a lot of stress in the last year, because of the lack of jobs. The
What is the Government doing to raise educational achievement for Pasifika students?;National;The Government is introducing a new programme of incentives for young Pasifika children, starting in December of this year. The programme allows children to go to work at an early age, to get their first lesson at home, and to get their first year of school at home. This is a huge improvement on the previous Government’s policies. This is an improvement from the previous Government’s policy, which was to help children to stay in school. This is from a Government that’
How will the Lincoln Hub benefit students, exporters, and the wider economy?;Labour;"The community will get a much better bang for the buck for the amount of money that we are investing. We have seen that at the recent Millennium Youth Festival, which is a really good event. There are a number of students and exporters who will get a boost from that. Getting that kind of investment in our young people is about making sure they are connected to the skills that are needed to be able to compete in the jobs market.<|endoftext|>

"
How will the Lincoln Hub benefit students, exporters, and the wider economy?;National;"The Lincoln Hub, as it is now, will be a great place to live and work. The relocation of the facility to Wellington will create new jobs and economic activity, and will be a fantastic place to visit for students, exporters, and the wider industry. I commend the bill to the House.<|endoftext|>

"
What do these reports say about the amount of elective general surgery provided to New Zealand patients?;Labour;The New Zealand Health Council report states that elective surgery is being provided to a growing number of New Zealanders. The Council says that 40 percent of New Zealanders have received elective surgery. It states that more than half of those people are aged between 15 and 64 years. The council also says that about half of patients are aged between 15 and 64 years. The council states that approximately half of the patients are from the North Island, and it says that the majority of those are aged between 15
What do these reports say about the amount of elective general surgery provided to New Zealand patients?;National;I can confirm that the figures quoted in the reports are not so much the total amount of elective general surgery delivered to New Zealand patients as the total amount of elective surgery delivered to New Zealand patients. I take a different perspective on the issue of elective surgery, and I think it is important to get a good understanding of that. I think it is important that we make sure that we treat our people well, the best care that is available to them. It is important that we get a
What other steps is the Government taking to make further use of GPS technology to monitor offenders?;Labour;I think it is important to note that the use of GPS devices in the courts is not new. GPS technology has been used in the courts for a number of years. I am not aware of any court using GPS technology to monitor an offender. The use of GPS technology is certainly in the public interest, and it is an increasingly popular tool that is effective in law enforcement. The Australian courts have used GPS technology to monitor offenders. The use of GPS in New Zealand is supported by the Ministry of Corrections
What other steps is the Government taking to make further use of GPS technology to monitor offenders?;National;I have a number of reports that show that we are getting good results in terms of the use of GPS tracking in relation to the offender profile, and that we are making it easier for the police to track offenders. I have to say that the police do not always use all of the permitted authorities, but they are using them to their advantage in terms of helping to identify people who may be involved in offences. They can use them to identify people who have been involved in offences and can use them to
What about giving us one of our supplementaries back?;Labour;"The Government will support that, but we think that is an appropriate measure.<|endoftext|>

"
What about giving us one of our supplementaries back?;National;The member has done us a great disservice by giving me two of our supplements back. I am sure that the member has not forgotten the fact that we used to pay for those supplements, and I am sure that the member will not take that suggestion lightly. The member should not take it lightly. She should look at the money that we gave to the families of the young people who had to go to work every day, because of the lack of support that they received. The people who were most
Is it the Government's policy not to increase taxes?;Labour;"That is not the case at the present time; it is the Government’s policy that we should have increased taxes on the very people who are in the middle of the extraordinary economic recovery, and who are on the road to recovery. That is exactly what the National Party said. That is exactly what National Party members said last week. They decided that National would be much better off if they were in Opposition. That is exactly what National Party members said. National members did not say it was a"
Is it the Government's policy not to increase taxes?;National;"I can tell the member for Otara that I am not in favour of a tax increase. That is my recommendation. The member for Tarawera asked what the Government's policy is. I am going to tell her that it is going to increase taxes in the next year. That is what is going to happen. The member for Papakura asked why the Government is doing that. it is not doing that.<|endoftext|>

"
Is the member calling a new point of order?;Labour;"That is correct, I was not referring to the member.<|endoftext|>

"
Is the member calling a new point of order?;National;I do not know. I am not sure, because the member has raised a number of points in this debate. He has raised a number of questions on the Transport Amendment Bill. I check with my colleagues the member for Selwyn, who is a very good speaker, but I am not sure that he has been able to make up his mind, and I invite him to do that. Then I would like to ask the member for Whangarei whether he is thinking about changing his mind because
Is this a different point of order?;Labour;"It is a different point of order.<|endoftext|>

"
Is this a different point of order?;National;"The member's point was that the member is not here, so he cannot answer the question. He cannot give any more than a vague answer, and the member has not even asked the question.<|endoftext|>

"
Is this a comprehensive banking service?;Labour;I say to the member that it is a comprehensive banking system, I do not think that we should have a system that is focused on the size of the money hoards. It is important that the Government is not trying to change the size of the money hoards. It is important that we do not have a system in which the money hoards are too small to be regulated by the Reserve Bank. They are so small that they are not on the Government's radar. I do not think that
Is this a comprehensive banking service?;National;"I assure the member that it is not. This bill is a summary of the banking sector's current operations. It is an important simplification of the banking system, but the banking sector still includes a large amount of regulated activities. There is a need to simplify the banking system so that it is more effectively managed and can be managed in a more efficient and cost-effective way. I commend the bill to the House.<|endoftext|>

"
Is Mr Carter exempt from the rules of this House?;Labour;"Mr Carter is exempt from the rules of this House.<|endoftext|>

"
Is Mr Carter exempt from the rules of this House?;National;"I have not moved from my seat.<|endoftext|>

"
