question;party;answer
What about the Rating Powers Act?;Labour;"I am not aware of any such legislation. I am not aware of any such legislation; I think that the member is quoting from a paper in the Dominion.<|endoftext|>

"
What about the Rating Powers Act?;National;That was a very good question. The member is correct that the Government is reviewing the rating of the 
What’s New Zealand First’s view on that?;Labour;The view is that we are looking forward to a fair and stable environment, and we do not want to see a loss of jobs. That is why we are investing $10 million in the new national industrial base. We are looking forward to a fair and stable environment. We are looking forward to strong growth, and we expect to see good economic growth as a result. We are looking forward to the pressures that will be put on this country by a National Government. We do not want that to happen
What’s New Zealand First’s view on that?;National;"I’m not sure that I can answer that, because we have yet to see that information, but I would be interested to see what the next Government’s policy is.<|endoftext|>

"
How could saying this was a normal process be an answer to an either/or question?;Labour;"I have answers.<|endoftext|>

"
How could saying this was a normal process be an answer to an either/or question?;National;"It is an important one. I think that the answer to the question, is that it is a normal procedure when this matter comes to the attention of the House. It can be a point of order.<|endoftext|>

"
And when is the Government intending to deal with the matter?;Labour;The Government has been working very closely with the Maori Affairs Committee, which has been appointed by the Government to examine the legislation. I am pleased to say that the Government has been able to make some progress of that nature so far. The committee has had a chance to meet the Maori Affairs Committee, and I am pleased to see that the committee has been able to make some progress in the way in which it is working. I also give credit to the Maori Affairs Committee for the work that
And when is the Government intending to deal with the matter?;National;"I do not have an answer for that question. I think it is important that when the question posed by Mr Morris in answer to the first part of the question, and that I have been asked to answer, we look forward to the debate.<|endoftext|>

"
When are we going to get some substance?;Labour;"We will get some substance at the end of the year. The Government has to get some substance, because we are not going to get much substance from the Opposition.<|endoftext|>

"
When are we going to get some substance?;National;"Tomorrow, when the Government will be in office, and then we will have a debate on the bill.<|endoftext|>

"
Is the Minister confident that a peaceful resolution to the occupation is possible?;Labour;I am confident that a peaceful resolution to the occupation is possible. When the commander of the occupation forces approached me and asked whether the occupation was continuing, I said that it had not. The commander had said
Is the Minister confident that a peaceful resolution to the occupation is possible?;National;"Oh yes, I am confident. I have to say that the last 2 years have been very difficult. I personally have to say to Mr Key that I feel like I have been in the jungle for 4 years. I have to say to Mr Key that I feel like I have been in the jungle for 4 years.<|endoftext|>

"
What was the wording of the MMP option on the ballot paper relating to the electoral referendum conducted in 1993?;Labour;The wording was that the question would be the submission of the New Zealand First candidate on the electoral referendum in which the party's candidate was the leader of the National Party. It was not a question for the right of the Party to put one's candidate on the ballot paper. The question was the position of the candidate as the leader of the National Party. The decision to put the candidate on the ballot paper was made by the party's leader of the National Party, and it was not made by the
What was the wording of the MMP option on the ballot paper relating to the electoral referendum conducted in 1993?;National;"The wording was that if a candidate was elected and the Government was elected it would be the former. This is not a good word. It should not be used in any form. National would not be prepared to accept that and would reject the idea. It is not a good word. It should not be used in any form.<|endoftext|>

"
Can I just clarify which bill we are actually speaking on at the moment?;Labour;We are talking about the Maori Affairs Amendment Bill, which was introduced by the member for Tauranga at the beginning of the month. I think it is worth noting that the very first question that we are asked is whether, when the Union is the governing body, the Minister will retain his current position as the chairman of the National Party. That is the very first question asked of any member. The second part of that is that the chairman of the National Party is still there. He has been
Can I just clarify which bill we are actually speaking on at the moment?;National;The bill is the Trustee Bill. I have not seen the bill, but I have been told that it is one of six bills that the House has to pass, and that the other bills are subject to amendment, which is the House's decision. It is a very important bill, and I would like to make a couple of points in response to the comments made by the member for St. Kilda. the primary difference between that member and myself is that he is talking about the changes to
Has the Minister had any advice on why there has been no progress in equal opportunities in the private sector?;Labour;I have had an outstanding report from the Government on how to improve the labour market for young people. The report states that young people need more support. It states that there is a lack of commitment to help raise productivity. It states that the Government has been pushing for a return to a National State-owned enterprise model for the past 15 years, and that that it has been successful in most of the achievements. This is the new model. The Government has said that it will be a National enterprise model
Has the Minister had any advice on why there has been no progress in equal opportunities in the private sector?;National;"I’ve had a number of reports from Department of Labour personnel on the progress that the New Zealand Employment Service is making in the introduction of the Accessions and New Zealand Qualifications Act. This is a very positive move for the New Zealand economy, and it is to be commended. It’s a good move.<|endoftext|>

"
Does the December Economic and Fiscal Update confirm that the Government is on track with its economic and social programmes?;Labour;"The December Economic and Fiscal Update confirms that the Government is on track with its economic and social programmes. The Government is doing better than in the last 12 months. The Government is much more ambitious than the previous Government.<|endoftext|>

"
Does the December Economic and Fiscal Update confirm that the Government is on track with its economic and social programmes?;National;The Government is on track with its economic and social programmes, which are reading a good deal better than they were in the last four months of last year. I can assure the House that the Government is not having to put the brakes on its programme. It is cutting the deficit from its previous target of $482 million. It is reducing the deficit by $1 billion. It is reducing the deficit by $1 billion, and it is reducing the deficit by $1.5 billion. That is an
