question;party;answer
When an order for reparation has not been imposed can victims take any other action?;Labour;If it is not possible to get the order, then the victims can take any other action. The victims of the earthquake can take a number of different actions, including going to the local community centre, going to the local hospital, going to the local police, going to the local labour union, going to the local club, going to the local government, going to the local police, going to the local health authorities, and going to the local market, as the member for Bay of Islands has pointed
When an order for reparation has not been imposed can victims take any other action?;National;"That is exactly what the Standing Orders allow.<|endoftext|>

"
Has the Tourism Board taken any initiatives to encourage Taiwanese people to visit New Zealand?;Labour;In terms of the tourism industry, the Tourism Board has long been the source of New Zealand's tourism industry. In 1988 I visited the resort of Kaikōhanai in the north of the country. I also visited the resort of Whanganui on the south coast of the country, the resort of Gisborne on the west coast, and other resorts in the north of the country. Other tourist destinations include the Wairarapa area in the north of the country, the Wairar
Has the Tourism Board taken any initiatives to encourage Taiwanese people to visit New Zealand?;National;"I am pleased to say that the Tourism Board has been working very hard to ensure that the tourism industry is able to attract the best possible talent to New Zealand and to attract a good number of jobs. It is not just about the tourism industry; the tourism industry is about providing a chain of events and a way in which people can get into the tourist industry, and that is why it is so important to have a tourism board.<|endoftext|>

"
Could I just table the letters from Watercare Services and from Sir Barry Curtis that I mentioned in my speech?;Labour;I think that that is quite appropriate. I know that the Hon Trevor Mallard will be interested to know the letters that the ACC and the ACCC have included in their reports to the House, and I would love to see them on the front page of the front page of the Dominion, because I think their officials have been very nearly a total failure from the ACC's point of view. If that is what the ACC and Watercare are saying, then I think it is very important that they are
Could I just table the letters from Watercare Services and from Sir Barry Curtis that I mentioned in my speech?;National;I have the letter from Watercare Services. Watercare is a company that is well known in New Zealand. It is a subsidiary of Australian body Regeneration Healthcare. It has extensive experience in providing integrated services in health, rehabilitation and other areas. It has a large network of service centres, which are an important part of the business. It also has a network of office staff, which is very important. The main commercial unit of Watercare is its website. It offers a range of services for parents
Has the member got a further supplementary question?;Labour;"I have a supplementary question. I want to ask what is the Government doing to help New Zealanders back into the year 2000.<|endoftext|>

"
Has the member got a further supplementary question?;National;"Why has the member got a supplementary question?<|endoftext|>

"
Has the Minister had any response to Mr Peters' request for the supply of evidence to back up these allegations?;Labour;"I am happy to provide the evidence.<|endoftext|>

"
Has the Minister had any response to Mr Peters' request for the supply of evidence to back up these allegations?;National;I have received a report on the allegations at the time of which the member asked the question. That report has been received. The report states
I beg your pardon, Attorney-General? Did you hear that,;Labour;"What is the member saying?<|endoftext|>

"
I beg your pardon, Attorney-General? Did you hear that,;National;It was a pretty interesting speech, and I'm sure that it was not a difficult speech, but I did not hear it well. I think that it was a bit of a boring speech. It was a great thing to hear the Minister of Justice talk about his Government’s fiscal plan, but I think it was a bit of a boring speech. I thought it was a great speech, because he was quite out of his depth about the fiscal objectives of this Government. I think it was
How much did Bob Jones give New Zealand First for its campaign?;Labour;Well, that is not the point. The point is that we will be having an election at this time because of a lack of leadership. I want to start by talking about a speech made by my colleague Phil Goff. I have heard Phil Goff talk a lot in the last few days about this Government’s shift from being the party that is going to win the next election, which is to say, the long, slow march towards being the party that controls the future of the country. It
How much did Bob Jones give New Zealand First for its campaign?;National;"That is not the question I was trying to answer. The question the member is trying to answer is about the fact that, at the end of the day, the Labour Party has a very clear view on this matter. It is the one that the member was asking.<|endoftext|>

"
Has it been done in the reported-back version of the Bill?;Labour;It has been done in the reported-back version of the Bill. The revised Bill is currently before the House, and I can confirm that as of the time of question time it is the first time that the Bill has been reported back in a way that does not require amendments. The reasons for that have been confirmed by the Leader of the Opposition. The Government is agreeing to sit on the select committee for the remainder of the debate, and I am sure that the House will make submissions on it at
Has it been done in the reported-back version of the Bill?;National;"That was the first question. The second point is that the Minister of Finance has been answering the second part of the question. The third part is the question of the chairperson of the select committee. I believe that the chairperson of the select committee, the Hon. S.P. Dutton, is the best member of the select committee. He has already been through the process and has a favourable record.<|endoftext|>

"
What is the most up, date estimate of the cost of the INCIS computer?;Labour;I have no idea, but it is not in the top 1 percent. We are not talking about the $6 million spent on computers. We are talking about the $100 million invested in computer systems, which is nothing compared with some of the cost of the INCIS system. So it is a very good thing that the INCIS system is now used with the caution of a 12-year-old, because it may be very expensive when it is used in public, and the INCIS system
What is the most up, date estimate of the cost of the INCIS computer?;National;"The INCIS computer is expected to reach its full operational capability in the period from July 1998 to July 1999.<|endoftext|>

"
Were any recommendations to the holidays advisory group not accepted?;Labour;It was not accepted. The committee's recommendation did not include any additional recommendations. The committee received considerable submissions, some of them from overseas. The committee has received a substantial number of submissions, and there are some new ones
Were any recommendations to the holidays advisory group not accepted?;National;"The recommendations of the Christmas holidays advisory group were accepted by the department and the department has implemented its recommendations.<|endoftext|>

"
