question;party;answer
Has the Minister received any reports about the trust's performance in paying off debt?;Labour;I have received reports that say that the trust has done a good job. I expect that it will be able to repay the debt in about 2 weeks' time. I have received reports that say that it has done a good job. The Minister has received a number of reports, and I expect that he will be able to repay the debt in about 2 weeks' time. I also have had reports that say that the trust has done a good job. The Minister has received reports that say that it
Has the Minister received any reports about the trust's performance in paying off debt?;National;"I have received one report, but I have not seen it. I have received it before, but I have not seen it. I have seen it but I have not seen it. I have seen it and I have not seen it. It has been found, to be a good organisation and an organisation that is able to meet its obligations to the public.<|endoftext|>

"
How many Housing New Zealand properties are vacant and why?;Labour;I want to say that I think that if you look at the figures for the last 3 years the figure we are talking about is in the neighbourhood of around 25,000 houses. The figure is not really a lot of houses, and I think the Minister may well have a few more to give it round. I think that is a pretty good figure. I think the Minister should be doing some more work on the front, on the front, and on the front. I think that if you look
How many Housing New Zealand properties are vacant and why?;National;"There are around 650,000 people on the waiting-list for a housing supplement, and that figure is expected to rise to around 600,000 within the next 6 months. The housing situation is not as bad as it was before the crisis, but there are still a lot of people on the waiting-list who need home loans.<|endoftext|>

"
What were the “other defamatory statements” that Heather Roy said the Minister of Defence had been told by the Hon Rodney Hide?;Labour;The Hon Rodney Hide was told by the Hon Annette King that the Hon Rodney Hide had been told by the Hon Rodney Hide that someone was threatening to kill the Hon Rodney Hide. That was what the Hon Rodney Hide was told by the Hon Rodney Hide. I say to Rodney Hide that the Hon Rodney Hide is a coward. He knows that he is a coward. He did not know that he was a coward. He is the one who is now being told by his department that he is a coward
What were the “other defamatory statements” that Heather Roy said the Minister of Defence had been told by the Hon Rodney Hide?;National;The Hon Rodney Hide was told by the Hon Rodney Hide that the Hon Rodney Hide had been told by Rodney Hide that the Hon Rodney Hide had been told by Rodney Hide that the Hon Rodney Hide had been told by Rodney Hide that the Hon Rodney Hide had been told by Rodney Hide that the Hon Rodney Hide had been told by Rodney Hide that the Hon Rodney Hide had been told by Rodney Hide that the Hon Rodney Hide had been told by Rodney Hide that the Hon Rodney Hide had been told by Rodney Hide that
How will tangata whenua be involved in the discussion on New Zealand’s constitutional arrangements?;Labour;We are a party of principle, and we are determined to ensure that New Zealand is a strong, new member of the World Trade Organization. One of the key principles we will be taking to a select committee hearing is that we will be supporting the new member for Tauranga, who has been elected to parliament by the National Party. That is why we’re going to support him, because membership of Parliament is a significant transition for the New Zealand electorate. The other key principle we will be
How will tangata whenua be involved in the discussion on New Zealand’s constitutional arrangements?;National;I would not want to speak on behalf of the Maori Party but I have to say that this bill is a very timely one, because it re-affirms the principle of the Maori Land Court, and the committee is in a position now to pass the bill to the House. The one thing to note is that the bill is not a complete substitute for the Maori Affairs Committee’s findings, which were released in March of this year. that is really important. It is a
Why are these changes so necessary?;Labour;"The changes are necessary to improve the delivery of the umbrella service. The changes are necessary to improve the management of the umbrella service. The changes are necessary to improve the business of the umbrella service, to ensure that it is not underutilised and to ensure that there is adequate management to support it in future.<|endoftext|>

"
Why are these changes so necessary?;National;Because there have been a number of reports and reports from the Local Government Committee and from the select committee with regard to the Bill and the Minister’s statement, and we have had a chance to reflect on the question. We see the Bill as being a very positive step forward in terms of addressing the problems of Auckland’s housing crisis. I do want to say that I think that the development of the Government’s Housing and Regional Housing strategy and the construction of the Housing Corporation have
What will the Government do if a purchase of 40 percent of Contact Energy creates a market dominance?;Labour;It would not give the Government anything to be concerned about. The Government will go ahead and buy 40 percent of the company. The Government will be paying a lot of money and will be very pleased with itself. That is the way the Government is going to do it. The Government will go ahead and buy 40 percent of Contact Energy. The Government will make a lot of money from this. The Opposition will not be involved in that. I think that is a very positive thing. I think it is
What will the Government do if a purchase of 40 percent of Contact Energy creates a market dominance?;National;The Government will be prepared to look to take action to ensure that the market is maximised. I would like to refer to one other issue, the sale of the New Zealand Information Council. The NCC will be a private organisation within Tauranga. We have made it clear that it will be operated by a consortium of private enterprise people. We have been clear that it will be controlled by the east coast consortium. We have been clear that the consortium will be the sole purchaser of the New Zealand
Do you want me to read it for you?;Labour;"I am not going to read it for you.<|endoftext|>

"
Do you want me to read it for you?;National;What a fine example of your very, very good government we have here! The member for Auckland Central is normally an extraordinary person. He is a person who has an extraordinary ability to think on his feet, to think on his feet, and to think on his feet. I am surprised that he has not thought on his feet so far and that he is debating for the first time at the same time that New Zealanders are debating for the first time, and I am surprised that it is the last
What recent changes to regulations have been made to address the issue of illegally harvested pāua?;Labour;The minister of the day has been speaking in the House tonight. He said that the new regulations were necessary to protect the public interest. I am sure he will be talking about that today. He has been speaking about the new regulations today. he said that the new regulations were necessary to protect the public interest. I say that if one reads the regulations carefully one will see that the regulations are totally unnecessary. The regulations are completely unnecessary. The regulations are almost meaningless. They are regulations in themselves, and
What recent changes to regulations have been made to address the issue of illegally harvested pāua?;National;The Department of Conservation has been given a new set of regulations that will make it more difficult for illegal harvesting of pāua and other species to occur. The regulations will make it harder for the department to identify illegal harvesting, and to determine whether the pāua to be harvested are being lawfully harvested. It will also make it more difficult for the department to stop illegal harvesting. The regulations will also make it more difficult for the department to arrest those who knowingly or recklessly harvest pāua or
What decisions, will encourage further expansion, particularly in the northern tuna fisheries?;Labour;"I would be very surprised if numbers were going up, but the Government is looking to the future.<|endoftext|>

"
What decisions, will encourage further expansion, particularly in the northern tuna fisheries?;National;The Government has been informed that the New Zealand Fisheries Advisory Committee is advised that there will be a shift from a management regime to a system of quota management, and the committee has heard a number of submissions. The committee has considered the evidence and has recommended that there should be a change to the management regime. The committee has also recommended that the management regime should be changed to give the management regime clearer guidance, to make the management regime more effective so that there are fewer managers and fewer costs. The committee
How will this increased access to information improve the likely success of the Government's paid parental leave scheme?;Labour;I think the introduction of a digital link between the New Zealand Employment Service and the Department of Work and Income will ensure that the scheme is successful. If it is successful then I think the access to the scheme will ensure that the scheme is successful. I think the introduction of a digital link between the Department of Work and Income and the new agency will help to improve the scheme. I think the scheme will work better than it is now, because it will be linked to the New Zealand Employment Service by an
How will this increased access to information improve the likely success of the Government's paid parental leave scheme?;National;The Government has been very pleased to see the success of the scheme. It is an innovative and innovative way of looking at the family, and it is an innovative and innovative way of looking at the unemployment policy. It is an innovative and innovative way of looking at the work-force. We have seen it implemented by raising the minimum wage and increasing the minimum wage by 2.5 percent. The Government has seen it implemented by increasing the minimum wage and reducing the unemployment benefit by 1.7 percent.
