question;party;answer
Wasn’t this about having two commencement clauses?;Labour;The commencement clauses in the Bill have been carefully considered by the select committee. They are not likely to be a big issue. We believe that the public will be able to see that it is important that the Whānau Ora scheme should be taken up, and that the scheme should be carried forward. It is on the back-bench where we have had some of the most interesting discussions in the House today. The Whānau Ora scheme is the only one of the several schemes
Wasn’t this about having two commencement clauses?;National;"There are two commencement clauses. The first one is that we have got the clause that states that the date of commencement shall be at the Minister’s suggestion; the second one is the clause that states that the commencement date shall be at the Minister’s suggestion. I think that is a good first step. It is a good first step. I just want to note that I have not been able to get a copy of that clause, but it is clearly the commencement date in the Bill"
Why don’t you talk about the BPS?;Labour;I’m not interested in talking about the BPS. I’m interested in talking about the BPS, because it was an area of great concern again at the last election. I think it was actually quite a lot simpler than we thought it was. What I’ve heard on both sides of the House about the BPS is that it’s not really a BPS, and that it’s not a bit like the BPS. My point is that
Why don’t you talk about the BPS?;National;"I have just been thinking this afternoon. I thought I was not supposed to be talking about the BPS. I think it is an appropriate thing to do.<|endoftext|>

"
Can the Minister confirm that every single apple exported from this country has to be identified by a sticker?;Labour;"The Minister can confirm that every single apple exported from this country has to be identified by a sticker, because that is the requirement under the New Zealand Export Administration Act. Other than that, I know that the member doesn’t know the answer to the question. that’s why I’m asking.<|endoftext|>

"
Can the Minister confirm that every single apple exported from this country has to be identified by a sticker?;National;I am not familiar with that procedure, but I think that a sticker is a very good idea. I also think it is a great idea for New Zealanders to give away a nice little Christmas present in New Zealand and to give it to someone else. I think it is an excellent idea that we should do that. I say to the member for Tauranga that I think that the best thing is that the sticker system is being introduced, because it will be a useful tool for our exports.<
Obviously concerning what we were talking about?;Labour;"I am not sure whether that was the first question, but it was a very good one. There is a fine line between saying that it is your policy that the Minister of Transport should have a good look at the detail of the plan and making sure that it is actually going to work. I think that that is what was the intention of that question.<|endoftext|>

"
Obviously concerning what we were talking about?;National;I am sure that the member will be aware that the chief executive of the Department of Conservation will make a statement in relation to the decision to extend the National Parks Act to include the National Park of New Zealand. I have been briefed in the past by the Department of Conservation that the department has no intention of expanding the National Parks Act to cover all of the parks within its remits. If we are to have the National Park of New Zealand in New Zealand under the National Parks Act, then I think
What is the Government doing to address the findings of the Programme for International Student Assessment in 2009?;Labour;I am happy to provide some information to the House. I know that the previous speaker is correct that there has been a marked number of graduates not enrolling in tertiary education. I know that the previous speaker is correct that there is a very strong link between the number of students not enrolled and those who are earning good incomes. That is why the Government is investing more. I know that the previous speaker is correct that in the last year the State Services Commission estimated that there had been a net increase
What is the Government doing to address the findings of the Programme for International Student Assessment in 2009?;National;"I am pleased to inform the House that the Government has undertaken a course of action to ensure that the programme meets the needs of students in New Zealand.<|endoftext|>

"
What does the latest data show about the growth in residential construction in Auckland?;Labour;This is the first report that I have seen of that growth. It is at a level that is quite unprecedented in the history of New Zealand. In the last few months we have seen the construction of new homes at the rate of 90,000 a month, which is a significantly higher rate than the annual average of about 26,000. There are a number of reasons for that, including the support that New Zealanders are getting from the Government. The Government has substantially increased the Government's funding to
What does the latest data show about the growth in residential construction in Auckland?;National;"It shows a number of people remaining in Auckland.<|endoftext|>

"
Given that the Sale of Liquor Act 1962 has been repealed, what is the purpose of retaining the licensing fund?;Labour;"The purpose of retaining the licensing fund is to allow the department to provide services for the department’s current operations while it undertakes the objective of maintaining a more effective and modern licensing process, and to enable the department to improve its performance.<|endoftext|>

"
Given that the Sale of Liquor Act 1962 has been repealed, what is the purpose of retaining the licensing fund?;National;"The purpose of the sale is to provide the present fund for future sales and purchases of liquor. The sale is a voluntary transaction. The sale does not require the sale of liquor; it is voluntary, and it is the reason that the sale is voluntary. The Sale of Liquor Act 1962 has been repealed, and this legislation will not make any difference to the status of the liquor industry. The legislation will have no significant effect on the status of the liquor industry. The previous member for Horowhen"
I did not ask about international education, did I?;Labour;I am not aware of that. I do wish to refer to an earlier point. I am delighted that the member wants to come and speak in this debate and to take a call in the Committee stage because this is a very important piece of legislation, and I want to take a call in this debate. I am delighted that the member wants to come and speak in this debate because she is part of a Government that is committed to making the New Zealand education system more competitive. This is obviously a very
I did not ask about international education, did I?;National;"I did not ask the member for Tauranga who it was. I was asking about the Bill.<|endoftext|>

"
Can I have the first part of the question repeated please?;Labour;The second part of the question is no-how. we were here in 1999. We saw that there was an end to that. The member does not know what happened in that Parliament. But he understands that the National Party is going from strength to strength, and that it has won one election in this Parliament. There is a lot of talk about the stability of Democracy, and he does not know what that stability is, but he does know that it is through the National Party. He does not
Can I have the first part of the question repeated please?;National;There was no answer. I tell the member that I want to ask her what she indicated in her answers, and not what she indicated in her answers. I ask that she will stand up for her answers and say that she is the one who was not, and that she was not told about the findings of the report. The member is answering by straying from the questions that were asked, and not answering them. I ask that she is clear about that. I am waiting for her to give
How many tickets have been issued for this offence in the past 12 months?;Labour;A total of 745 tickets were issued for offences under the provisions of the Local Government Act. A total of 891 tickets were issued for offences under the Local Government Act under subsequent legislation. It is to do with the format of tickets and the new requirements that come with the new rules. I have been informed by the police that the number of tickets issued in a single day under this new system is just under 660, and that is just under half of the total number. That is just under half
How many tickets have been issued for this offence in the past 12 months?;National;"The figure is nine tickets for that offence. The offence has been ticketed four times, and the effective date of the ticket has been December 2013. The ticket was issued on the basis of a mistaken statement. So tickets were issued under a false name for a category 2 traffic offence. The driver was required to return a ticket, but the ticket was not issued because the ticket was not issued under the correct name.<|endoftext|>

"
