question;party;answer
How does the World Bank measure New Zealand and other economies in assessing the ease of doing business?;Labour;"I will tell you about a very interesting statistic that has been found out by the Labour Party. The World Bank has found that the New Zealand dollar has fallen by 1.9 percent in the last year, and by 2.4 percent the dollar is trading in a weaker currency than it was at the beginning of the year.<|endoftext|>

"
How does the World Bank measure New Zealand and other economies in assessing the ease of doing business?;National;"The World Bank is a world leader in measuring economic performance. It is used by many countries around the world, and it has been used by New Zealand. The World Bank is used by most countries around the world, and was used by New Zealand to measure economic performance. Despite the World Bank's being used to describe financial performance, it is actually quite different from that used by financial analysts.<|endoftext|>

"
Is it the intention to take the Committee stage forthwith?;Labour;That is the intention. I am not much of a member of the select committee. I did sit as an assistant member for a number of years in the House, and I am quite prepared to stand as an assistant member of the select committee. I want to tell the House about what has happened to the report, which was originally written by a member of the Science and Technology Committee. It should be noted that the use of the term ``report'' in the original report was a subject to change.
Is it the intention to take the Committee stage forthwith?;National;"I seek leave to take the Committee stage, with a few minor amendments, and to move that the first reading of the bill be held on Monday, 26 June.<|endoftext|>

"
What were some of the Government’s objectives for the share offer programme, and have those objectives been met?;Labour;The Government is pleased to report that the share offer was successful. The Government announced the first batch of 21,000 shares on 9 March, with the remaining shares to occur on 1 April. The Government also announced that it will be offering to share its equity in the company, which has been held for a number of years by the New Zealand Post Corporation. The terms of the offer are as follows
What were some of the Government’s objectives for the share offer programme, and have those objectives been met?;National;"The Government’s objectives for the share offer programme were to provide the opportunity for KiwiSaver to be a viable option for KiwiSaver recipients to save up to $300 a year; to provide a mechanism for KiwiSaver recipients to opt for the KiwiSaver scheme; and to support KiwiSaver recipients to achieve their savings objectives. In the last week I have received a range of information on the share offer programme, and I will share some of that information"
What’s wrong with the Auditor-General?;Labour;"I think he is getting the message.<|endoftext|>

"
What’s wrong with the Auditor-General?;National;it’s not when the new Government is in power. The Auditor-General’s job has taken off. It has been cut in half since his predecessor was the AuditorGeneral. But there is nothing wrong with the Auditor, we have had the Treasurer doing a lot of that work, and the Auditor-General has been the most crucial part of the new Government’s work. we have had the Treasurer doing a lot of that work, but he has been relegated to the role
How can it be in order for the Prime Minister to comment on the select committee process before the bill is reported back?;Labour;The Minister's comments on the select committee demonstrate to all New Zealanders that this Government is serious about promoting New Zealand, not just for the benefit of a few people at the top of the heap. The legislation also takes seriously the concerns of the staff of the Department of Corrections. It is the responsibility of the Department of Corrections to protect the rights of the general population, and the staff are entrusted to do that. The staff of the Department of Corrections, who have been in the Department for a number
How can it be in order for the Prime Minister to comment on the select committee process before the bill is reported back?;National;It is very important that the select committee continue to have a role as a vehicle for the submission of evidence and for the examination of questions. I have made it clear to the committee that it is my wish that the select committee continue to be a vehicle for the submission of evidence and for the examination of questions. I have asked the committee to continue to be a vehicle for the submission of evidence and for the examination of questions. In the past the select committee has 'diluted' the process,
Are there specific concerns related to former Crown forestry land?;Labour;"There are specific concerns related to former Crown forestry land.<|endoftext|>

"
Are there specific concerns related to former Crown forestry land?;National;"we're not aware of any specific concerns relating to former Crown forestry land. If there are any that are of concern to you, please say what they are.<|endoftext|>

"
What parenting support has the Government recently made available to grandparents who are raising grandchildren?;Labour;The Government recently made available a range of programmes to help grandparents raise their grandchildren. These include free meals, free medical care, free schooling, and free custody of grandchildren. The Government also provides a range of family support and education programmes, including free access to free school education for children under 5. These programmes are designed to help grandparents with a range of needs, including the needs of a terminally ill or disabled relative or other parent. The Government has also made it clear that all families will benefit from
What parenting support has the Government recently made available to grandparents who are raising grandchildren?;National;The Government has recently made available pre-school education, a good start to the start of a good pre-school environment. I suggest that this is an example of a good start to a good pre-school environment. For a few hours a week, grandparents are able to stay at home and feed their grandchildren, to give them a sense of independence and discipline, to give them that balance between discipline and independence, and to give them a sense of community and harmony. What I think is very important
How will the Government’s Safer Communities package make police more accessible and easier to reach?;Labour;"The key focus of the Safer Communities package will be improving the community services network and the ability of the police to form partnerships with local community groups. The focus will be on improving the relationship between the police and community groups. The focus will be on increasing the number of police officers and the number of frontline staff. The focus will be on increasing the number of police officers and the number of frontline staff.<|endoftext|>

"
How will the Government’s Safer Communities package make police more accessible and easier to reach?;National;The police have a much more comprehensive network of community liaison officers, who can reach out to, and assist, their community to ensure that the police are making much more use of their resources. They will not be able to reach out directly to all people in the country, but the police will be able to reach out to those who are isolated, those who are unemployed, those who have been in prison, or those who have been on the street. The police will be able to reach out to those
Is it isolated or does it go on all the time?;Labour;"This is a mechanism of accountability, and it is a mechanism that I think is now a matter of concern to the Government. I am not aware of any particular case that has led to that. As I have said in the House, it is a very serious matter. I think that it is a good one, and I commend it to the House.<|endoftext|>

"
Is it isolated or does it go on all the time?;National;"I do not think that it is isolated. I think it is all around the country. I think it is just the constant use of the word ``relax'' in relation to the Government's policy. I think it is all around the country. I think that it is really interesting that the member for Auckland Central was talking about tax. I would not mind taking a call and saying why I do not have any tax.<|endoftext|>

"
How can the Government support farmers if there are long-term changes in weather patterns?;Labour;We have a number of measures in place to support the farming industry. These include the rate of price reductions, the rate of damage reduction, the levy on non-tariff-based imports, and the introduction of a National Act of Conservation Act, which will allow farmers to invest in conservation in a way that is both environmentally friendly and economically sound. The bills will also enable the Government to take a more active role in terms of the management of the agricultural industry. Some of the measures that will benefit
How can the Government support farmers if there are long-term changes in weather patterns?;National;The Government supports farmers because it knows that a shift of 20 degrees is the most serious threat to agricultural productivity. There is no doubt that agricultural productivity is the biggest single factor affecting the productivity of the economy today and that the impact of changes to weather patterns, particularly in the eastern part of the country, have to be treated seriously. The Government is making a stand to reduce the impact of weather patterns on production, and that is the most important message the Government can put out to the world today. The
