question;party;answer
What role does the Special Education Service have to assist schools with advice and to encourage improved school attendance?;Labour;The Special Education Service has a huge variety of activities, including relevant to special education-for example, counselling special education students. It also has a consultative committee function, to help the Special Education Service in carrying out its activities. The role has been well-received in the community and the committee has recommended the Special Education Service to be a major activity. The majority of the Special Education Service's activity is in providing advice to schools. It is a vital service, employing a large number of staff and
What role does the Special Education Service have to assist schools with advice and to encourage improved school attendance?;National;The Special Education Service has very broad powers to assist schools with advice and to encourage improved school attendance. It is not the only authority that can assist schools with advice and to encourage improved school attendance. The Special Education Council, which is the council that is responsible for the provision of advice and support to pupils, is operated for the purpose of encouraging improvement in the performance of pupils and the quality of teaching. I do not know whether the council has that power, but I am aware that it has been used
What changes to existing marine mammal sanctuaries are proposed?;Labour;One of the changes proposed by the Hon. John Key is that the new marine mammal sanctuaries will provide secure refuge for more than 1000 underaged and sick marine mammals. The sanctuaries will also include the sanctuary of the albatross and the sanctuary of the horticultural, and the new sanctuary will include the sanctuaries of the tamariki and kiwi. The sanctuaries will also include the sanctuary of the guppies and the sanctuary of the kiwi
What changes to existing marine mammal sanctuaries are proposed?;National;The proposed changes to existing marine mammal sanctuaries include a new new, improved symbol, and the introduction of a new conservation management plan that will be implemented in the vicinity of the new marine mammal sanctuaries. There have been some reports that demonstrate the impact of the proposed change. The Department of Conservation has issued a report in which it is expected that the number of marine mammals killed annually in the North Island will more than double from the current figure of 23,000 to 52,000. The
Why did the member carry one in Los Angeles?;Labour;I carried one from that member who has not been here for a long time. I have made it a habit of carrying this piece of paper from that member because he has had a good laugh about the fact that he does not know what an issue is. We have had some good, old-fashioned terms-in the case of ``Maori Affairs'', ``area health boards'', and ``health boards'', repeated, in terms of the member for St Kilda, and there has been
Why did the member carry one in Los Angeles?;National;"I do not know what she is carrying in her bag. I was not carrying one in Los Angeles at the time the member is bringing one to New Zealand.<|endoftext|>

"
How much does the member think it's worth?;Labour;"I think it is about $1.3 billion. I think it is worth $1.3 billion. I think it is about $1.3 billion.<|endoftext|>

"
How much does the member think it's worth?;National;That is the amount of money that the member is talking about. what does that figure mean in terms of how much the Minister will be making in return for the money that he has already invested in New Zealand in the past? How does the member know that the things that he is likely to make in return for the money will be used to support New Zealanders? Why does he think that the member for Papatoetoe is not prepared to condemn our trade and economic policy to a halt? He
Did the Minister tell the Land and Water Forum that New Zealand’s dairy herd numbers need to be reduced by one million cows?;Labour;Dairy herd numbers are down by one million cows. The dairy herd numbers are down by one million. I’ve got a dairy herd that is down by 1 million cows, dairy herd numbers are down by 1 million cows. Dairy herd numbers in the Waikato are down by 3300 dairy cows, dairy herd numbers in the North Island are down by 807 dairy cows, and dairy herd numbers in Canterbury are down by 4200 dairy cows. Dairy herd numbers are down by over 400 cows
Did the Minister tell the Land and Water Forum that New Zealand’s dairy herd numbers need to be reduced by one million cows?;National;It was a maxim of the Minister of Agriculture, since when I have been in the House, and I have been in the House for a number of years, that dairy herd numbers need to be reduced by one million cows. I know that the Minister is aware of this, and I know that he is aware of it. I have been in Parliament for one year, and I am not in Parliament for a good period of time, and I have a great deal of respect for the Minister of Agriculture
While you go to consult the Business Committee, was it a breach of privilege or not?;Labour;I was not speaking on the Business Committee, but I was speaking on the Labour-Alliance Government’s Supplementary Order Paper 223, and I said
While you go to consult the Business Committee, was it a breach of privilege or not?;National;The business of the committee is to consider the amendments to the bill. I can confirm that the select committee heard a number of submissions, and concluded that the Bill is not in accordance with the Standing Orders. I can also confirm that the committee heard a number of submissions, and agreed that the Bill should be amended to include less restrictive provisions. I can confirm that the select committee heard a number of submissions. I can confirm that the committee has considered those submissions. The select committee has examined the Bill to
This question is to the Prime Minister- I beg your pardon?;Labour;That is a very good question. I think you are starting to make your point, and I commend you to your next question. I am sure I will be able to answer it. I do not think that the Prime Minister should know about the position of the member for Mangere-I do not think that she should know about her colleague the member for Papakura, because I have heard from her that he wants to put his name on the State Services Bill. I think that is a very
This question is to the Prime Minister- I beg your pardon?;National;"I am not interested, Mr Ritchie.<|endoftext|>

"
What measures has the Government agreed will be put in place to deter problem gambling and to help with harm reduction?;Labour;We have a comprehensive package of measures in place to deal with problem gambling, and we have improved the enforcement of our anti-gambling laws. The Government has worked closely with the industry, and will be looking at further measures to deal with problem gambling. We are prepared to make further improvements to our gambling laws over the next 4 years to deal with the problem of problem gambling. I would like to mention some of the points I think most people will appreciate. I want to take the opportunity to congratulate
What measures has the Government agreed will be put in place to deter problem gambling and to help with harm reduction?;National;We have been talking about the Harm Reduction Bill and the Speeding Bill for some time, and there have been several proposals on those topics. We have got a new emphasis on the issue of the internet. We have told schools our intention is to have a new internet code around the country by early April. That is something many other countries are doing. We have not had that level of confidence in the internet as a way of dealing with problem gambling. There is no guarantee that that will happen. I
What work is currently under way to address New Zealand’s high rates of child abuse and neglect?;Labour;I have been in this House for the past 12 months talking to thousands of families, as well as the local political office of the Hon. Bob Ashdown, which has been quite an undertaking. The key thing that the Hon. Jim Sutton has been able to do in this Parliament is to do a number of things. One of them is to try to get more funding for the National Child, Youth and Family Partnership. That is a very interesting area. I should like to talk about another area,
What work is currently under way to address New Zealand’s high rates of child abuse and neglect?;National;The Government is committed to sending a clear message to children to be very careful! That message is reinforced by the fact that the child abuse and neglect statistics in the last 2 1/2 years have shown that the number of reported cases of child abuse and neglect has actually been decreasing. According to the Government’s own statistics, child abuse and neglect cases, the number of reported cases of child abuse and neglect has decreased from 9,255 in 2009 to 7,967 last year. The number
What is the intention of the Social security Amendment Bill?;Labour;"The intention is to create an additional 5 years to enable the general election to be held in New Zealand in 1998, and to place on the Order Paper the date of such election, with the date of the general election as the date on which the ballot papers are to be issued.<|endoftext|>

"
What is the intention of the Social security Amendment Bill?;National;"The intention of the Social Security Amendment Bill is to establish a new system for the payment of unemployment benefits, with the intention of promoting long-term social welfare savings. The aim of the bill is to provide for a better performance of the State than the current system. The bill is not about the need for a State, -is the intention that all the stakeholders in this country agree with.<|endoftext|>

"
