question;party;answer
At what stage of the process is GRD Macraes' application for an access arrangement variation?;Labour;"I do not have that sort of information.<|endoftext|>

"
At what stage of the process is GRD Macraes' application for an access arrangement variation?;National;The latest information available indicates that the current arrangements are no longer sufficient to enable GRD Macraes to meet its commitments to the community and to meet its operational objectives. The circumstances that led GRD Macraes to pursue an access arrangement were not aligned with the continuing needs of the community, particularly in the area of the telecommunications infrastructure. That was the key factor. The key factor was that the Government was not able to provide the right level of connectivity for GRD Macraes to meet the
I understand this is a split call?;Labour;"I am happy to make it up to the member.<|endoftext|>

"
I understand this is a split call?;National;I am not sure about that, but I can tell the member that I am proud to support the bill, because I consider it to be a very good piece of legislation. It has been a wonderful experience to work on it. I was a bit disappointed that the National Government has not taken a call on it. I thought it would have taken a call because we could have had a real debate about it, and it did not, and I think that is a very good thing. So we have
Would the member buy a car from the Southland?;Labour;"That is the best question I have ever heard.<|endoftext|>

"
Would the member buy a car from the Southland?;National;"It would be a great trip, I am sure. I am sure that the Minister of Transport would be a great admirer of the Minister of Transport. I give him my support for that matter.<|endoftext|>

"
Can the Minister tell the House what procedures in the Act will tend to limit the use of industrial action?;Labour;Under the Act the Chairperson of the committee will have the power to appoint a delegate to direct the committee to conduct the business of the committee, and the committee will have the power to appoint a celebrant to attend the functions of the committee. Under the Act the committee will have the power to convene at any time. Under the Act the committee will have the power to give advice to the Minister if it thinks fit. Under the Act the committee will have the power to advise the Minister if it
Can the Minister tell the House what procedures in the Act will tend to limit the use of industrial action?;National;I think that we know that this Bill will be passed by the end of this year. I am in agreement with the member for Tauranga, who is a little concerned about the timing of it. The Bill is a good example of how we can encourage in workplaces the use of industrial action. We may have put in place a clause saying that if industrial action is not taken within 3 years of the commencement of the Bill, then the employer can use its industrial action action action plan. We do
Is this to do with the point of order?;Labour;I think it is a very good thing that this part of the bill is now part of the transitional legislation for the legislation that was introduced into the House on 4 September 2015, and that includes the introduction of the legislation, the introduction of the amendments, and the passing of the second reading. They have been on the Order Paper for 3 2/3 months now, and we are now moving on to the third reading and passing of the legislation. I think it would be helpful for the House to have
Is this to do with the point of order?;National;"The member is trying to take it out of context. I have answered the very same question in my previous answer. People who are working, who are still working, who have not yet been paid, are entitled to a redundancy payment. and I have answered that question in my previous answer. there is only one question being asked in this House at the moment, and that is the question of redundancy.<|endoftext|>

"
Can the Minister confirm that no Minister of Police would ever take a decision relating to an individual prosecution?;Labour;The Minister has answered that question. Probably the answer to the first part of the question is yes, and the answer to the second part is no. The Minister is not answering it. It is a very good question. The Minister has answered it, but I would like to know if he is prepared to answer the question of whether he would ever take the decision that the individual has. I have seen the answer to that question. The answer to the question is yes, and the answer to the second
Can the Minister confirm that no Minister of Police would ever take a decision relating to an individual prosecution?;National;"I do not know. I am sure that the member who is asking the question had some advice from the Chief of the Department about whether that was the case.<|endoftext|>

"
How will the Education Review Office report contribute to improving the reading skills of students?;Labour;The Education Review Office is expected to make a significant contribution to improving the literacy skills of students. The Government is pleased to report that the office has been established because it is believed that the skills of students who need help are not being addressed. The Ministry for Primary Industries, which is now called the Ministry for Primary Education, is being merged with Primary Education New Zealand, and the new ministry is expected to report results by the end of this year. The new ministry will be the principal centre for literacy.
How will the Education Review Office report contribute to improving the reading skills of students?;National;"The Education Review Office is reviewing the school curriculum and visiting schools to test students and parents to ensure that they are up to date on the curriculum and that the standards are maintained.<|endoftext|>

"
How will this Provincial Growth Fund PGF) investment bolster capacity in the regions?;Labour;The Government is committed to supporting the good governance of Canterbury and Christchurch, with the main focus being on the region’s economic growth. It is not the only priority for the Government. This PGF investment will generate cash to help the region develop, including in the areas of infrastructure, with the focus also being on the use of the money to fund community development and improvement initiatives. It will underpin the recovery in Christchurch, and in other regions where we have a focus in terms of the
How will this Provincial Growth Fund PGF) investment bolster capacity in the regions?;National;"The Government has been a little concerned about the Enchanted Forest expansion. the Enchanted Forest expansion will ensure that we can meet the growth targets for the South Island, we have a new site, and we are investing in that area. The growth targets for New Zealand are good. The 159,000 hectares of protected forest that National has been moving to are in the best shape they have been in since the late 1990s.<|endoftext|>

"
Is the Government reconsidering the question of tax credits or an equivalent incentive for research and development?;Labour;I would have thought that it would be a worthwhile exercise to look at the question of tax credits. I would have thought that it would be interesting to ask the question of research, because it seems to me that a number of the parts of the question that the member raised about the tax treatment of capital gains are very well thought of. I would have thought that it would be useful to ask the question of the tax treatment of research and development, because it seems to me that it is a very good
Is the Government reconsidering the question of tax credits or an equivalent incentive for research and development?;National;"The Government is considering the question of remission of tax on certain capital gains, as suggested by the member for St. Kilda, for certain research and development.<|endoftext|>

"
How many Maori are currently in the target group for the fully funded places in the training opportunities programme?;Labour;The target group for the fully funded places in the training opportunities programme is a total of 513 students. The same number of students were enrolled in the full-time programmes in 1992, but only 13 students were enrolled in the full-time programmes in 1990. The number of full-time students in the target group is still the same as in 1990, but that figure has been reduced by 3 full-time students. The number of students enrolled in the full-time programmes in the target group is
How many Maori are currently in the target group for the fully funded places in the training opportunities programme?;National;"That is not the right question. I seek leave to table a report that sets out the results of the recent study on the investment in the target group. The Government's own research has indicated that the target group is very unlikely to achieve its targets as a result of this programme. The target group is likely to have little effect on the performance of the National Party or on the future performance of the Government.<|endoftext|>

"
