question;party;answer
What other statements has the Minister made?;Labour;"The Government has been very clear that there are some very serious problems in the economy and in the health system. They are not as serious as the threat to the health system.<|endoftext|>

"
What other statements has the Minister made?;National;We find it difficult to understand why the Labour Opposition opposes this. New Zealanders are not ready for a National Government, and National does not take that position. The member has simply followed the policy of the Labour Opposition. He has been the leader of the Labour Opposition. His policies are the priorities of the Labour Opposition. He is the leader of the Labour Opposition. He is the leader of New Zealand. The member will not get a break. He will not have a break. He has been the
Has the member ever been with the family of a murdered kid?;Labour;"I am told that the family of a murdered kid has been with the family of a murdered kid for 10 years. I think that is a pretty good record to have. I think it has got a lot to do with the fact that in many of our communities the victims of crime are our children. I think that is a pretty good record.<|endoftext|>

"
Has the member ever been with the family of a murdered kid?;National;I have been in the House for quite a long time now, and I have been in the House for almost 9 months now. I am sure that when I hear the various reports that have been put up about the death of Trayvon Martin, it will be a surprise to me that somebody actually did get down on his knees before the altar, and asked someone on the other side of the House to go and pray for him. I have to say that the member for Auckland Central should go back to his
Can the Minister indicate what questions were asked?;Labour;The member is in the chair. I am aware of the question that the member asked
Can the Minister indicate what questions were asked?;National;"I am not aware of that.<|endoftext|>

"
Would it not make more sense to put Metiria Turei’s amendment first?;Labour;"I do not think that it would make much sense to put it before the House first, Mr O’Rourke. I think it would be best that it went to a select committee. The member for Waimāne, who is a member of the committee, has a point of order.<|endoftext|>

"
Would it not make more sense to put Metiria Turei’s amendment first?;National;In the case of the Smith amendment I am happy to support it, but I do not believe it has any impact at all. The member for Oamaru asked
Which question is the member reading the answer to?;Labour;"I am reading the answer to the question of whether the Minister is prepared to commit to a reduction in the number of police, which he has promised to do?<|endoftext|>

"
Which question is the member reading the answer to?;National;"It is the question of the amendment proposed by the member for Kaimai. I hope that he will read it.<|endoftext|>

"
What else does one have a gun for?;Labour;I have a fanatical devotion to the Chairman of the committee. He is a dear friend of mine who has been a dear friend of many of my colleagues, and I am very grateful to him for the kind words he has given to many of my colleagues. He is also a dedicated volunteer. I am sure that he will give some valuable help to the committee members in the chairmanship. I think that the member for Tauranga ought to be given a moment to reflect on how this House has
What else does one have a gun for?;National;I have a gun for my dog. That is what I have a gun for. I have a firearm. I have a weapon. I have a clue about what is going on in the House. I have a clue about what is going on in the House. I have a clue about what is going on in the House. I have a clue about what is going on in the House. I have a clue about what is going on in the House. I have a clue about what is going
How many doctors does the Government expect to sign up for the free general practitioner visits for children 5 years and under?;Labour;It is 485. In the past 4 years we have seen a huge increase in the number of specialists that have been recruited. We have seen a huge increase in the number of paediatricians. We have seen a huge increase in the number of elective and emergency units. We were told that the increase in the number of specialist appointments would not be able to cope with the demand. That is the reason that we are having a massive increase in the number of specialist appointments. There is no time
How many doctors does the Government expect to sign up for the free general practitioner visits for children 5 years and under?;National;"The Government has been working to get the numbers right. It is estimated that approximately 500 of the 650,000 children under five will receive free or reduced cost visits to see their primary health care providers. Any additional services will be funded through the new programme, which will be administered by GP Partners of New Zealand.<|endoftext|>

"
What was the increase in the food price index for the year ended March 1991?;Labour;"As I told the member, that is not a comment I made in the House. I said that the food price index was going up from 5.5 percent in January 1991 to 8.5 percent in March 1991, and that the food price index for the year ended March 1991 was 5.5 percent, not 8.5 percent as I claimed.<|endoftext|>

"
What was the increase in the food price index for the year ended March 1991?;National;"The increase is in the number of food items that are sold at a retail rate, so we are talking about a reduction of about 7 percent. We are talking about a reduction in the number of food items that are sold. we are talking about a reduction of about 7 percent.<|endoftext|>

"
Why is it important to reduce red tape and improve the quality of regulation?;Labour;It is important to reduce red tape. The Minister may be aware that the original bill proposed a top-up to the consumer price index. This bill will give the consumer price index a little bit more subsidy to lure people into this sector, and will encourage companies to move into this sector. This is the type of legislation that is needed to simplify the flow of services and improve the quality of services that are supplied to New Zealanders. I want to turn to the bill. I want to acknowledge the
Why is it important to reduce red tape and improve the quality of regulation?;National;The Government is committed to reducing red tape and improving the quality of regulation by moving to a single, continuous regulatory regime. The total cost of regulation is currently at $9.8 billion. The cost of regulation would be much cheaper to implement if there were a single, continuous regime of regulations. Another important measure is to improve the quantity of regulation of the State Sector. The Government has set the targets for the number of employees the State Sector will need to employ to be able to carry out the work
What assistance is the community employment group providing for tourism employment growth in the Eastern Bay of Plenty?;Labour;"I am pleased to say that the job advertising campaign has been successful and that the job advertisements are attracting new, young, and talented people who are willing to put their labour, their time, and their effort into the hospitality industry. I expect the Northern Bay of Plenty to experience increased job growth this year.<|endoftext|>

"
What assistance is the community employment group providing for tourism employment growth in the Eastern Bay of Plenty?;National;Those are very good questions, and I think the first thing to do is to understand the Government’s language. When we talk about a growth programme, we talk about growth in growth, and when we talk about a growth programme, we talk about growth in growth. We need to know that New Zealand is growing, we need to be aware about what is happening, and we need to be aware of the opportunities for growth, or there will be an unemployment rate of more than 10 percent.
