question;party;answer
Can I have the other half of the answer?;Labour;The member for Auckland Central has been a member of Parliament since 1952, and he helped bring about the reforms that have brought about the current form of Government of the New Zealand First Party. His national career is in the area of policy. He has served as a member of Parliament since 1954, when the National Party was the largest and the largest independent party. The former leader of the National Party has been a member of Parliament since then, and he has been a member of Parliament since 1993, when the
Can I have the other half of the answer?;National;Because if the member thinks that the member of the Alliance is fine as a person, he should think again. The member is in his office, and he has not had a day off since he became the member of the Alliance. He should think again about that. He should think about his electorate. His electorate is the one that some of the members of the Alliance are retiring to. He should think again about that. The member should think again about his constituents. The member has a good constituency,
What other reports has the Minister seen of organisations adopting the Government's programmes?;Labour;"I have seen reports of organisations adopting the Government's programmes. I have seen reports of organisations having their logos and slogans changed. I am not aware of any such reports.<|endoftext|>

"
What other reports has the Minister seen of organisations adopting the Government's programmes?;National;I have seen a report from the Ministry of Education that states
How’s that within the grounds of the question?;Labour;The Minister of Transport is, in fact, correct when he says that the Government has committed to increasing the number of Busch-ners by 50. I am not aware of the exact number, but I am sure that this is a normal part of the full-time work week. The Government has said that it will increase the number of regular buskers by 50, but I say that it is a normal part of the full-time work week. I come back to the question that we
How’s that within the grounds of the question?;National;"That’s nothing to do with the question.<|endoftext|>

"
How will SuperGold card changes help older New Zealanders?;Labour;I want to take a brief call on the Bill. I want to commend the Minister on this bill. I want to commend him for putting together a Bill that actually implements the recommendations of the Senate Committee on such a huge number of matters. I want to congratulate the select committee for its work in keeping with the recommendations of the committee, a couple of other matters that have been quite helpful to the committee, and I want to compliment the select committee for the way that we work with the committee. The
How will SuperGold card changes help older New Zealanders?;National;The introduction of the new card will help older New Zealanders. The extent of the benefit is limited to $100 a year and is a markdown from the $200 that was given out a year ago. One has to be 18 years of age or over to receive a benefit in this way. The card also provides an opportunity for older New Zealanders to participate in the scheme, which is very different from the scheme in the United States. One can participate in the scheme for 60 days a year
Where does it say that this Minister is not responsible for housing practice and building and construction in this country?;Labour;"The Housing Corporation is responsible for housing practice, housing construction, and building and construction.<|endoftext|>

"
Where does it say that this Minister is not responsible for housing practice and building and construction in this country?;National;"The Minister is responsible for housing practice and building and construction in this country. The Minister is responsible for the role of housebuilder, and the Minister is responsible for the role of builder.<|endoftext|>

"
Can we confirm, that the decision was made last Wednesday?;Labour;The decision was made last Wednesday. It is the same decision as the one that was taken in the past. The road-user charges around that time were in place. They were in place for 1.5 months, and the poll of what would happen if we actually got the revenue? it was a very, very popular decision. The other thing that I can confirm is that the member who made the interesting point about the member for Tauranga is the member for Tarawera, who is
Can we confirm, that the decision was made last Wednesday?;National;"The decision was made last Wednesday. It took 26 weeks. I can assure the member that the Minister and I have given the committee adequate time to get the report to the select committee. I am sure that the select committee would welcome a recommendation that would see the extension of the project to July 2009.<|endoftext|>

"
How much did those questions cost, David?;Labour;"I am afraid I do not have the answer. I am told that the costs of that particular question will be between $2,000 and $15,000. That is the cost of that particular question. What I can assure the member for St. Kilda that I do not see the cost of that question being in the millions of dollars. I say to the member for Selwyn that that cost is not in the millions of dollars.<|endoftext|>

"
How much did those questions cost, David?;National;Well, they are nothing compared with the cost of the full cost of the education of the entire population of New Zealand. They are about $10 billion. That is a huge amount of money, and it is entirely out of proportion with the difference in cost of the education of the poor. I have a letter from the Minister of Education to the education sector stating
Given that response, does the Minister have any specific concerns about the illicit importation of this drug?;Labour;"It is a very important drug. As a result of the Drug Control Amendment Bill I believe that it is serious that there is no specific information about the drug trafficking in New Zealand. I believe that it is appropriate that the Minister for the Environment, who has the responsibility of protecting and promoting the public health, should be informed about the activities of the drug trafficking in New Zealand.<|endoftext|>

"
Given that response, does the Minister have any specific concerns about the illicit importation of this drug?;National;"There is a concern in terms of the illicit importation of this drug. There are some serious questions that need to be considered as to how that is to be dealt with.<|endoftext|>

"
Did you hear Metiria on the radio?;Labour;I did not hear the radio interview. I heard what it said. I was not aware that the member had said that. I did hear that the National Party has been around for 10 years, and that the National Party's policies are ''out there'' in the public arena. The member is a bit startled to think that that is the case. I also heard the member's performance as the Prime Minister of New Zealand. a person who is in a similar position to the member for Selwyn,
Did you hear Metiria on the radio?;National;I did hear it, but I did not actually hear it. I think that was probably the biggest surprise of the whole debate. I think that the member for Christchurch North has been against the bill for some years, because she thought it would be good to have a quicker and more timely way of making this work. But as we know, the bill has been sitting on the Order Paper for a long period of time. The only reason that I have been concerned about the bill is that there are
What is the date of this transcript?;Labour;This transcript will be available shortly on our website. I have put in my name the person who has just sat in the chair, Emma. I think that it is a very, very good day to be in this House. I really am talking about the day when I have had the opportunity to meet the Prime Minister, rather than the day I made the mistake of mentioning the fact that I had met the Prime Minister on the day before that. It is very, very good to make the mistake of
What is the date of this transcript?;National;The transcript has been prepared. The text can be seen here. Can I make a formal statement? It is obvious that I have been a member of the National Party for a number of years. I have been in parliament since 1972, and I have been a member of the National Party for a number of years. I have been a member of the National Party for 10 years, and I have been a member of the National Party for 10 years. I have been a member of the National Party for
