question;party;answer
What other announcements have been made recently regarding the one billion trees programme?;Labour;We have announced this year that we will be planting 1 billion trees, and we are moving forward with the other commitments in the 10-year plan. We are being proactive. We are making sure we have the right amount of trees. We are using every resource in our resources to ensure that that work is done. We are going through the process of maintaining our pristine forests, and we are encouraging our landholders to do that in a sustainable way. We are also improving the effectiveness of our forest management
What other announcements have been made recently regarding the one billion trees programme?;National;"Not much. The announcement that we have a million trees in the pipeline and are now planting at Auckland Airport is a good one. I think we have made a good start, but we have to remember that we are in the middle of the season, and we are doing something when it is the peak season. We have to find out whether that is what is going to happen.<|endoftext|>

"
the Defence Act has been changed-what is it called?;Labour;The Defence Act has been changed to provide for the National Party to have a membership of 50 members, which is the number of full-time members of the party. That is a change, which we have been very pleased to see happen. The membership, as a proportion of the party, has been changed, and we have been very pleased to see that. We have seen a rise in the number of members of the National Party. In respect of the number of full-time members of the party
the Defence Act has been changed-what is it called?;National;The Defence Act is the operational legislation of the New Zealand Defence Force. It contains the provisions governing the operation of the New Zealand Defence Force. It was introduced in 1976, and since that time many changes and changes have been made-the name of the New Zealand Defence Force, the number of members, the number of officers, the number of shipmen, and the number of staff. The number of members in the New Zealand Defence Force was established in 1986 and the number of officers was established in 1984
What is the intention of the SuperGold Health Check Bill?;Labour;"The intention is to deliver better access to health services, better access to the health workforce, and better access to health care for the people of New Zealand.<|endoftext|>

"
What is the intention of the SuperGold Health Check Bill?;National;"The intention of the bill is to ensure the effective performance of the SuperGold Health Check programme, to reduce administrative costs, to improve the quality of care and quality of services provided at the centre, and to improve the overall performance of the programme. The Bill will also enable the programme to make further progress over time, and to be continued under the supervision of the director-general of health, who will have an interest in the programme.<|endoftext|>

"
Is this a point of order or a call?;Labour;"I am talking about the form of answer, which is the same as the original question.<|endoftext|>

"
Is this a point of order or a call?;National;"I am not aware of a point of order, but I do have a general interest in the Act. My point of order was to what extent I was trying to clarify the statement of the Minister of Finance, that the Minister of Finance's statement of intent is a deliberate attempt to deceive the House, and that the Treasury Bill is a deliberate effort to deceive the public. I think that is the point of order that the member has to settle.<|endoftext|>

"
Can I not seek leave to advise the House about the $50 million slush fund?;Labour;That is the amount of money that was put up by Dr Paul Hutchison, the Minister of Finance. It was put up by his cronies, by the Labour Party's cronies, and by the Government's cronies. It was put up by the Minister of Finance, and it was put up by the National Party, who probably had better get used to it. The point is that this is the second piece of shambles that we have seen from National. We have heard that there
Can I not seek leave to advise the House about the $50 million slush fund?;National;"I can testify to that.<|endoftext|>

"
Does the Minister of Māori Affairs agree with Māori Party MP Hone Harawira that the bill is “not what we marched for in 2004”?;Labour;I agree with the member, and I think that the bill is not what we marched for in 2004. The bill is the biggest piece of legislation that has been introduced by the Government, and I think it is a wonderful piece of legislation. We have had a very good Parliament. We have had a very successful Parliament, and I want to congratulate the people of New Zealand and of the country on the work that has gone into this legislation. We have had a very good Parliament, and the Bill will
Does the Minister of Māori Affairs agree with Māori Party MP Hone Harawira that the bill is “not what we marched for in 2004”?;National;The member simply does not understand. I make no apology for opposing the bill. but what I would like to know is
Does the ACT Party have two supplementary questions today?;Labour;"I have two supplementary questions for the member. The first relates to the Bill of Rights Amendment Bill. The second relates to the Children, and Their Families Amendment Bill. both of these Bills are within the scope of the Bill of Rights Amendment Bill. I have not yet received any reports on those Bills, as I have my question.<|endoftext|>

"
Does the ACT Party have two supplementary questions today?;National;The ACT Party has two supplementary questions today. I am sorry to say that the ACT Party will not be getting an answer from the Opposition on the Bill. The ACT Party will be getting a supplementary question from the National Party. The ACT Party will not get an answer from the Opposition. The ACT Party will receive an answer from the Labour Party. The ACT party will not get an answer from the Labour Party, nor from the National Party. The ACT party will have an answer from the Labour Party.<
Do all Maori women look the same?;Labour;Like the member, I am very concerned about the issue of the family. I am concerned about the issue of the debt that your Government has to pay to pay off the debts incurred under the previous National Government. I am concerned that we will go into a recession and the next election. I am concerned that the Government has to cover all the debt incurred, and I am concerned that the Government has to pay off the debts incurred under the previous National Government. I am concerned that this Government has to start
Do all Maori women look the same?;National;I do not know. The spokeswoman said that the Government did not have any plans to change the definition of ``reproductive'', and that is the loss that Maori women have suffered in the last few years, because they have lost the opportunity to have their children. If that is the case, how can we expect us to support our children? What is the Government doing to ensure that Maori women can have confidence in the process of determining their children's birth? I do not believe that that
Are you going to admonish the Minister for bringing up an irrelevant point of order and questioning your judgment?;Labour;"I ask you to look at the question.<|endoftext|>

"
Are you going to admonish the Minister for bringing up an irrelevant point of order and questioning your judgment?;National;I am going to give the Minister a warning
What's this got to do with anything?;Labour;"The member's question is a good one, and it is a good one, but what we need to be doing is doing what is right in this House and that is to ensure that people are able to contribute to New Zealand that they are entitled to contribute to New Zealand. That is the most important thing.<|endoftext|>

"
What's this got to do with anything?;National;That is the point we are trying to go back to. I hope to deal a little bit more with that tonight, but I am not sure that will be possible. I have got to say that I thought the member for Otara was the first speaker who went into the debate on this legislation. He certainly came in with a lot of good ideas, and I think that he was quite right to acknowledge the fact that some of the proposals that he introduced were a little bit of a lot of nonsense
