question;party;answer
Could the Prime Minister, give us an example of a bill that has codified discretion into law?;Labour;We have the Hon. Paul Hutchison, the Hon. Marama Davidson, and the Hon. Bryan Jones, who is now on the front bench. We have them, and they are working to codify discretion into law. In the period when the National Party was in Opposition, the Hon. Carol Bell, the Hon. Paula Bennett, the Hon. Helen Clark, and the Hon. Jason Moir are working to codify discretion into law. There is a lot of work under way.
Could the Prime Minister, give us an example of a bill that has codified discretion into law?;National;The Government has codified discretion into law. Before the House rises to speak, I want to take a call because I know that the Government is working hard to inform the public of the new legislation. I know that the Government has been considering the bill, and it is about time that we got some evidence as to whether it will be a good thing or a bad thing for children. I want to know, whether the new legislation will result in better results for children, or whether it will result in
Were you advised, or were you not?;Labour;"I was advised that the information was not available to the Minister, and I was not. The member has been entitled to the information.<|endoftext|>

"
Were you advised, or were you not?;National;"I was not. In that context, I am sorry the member’s question is not as pertinent as it might be.<|endoftext|>

"
What is the cost to restaurants of a bespoke custom Food Control Plan for a burger in time and money?;Labour;"There have been costings of $300. It would cost a little less if the costings were bespoke. The costings have been bespoke. The costings are available because of the Labour Party’s practice of shopping around the country for the best price of a product.<|endoftext|>

"
What is the cost to restaurants of a bespoke custom Food Control Plan for a burger in time and money?;National;"A bespoke custom Food Control Plan, costing $8,000, will be able to be delivered within a couple of weeks. The cost of providing a bespoke custom Food Control Plan, of $8,000, is $12,000, and that is what I have in front of me.<|endoftext|>

"
The member is telling the House that this report from the Parliamentary Library states that?;Labour;Yes-and the member is telling the House that the then Minister of Finance was a lifelong member of the Labour Party. She is telling the House that she has been a member of the Labour Party since she was 15. She has been a member of the Labour Party since she was 16-she was 16 when she started her career as a member of the Labour Party. Why is she doing that now? Why is she doing that? Is it not that the member has been a member of the Labour
The member is telling the House that this report from the Parliamentary Library states that?;National;"It does. The paper states that the Government is considering finalising a report on the sale of the member for Dunedin North, and that publication of the report is expected by the month of November.<|endoftext|>

"
How can I accept it when I haven't been given it?;Labour;"I am not a member of the Government’s policy for the time being. I have had it for a year. I have been given it.<|endoftext|>

"
How can I accept it when I haven't been given it?;National;"I have been given a copy of the report. I have been given the report on the operation of the scheme.<|endoftext|>

"
Just to clarify, was Mr Robertson seeking leave for a further 5-minute call?;Labour;"the two minutes I needed to be on the select committee.<|endoftext|>

"
Just to clarify, was Mr Robertson seeking leave for a further 5-minute call?;National;I have a further 5-minute call in which I will be asking a number of questions. I want to remind the House that what is the difference between the National Party, the Alliance, Labour, and the Alliance? What is the difference between the Alliance and Labour? The difference between the Alliance and Labour is that they have taken the alarm off the National Party and the National Party is staring it right in the eye. What is the difference between National and Alliance? They are the same thing, and
Is it Government policy to promote a relaxation of the standards governing the advertising of alcohol on television?;Labour;"the objective of the advertising of alcohol is to encourage consumption of alcohol, not to promote intoxication.<|endoftext|>

"
Is it Government policy to promote a relaxation of the standards governing the advertising of alcohol on television?;National;"The Government has made its decision.<|endoftext|>

"
Are we bringing people in for a make-work programme?;Labour;that is not the purpose of the Bill. The purpose of the Bill is to enable the employment-service providers to provide a range of services. The Bill provides for a range of functions and activities, including the provision of information services, the provision of community services, the provision of housekeeping, the provision of food and clothing, the provision of food, and the provision of a range of other services. I want to make it clear that the Bill does not provide for the employment of the services by
Are we bringing people in for a make-work programme?;National;That’s a good question. I do not know whether that’s been a matter of conversation. I think it has, it is something we have had quite a bit of discussion in the House. One of the things that I know that recently has been discussed in the House is the number of people who have been in the work scheme. It has been quite a lot of discussion. the number that have been in the work scheme has been quite a bit lower than the number that have
Is the Recognised Seasonal Employer Scheme working for New Zealand and for the temporary migrants who work under the scheme?;Labour;"This year I have received a number of reports on the scheme, which is geared towards those who are out of the work-force. The scheme has been working for many people who would not otherwise be in the scheme. It is a very positive programme. It is one of the most successful throughout the New Zealand economy and it has a positive impact on the health of many of us.<|endoftext|>

"
Is the Recognised Seasonal Employer Scheme working for New Zealand and for the temporary migrants who work under the scheme?;National;The scheme is working very well for New Zealand. The scheme is helping a lot of those people, and one of the biggest problems is the number of people who are joining the scheme. The scheme is not able to cope with that problem. The scheme is not able to cope with the problems that have been identified by the chairman of the committee. If we look at the good news, we see that it is a good programme. The scheme is helping many people, and it is effective. The scheme
Does the July 1991 Budget statement that the accommodation supplement ``will not be rationed'' still reflect Government policy?;Labour;In the 91-day statement the Government said that there will be no reduction in the accommodation supplement. I cannot confirm that that is the case. I hope that the Minister of Finance has a look at the public opinion poll and says that the Opposition is trying to fool the country into thinking that there will be no reduction in the accommodation supplement. The Opposition has tried many times to do that. It is a disgrace that the Opposition is now trying to fool the nation into thinking that there will be no reduction
Does the July 1991 Budget statement that the accommodation supplement ``will not be rationed'' still reflect Government policy?;National;"The housing supplement was also not rationed. Many changes have been made to the housing system since the Budget statement that the Minister of Housing and the Treasurer are now repeating in this House.<|endoftext|>

"
