question;party;answer
Is it usual for the Minister of Police to view overseas operations?;Labour;"When we have been out of the Cabinet room for a while, it is not unusual for us to view overseas operations. There is a tendency to not take up with one's colleagues the opportunities to travel overseas, and that is the most important thing. We have to think about what we are doing in the House, and how we are going to take our message to the next election.<|endoftext|>

"
Is it usual for the Minister of Police to view overseas operations?;National;"There are always so many other things that we do overseas that we can do to improve our ability to be successful, to achieve our objectives, and to keep the public safe. There are no plans to replace it.<|endoftext|>

"
What additional powers is the Minister giving to the commissioners to get on top of water management in Canterbury?;Labour;"What additional powers the Minister has given to the commissioners to enable them to be able to get on top of the water management problem in Canterbury, and to be able to make that operation more efficient and more effective, is a question of efficiency and effectiveness. It has nothing to do with the level of the water, the quality, the quantity, or anything else.<|endoftext|>

"
What additional powers is the Minister giving to the commissioners to get on top of water management in Canterbury?;National;The Commissioner for the Environment and the Commissioner for the Environment are now required to report directly to the Council of the Environment, to the local Government and Environment Committee, and to the committee on the Lambton-Smith Act. I am pleased to inform the House that the activities of the commissioners will no longer be limited to the management of water. The new role of the Commissioner for the Environment and the Commissioner for the Environment will be of special concern and will require the commissioner to report directly to the council of
Can the Minister give us examples of what the Government has done to strengthen the relationship with this sector?;Labour;"The Minister of Labour has been a major supporter of the employment of people in this sector. I want to acknowledge that the annual employment survey shows that in the past year about 340,000 jobs were added to the list of jobs taken in New Zealand. That is a significant achievement.<|endoftext|>

"
Can the Minister give us examples of what the Government has done to strengthen the relationship with this sector?;National;"I can give you examples. I heard it from the member who was not here in Wellington last week, he was in the Whakatāia electorate, and here at my office.<|endoftext|>

"
The member was never young was he?;Labour;"That member was not young, was he?<|endoftext|>

"
The member was never young was he?;National;If the member wants to know any more about the National Party caucus I have some news for him and for the rest of the National Party. They are not young. They are old, and they are old-fashioned. They are old, and they are old. They are old and they are old. They were born before the beginning of the millennium, and they have lived to the end of the millennium. They are old, and they know they are old, and they know they are old.
Is the member just going to call in the traditional way?;Labour;"He is in his seat.<|endoftext|>

"
Is the member just going to call in the traditional way?;National;I do not know whether that is the case, but I am sure that the member will not stand in the House in the future and say that he is not aware of that. I would like to read the report of the select committee, which discussed the Bill in a very comprehensive way. I want to quote from the report a few words that are quite different from the one that Mr Peters said. It is a very important one. The report states that the Bill will result in a successful implementation.
What is the Government doing to strengthen our relationships with South-east Asia, China, the EU, and Latin America?;Labour;I want to go on to the issue of the immigration policy. I want to thank the member for Tauranga for her contribution to this debate, and to her colleagues who have also contributed to this debate. I thank the member for Selwyn for his contribution on the Home Affairs and Civic Affairs Committee. He has a great deal of experience in this area. I take the opportunity to thank the member for Tauranga for her contribution. I thank the member for Selwyn for his contribution in this
What is the Government doing to strengthen our relationships with South-east Asia, China, the EU, and Latin America?;National;"I think that the Prime Minister has been talking about this, and I think it is very good to see that the Government is moving this legislation to enable the Government to focus on ensuring that our children are supported in the region, and that Australia is supporting New Zealand in New Zealand’s economic development. I think this is very good. I think this is very important for the future of New Zealand.<|endoftext|>

"
Are you going back with the Nats?;Labour;"I am not. I am going to take my time thinking of the things that have happened, and to talk about the Bill.<|endoftext|>

"
Are you going back with the Nats?;National;"I am going to follow the National Party's line of reasoning and write to the member for Papatamu to tell him that the National Government is in trouble. The Opposition is in trouble. If the member wants to go to the Leader of the Opposition, to the interim leader of the National Party, and tell that to the Opposition, I am sure he has a lot of time to go to the Opposition, but I have a list of questions for him.<|endoftext|>
"
How will the Minister ensure that this programme will effectively target those most at risk?;Labour;The Government has identified that the programme will target the most vulnerable of the vulnerable, so we have set aside $150 million for that purpose. That will be used for the programme, and it will be used in conjunction with the other programmes that will be announced later this year. The programme will be all about capacity building to show the level of student enrollment, and the programme will be all about addressing the skills shortages that are plaguing our region. We will also set aside $200 million to build the
How will the Minister ensure that this programme will effectively target those most at risk?;National;The Minister for the Environment has made it clear that the programme is targeted at the most vulnerable. The most vulnerable are the people in my electorate who are most at risk. The Government is not funding an attempt at medical intervention for them, but we are funding a programme that will target those most at risk, and will be more effective than any other intervention that we have ever tried. I have a large number of people in my electorate who are at risk of tuberculosis, and a number of them are my
Do New Zealand health and safety laws apply to Chinese workers removing asbestos from locomotives at Woburn?;Labour;"They are not New Zealand laws. They are Chinese laws. They do not apply to New Zealand. They apply to Chinese workers in China. The Chinese are the ones who have been found responsible for the contamination. If they are found to be at fault, that is a penalty under the New Zealand Act of 2010.<|endoftext|>

"
Do New Zealand health and safety laws apply to Chinese workers removing asbestos from locomotives at Woburn?;National;The health and safety laws applicable to Chinese workers removing asbestos from locomotives at Woburn are a very good one. A Chinese worker has, a few years ago, been in a position where he or she had been exposed to the chemical mica that has been used on a scale that has been unknown to the rest of the world, and to be able to remove it with the proper equipment. The Department of Labour has very good information that is available to the public, but it would not
What about the shellfish and the crabs?;Labour;I am not surprised that the Greens have not been briefed on that. They have been briefed on the Bill and have been told it is about saving the economy. They have been told it is about supporting the economy. We can see that the Government is not prepared to implement the plan. The Government has been told that it will save the economy and we can see that it will not. It is about protecting the economy. That is what it is about. The Government says that it will not have a
What about the shellfish and the crabs?;National;"there is nothing wrong with a seamstress.<|endoftext|>

"
