question;party;answer
Is the Minister satisfied that the Race Relations Conciliator has the ability to investigate such statements?;Labour;"I am satisfied that the Race Relations Conciliator has the ability to investigate such statements. The Race Relations Conciliator is the officer of the Race Relations Conciliator, and the officer of the Race Relations Conciliator has the ability to investigate these statements.<|endoftext|>

"
Is the Minister satisfied that the Race Relations Conciliator has the ability to investigate such statements?;National;I am satisfied that the Race Relations Conciliator has the ability to investigate such statements. I have no idea what Mr Key might say in relation to the comments made by the member for Tauranga, but I am satisfied that the Race Relations Conciliator has sufficient capacity to do so. In the House I have already indicated that the Race Relations Conciliator will be supported by the member for St. Kilda, and will be a very good one. It will be a very good one
What are the details of the proposals to direct more resources to the education sector?;Labour;"The proposals to direct more resources to the education sector involve focusing a greater emphasis on the education of overseas students for whom there are opportunities in New Zealand. The Government will also provide additional support for overseas students, with a number of programmes that will be developed to ensure that we are able to provide better quality education for our future generations.<|endoftext|>

"
What are the details of the proposals to direct more resources to the education sector?;National;"I am advised that the Government has approved a proposal to direct more resources to the education sector, not a proposal to cut funding, but a proposal to improve efficiency.<|endoftext|>

"
Have recent events at Taipā had an impact on the progress of the Muriwhenua Treaty of Waitangi land claims settlements?;Labour;I have just made it abundantly clear to the Government that the developments in Taipā have had no significant impact on the progress of the claims settlement process, and that the Government has not been informed of the impact of the settlement process on the chances of the settlement of the Muriwhenua Treaty of Waitangi claims settlement. It is a matter of old-fashioned diplomatic diplomacy between the Crown and the Government. It is an old-fashioned diplomatic approach, as opposed to the diplomatic approach undertaken by
Have recent events at Taipā had an impact on the progress of the Muriwhenua Treaty of Waitangi land claims settlements?;National;I am grateful to the member for Tauranga who asked the question as we are now dealing with the issues of the Taipā land claims settlement. The cabinet briefing that was provided to me shows that the issues of the Taipā land claims settlement have not been well managed by the Government. It is interesting to note that the Government has taken the opportunity to deal with those issues by going on to the Treaty settlement committee, which is apparently the forum of the choice for settlement issues. The committee
How will the new policy shift increase regional security?;Labour;As I said earlier when I was answering the question from the previous speaker, I think that, of the complexity that is in the new environment, we need to get on top of it, and I think that we need to be doing what we need to do. The new policy will mean that there will be more security in regional New Zealand as a result of the changes. The new policy will mean more police. The new policy will mean that there will be more immigration police. The new policy will
How will the new policy shift increase regional security?;National;The policy will greatly increase regional security in the West Coast region, as it will also improve the security of the North Island region. The policy will also promote the region as a whole and its people, by providing enhanced police and other security services. The policy will also strengthen the regional economy by enhancing regional skills and culture. It will ensure that people will have confidence in the region by providing a range of services. The policy will also provide a sense of identity and identity identity, and will give confidence to
What reaction has the Minister received from commentators looking ahead at New Zealand’s economy through 2017?;Labour;I have received very good feedback from those who are looking ahead, in particular from the Auckland Business and Economic Forum. The business forum has been very positive about the economy. The Auckland Business and Economic Forum has said that the Government’s economic policy is the right one, and it is more than just a policy. The Business and Economic Forum is looking forward to a strong economy, with a solid and sustainable manufacturing base, and a strong trade base. In 2016, we have had a strong economy
What reaction has the Minister received from commentators looking ahead at New Zealand’s economy through 2017?;National;I do not have that information, but I am prepared to offer the member an assurance that the current economic situation is positive and that we can expect to see growth in the future. We are facing a very challenging environment right now. This is a relatively uncharted territory in terms of where we are going to see growth. It is not a new continent. It is a relatively uncharted territory. I think that the National Party and the Alliance are now a little bit ahead of the national average on what
It is all being debated together?;Labour;"It is all being debated together, because John Key is not here. He will not be here because I told him to get out. I told him to get out of here. He is now here and he is going to put a stop to this. He is not here because I told him to get out; he is here. My point is, and my point is that the Prime Minister says she will be here, and that this is all being debated together. I tell her that it is"
It is all being debated together?;National;The National Party’s list of the most important issues in New Zealand is starting to get it right. That is because National members have not been asked to tell us what is important. They are being asked to explain to us what is important. The Government is hoping that the fact that the Opposition has not been asked to tell the House what is important will be a good thing for the Government. That is a bit rich, and it is a bit like the previous question, because it is the
Will pseudoephedrine-based products still be able to be purchased from pharmacies throughout New Zealand?;Labour;We will still be able to sell it. It is a very good product and we are all very pleased with it. It will be available in pharmacies, as we always have been, and we will have a range of people affected by the introduction of it. It is an important product but it is such a small product that we are not sure that it will be able to be made available to the public. There is no guarantee that it will be available in New Zealand, because it is made overseas
Will pseudoephedrine-based products still be able to be purchased from pharmacies throughout New Zealand?;National;I am not expecting that to happen. The member would not know about it. In the Northern Hemisphere, if a person thinks it is a drug, he will not have to go out and buy it. That is the model. In the United States it is called tobacco, or alcohol, it is called beer, or tobacco, it is called paraphernalia, or alcohol, and it is called food. The Government cannot make a distinction between alcohol and drugs. If one thinks that it is a
How does the package increase fairness?;Labour;We are making real progress in this area. The Government has been tinkering with the details of the package, and the Opposition has been much more concerned about the numbers and the percentages than we have been. The Opposition has been saying that the package is incredibly unfair. The Opposition is saying that it is unfair in the sense that the Government is saying that it is unfair to give a chance to people who are not at fault. People are not at fault, the Government is saying. I am not sure
How does the package increase fairness?;National;That is a very good question. We are getting the results of a very good survey done by the local branch of the local newspaper, and there is an attitude to the Government from the people who actually want things to be better. They want to get the results that National is offering. The Government is a Government of accountability, and that is what the members opposite want to be saying. The Government is a Government of accountability. The Government is a Government that believes in statistics, and it is a Government
Is that the practice you intend to adopt from now on?;Labour;I have made some change in that regard. I cannot say how much that will cost. In the short term it will cost nothing. I think that that will be a good thing. People will be able to see that it is a good thing. I have not had any consideration at all for that. I will get on to another point. I do not like the Labour Party's statement that it is in favour of this bill. I think it does not support the bill as it stands. I
Is that the practice you intend to adopt from now on?;National;"I am not a policy expert. If they want to seek to have a discussion with me, they can. I am not trying to be an expert in anything. I am merely a believer in the model that is being adopted by the National Government.<|endoftext|>

"
What measures is the Customs Service putting in place to reduce heroin imports into New Zealand?;Labour;"The Customs Service is working with the Government to reduce the importation of heroin.<|endoftext|>

"
What measures is the Customs Service putting in place to reduce heroin imports into New Zealand?;National;"The Customs Service is busy rounding up new drugs, and this morning I was told that the importation of methamphetamines from Australia was the most recent indictable offence, and that the importation of ecstasy from Australia was the most recent indictable offence.<|endoftext|>

"
