question;party;answer
Do more people go to the tribunals or to the District Court?;Labour;If one looks at the figures, the number of people who go to the tribunal is in the thousands, not the hundreds. The number of cases is up from 12,000 to 25,000. My friend the member for Tarawera has just said that we are at the peak of the Tribunal Bill. That is right. I remind the House that the Minister of Justice will have some time to explain some of the more technical aspects of the Bill, but I think that it is important that we
Do more people go to the tribunals or to the District Court?;National;"More people go to the tribunals and to the District Court than in the past.<|endoftext|>

"
Is the level of urgency needed to progress legislation, out of the ordinary compared with previous Administrations?;Labour;"The urgency is compounding the situation.<|endoftext|>

"
Is the level of urgency needed to progress legislation, out of the ordinary compared with previous Administrations?;National;The urgency is not as high as it used to be. I just want to clarify some of the points that have been made in previous answers by the member for Christchurch North. I will not repeat the points that have been made in the debate, but I think it is important that the House is aware of the progress that is being made under the National Government. There is an increased level of public awareness. It is that level of awareness that is leading to a confidence that is going to be able
Is it a document that has been made freely available to members?;Labour;the document is a well-known document, and is not so much a new one, as a Government document. It is a Government document. I will give members a few examples of what is in the document. The first example is the word ``implementation'' in the headline, ``New Zealanders should be aware that the Government is working hard to implement the changes required to implement the changes to the remuneration structure of the New Zealand superannuation system''. That is why there is a
Is it a document that has been made freely available to members?;National;It has been made freely available to members. I have it on my desk at the moment. My assistant is not aware of it. But I think that is a very interesting document. It is a book that the member for Papakura has been looking at in a very creative way at the moment. I think it is a great work of literature. I think that is the reason why the member for Papakura has been considered so highly by the member for Tamaki-I think that is why it
How many projects has the PGF so far supported?;Labour;"The PGF has supported projects in Nelson, Court Street, Waimānui, Tauranga, and Waikato. The Government has made it clear that the financial support is only for those projects.<|endoftext|>

"
How many projects has the PGF so far supported?;National;"I have seen the report.<|endoftext|>

"
Would the member take an interruption?;Labour;Why should that member take no notice of what I have to say? Don't get carried away, and you will be wrong. It is not as if the member has not been listening. He is used to listening to me. He is used to the sound of me saying things that are not as they are when I am not talking to him. He is not listening to what I have to say. He is just going about my business, as he does every day. He does not know what
Would the member take an interruption?;National;I would like to take an interruption to give my thanks to the staff of the Auckland office of the Department of Housing. The staff have carried out a remarkable job, and I would like to thank the staff for their diligence in making the service available to all New Zealanders. I would like to thank the staff who have provided advice and assistance to the Auckland office of the department, which has been in operation for about 22 years. I would like to congratulate the staff on their outstanding service and policy development
In the light of developments over the last 2 days, does the New Zealand peacekeeping unit in Bosnia face any immediate danger?;Labour;"I do not have any immediate concerns. I have to say that the threat of terrorist attacks in Bosnia is real and is not just rhetoric. We do have to respond. I am not sure what the situation in Bosnia will be, but it is not as bad as it was yesterday. There is a threat of terrorism at this stage, and it could be that terrorists have been found, and that we should be prepared to deal with that situation.<|endoftext|>

"
In the light of developments over the last 2 days, does the New Zealand peacekeeping unit in Bosnia face any immediate danger?;National;It is in the area of transport. It is in the area of manpower. It is in the area of logistics. it is in the area of financial support. It is in the area of the New Zealand training mission. It is in the area of the foreign affairs post, after all, in Bosnia there is a shortage of a number of people. Nobody could be more wrong than that. The United States, as a leading force in the world, has an extremely important role to play in Bosnia
Are we talking about hundreds of thousands?;Labour;That is what the member and the member for Tauranga have talked about. I am told that I am talking about thousands. I have no idea how many tables have been destroyed. In the meantime, the Opposition is urging this House to put aside the reckless antics of the member for Tauranga and the honours of the member for Napier in this House. He is not considered to be a serious Opposition candidate, and that is a shame. He has been a member of this House for
Are we talking about hundreds of thousands?;National;"The numbers are a little less than that, but it is a lot of money. The House adjourned at 1.29 p.m.<|endoftext|>

"
Is that person employed by Ministerial Services?;Labour;"He is employed by Ministerial Services. He has been employed by Ministerial Services in the past. He is employed by Ministerial Services. He has been employed by Ministerial Services. He has been employed by Ministerial Services. He has been employed by Ministerial Services.<|endoftext|>

"
Is that person employed by Ministerial Services?;National;He is employed by Ministerial Services. He is a full-time construction worker who has been employed by Ministerial Services since 1975. The work of that person is a very pleasant one. The construction work in this area is done by a specialist, and it is a well-done job. He is very pleased that he has secured work in this area. The other person in this area is a mechanic, and he presently has a permanent contract for this job, which is a very pleasant job.
Has the Government any policy to preclude the sale of the Bank of New Zealand to foreign buyers?;Labour;The Government's answer is yes, we have heard nothing about it from the New Zealand First party, which has been the most consistent party in the House, and we still do not know what it is. It is not a policy, but it is an election promise. The only thing New Zealand could do to ensure that this Government can use this Government’s best intentions to provide value for money in the future is to use it to ensure that Kiwis can have confidence in the KiwiS
Has the Government any policy to preclude the sale of the Bank of New Zealand to foreign buyers?;National;"I have a few questions on this Bill that, if I can, answer. I seek leave to move the House to the Committee of the whole House on the Hon. Brian Connell’s Supplementary Order Paper No. 9), which is now referred to the select committee. I seek leave to table the Supplementary Order Paper.<|endoftext|>

"
Did the member give any to the local member?;Labour;"But he was not allowed to vote. The member may be a wonderful speaker, but the member did not get to speak. The Speaker is a wonderful speaker. The Speaker has not had an answer for the member for Christchurch Central and is going to continue to get one. The Speaker is on the point of order. The member in the chair does not have the Bill. The member for Christchurch Central has the Bill.<|endoftext|>

"
Did the member give any to the local member?;National;I just think that we need to start asking the question of who is responsible for the decision that was made about whether to proceed with the scheme. I think that it is all the fault of the Minister of Local Government. The member for Taumarunui and the member for Kaipara are quite right in their saying that the Minister of Local Government is responsible, because of his and the Minister of Local Government are responsible for the decision that was made. I believe that the Minister of Local Government is
