question;party;answer
you will seek to update us on what is happening and the services available?;Labour;That is a good question, and I shall look at that in a moment. The National Government has provided an extra $50 million to the Auckland region, the Auckland Regional Council, and the Auckland Regional Improvement Agency for the children of the Auckland region. That is enough to keep the line. I am pleased that the Government has listened to the Aucklanders, not just the National Party, and we are pleased that the Government has continued to support Aucklanders in their concerns. National Party policy to save $
you will seek to update us on what is happening and the services available?;National;"I am aware there are changes to the portfolio of the Auckland Regional Council.<|endoftext|>

"
Were superannuation rates accurately and permanently increased for the effects of raising GST?;Labour;Yes, superannuation rates were accurately and permanently increased for the effects of raising GST. Those who have had to leave the workforce to take up work and provide for family, or those who have had to take up work and provide for the police, have been able to continue to provide for the family, and to provide for the police. We have provided for those who have been unemployed for several years. We have provided for those who have been in prison for a long period of time. We have
Were superannuation rates accurately and permanently increased for the effects of raising GST?;National;"After the December 2 shock, superannuation rates were down to the lowest level since 1992.<|endoftext|>

"
What does the report of the New Zealand Institute of Economic Research indicate the rate of unemployment to be through to 1997?;Labour;"The report indicates that the national unemployment rate is about 4.5 percent. That is the lowest rate of unemployment that the Labour Government has seen since the unemployment rate in 1988.<|endoftext|>

"
What does the report of the New Zealand Institute of Economic Research indicate the rate of unemployment to be through to 1997?;National;Allow them a little while longer, because the Government is beginning to get the picture. it is clear that this Government is taking a very responsible approach to the long-term financial management of this country. It is clear that the Government has taken the right approach, and that it is following the Government's consistent approach, and that it has been successful. It has been successful because it has kept the Government in control of its finances. The Government has kept the Government in control of its finances because of the
What food protection measures have been put in place by the Government as a result of the 1080 threat?;Labour;I am unable to give details of the plan because of the Government's role under the SAB. The Government has put in place measures to protect the public interest. I have received a report from my colleague the member for Selwyn, who has been standing in the House for many years, detailing the Government's attitude towards the 1080 threat. He has shown that the Government is prepared to take the threat seriously. The Government has taken the threat seriously. The Government has put the threat to an end.
What food protection measures have been put in place by the Government as a result of the 1080 threat?;National;"There have been a number of measures. I will give you a few examples. this is an ongoing programme, and that is why the Vector Control Advisory Group has been established. The council has been in place since 2001, The council has been enabling to keep the Vector Control Advisory Group operational, and has had the capability to keep it operating without the need for a council, and without the need for an office. Local Government, Health and Local Government.<|endoftext|>

"
How will the Minister ensure that the extra spending previously mentioned will address the issues facing education?;Labour;The extra spending mentioned in the question was $2.1 million. The additional spending will help to ensure that we deliver on our commitment for education with regard to the overall funding of the system. This extra spending will also benefit the districts in the overall system as a whole. In the Wellington area, there is a need to improve the quality of education that we provide, and this additional extra money will enable us to achieve that goal. We also know that the Auckland Education Trust, which is an independent
How will the Minister ensure that the extra spending previously mentioned will address the issues facing education?;National;I will start by confirming that it is vitally important that schools spend less than they take in. There are no simple answers, and there are no simple answers to what is required of schools to ensure that they have a budget surplus. I remind members that the last Budget was the most successful Budget in New Zealand’s history. The Government has been focusing on a very simple issue
What steps is the Government taking to lock in the gains for the long term from New Zealand’s current growth?;Labour;The Government is giving people confidence in the future by putting in place credible employment policies that ensure that we have the skills they need, and by reviewing the Government’s growth forecasts to ensure that we have the confidence to grow further. The Government is also giving people confidence in the future by ensuring that we have the foundations, that we are building to provide the skills that we need to get out of poverty. All of these measures are contributing to a strong economy, and a Government that has a vision
What steps is the Government taking to lock in the gains for the long term from New Zealand’s current growth?;National;"The Government has made significant progress on this issue. The National Party wants to move from a growth of 5.2 percent in the current year to a growth of 6.5 percent. The issue of the Budget goes to the heart of how we are able to achieve improved productivity, growth in our export income, and to deal with the issues of debt and debt reduction. The National Party wants to reduce debt in the short term by increasing borrowing.<|endoftext|>

"
Is there any objection to that course of action being taken?;Labour;"If the member were to be the Minister of Finance, it would not be sensible. The member is a remarkably good member of the House. But I say to him that he should not be the Minister of Finance, because the Prime Minister will tell him that he should be the Minister of Social Welfare.<|endoftext|>

"
Is there any objection to that course of action being taken?;National;"I am not aware of any objection to it. The Opposition has not even given any thought to a similar course of action. It is the Government's policy to have a review of the whole of our tax system, and it is the Opposition's policy to have a review of our tax system.<|endoftext|>

"
What was your caucus like this morning?;Labour;I am proud to stand here today and say that the Leader of the Opposition, in a year of great change, has made a great start. He has brought forward the State Services Reform Bill, which is now sitting for a select committee. I would like to congratulate the Minister. He has made a very good start on this bill, and I think that he is going to be the next Minister of State Services. I think that he will be a very good Minister of State Services. I think that
What was your caucus like this morning?;National;There was a lot of chatter around the Chamber-that was good. It is good to see and to hear that we are still here. Tomorrow, as the news media will know, this Government is in a different state of mind. We are looking forward to fully supporting the Bill, and I want to congratulate the Minister of Social Welfare on his handling of it. He certainly can add confidence to the nation's confidence. I congratulate the Minister for Social Development on his leadership of the Bill, which was
Were employment measures a priority area in the 1991 Budget?;Labour;The Government’s priority was focus on employment. The Government did not fund the Employment Strategy in 1991, so I can tell the member that it has not been funded in the current year. The Government has been funding a lot for the Employment Strategy. The Employment Strategy has been a priority area in the 1991 Budget. It was a priority area in the 1991 Budget when we were talking about the Government’s priorities. In the 1991 Budget we were talking about the Government’s priorities.
Were employment measures a priority area in the 1991 Budget?;National;"The minister is right; we have to be focused on that.<|endoftext|>

"
Because the Minister had an enjoyable dinner break?;Labour;Because the Minister had an enjoyable dinner break. It is an excellent example of the high degree of respect for the New Zealand public. I think that the Minister of Transport did an outstanding job in the last Budget. I thought that we had the best Budget in living memory. I thought that we had the best Budget in living memory. I thought that we had the best Budget in living memory. We have had to wait a little longer, maybe a year or two, to see what happens next. I
Because the Minister had an enjoyable dinner break?;National;I am happy to take the call to explain that. I do wish to reflect on the extraordinary episode that we are talking about in the House today, which, was not really in the best interests of the committee, and I regret that. I think it is a little bit different from the way we did it. I think it is another example of the Minister trying to be an example of the Minister’s style of leadership. I think it is a little bit different from what the Hon.
