question;party;answer
What information does the Minister have to explain this decrease?;Labour;"The Minister has provided very detailed information on the written question and what it is on the website.<|endoftext|>

"
What information does the Minister have to explain this decrease?;National;"it was a reduction in the number of sick leave paid. over the past 4 years 12,000 fewer sick leave was paid, and the main factor was the increase in the number of sick leave entitlements. During the year in question, when the number of sick leave entitlements was reduced by 13,000, that was a reduction in the number of sick leave entitlements of 11,000. That is a reduction in the number of sick entitlements.<|endoftext|>

"
You're not suggesting that that's democracy at work, are you?;Labour;"That's not democracy at work,<|endoftext|>

"
You're not suggesting that that's democracy at work, are you?;National;I am not suggesting that that is democracy at work. I say that that is a completely different way of speaking of democracy. The person who is speaking, the member for Tamaki, is not talking democracy at work, and he is being very insensitive to the fact that the member for Tamaki is not talking democracy at work. He is talking an entirely different language. The member for Tamaki is talking a different language. He is talking to a different part of the electorate. He is talking to
Who paid the legal fees for the wine box?;Labour;I think that it was the New Zealand Wine Association. The association was very happy to give the money back to the winemaker. I say to the member for Bay of Islands that that is a perfect example of what happens when a winemaker is wrong and the winemaker is sued for negligence. The winemaker was sued for negligence, for lack of control, and for failing to control the wine box. The winemaker was sued for negligence because the winemaker knew that she had failed to control the
Who paid the legal fees for the wine box?;National;The legal fees were paid by the Australian Wine Council. You will recall that the Australian Wine Council is the major supplier of wine overseas. It does not have control of the wine industry in Australia. One of the issues we were concerned about was the Australian wine industry’s limited resources, and that was why we recommended the inclusion of mandatory labelling and The National Party supported it. That was a good idea, and I believe that the bill is a good one.<|endoftext|>
By what date will the Government deliver on the Prime Minister’s promise to halve waiting lists for early intervention?;Labour;The Government’s answer to the question is that it will deliver on that promise by Christmas, but the fact is that this Government has underestimated the situation. We have underestimated the waiting-list situation in New Zealand. The Government has been, as it should be, putting the word on the street, but it is not delivering. The Government has been putting the word on the street, which is never done. The word has been put on the street, but there is not a word from the
By what date will the Government deliver on the Prime Minister’s promise to halve waiting lists for early intervention?;National;"The Government will deliver on the Prime Minister’s commitment to halve waiting lists for early intervention, by December next year. The Government’s commitment to halve the waiting list for early intervention was made in September last year. The Government has delivered on that promise and has seen the number of calls drop to about 200, and we are now expecting to see the number of calls drop to about 300 in January this year.<|endoftext|>

"
Does the member wish to change the vote, and correct me if I am wrong, Vote Treaty Negotiations?;Labour;I do not want to change the vote, Mr Chappie. I would like to thank the member for Tarawera, who is a very good speaker. He has just finished his speech, and he has mentioned the fact that on the debate stage some very good speeches have been made by members opposite. I think that it is important that the House make the point that at the end of the day the Government is the party responsible for the survival of New Zealand, and it is the Government that
Does the member wish to change the vote, and correct me if I am wrong, Vote Treaty Negotiations?;National;I shall give the member a word of warning. I think we have to listen to the member. He has been a member of this House for almost 10 years. He has been a member of this House for 9 years, and he has been a member of this House for 9 years. So he deserves a word of warning. I have to tell the member that I think he ought to give up the emblem. He should take that off. He is the richest member of this House. He is
What initiatives has the Government taken to secure the future of the Southerner passenger rail service?;Labour;"I have seen reports that indicate that passenger rail is a viable option in terms of its economic viability, and that it has a very good track record. I believe that passenger rail is the way to go. I do not believe that the Government is prepared to give up on passenger rail. I believe that we are at the beginning of a process that will likely see passenger rail achieved by the end of this decade. That is the way forward.<|endoftext|>

"
What initiatives has the Government taken to secure the future of the Southerner passenger rail service?;National;I am very pleased with the progress made in this area by the Labour members of the Transport and Environment Committee. The last year that I was in Parliament, the Minister of Transport said that passenger transport was not being able to compete with freight transport. The member for Tauranga said that passenger transport was not competitive. I looked at the figures and I said that passenger transport was competitive. That is why the Government is taking the action it is taking. It is not going to wait for freight to be
Has the member been sent all of them?;Labour;"I have been sent all of them. I have been sent a fine copy of the bill. If I have to report in this House an amendment to the bill, it is enough for me to write to the committee, because the bill is an absolute load of nonsense. I am glad to hear that the committee has made do with the bill. the committee has managed to get it right. The bill is a total mess; it was not going to be right. The committee was not going to get"
Has the member been sent all of them?;National;As the member for Whangarei I think that there are quite a lot of them in this House. A few of them are in the name of the member for Waitaki, and I have to say that it is a pleasure to see that he is being moved down. He is a loyal member of the National Party and has been for some time. I think that he is an excellent member of the House and I will be voting for him. I think that he has been an excellent member
Is this a separate point of order?;Labour;"I am asking whether that member can answer that question.<|endoftext|>

"
Is this a separate point of order?;National;As I said earlier, I am not sure whether the member is aware that I have been treated by the doctor for an injury that I suffered in the New Zealand Herald, in December, and that appears to have been avoided by the member for Waitaki, in his latest outburst. If that is the case he should get to his feet and explain to the House that the member for Waitaki has been treated for an injury. If he does not, I suggest that he withdraw and apologise.<|end
You are going to amend the amendment?;Labour;The amendment is to replace the words ``2 days for each week'' with the words
You are going to amend the amendment?;National;There's no new amendment. The amendment that I am proposing to make to the bill was to amend the amendment that was previously in the bill and to add to the amendment that was already in the bill, as originally proposed. That was not the intention of the select committee, so I am pleased to see that the select committee has taken a different position. My colleague the member for Horowhenua has taken a different position, and I am pleased to see that the select committee has taken a different
What priority do the police place on combating organised crime?;Labour;The priority is concerning the population of crime victims. I believe that the police are very concerned to achieve that goal. The police have been unable to achieve their primary objective of stopping the offending, and the main objective of preventing the offending from happening under the present system is the offending of young offenders. I believe that the police cannot achieve that goal as a result of the present system. The services that I have described are the most effective, but the system is not adequate and there are other problems with the
What priority do the police place on combating organised crime?;National;"It is my understanding that an estimated $10 million is paid to the police by organised crime. I am concerned to understand how much of that money goes to the police and who, is paying it. I am also concerned to understand who is paying for the organisation and where it is coming from.<|endoftext|>

"
