question;party;answer
Is the Minister for Sport and Recreation answering this?;Labour;"The Minister is answering, I am grateful for that. I just want to congratulate my colleague the senior member of the National Party on his bright idea of a No. or a No. 10.<|endoftext|>

"
Is the Minister for Sport and Recreation answering this?;National;The member is well aware. He knows the answer to the last question. I think that the member is attempting to take the question to the next level by saying that this is an important question. I think it is an important question. The previous speaker, we have heard, once again, that there is a great deal of scope for diplomatic engagement, as the Minister for Treaty of Waitangi Negotiations has indicated. I think that that is an important point.<|endoftext|>
Are you then suggesting that something like a custodial sentence might be the requirement?;Labour;What I am saying is that it is an important matter, and I think it is absolutely right that we look at it. I think that the member for Tarawera has indicated that she will have to consider the proposal when she gets back into Cabinet. I think that there are a number of proposals that would make a substantial difference to the way that this House operates if they could be implemented. One of them is the increase in the number of judges. I think that it is essential that we have
Are you then suggesting that something like a custodial sentence might be the requirement?;National;I am suggesting that a custodial sentence might be the requirement. If one does not have a custodial sentence, then one can get a custodial sentence and get one's kids back, and there is no way of stopping that from happening. What we are saying is that we have got it right. The other thing we are saying is that this bill is a bit mean, and that it is not really about providing a system of justice, it is about putting in place a system. This bill
Why is cyber-bullying such a concern for the Government?;Labour;I say to Mr Banks that he needs to think again. The public of New Zealand have to question what happens to them when their telephone lines are cut or hacked. Their security is at risk. The Government has been very clear that it will use all means and all means to protect people, and cyber-bullying is a very serious problem. I say that to the Minister who is now saying that cyberbullying is a problem. We have had more than 300,000 reports of cyberbullying
Why is cyber-bullying such a concern for the Government?;National;I believe that cyber-bullying is a very serious matter, and it is a very sensitive issue. I think that the fact that it has been going on so long, and that the Government has said it will deal with it, is a very important point that has been made by a number of people on this side of the House. I want to say that it is no wonder the Government has not been able to get the legislation through. It has been a little bit too late, and it
Is reducing both the supply and demand of methamphetamine and other class A drugs a priority for the Government?;Labour;"Our priority is reducing the supply, not the demand. We know that the drug problem does not just affect young people. We know it affects young teachers and teachers who are not in need of drugs.<|endoftext|>

"
Is reducing both the supply and demand of methamphetamine and other class A drugs a priority for the Government?;National;"The Government's priority is to reduce the supply of class A drugs. The Government's priority is to reduce the scope of the existing legislation. The Government's priority is to reduce the scope of the existing legislation.<|endoftext|>

"
For the purposes of our people out there, is the Minister saying that the National Party policy does not add up?;Labour;"I think the Minister has not looked at the evidence. I think the evidence is that the National Party does add up, and I think that it should be the case.<|endoftext|>

"
For the purposes of our people out there, is the Minister saying that the National Party policy does not add up?;National;"I am referring to the policy that was put forward by the member who asked the question. At that time the Leader of the House was saying that the Labour Party was not left, we were the National Party. The member for Dunedin West was saying that he was supporting this policy. We were the National Party. ``The National Government is not a party of opposition; it is a party of action.'' The National Party will not support this policy. We will not support it. The member for St"
Under what arrangements does New Zealand Post deliver mail to rural box holders?;Labour;"The main thing is that New Zealand Post has a huge amount of mail going to rural box holders. It is $31 million worth of mail going to rural box holders.<|endoftext|>

"
Under what arrangements does New Zealand Post deliver mail to rural box holders?;National;It is a very good system. It allows mail to be delivered to remote or isolated communities. It allows for the delivery of mail to be delivered to rural box holders, which is what happens in New Zealand. The mail is delivered to rural box holders by mail trucks. It takes only a day or two to load and unload mail and mail boards, and it takes only a few minutes to deliver it to those remote box holders. That is what people are doing in remote communities, with their trucks
What impact will the mixed-ownership model have on future Crown cash flows?;Labour;The Government has proposed a mixed-ownership model. Nothing is wrong with that. I would say that the Government has achieved a very good outcome in the Government's policy for the business community. The Government has reduced the cost of business. I would say that there are some problems with that, because the cost of business is the primary element. There is no explanation of why it is the primary element. The Government has not been able to explain that. The Government has not been able to explain why
What impact will the mixed-ownership model have on future Crown cash flows?;National;The Government is taking the first steps by establishing a National Land Information Alliance and a National Land Information Centre. The alliance will be set up as a partnership between the Crown land management and the Alliance, and will include some 40,000 land and land use consultants and engineers. The Government is also making other changes to the Alliance, which will include a new website, a new director, and a new chief executive. The Alliance is one of the most important organisations in the history of New Zealand to the extent
What reports has the Minister seen of alternative strategies for increasing domestic demand?;Labour;The Minister is talking about reduced supply. I am not talking about reduced supply. I am talking about why we need the Government to do something about the issue. The Minister has talked about the problem of domestic demand in the last 2 years. He said that the problem of domestic demand was the result of a lack of productivity in New Zealand. He said that productivity was the problem of the future. He said that we need a productivity programme. We need a productivity programme. I am talking about what is
What reports has the Minister seen of alternative strategies for increasing domestic demand?;National;"In the past 18 months, the Government has put in place measures to support domestic demand, such as increasing the minimum wage and raising the minimum wage, increasing the benefits, and increasing the benefits tax. The Government is not delivering on its promises.<|endoftext|>

"
How does the Government intend to attract private capital to boost New Zealand’s infrastructure base?;Labour;"The Government will provide a framework for attracting private capital to support infrastructure projects by increasing public funding of those projects. It will be a key priority for the Government to attract private capital to support infrastructure projects. through this package, companies will be able to invest in the areas of rail, roading, infrastructure, and telecommunications, and will be able to plan ahead to find the capital for those projects.<|endoftext|>

"
How does the Government intend to attract private capital to boost New Zealand’s infrastructure base?;National;This is an important question. It is one that I have been asked many, many times by the New Zealand media and I have been asked many, many times. The first thing I can tell you is that I believe that building a new railway line is actually the key to growing New Zealand’s exports. If we are to be successful in attracting private capital to build a railway line, we need to do it in the right way. That is why we are supporting this Bill. It is
Can the Minister assure the House that the police are not endangered by the procedures used to restrict the use of firearms?;Labour;The police are not endangered by the procedures used to restrict the use of firearms. The police are the first line of defence against crime in New Zealand. The most effective way of fighting crime is through the use of a combination of police and the supportive community, and we are seeing that in the South Island. This Government is committed to a more proactive approach to addressing crime. I know that my colleague George Hawkins, a civilian who has been a police officer, and other police officers are very concerned that the
Can the Minister assure the House that the police are not endangered by the procedures used to restrict the use of firearms?;National;I am not aware of any danger to the police. I do not think it is appropriate to use the word ``prolonged'' or ``extended'' as an answer. The police are normally so busy and so busy working that they are not in a position to be giving us further details. The police should know that there is a person who is here, and who is talking to them, who is talking to this Committee, who is talking to the media, and who is talking to the
