question;party;answer
Why did you delay the ACC cuts by a year?;Labour;"The ACC cuts had to be postponed because of the Government’s decision last year to hold off the announcement of the ACC cuts until the ACC consultation period ended. That is what the ACC consultation period was. It was cancelled in 1992. The ACC cuts will be announced as a result of that delay.<|endoftext|>

"
Why did you delay the ACC cuts by a year?;National;The ACC cuts were delayed by a year. The ACC cuts were delayed by a year because the ACC cuts were to take effect at that time, which was not in the best interests of ACC. There was a whole range of issues around the ACC cuts. I know that the ACC has particular problems with the use of the word ``Alliance'' in the ACC. I know that the ACC has particular problems because of the use of the word ``Alliance'' in the ACC. The ACC has particular
How could any of us have overlooked it?;Labour;Where is the member’s answer? The member for Rotorua is correct. It is far too late to have the members of the select committee in front of you. The committee has been sitting for over 2½ weeks now. I will be entering into an agreement with the member for New Zealand First that the member for Auckland Central should be a party member, and the member for Auckland Central should be a party member. I acknowledge that the member for Auckland Central is a party member, and
How could any of us have overlooked it?;National;that was not the case. The member should take a call. He should take a call in the debate. He should make a contribution. He should make a contribution in this House. We should not have overlooked it. How could we have missed it? We did not. How could we have missed it? We should be proud of the fact that we have had a Treasury report on this legislation, and that we have had an alternative, a report that would have had us thinking that this was all
How many affordable homes have been built in Auckland over the last 5 years?;Labour;"The number of affordable homes built in Auckland was not listed during the last 6 years, and we are not currently seeking to put them up. All of those affordable homes have been built over the last 5 years, and they are not in need of a new assessment.<|endoftext|>

"
How many affordable homes have been built in Auckland over the last 5 years?;National;That is a very good question. It gives a sense of the really good work that has been done over the last period of 7 years. It gives a sense of the commitment that has been done by National in terms of the quality of that work, and the commitment that has been made by the Labour Opposition. It gives a sense of the commitment that the National Party will make to support this legislation. It gives a sense of the commitment that we have made to support this legislation. The other thing we
How many former rural post clients have not renewed payment for the service?;Labour;"The answer is that there are not any former rural post customers.<|endoftext|>

"
How many former rural post clients have not renewed payment for the service?;National;The number of former rural post clients who have not renewed their contract is not known. It is a very high number. I have not been able to get the numbers. It is a very high number. It is a very high number. It is the level of number that the member is talking about. It is a very high number. It is a very high number. I have not been able to get the numbers. It is a very high number. It is a very high number. It
Can I seek leave to table a newspaper report?;Labour;I have it in front of me. It is an interesting one, and I will give a brief summary of it. I have in front of me a front-page article, which states that after the National Government's decision to sell the monopoly to the New Zealand Energy Commission, the New Zealand Energy Commission has been given a huge amount of money to sell to New Zealanders. The article states
Can I seek leave to table a newspaper report?;National;It is a report that I have been reading. I do not want to read it myself. The news paper is entitled
Is the Minister satisfied that current measures to plant forests in New Zealand will be adequate to meet those demands?;Labour;The Minister is quite clear that the growing demand for forestry, the planting of new trees, and the planting of trees that are already in the forest will meet the demand in the near term. The Government's forestry policy is to encourage the planting of trees in the future, and there will be opportunities for forest growth in the medium term. We are also committed to planting trees in the future, we are committed to planting trees that are already in the forest, and we are committed to planting trees that will
Is the Minister satisfied that current measures to plant forests in New Zealand will be adequate to meet those demands?;National;I am satisfied that the current measures to plant trees in New Zealand will be adequate to meet those demands. The Minister has selected the appropriate time and the appropriate place to install the trees so that they can be grown. I have said that the average plantings per hectare in New Zealand are about 153 hectares per year. This is a good start. I want to highlight the key issues in this bill. The first is the requirement for the Metiria Turei Trust to take money from the
What savings are expected as a result of these three initiatives?;Labour;"I am talking about the $73 million that the Government has put into this bill since the previous election. I am talking about the savings that the Government has put into this bill. That is a little bit like the second reading speech. It is like the third reading speech.<|endoftext|>

"
What savings are expected as a result of these three initiatives?;National;"The savings of $119.4 million would be achieved by the introduction of the social welfare reforms announced yesterday. It is believed that the savings of $9 million to $10 million will be achieved by the time the Red-Green coalition Government is in office. This is based on the assumptions that are being made on the basis of the best available information.<|endoftext|>

"
probably both of you, but actually Carmel Sepuloni, Sorry-was it Carmel Sepuloni who used a poultry term?;Labour;The member thinks it was Michael Cullen, so he was surprised to hear that it was the member who was quoted as saying that the Government was moving to this bill. That was actually from the member who was quoting the quote that was in question time yesterday, and that is the only one that the member has found in the report
probably both of you, but actually Carmel Sepuloni, Sorry-was it Carmel Sepuloni who used a poultry term?;National;"Carmel Sepuloni-sorry. She used a poultry term.<|endoftext|>

"
Has the Minister looked at himself in the mirror recently?;Labour;"I have looked at myself in the mirror, and I have said to my colleague that this Government has to take responsibility for a $500 million deficit. That is total rubbish.<|endoftext|>

"
Has the Minister looked at himself in the mirror recently?;National;"I have looked at myself in the mirror a lot. I want to start by advising the member that I am often asked this question, and I am happy to answer it.<|endoftext|>

"
What can I say that is nice about Mr Goff?;Labour;We have an opposition member who is the leader of the Labour Party, who is very much making the Labour Party the party of government. We have a leader who is on the side of the people. We have a leader who is on the side of the Government, who is not a member of the Labour Party, and who is talking to the people. we have a leader who talks to the people and is talking to the country. He is talking to the people. he is talking to the people
What can I say that is nice about Mr Goff?;National;It is a very good member of Parliament. We know that that member is going to be there for a long time. He is a great member of Parliament. He is a very good member of Parliament. I think he is going to be around for a very long time, and we look forward to him in the House. I do want to make a couple of comments about the select committee process. I know that members of the select committee mostly agree, because we all know that the select committee process
