question;party;answer
What is the Government doing to promote awareness and support those with hepatitis C?;Labour;"I do not have any information on that. it is a matter of education, and the Government’s focus on the treatment of hepatitis C is on the treatment of it. I do not have any information on that.<|endoftext|>

"
What is the Government doing to promote awareness and support those with hepatitis C?;National;The Government is working to encourage awareness and support those with hepatitis C, and I am proud to see that the March issue of the Health and Medical Journal has been included in the publication on the Government's website. That is a fantastic result. Nearly 150 million people will be aware of the fact that they have hepatitis C. The Government is also working to teach people to be safe with this virus, and to raise awareness and support for those with hepatitis C. The Government is focussing on those with
Has the Prime Minister seen any reports calling for a bipartisan approach to tourism promotion?;Labour;"I have seen the reports, but I have not seen an invitation for a bipartisan approach to tourism promotion.<|endoftext|>

"
Has the Prime Minister seen any reports calling for a bipartisan approach to tourism promotion?;National;"The Prime Minister has seen some reports, which she has spoken to, and I will give two examples of that. The first relates to a trip to the eastern Pacific. The report states that, at the time of the trip, the Prime Minister was preparing to bring an announcement to the Pacific Island people about any relief package. Is the Prime Minister prepared to tell the people of the Pacific Island people about the announcement?<|endoftext|>

"
What’s that got to do with the dam?;Labour;"if the member wants to know, then I think it’s got to do with the dam.<|endoftext|>

"
What’s that got to do with the dam?;National;"I’m not going to get into that.<|endoftext|>

"
To what extent is the Government's attitude affected by the changed role of the peacekeeping operations?;Labour;The attitude of the Government towards peacekeeping is a very sad reflection of the attitude that the Government is taking towards all issues. I congratulate the New Zealand Maori Television Association, the New Zealand International Broadcasting Corporation, and others. They do a great job. They are doing a great job. They are very well known for doing a great job. The people who are involved with the Maori Television Association are well known. They are very well known for some of the work that they do. I congratulate
To what extent is the Government's attitude affected by the changed role of the peacekeeping operations?;National;"I do not know the exact figure, but I am sure it is not that high. It was raised in the committee last week, and it is now being raised again, because the committee has been advised that the amount raised has been less than the amount in question.<|endoftext|>

"
Was that deadline set before or after the bill passed its first reading and was referred to the select committee?;Labour;The deadline for submission was set on 12 February, and the committee received submissions on it before the end of February. There was not a significant submission on the final part of the bill, although we did hear from the member for Selwyn, who said that the bill was not needed, because the community of the Tarawera had been told by the Minister of Conservation that it would not be needed. He said that the community would not have been told by the Minister of Conservation that it would not be
Was that deadline set before or after the bill passed its first reading and was referred to the select committee?;National;"It was set on the day the bill was reported back to the House. If that was the case, that would have been a reasonable thing to do.<|endoftext|>

"
What choice is there for a sick person who will have to pay ``user pays'' on the Minister's new ``sickness tax'' ideas?;Labour;I am not sure about that. there is no doubt that the Minister of Social Welfare, as he has been known to tell the media this morning, the member for Selwyn, and the member for Tamaki, has gained an enormous amount of money by introducing a bill of this type. We should look at the statistics for the last few weeks, as the Minister has told us. The Government keeps track of the variable, the improvement, and the improvement in different ways. There is a lot of
What choice is there for a sick person who will have to pay ``user pays'' on the Minister's new ``sickness tax'' ideas?;National;It is an excellent idea, and it was the Government's idea, but it is not one of the Government's. It is not one of the Government's ideas, but it is one that is being put forward by a National Party member. What we are seeing is the start of a very important economic development, with the Government not only declaring that it will introduce the long-term Budget deficit reduction but also announcing that it will be legislating to remove that deficit. That is what was in the
What are you asking whether there is any objection to?;Labour;"I am asking why there is any objection to the Bill. If there is any complaint to the select committee, I am happy to lodge it.<|endoftext|>

"
What are you asking whether there is any objection to?;National;I am asking whether there is any objection to the Bill in its present form, which does not meet the needs of the present system. I think we have to look at what is possible with the new system. This Bill does make some pretty basic changes. It will make the system more competitive, more equitable, and more effective. It will also have a positive effect on the economy. If the Government does not like the Bill now, we can put it before the House and wait for the Select Committee
Because at this stage the Minister on two occasions has said- Sorry?;Labour;That is the first time the Minister has said that he has read the report that I have read, and that he is waiting for the report to come through. That is very surprising and unhelpful of the Minister. The second time the Minister said that he had read the report was when he put it to the House yesterday and said that he had read that report. I have read that report. I have not, received the report. That is the second time the Minister has said that he has
Because at this stage the Minister on two occasions has said- Sorry?;National;The member for Yaldhurst, who is quoted in the media, wants to ask me why I am not prepared to give an assurance that those ``disguised'' figures are accurate. He has to ask me to give a guarantee that those figures are accurate, because the Minister has said that those figures are accurate. He has asked me to give a guarantee that those figures are accurate. I have to tell the House what the figures are. I have to tell the House that those figures are accurate
Has the Minister received any reports suggesting that some, of the link centres are not cost-effective and ought to be closed?;Labour;The Minister has not received any reports suggesting that some link centres are not cost-effective and should be closed. The Minister has received no reports suggesting that the good link centres are not cost-effective. The Minister has received no reports suggesting that the health centres are not cost-effective. The Minister has received no reports suggesting that the health centres are not cost-effective. The Opposition spokesperson on health has not got a question right. The Opposition spokesman on health is trying to hide from the real issue.
Has the Minister received any reports suggesting that some, of the link centres are not cost-effective and ought to be closed?;National;I have received a number of reports indicating that some of the link centres are not cost-effective. The report from the Ministry of Transport states
What are the benefits for ordinary New Zealand families from tariff reduction?;Labour;I give a very good example of that, and that is a family of two. The cost of the petrol has been reduced in a very good way. The cost of the electricity has also been reduced considerably. The cost of the road has actually been reduced by $135 a year, which is the cost of petrol, and that is wonderful, and it is a very good thing. That means that a family of five will get less than $1 a month, which is about $20 a year
What are the benefits for ordinary New Zealand families from tariff reduction?;National;The benefits to ordinary New Zealand families from tariff reduction are the same as the benefits from the National package. They are the same as the benefits from the National package, which has not been mentioned. There is no way around this, and this is not the first time that the Government has been caught out in this way. The first time was in the late 1980s, when the National Government announced a package of tax cuts that it said would bring in an extra $800 million to $900 million.
