question;party;answer
In what areas has the Government identified unfunded commitments?;Labour;I am not sure whether I have mentioned that. I do not think that much of it is unfunded, but I think we are talking about a good deal of it. The second point I want to make is that it is good to see the Government's willingness to put on a good show for the people of New Zealand, and the fact that that show is being undertaken by the Government, not by an Opposition party that is now in Opposition. The third point I want to make is that
In what areas has the Government identified unfunded commitments?;National;"In relation to the recent announcement of the Government’s contribution to the public broadcaster of $50 million, is that $50 million being used to improve the quality of the broadcasting of the programme?<|endoftext|>

"
How many more tragic deaths do we need from drug, testing?;Labour;"The statistics I am talking about should be up to date. How many more are we talking about? This country has the highest rate of drug, testing in the world.<|endoftext|>

"
How many more tragic deaths do we need from drug, testing?;National;I do not know the exact number, but I would have to tell the select committee that it is the equivalent of only 8,000 cases in our prisons, and that is not enough. The other thing I find interesting is that the Minister of Corrections, when he was Minister of Health, said that this was a positive measure. I say to the Minister that this is the equivalent of only 8,000 cases a year in our prisons. That is what we are talking about. I think we are
Is the member who is interjecting in Cabinet yet?;Labour;"It is a pleasure to be interjecting in this debate. I should like to express my concern that the member who has just resumed his seat, the member for Selwyn, has to wait until another quarter to see that his bill goes through.<|endoftext|>

"
Is the member who is interjecting in Cabinet yet?;National;"He is not, I am sorry, he is not! Did he make a ministerial statement in his first State of the Nation address; did he say to the people of New Zealand that they were stupid, that they were stupid, that they were stupid; did he say to them that they were stupid? I have no idea about that. I have no idea about that. I certainly have no idea about the member for Auckland Central. I have no idea about that, but to hear him make a"
You haven’t ridden in buses in Auckland then?;Labour;"That’s a different matter.<|endoftext|>

"
You haven’t ridden in buses in Auckland then?;National;I have not ridden in a bus in Auckland. That is the problem that we have in New Zealand. If we look at the statistics, we see that the average price of a bus ticket in Auckland is about $30. He who pays the most is the person who pays the most. So it was only a few years ago that a person who paid $30 a ticket was $45 better off than the person who paid $28. That is how we have arrived at the situation where people are
Has the Prime Minister seen reports of other periods when unemployment was rising?;Labour;I have seen reports of the deterioration of the situation in the United States, but I cannot say that I have seen any reports of a similar situation in the United States. I have heard reports in the news media that the nationwide unemployment rate is now at 8.6 percent. I have seen reports of an increase in the numbers of people on benefit and the number of people on unemployment benefit, and I have seen reports about a desire to increase the number of teachers and a desire to increase the number of
Has the Prime Minister seen reports of other periods when unemployment was rising?;National;"I have seen a report that indicates that unemployment has been rising since the Government took office. That is not the worst of it. I am looking forward to the next period of time when people get a sense of what is happening in New Zealand.<|endoftext|>

"
But doesn’t it require the member’s agreement?;Labour;"It does not. It is a lot cheaper for them not to have a job. It is a lot cheaper for them to go on a sickness benefit and to pay for their own transport. That is the type of welfare they are getting.<|endoftext|>

"
But doesn’t it require the member’s agreement?;National;I think that is right. I think it is important to understand that the National Party has shown that it is not a party that is fundamentally opposed to the principle of the Bill. The National Party will support it to the extent of supporting it, but I think it will be consulted in a way that will make it clear that it is not the Government's policy. I do not think it is an unreasonable thing that the member who has just resumed her seat, the member who is now ruling New Zealand
Is the member talking about the Bill or what I am about to refer to?;Labour;"I am talking about the Bill.<|endoftext|>

"
Is the member talking about the Bill or what I am about to refer to?;National;"I am talking about the Bill, which shows how the Minister of Transport has taken the views of the New Zealand Herald and the New Zealand Heraldippi in order to get to the point he is at.<|endoftext|>

"
Did the member oppose the abolition of death duties?;Labour;I did not. I think that the member should give him a call, and he will tell me whether he is for the abolition of death duties. The member will have to wait until tomorrow. The member is quite right. He will have to wait until tomorrow. The member believes that, although he is for the abolition of death duties, he will vote against the abolition of death duties, and he will vote against the abolition of death duties in the House of Representatives, and he will vote against the
Did the member oppose the abolition of death duties?;National;I am not an advocate of abolition of death duties. I am not concerned about the abolition of death duties as we currently have them. The member should read the Public Service and the Reserve Bank Act, which we agree with much more strongly than we do with the abolition of death duties. in the case of the Reserve Bank Act, the Government does not want to abolish death duties. It wants to abolish the ability of the Reserve Bank to depose its members and, do it through the Competition Tribunal,
How important is the update of the Education Act 1989?;Labour;"This update will be an important one. It will bring forward the requirement for students to have a degree and to have a qualification in order to enrol.<|endoftext|>

"
How important is the update of the Education Act 1989?;National;It is important. It is very important, because this bill has more than a century of history behind it. In the past 150 years there have been a number of different versions of the Education Act, which have been adopted by our Government under the Labour-led Government. I believe that this is a very important update of the bill and that the Government members of this select committee will be able to make some recommendations. It is very much about improving the quality of teaching that is delivered to our children.
Can I speak to that point of order, Madam Chairperson?;Labour;"I agree with the member. The point that I want to make is that I believe that the Minister of Labour has made it clear that the allegations that have been made by the member for Selwyn and others about the salary of the Minister have been made up. I do not believe that the Minister of Labour has made it clear that the Minister is to be made an offer.<|endoftext|>

"
Can I speak to that point of order, Madam Chairperson?;National;I will give the House a reference statement to follow. I make it clear that the Government of the day has made it clear to the Minister that the Government will not be able to spend the money on the purpose of aiding in the recovery of the economy, as the member will know. The Government has been told that it will be spent on the purpose of helping the economy. The Government is told that it will be spent as a stimulus to help the economy recover from the recession. That is what the
