question;party;answer
Are interjections now out of order?;Labour;I say to Mr Key and to the National Party that because of the interjections, interjections are out of order. It is not a matter of order. It is a matter of interjections. I have spoken to Mr Key. I have spoken to Mr Key. I have spoken to Mr Key. I have spoken to Mr Key. I have spoken to the member for Auckland Central. I have spoken to the member for St. Kilda. I have spoken to the member for
Are interjections now out of order?;National;"I think that it is a matter of decorum.<|endoftext|>

"
When did he, know this was the new policy?;Labour;It was discovered in the report of the Commerce Committee in October last year. The decision was made fairly quickly, and that is probably why it was done in such a way as to avoid any concern of the member for Tauranga, who has been his chief critic throughout the whole process. It is important to understand that in the years that I have been in office the food and clothing industry has had a very good relationship with the State, and there is no reason for that to change, because it
When did he, know this was the new policy?;National;I am not aware of that. I am told that the member for Tauranga spoke about this policy at the National Party conference. I am not sure about that, but it is a new one. The member for Parihaka spoke about this policy at the National Party conference. He said that the Government had learnt from its mistakes. The member for Tauranga, who has been in this House for a few months, said that he had learnt his lessons from the mistakes of the previous Government
What was the purpose of the Legal Services Board seminar held recently in Wellington?;Labour;The seminar was held at Wellington Hospital, and was attended by staff from the Legal Services Board, as well as the Legal Services Association. It was a reminiscence of the lawyer who has been involved in the Legal Services Board for many years. The seminar has been a real success. I think it is a pity that the Government is so unwilling to acknowledge the fact that the seminar is a real success. I think the seminar was a real success because of the work done by the Legal Services Board
What was the purpose of the Legal Services Board seminar held recently in Wellington?;National;The purpose of the seminar was to provide legal assistance to low-income New Zealanders. The seminar was not a disciplinary or disciplinary action. The seminar was a standard training scheme for lawyers in New Zealand. The seminar was carried out in conjunction with Legal Services, and the seminar was conducted in the office of the Legal Services Board. The seminar was part of the Department of Corrections work programme, and was run by a firm of lawyers and consultants. Road-User Charges-Reports.<|endoftext
Can I speak to the point of order?;Labour;The member for Tamaki states that this is a Government that is in serious trouble, and that it is not just the opposition that is in serious trouble. I should like to give him a good example of how serious the Government has become. It has been pointed out that the Opposition is the most serious Opposition in this House. It is not in serious trouble, because the Government is moving to promote its left wing. It is moving to promote its Labour-led Government, which is on the Opposition's
Can I speak to the point of order?;National;I have. I want to make a few comments. I also want to say that I am not a member of the select committee. The member for Selwyn asked me about the question of whether I had read the report. I am sure that the member has read it, but I do not know whether to be surprised that I had read it. I am told that the committee has read it fairly thoroughly. I am also told that it is quite a document. Perhaps I should go to the select
Is there any objection to that course of action being followed?;Labour;"I think that there is, and I think that it would be inappropriate to not be following it. It is not a matter of whether I am going to follow it or not, but whether I am going to be there or not. I am not in favour of that course of action. I think there is a better course of action. I think that it would be inappropriate to continue with that course of action.<|endoftext|>

"
Is there any objection to that course of action being followed?;National;There is no objection to that course of action being followed. That is the only course of action that is favoured by the Government. It is not favoured by the New Zealand First member for St. Albans. He is the only party that has a policy for the New Zealand economy. The New Zealand First member for St. Albans, who would like to be the leader of the National Party, is the only party that has a policy. The Government has only a policy for the New Zealand economy
Is the Army given any training in controlling civilian gangs?;Labour;"The Army is given training in controlling the civilian gangs in New Zealand.<|endoftext|>

"
Is the Army given any training in controlling civilian gangs?;National;"The Government has been very clear that the Army is not training and is not doing any training in relation to civilian gangs. But it is expected to do the same when the matter comes to the select committee. The debate on the legislation is currently taking place in the select committee. It is expected that by the end of the year we will be able to finish the debate on the Bill and send it to a select committee.<|endoftext|>

"
How much time does the Opposition have left?;Labour;"The Opposition has not got an answer to that question. The member for Waikato asked a question in which I said that the member should wait for the select committee. I have made it clear, prior to the election, that the Government's policy was that if the member was a Government member and voted for a member of the National Party who was not a member of the National Party, he should wait until the select committee.<|endoftext|>

"
How much time does the Opposition have left?;National;"The Opposition has not had much time to give a speech. It has just been waiting for a couple of speeches to fill up the time. The Opposition wants to go into an election campaign very early after the election. It wants to give New Zealanders a clear idea of what it wants to achieve. It wants to give them a clear idea of what it wants to achieve, and that is to have a Government that has a plan.<|endoftext|>

"
Are you-is the member arguing with me?;Labour;"There is no contradiction. You are talking about a member’s bill. I am not saying that the member’s bill is wrong. I am saying that the member’s bill is not wrong.<|endoftext|>

"
Are you-is the member arguing with me?;National;"I am not arguing with you.<|endoftext|>

"
Is it Government policy for the 90-day scheme to be the default provision in all new employment agreements?;Labour;"The 90-day scheme is the default provision in all new employment contracts, according to New Zealand First, the Alliance, and the Green Party. The 90-day scheme is the only option for New Zealand, and that is the only option for New Zealand.<|endoftext|>

"
Is it Government policy for the 90-day scheme to be the default provision in all new employment agreements?;National;"That is correct. I think that is a matter for a select committee to consider.<|endoftext|>

"
This is the boat without a propeller?;Labour;"The boat without a propeller is the same boat as before.<|endoftext|>

"
This is the boat without a propeller?;National;"the principle of the bill is that we are passing it because of the debate in the House, as I say, we are passing it because the New Zealand public want it to happen. We are passing it because the National Party has this overwhelming mandate across the country, and we have to make sure that the rest of the bill is acted upon, so that we can move forward.<|endoftext|>

"
