question;party;answer
How does one follow a speech like that?;Labour;I have got it on a tape. I believe that we are now attempting to understand the very real impact of the introduction of this legislation. The member for Papakura is the person who introduced this legislation. I am sure that in next year's election, when the National Party is in Government, the member for Papakura will be the most powerful person in New Zealand. He is one of the people who made the legislation work. I want to ask the Minister of Finance whether he believes that the New
How does one follow a speech like that?;National;I can understand why that member made that comment, because it is his way of trying to justify the Government’s decision to go through with the present legislation. In my view the National Party believes that the National Party supports the bills, because we believe that we can support them. All we wanted was a way of helping New Zealand as we move into the future and moving forward. We believe we can do that. I believe we have the ability and the wisdom to do that. As I said
When was the member on the road to Damascus?;Labour;I was in Damascus this week just before the United States embassy was attacked. A number of people had been injured, and we were not in Damascus at the time, but it was quite clear that something had happened, and that it would take some time to recover from it. I was in Damascus this week for the convention. There are a number of things that need to be said about the convention and what it means. I make a very strong case that it is the best convention on national security in
When was the member on the road to Damascus?;National;I was on the road to Damascus on the side of the road, in the shadow of the Government. I am not going to get into the details of my visit to Damascus, but I do want to say that the Government made it clear that I was not given the opportunity to travel to Damascus by the Government. The Government has done a great job in that regard. I did not get to the heart of the city to see what has been happening. I did not get to see what was happening
Did the deputy leader get rolled then, in the ACT party?;Labour;I thank the deputy leader for his buggerings about the substance of the Bill. He runs the risk of giving us a National Party that is very much the same as the one that was in Opposition. The reason he got rolled up was for his position as the Government's spokesman on finance. That position is absolutely vital. The Opposition has a lot of people, but it has very few people who are actually trusted. The Labour Party has very few people, and it has very few people who are
Did the deputy leader get rolled then, in the ACT party?;National;I did get rolled in the ACT party. The member for Papatoetoe and the deputy leader were actually quite adroit, and I want to take the opportunity in this debate to thank all the members of the Chamber who were there to listen to that speech. It was a very long speech, but I want to tell the House about a particular aspect of it because it was a very interesting speech. I think it is important that people understand what is going on in this country. I think that
Would the member guarantee that 12 months?;Labour;"I think it is a matter for a select committee. I think it is an honourable member of the House who has come in here and tried to manipulate the House. I have no problem with that, because I think it is a matter for a select committee.<|endoftext|>

"
Would the member guarantee that 12 months?;National;I am not sure that 12 months is the right line of time, but I am sure that it is a pretty good idea. The member for Papakura asked whether the Government would make the case for a broader use of the Ombudsmen Act. The Government's policy on this matter is clear. I have said in the past that I am sorry to see the Ombudsmen Act being used to give special treatment to the Ministry of Education, while the Ministry of Education is not the same as the
What will the Ord Minnett report focus on?;Labour;I will focus on the balance of the package. The first thing is that it will focus on the level of support that is available to families who are facing the biggest hardship in the community. I have been in our community for two years, and I have seen first-hand what is happening to family life in that area. I have spoken to the chiefs of the various agencies. I have seen what they are saying. I have seen how the community has responded. I have seen the policy. I
What will the Ord Minnett report focus on?;National;"It will focus on the statistics.<|endoftext|>

"
Can you just give me an indication of how much longer I have got?;Labour;"I do not think that is possible at present. The Minister has the power to deal with the matter at this stage but I do not think it is possible.<|endoftext|>

"
Can you just give me an indication of how much longer I have got?;National;"I would like to say that the member is probably not right, because I am not sure what is going on.<|endoftext|>

"
Does the National Library have to take it?;Labour;"The National Library has to take it. It is not a Government-owned enterprise; it is not in the hands of the National Party; it is in the hands of the Government, and it was consulted on the matter.<|endoftext|>

"
Does the National Library have to take it?;National;The National Library has to take it because the same people who are here are not here. The National Party has failed. It has failed in the last 2 years. The Government has failed because the Government has been too weak. The Government has been too weak because it has been too weak on the issues. It has failed because the Government is being run by the National Party. The National Party is running the Government. The Government is being run by the National Party. The Government is being run by the
Why is the Government able to deliver significant ACC levy reductions?;Labour;The Government has been able to deliver significant ACC levy reductions because of its decision
Why is the Government able to deliver significant ACC levy reductions?;National;This is a Government that is focused on delivering the best outcomes for New Zealanders, and delivering a great deal more than that. The Government has delivered a great deal more than that, and it is delivering better outcomes than any of the other Government parties. The great thing about this argument is that it is backed up by the fact that the Labour Party is saying that it is not a Government. That is the opposite of the way this Government has been running things. It is saying that it is focused
How does sitting on your couch help that?;Labour;We are doing it in real life, and it is very good for our economy. I also want to refer to one of the other things that the previous speaker talked about. I think that the member might want to take a call and explain how this is a win-win for New Zealand and for New Zealand businesses and for New Zealand consumers. So I just want to get a quick and clear answer out of her. I think that it is a win-win. It is a win-win
How does sitting on your couch help that?;National;There is a principle that has been in place for a long time that has been in place for a long time. In the main it is that the member should refrain from interrupting the Minister in debate. That is the principle that the Minister always follows. If the member interrupted the Minister in the debate, she should not continue interrupting. If she interrupted the Minister in the debate, she should not continue interrupting. The question the member raises is whether the status quo ante is where it should be
How much does the member want to bet?;Labour;I am sure that the member here wants to know. I am sure she wants to know about the Coalition Government’s cuts, and I think that the member here wants to know about the problems caused by the National Party’s cuts. That is a good point. I want to ask what the Government is doing about it. The Government is not doing anything about it. The Government is engaging in a long-term strategic approach towards the future of the country, and it is relying on
How much does the member want to bet?;National;He wanted to bet a lot more than $200 million, but he was told that those funds were not going to be spent on this programme. It is now costing $250 million. He said that he was going to spend $200 million on this programme. He was told that each and every one of those 1,000 people did not know about this programme. So he wants to bet $250 million. He wanted to bet $200 million. He wanted to bet 1,000 million, where
