question;party;answer
What will the firm ceiling price be for those frigates, if the Government intends to buy them?;Labour;the firm ceiling price for those frigates has been extended to 12.5c per square metre, and the firm ceiling price for any offshore frigate has been extended to 16c per square metre. The Minister is aware that it would not be possible to buy a single frigate for the type of service that is being provided by the Ministry of Transport. the frigate is a single hull, has a crew of only three and has a range of 1,500 miles, but the length and breadth
What will the firm ceiling price be for those frigates, if the Government intends to buy them?;National;The firm ceiling price for the frigates are as follows
Is this the Minister who didn't have the backbone to run at the last election?;Labour;That the Order Paper be amended to read
Is this the Minister who didn't have the backbone to run at the last election?;National;There is no question that the political leadership in this country has gone through a mess. It has been a mess for a number of reasons. I have to say that it is a mess because it is a mess because the economy has gone from strength to strength. The economy has gone from strength to strength. The economy has gone from strength to strength. We have seen the kind of economic performance that is unthinkable to the country at large, and it is all because of the policy decisions made by the National
Can the Minister name at least two key achievements of the Skill New Zealand strategy?;Labour;"two key achievements of the Skill New Zealand strategy have been to cut the unemployment rate in the North Island, to grow the skills gap, to remove unemployment that is damaging our economy, and to bring our economy back into surplus.<|endoftext|>

"
Can the Minister name at least two key achievements of the Skill New Zealand strategy?;National;The Skill New Zealand strategy was launched in January 2006, and involved a $1 million investment in training and development. Training has become a key focus of New Zealand’s economy and workforce. Skill New Zealand is the only new programme in New Zealand that has focussed on training. Training is one of the key drivers of our productivity. Two years later, we have seen a significant increase in the number of people enrolled in training and training graduateships. In the last year, we have seen an
Was the member a big tittle tattle at school?;Labour;"I was a big tittle tattle at school. So much for the future for our kids.<|endoftext|>

"
Was the member a big tittle tattle at school?;National;"the member is not a big tittle tattle. She is a bit like the member for West Coast.<|endoftext|>

"
What steps are being taken to continue to develop the potential of the market in Taiwan?;Labour;"In terms of the potential of the market in Taiwan, we are introducing a new mechanism of setting the price and the average selling price of a product, which will ensure that the market is not undervalued and that there are favourable pricing options. In terms of the market in Taiwan, we are promoting a new online portal where the public will be able to compare prices, and we are developing a new pricing system for packages.<|endoftext|>

"
What steps are being taken to continue to develop the potential of the market in Taiwan?;National;I have been in the Ministry of Foreign Affairs and Trade for a year, would be foolish to think that I could have that sort of capacity. what we have seen is that the market is very strong, with more than a million people who are buying and selling products, and we have seen the ability to control the flow of overseas funds through the Taiwan market and Taiwan is a very attractive place to do business in. There is a whole range of other statistics that show that Taiwan is a very attractive place
Did the Government initially specify a date for the national hui?;Labour;I was advised that the national hui would be held in late 1995. The Government has made it clear that the Government organises the Hui of the year as a result of the approval of the union members, not as a result of hui-organisations. The Government has been very clear that it is a matter of consultation. These hui-organisations have been set up to reflect the national hui of the year. I am meeting the union representatives in Auckland to discuss the proposal
Did the Government initially specify a date for the national hui?;National;"The date of the national hui was deferred for 3 years to allow the council to prepare the planning for the new scheme. The council’s submission to the select committee on the new scheme states that the Hui Trust was not prepared to achieve its objectives.<|endoftext|>

"
What progress has been made on the pipeline?;Labour;The progress is encouraging. I would like to focus briefly on the pipeline, because it is a very important part of the pipeline. The pipeline is being built on land that was previously earmarked for development by the Crown. It is the site of the old Te Puni Kokiri dam. It is a small project, and it is a low-impact project. The whakapapa is one of the most important tūunga in the country. It is over 400 kilometres long and it
What progress has been made on the pipeline?;National;"The Minister of Transport has said that it has been well received. The gas pipeline has been well received by the public. The Ministry of Transport has been able to establish a pipeline system that will enable the company to produce up to 35 million litres per year. The company is looking to be able to get the pipeline on to the Northern Territory by April this year. The Government will negotiate with it and to ensure that it is ready for the Northern Territory.<|endoftext|>

"
Is the member going to move an amendment to put it up?;Labour;I am going to move an amendment to put it up. I am going to move the amendment to put it up because the Hon John Key said that he would vote for it, and I am going to vote for it. During the select committee some of the submissions were very interesting. I have to say that it took a long time to get the draft that was available. I think it is very important to point out that that happened in the sense of informing Dr Nick Smith's report, because it
Is the member going to move an amendment to put it up?;National;I am not interested in any of that, I am interested in the intention of the Bill. I believe that it is an appalling example of the way that we as a Government are dealing with this issue, and I believe that it is an example of a complex process that has been undertaken by Cabinet. It is a complicated process, and it will not be dealt with in the Bill, because the Bill is being rushed into this House without any consideration of the substance of what is in it. It is
-income inequality is at its highest level ever recorded in New Zealand, and household savings have turned negative again?;Labour;"The figures are in line with the national average, and the latest figures show that the economy is very strong, and the Government is working hard to keep New Zealanders in the job market.<|endoftext|>

"
-income inequality is at its highest level ever recorded in New Zealand, and household savings have turned negative again?;National;The Government has been successful in reducing income inequality. Households have been improving their incomes, incomes are going up. The Government is working hard to reduce the income disparity from the lowest income levels to the middle income levels. The Government is promoting access and quality education for all New Zealanders. It is also committed to fibre-optic connectivity to reduce the cost of broadband to rural New Zealand. It is also committed to the development of a national fibre-optic network, and it is committed to
Is the member questioning my ruling?;Labour;"I am simply asking whether the Minister will not comment on the issue at his own leisure.<|endoftext|>

"
Is the member questioning my ruling?;National;"It is not.<|endoftext|>

"
