question;party;answer
can I seek leave for it to be debated subpart by subpart?;Labour;The member will be aware that this bill is a very good example of the way in which this House should operate. We have had no problems with the standing of the member for Christchurch North, and the member for North Shore is probably the only other member of the House who has come in here and has been a regular visitor to this House. I am sure that the member for Auckland Central has come here and has had no problems with him, and I shall come back to that point when I finish
can I seek leave for it to be debated subpart by subpart?;National;It is not a question of whether it should be subpart, but one of how it should be subpart. The important point about this is that the select committee had an opportunity to examine the Bill, and it decided that it wanted to make a difference. It understood that there was a need to have an examination of the Bill as it was before the committee, and that the only way to get the Bill to a satisfactory state was to sit through the select committee process. So we are in a
has the member got a point of order?;Labour;"I can tell the member that the Hon Clayton Cosgrove has a point of order. I think the member will have to wait until the end of the recess to hear that.<|endoftext|>

"
has the member got a point of order?;National;"That is a good one. I seek leave to table the latest quarterly personal statement released by the Revenue Department. It states that the number of front-line staff has increased from 1,000 to more than 3,000, which is a significant increase.<|endoftext|>

"
Did the member's party select him?;Labour;It will not do for the National Party, National members, or any party in this House that it is appropriate for it to be given a blank cheque to pick up a cheque book. I would like to thank the member for St. Kilda, who yesterday drew to the attention of the House the attention of the House to the fact that the Government has not been able to provide a cheque book to the public, because of the circumstances in which we are dealing with the cheque book
Did the member's party select him?;National;"The member is the first member of the Labour-Green coalition Government to be appointed deputy leader of the party.<|endoftext|>

"
What advice has the Minister received on housing affordability over the past decade?;Labour;"As the previous speaker pointed out, housing affordability is an ongoing issue in New Zealand. The Minister is aware that the Energy Supply Amendment Bill is a significant one, and he has had no advice on the matter. As the previous speaker said, the energy is not in the system.<|endoftext|>

"
What advice has the Minister received on housing affordability over the past decade?;National;I have received much advice, and I have had widespread support from my colleagues. The issue of housing affordability is of great concern to me, as I have been in the House this afternoon, and I want to say that I look forward to this afternoon's debate. I understand that the Minister of Housing and Housing has been giving the House an undertaking that this afternoon will have a debate on housing affordability. I think that the member for Tarawera, when he is following on from the remarks made by
Just to clarify, is it now your ruling that “get some guts” is unparliamentary?;Labour;"the member needs to get some guts; it is a bit like the word “purple”-that’s a little bit like the word “purple”. That’s a bit like a term that comes from the National Party’s manifesto, and it is a little bit like the word “purple”, which was used by the National Party as a term for the colour of its party symbol. So I think it’s"
Just to clarify, is it now your ruling that “get some guts” is unparliamentary?;National;"the member’s statement is unparliamentary.<|endoftext|>

"
What is the member’s next point of order?;Labour;"That’s a very good question.<|endoftext|>

"
What is the member’s next point of order?;National;I am sure that the member will be aware that the member has raised a number of issues around the Bill in the House. The member will be aware that this is an important Bill. The member will be aware that as an example of how this is an important Bill, when the Minister of Transport approached the Committee stage last night, he said that the Bill should be referred to the Transport and Environment Committee, but he could not. He had to get the member to write a letter saying that the Bill
When will the Opposition get the representations made to the Government on Mr Sroubek’s behalf?;Labour;I think that the member is the first person to say that I have been in the House recently and have had a briefing from the department, because of the transparency of communications between the department and the member. I think the member is a great asset to the Opposition because he is the last Government member of Parliament who is willing to take a call. I think that the member is also a great asset to the country because he is the last Government member who is prepared to take a call. I think that
When will the Opposition get the representations made to the Government on Mr Sroubek’s behalf?;National;My colleague the member for Tamaki has a question. I have a question. I have a question and a reply. I have a question. I have a reply. I have a question and a reply. I have a question and a reply. I have a question and a reply. I have a question and a reply. I have a question and a reply. I have a question and a reply. I have a question and a reply. I have a question and a reply. I have
Could the Minister get up and give an explanation?;Labour;"I am the Minister responsible to the House of Representatives.<|endoftext|>

"
Could the Minister get up and give an explanation?;National;I have just a line of inquiry, which I think is really important. I think that the Prime Minister’s answer to the question was very short and very misleading. She was asked what role she plays in the government. The answer is that she has been appointed Minister of Justice, and that she has a portfolio of responsibility. If the member wants to know a bit more about my portfolio I will tell him what I have done. I have been in the House for 2 years and I have
What needs have emerged since Northland was identified by the Ministry of Economic Development as an acute region?;Labour;The most obvious is that the growth and momentum in Northland since the last harvest has undoubtedly been a result of the announcement of the region’s economic recovery. The announcement of the region’s economic recovery was brought to the attention of the media during a press conference on 1 December, and the local media have been reporting it since that time. The announcement of the region’s economic recovery was made on 1 December in the context of the Minister's meeting with the regional Economic Development Minister
What needs have emerged since Northland was identified by the Ministry of Economic Development as an acute region?;National;"The Northland region has been identified as an acute region because of the significant population, the number of acute cases, and the presence of a large number of acute cases. The immediate priority is to ensure the safety and well-being of those affected by the disease. I commend the regional health authorities for their efforts. The Northland region is expanding the scope of the ongoing health and safety programme in order to address the many people affected by the disease.<|endoftext|>

"
Have any arrangements been made with the People's Republic of China to facilitate the teaching of Chinese in New Zealand?;Labour;All of the arrangements have been made to facilitate the teaching of Chinese in New Zealand and the People's Republic of China. It is a very good thing, as my colleague said, that there are Chinese students in the country. All of the students, Chinese students, and Chinese teachers are coming back to New Zealand on a much bigger scale than they have been in years. I was talking about the Chinese students who were brought to this country by the Chinese consulate in Auckland, and I am referring to the
Have any arrangements been made with the People's Republic of China to facilitate the teaching of Chinese in New Zealand?;National;"We have been in touch with the Chinese Government as we would with any other Government.<|endoftext|>

"
