question;party;answer
Has the Minister seen any reports regarding the minimum wage?;Labour;I have seen a number of reports on the minimum wage. In my electorate, the minimum wage was $14.70 an hour, and in the ACT region it was $15.50 an hour. The Work and Income New Zealand website states that “the minimum wage has been cut in places and its rate of pay has been increased for a number of people.” I do not have any information on exactly how many people have received a raise or a raise, but I think that the
Has the Minister seen any reports regarding the minimum wage?;National;The Minister has seen some reports, but it is of interest to the National Party that the discussion on the minimum wage has been remarkably successful. The Government has done a tremendous amount of work to try to improve the minimum wage. The Government has learnt from the experience of the past. It knows that it needs to get rid of the low, minimum wage. The Government has learnt that it needs to get rid of the low-skilled, the uneducated. The unemployment rate is at a record low.
Why has the member brought this up only now?;Labour;"I think the member should bring it up because he is not here to defend it.<|endoftext|>

"
Why has the member brought this up only now?;National;He has brought it up over the past few days. He has been talking about it. I think that it is a good act of great honourable gentleman to introduce the bill that I am about to introduce, that establishes this whole idea of statutory advisements. I think it is too late for the House to be debating it now, but I am sure that we will get to it eventually. It is not a new thing. There has been a whole lot of speculation around this whole Bill. It
Would the member answer a question?;Labour;"I am unable to answer a question. I do not have that information.<|endoftext|>

"
Would the member answer a question?;National;"I am not sure that he would. I am not sure whether he would answer a question. He was not part of the select committee.<|endoftext|>

"
Could the Minister advise the House more specifically about what the advertising campaign is meant to achieve?;Labour;I have more details to give. I was not at all suggesting that the Government was considering advertising the campaign as it was being debated, because it does not change the fact that the Government has not yet decided any of that matter, but it certainly will be successful because of the recent publicity. I think that the campaign will be very successful, and I think that it will achieve something. I think it will achieve something. I think it will probably achieve something in one area only, which I have mentioned
Could the Minister advise the House more specifically about what the advertising campaign is meant to achieve?;National;It is aimed at encouraging the public to support the New Zealand health system, and to encourage New Zealand to invest in health. The campaign will be conducted by the Ministry of Health and the Department of Health, the advertising agency of which has been established, and will be administered by the Ministry of Health. A nationwide campaign will be conducted in the territories of the Central Pacific, North Island, and South Island, and it will be broadcast on radio, television, and the news media. The campaign will be
What about the rights of the minority?;Labour;"I thought that was a word.<|endoftext|>

"
What about the rights of the minority?;National;"You’re doing it wrong.<|endoftext|>

"
What tax deductions for advertising costs are available to businesses?;Labour;the biggest deduction for advertising costs is the child benefit, which the member will know. The second biggest deduction for advertising is the superannuation benefit, which is under $30,000. The third biggest deduction is the GST, which is $10 a week, and the fourth big deduction is the GST on alcohol. There are now 50 percent fewer advertising costs. I congratulate the member for Mangere, who has been a member of the Nats for the past eight years. He has done
What tax deductions for advertising costs are available to businesses?;National;It is available to businesses through the Employment Contracts Act, the Employment Equity Act, the Local Government Act, the Consumer Guarantees Act, the Education Amendment Act, and the Consumer Guarantees Act. The same can be said for the New Zealand Superannuation Fund. The average rate of return for New Zealand superannuitants is about 12.5 percent. The average rate of return for overseas superannuitants is about 12.5 percent. This is the volatility in the market at the moment
Could you tell me how much longer I have left?;Labour;I can tell you how much longer I have left. I am as concerned as I am concerned for the future of the country, and I think that this House needs to consider the fact that it is a very difficult time for the future of New Zealand. I do not think that we should be struggling to stay where we are. I think that we need to think about how we might want to evolve, and that we need to look at how we might want to grow our economy. And I say
Could you tell me how much longer I have left?;National;I have started to consider why I was left out of the select committee. I will provide that information to the committee. The member for Tauranga asked me why I did not get on the select committee to consider the legislation. I have been told that it is because it is not included in the Bill, because the Government has moved a little too far with the legislation. The member for North Shore asked me why I did not get on the select committee to consider the legislation. The Government has moved
What are the Minister's priorities for extra resources for the department?;Labour;"the priority for the department is to ensure that we have the resources necessary to achieve the objectives of the Crown Legal Services Act, the Crown Legal Services Act. we will also be working on a further review of the Crown Legal Services Act, and the Government will also look closely at the Crown Legal Services Act in the years ahead.<|endoftext|>

"
What are the Minister's priorities for extra resources for the department?;National;"I have some good news for the people of the North Island. the Labour Government has introduced the Bill that will see the relatively new Mangere branch of the department be able to run its operations more efficiently and more effectively.<|endoftext|>

"
What is the Government doing to ensure that this growth is shared with major metropolitan centres such as Auckland?;Labour;A number of measures are being taken to ensure that the growth of our economy is shared ... the Government is making a commitment to share the growth in the key sectors of our economy. The Government is investing in the capital investment base, and has announced a series of measures to ensure that this growth is spread across the economy. I want to compliment the member for Kaipara for his very good speech in which he spoke of the importance of the economy, and how important it is to make sure that this
What is the Government doing to ensure that this growth is shared with major metropolitan centres such as Auckland?;National;"The Government is working hard to ensure that the growth in Auckland is shared with the rest of the country.<|endoftext|>

"
Will the Prime Minister tell the country what the mood at the conference was?;Labour;"She is watching it while we are talking about it.<|endoftext|>

"
Will the Prime Minister tell the country what the mood at the conference was?;National;"The mood at the conference was exactly as the Prime Minister said that it was.<|endoftext|>

"
