question;party;answer
Has the Deputy Prime Minister received any reports of investment in the first year of a child’s life being taken away?;Labour;"The expenditure figures for the first year of a child’s life are well under 1 percent of the total expenditure of the Government. This is an improvement on the figure of 3 percent of the total expenditure. The figure is actually lower than it was in 1995. There was no change in the figures, and this is the figure that was used by the National Party.<|endoftext|>

"
Has the Deputy Prime Minister received any reports of investment in the first year of a child’s life being taken away?;National;It is interesting to note that the last budget, this year, is being used as an example of how we can make a difference to society. The last Budget, did not go as far as this one, so we are very pleased to see that, and we are going to see that in the next Budget. It is a great day, and we are going to see that same spirit of growth, which we saw in the last Budget, and that same spirit of innovation, which we saw in
Is the member seeking leave for an extension of time?;Labour;I seek leave for a further extension of time. I think that that is the appropriate thing to do. It is a matter of concern to me that the Minister has been unable to respond to his own questions. I think it is a matter of concern to the member for Gisborne as well, and I would like to hear the Minister’s response. I think that it is appropriate that the Minister should go through a full answer to some of the questions that have been raised.<|end
Is the member seeking leave for an extension of time?;National;That is the intention of the bill, and it will allow the Government to justify its reforms during the second reading of the Bill. It is important to note that the Government has contracted this bill to allow the New Zealand Future Fund to be established and managed in New Zealand, and it is an existing entity. The intention of the committee is to allow the Government to ensure that the fund has sufficient flexibility to ensure that it is managed in New Zealand, and that its mission is to support New Zealanders to
Is it current Government policy that no State assets will be sold either partially or fully?;Labour;"I think that is what the member is asking.<|endoftext|>

"
Is it current Government policy that no State assets will be sold either partially or fully?;National;The Government is committed to buying State assets. This means that the Crown will retain ownership of the Auckland Central Rail network, the Auckland Central Rail network will continue to operate as a carrier service, the Auckland Central Rail network will continue to operate as a route of travel, the Auckland Central Rail network will continue to operate as a rail service, and the Auckland Central Rail network will continue to operate as a rail service. I am aware of the decision made in 1987 by the then Transport Minister, the Minister of
Can I make my point of order without your constant interruptions?;Labour;"That is actually not necessary. I assure you that what is said in the House is not allowed to be said in the House. That is the first point of order. We are now talking about the representation of New Zealanders in the House of Representatives.<|endoftext|>

"
Can I make my point of order without your constant interruptions?;National;"I think it is a matter of order.<|endoftext|>

"
What changes is the Government planning to the Housing Innovation Fund and the Rural Housing Programme?;Labour;The Government has been very clear that the Housing Innovation Fund will be a much more substantial project in terms of number of units than the previous program. The Government’s focus is on the First-Home Buyer programme, and the Housing New Zealand Corporation is an integral part of that. there is a stronger focus on the first-home buyer program, and that is why we have decided to maintain the current number of units at 10,000, to ensure that there is a focus on buyers who
What changes is the Government planning to the Housing Innovation Fund and the Rural Housing Programme?;National;"The Government is making a commitment to review the Housing Innovation Fund. As I said in my answer this afternoon, the Government is making no decisions at this stage.<|endoftext|>

"
What recent announcements has the Government made about supporting schools to raise student achievement?;Labour;"The Government's recent announcement that it will be reviewing the OECD standards programme is aimed at increasing the quality of teaching and learning in New Zealand. The OECD programme teaches students to be innovative and innovative; it teaches them to be practical and practical; it teaches them to build self-esteem; it teaches them to achieve; and it teaches them to make successful decisions. The programme emphasises the importance of managing student achievement and makes it an objective of education.<|endoftext|>

"
What recent announcements has the Government made about supporting schools to raise student achievement?;National;"I have announced a plan to increase these targets by $1.6 million. That is a very big number of dollars. I have announced that the Government will provide a better, more affordable way of providing better, more affordable education. My announcement will mean that homes with extra bedding, and houses with extra clothes, will be provided to more children. This will mean that schools with extra beds will increase the number of kids who can get into tertiary institutions.<|endoftext|>
"
What progress has been made to reduce the incidence of food poisoning in New Zealand?;Labour;As a result of the 1987 survey, the number of food poisoning cases has decreased to about 400 from about 1,300 in 1987. The number of cases of food poisoning in New Zealand has decreased by almost 50 percent in the past year. The incidence of food poisoning has dropped to about 41 cases per 100,000 people from about 180 cases per 100,000 people in 1987. The number of food poisoning cases in a year has dropped to about 1,700 from about 1,500 in 1987.
What progress has been made to reduce the incidence of food poisoning in New Zealand?;National;We have made a huge improvement in New Zealand over the last 5 years. We have worked hard to reduce the number of cases of food poisoning in the country by 100 percent, which is a huge achievement that we can be proud of. We have been working hard to reduce the numbers of cases of food poisoning in the country, because we know that we need to do a lot more to reduce the number of cases of food poisoning, particularly in our rural areas. It is not good enough. I know
Why are different standards applied to members other than the special case, Mr Mallard?;Labour;The special case has been extended to include members of the public who have not been convicted of a crime. It has been extended to include members who have been declared bankrupt. It has been extended to include members who have been declared bankrupt because of the circumstances caused by their discharge from the military or their absence from the service. The special case applies only to members, not to the members of the public. The member for Papakura, who has been in the House for some time, has no example of
Why are different standards applied to members other than the special case, Mr Mallard?;National;I think that we have to consider that the case is different in each case. Mr Mallard was placed in the special case because he is not in the public interest, and he did not meet the standard of a member of Parliament. He was a member of Parliament, and he was a spokesman on the legislation, and that is what was required. Mr Craig was placed in the special case because he did not meet the standard of a member of Parliament. He did not meet the standard of a member
Did the member smoke cigars there too?;Labour;I am sure that members of the Transport and Environment Committee would wish to recall that the member for Selwyn smoked cigars. I have made it quite clear to the member for Maramarua that I have made it quite clear that I have made it quite clear to the member for Tarawera that I have made it quite clear that I have made it quite clear that I have made it quite clear that I have made it quite clear that I have made it quite clear that I have made it quite clear
Did the member smoke cigars there too?;National;"I am not aware of any smoking of cigars being allowed in the House. I have seen them in the House.<|endoftext|>

"
Is the Government subsidising private developers?;Labour;"The Government is subsidising private developers. The Government is subsidising private developers, not subsidising the construction of the houses. The Government is not subsidising the construction of houses. It is up to the developers to build houses. The Government is subsidising private developers by subsidising the construction of the houses. The Government is not subsidising private developers. It is down to the developers to build houses, not to the Government to subsidise them.<|endoftext|>

"
Is the Government subsidising private developers?;National;"The Government is, and it is currently, subsidising developers so that they can build their projects. It is a very good policy. The Opposition has already indicated it is supporting it in the House. It is a very good way of helping to build the economy.<|endoftext|>

"
