question;party;answer
What would the latest CPI figures mean for the Reserve Bank if the Reserve Bank of New zealand Amendment Bill became law?;Labour;The latest CPI figures show that the value of the real estate sector is up by about $2,000. The trend in real estate prices over the last three years has been to occur more frequently and to be more expensive. The real estate sector has experienced a substantial increase in interest rates, in the interest of those in the capital. Interest rates have been lower, in the opinion of the Government, over the last 3 years than they were when the National Government took office. This has been the case
What would the latest CPI figures mean for the Reserve Bank if the Reserve Bank of New zealand Amendment Bill became law?;National;"I am not aware of any such figures.<|endoftext|>

"
Now will the Minister tell us about Doug Graham?;Labour;I am delighted to say that Doug Graham is the new Minister of Finance. I am sure that he will be so put to rest in the House tonight that the member who is infinitely more eloquent and more eloquent than I will be able to make any contribution about him. I congratulate the Acting Prime Minister on the role of the Minister of Finance. As the Acting Prime Minister, I have an obligation to ensure that the Government can move forward with the confidence of New Zealand. The Prime Minister has been
Now will the Minister tell us about Doug Graham?;National;I will tell the committee that what Doug Graham did was very much in keeping with the spirit of the original Bill that was introduced by the member for Selwyn. That was the spirit of the Bill. What was the spirit of? The spirit of the original Bill was not of the type of Bill that was introduced by the member for Selwyn. It was the spirit of the original Bill introduced by the member for Selwyn. That was the spirit of the original Bill introduced by the member for Selwyn
May I speak to the point of order?;Labour;I am sure the member knows that. It was the very way of the Minister’s speech that was the most egregious. The member will be aware that it was the Minister’s speech that led to the letter of the law being introduced and the legislation being referred to an inquiry. I am sure the member will be aware that that is the very reason that the Minister did not want the legislation to be referred to an inquiry. I am confident that the House will be able to come to
May I speak to the point of order?;National;I also take the opportunity to thank the member for Auckland Central for his introduction to the proceedings of the Commerce Committee. I am pleased to speak to the point of order. I think it is very important that the member should not forget that he is the member for Tauranga. I know that he has a lot of experience in this Chamber, and he has not spoken in this Chamber before. He has not had a chance to speak in this Chamber in a very long time. I think that it
What does that have to do with the bill?;Labour;I suggest to the member that I offer the member an offer in return for his contribution. It is a fairly academic matter, and I suggest to the member that he might be able to consider it in terms of the structure of the bill, but I suggest that the member may be able to consider it in terms of the structure of the bill. The member may well be able to do that, but I suggest that he should consider it in terms of the structure of the bill.<|endoftext
What does that have to do with the bill?;National;I make the point that the committee's report on the Bill was not a ``bad'' report. That is exactly what the public of New Zealand were saying when it came to the select committee process. The select committee was not a ``bad'' report. It was a very favourable report. I think that is a very, very good report. I think that it is a very good report, and I think that is exactly what the public of New Zealand wanted to hear. This was a very positive
Has the Minister received any representations on the issue from the Opposition?;Labour;"I have been informed that the National Party has received some representations, and one of the parties in the House is seeking to give some serious consideration to the matter. The National Party will vigorously oppose the Bill.<|endoftext|>

"
Has the Minister received any representations on the issue from the Opposition?;National;"I have received some representations. There have been some submissions, and I have been advised that the national broadcaster has received some of them. There is a concern that some of the money would not be used for the performance of the broadcaster as it currently is.<|endoftext|>

"
What other steps is the Minister taking to promote Agenda 21, which was signed at the conference?;Labour;I want to say that the next step would have to be a Labour Government. The next step would have to be a Labour Government, and the next step would have to be a Labour Government, because the people who took part in the conference were not interested in the Government's agenda. I cannot wait for the next Government under a Labour Government. There is one thing that I particularly want to say to the member for Tarawera, who has just resumed her seat, who has just resumed her seat
What other steps is the Minister taking to promote Agenda 21, which was signed at the conference?;National;"A number of events and activities will be held in various places around the country in the coming months. New Zealand has a number of distinctive national parks, many of which are not in the best condition. It would not be appropriate to disclose the details of those parks or the extent of their national parks.<|endoftext|>

"
My point is, in the interests of fairness, why on earth did you stop me from asking legitimate questions?;Labour;"I do not think you have actually asked any questions. I have asked questions and I have been asked for questions and I have been refused answers. I have not been given any answers. I am not upset by that, because I think that you are being fair. I’m not upset by the fact that you have been refused answers; I think that you have, and the questioner has, been asked for answers, but you have not been given any answers. I’m not"
My point is, in the interests of fairness, why on earth did you stop me from asking legitimate questions?;National;"I did not stop you from asking questions, but I have just asked a question. It is about the chairperson’s statement. I did not mean to say that I had made a mistake.<|endoftext|>

"
What does that mean to the New Zealand exporter?;Labour;That means that this country will need to look at the export sector to find out which way the wind will blow. I am sure that the member has industry associations in place, and I am sure that they have confidence in their industry. I am sure that the member is well known in the industry. I am sure that the industry will be in good hands. I am sure that the member is well known in the industry, but I am sure that he is not very well known in the industry.
What does that mean to the New Zealand exporter?;National;For the exporter, it means that it is a total loss for a company that has gone into the red and is looking for a new lease of life. For the exporter, it means that it is a total loss for a company that has gone into the red and is looking for a new lease of life. I am speaking to a business that just had to break even. I am speaking to a business that just had to break even. I am speaking to a business that just had to
How is the Minister supposed to answer?;Labour;I do not know what it is. I am not sure whether he could give that answer to a very simple question. But I do know that the minister of health is in the chair, and I think it is a very good sign that we have an excellent Prime Minister. I just want to follow on the Minister’s comments to make it clear that that is not the case. The Prime Minister has also mentioned the Leader of the Opposition saying that the choice of prime ministerial candidate is a matter
How is the Minister supposed to answer?;National;I can tell the House that the Child, Youth and Family Advisory Committee is working very hard to fix up the problems of the very children who have been neglected. I am pleased, that the legislation includes that, because it is important for the safety of children and the well-being of our families. The Bill does not deal with the matter of children who have been neglected. That is a matter for the Department of Social Welfare. I raise another issue, which is the issue of children who have been
Why are you not taking a supplementary question on this matter from New Zealand First?;Labour;"I have read the comments, and I think that the member should take a supplementary question on this matter.<|endoftext|>

"
Why are you not taking a supplementary question on this matter from New Zealand First?;National;We are not taking a supplementary question on this matter from Labour. We are here today to give the people of New Zealand a positive message and to tell them that the Government is doing something. That is the message that the Labour Opposition is setting out today. That is the message that the National Opposition is trying to feed to the people of New Zealand. At the end of the day, it is the Labour Opposition that got the message. It did not tell the people of New Zealand that there would be
