question;party;answer
When will the first 600 learning support coordinators be in place in our schools?;Labour;"The first 600 will be in place by the end of this week. How many will be in the schools by the end of April?<|endoftext|>

"
When will the first 600 learning support coordinators be in place in our schools?;National;The first 600 learning support coordinators are now being trained as a result of the new organisation. They will be in place to start training on 1 July. They will be trained in a variety of areas. Some of them, as Mr Doolittle has pointed out, involve education and training, although there are some that are actually supporting the education needs of young people. The second area they will be working in is supporting the integration of young people into society, particularly young people in particular. And the
Was this under the old legislation?;Labour;The New Zealand Trade and Enterprise Act of 1959 provides for a certain number of employees to remain on a school-leaving system. The number of employees who are to remain on the system increases as a result of the number of schools in a school. the number of employees who are to remain on the system increases as a result of the number of schools in a school. If the decisions of the Minister of Education are not made, and if there is no adjustment in the number of employees who are to
Was this under the old legislation?;National;"This was before the publication of the Auditing Reform Bill. The legislation was referred to the Select Committee under the name of the Hon Chris Finlayson. I have absolutely no recollection of the name of the select committee.<|endoftext|>

"
Has this taken place in a public part of the committee's discussions or in private?;Labour;I have been in the chair of the committee for the first time, and I am glad to say that it is a very positive experience, and that it is interesting to think about what it may mean in the business world as a result of some of the comments that have been made, and of the fact that it has been an honourable and constructive process. There is one more thing that I want to say about this bill. It is a very important piece of legislation. It is not as big
Has this taken place in a public part of the committee's discussions or in private?;National;I have not, because the member’s question is related to the discussion that has been held, and the member’s question is not in relation to the discussions that have been held. Many of the parties and select committee members have been advised by those who have been involved in the process that the only issue on which the bill has been raised is the question of the carrying of a firearm on a school premises in the principal residence. The member for Auckland Central raised the question of the carrying
Is it the Minister's intention to refer the Bill to a select committee?;Labour;"I will refer the Bill to the Committee.<|endoftext|>

"
Is it the Minister's intention to refer the Bill to a select committee?;National;The Bill is referred to a select committee. I think that is the best way to do it. The member’s question is one of course that I want to answer. It is one of the questions that I have been asked recently, and I think it is an appropriate one for the House to examine. But I want to answer a different question from the member’s. He did not ask whether there were any the members of the select committee who are the members of the select committee
What are the potential implications of the Court of Appeal decision?;Labour;"The impact of the Court of Appeal decision will be the same, as it was in the case of the New Zealand Herald.<|endoftext|>

"
What are the potential implications of the Court of Appeal decision?;National;I am told that the court's ruling on the decision to hold an emergency committee meeting was a factor in the committee's decision to hold a committee meeting. The committee, after making its decision, received all the information that it needed to make its decision. If the committee had not been formed at the end of the Committee of the whole House period, it is likely that the committee would not have been formed. This is something that would not have happened if the committee had been formed early. It was
What more can be said about this bill? It is a very short bill,;Labour;I think it is a very disingenuous and unhelpful speech from the member for St. Kilda. The member for St. Kilda sees the evidence and she wants everyone to believe that we are just a bunch of people who want to keep the banks in business and to put on the levy that will be paid by the banks. I think the member for St. Kilda has to realise that the Government has put the banks in business, and the banks are following the Government's policy.
What more can be said about this bill? It is a very short bill,;National;"The House adjourned at 10.36 p.m.<|endoftext|>

"
Any chance of Mr Choudhary becoming a Christian?;Labour;The member for Selwyn has said that we should join the Church of England. She is quite wrong, and she is completely out of touch. I have been in the House for a year and my constituents have been asking me to join the Church of England, to join the Church of Scotland, to join the Church of New Zealand, and to join the Church of New Zealand. The member for Mangere has said that we should go back to the Church of Scotland. She talked down to the
Any chance of Mr Choudhary becoming a Christian?;National;I have some concerns about the way he's going to handle the position. He is a very articulate individual, and one of his views is that there is a gap between the rich and the rest of New Zealand. He believes that incomes should be limited to the top 1c. I would be very concerned if that was the case, because I think that would be the most rapid way to deal with the problem. I think that the rest of New Zealand should be concerned about the fact that there is
What effects will the application of new tariffs in New Zealand have on our ability to achieve the Bogor goals?;Labour;The provisions of the bill create uncertainty and uncertainty is the key word. I have seen reports that indicate that any changes in the tariff structure will have a substantial reduction in the number of New Zealand workers who will be affected by the changes. Those workers will be forced to return home to Australia or Singapore. Australia, Singapore, and Australia are not at this stage a place where they would want to move to. New Zealand has a very high standard of living in New Zealand, and we expect that levels of
What effects will the application of new tariffs in New Zealand have on our ability to achieve the Bogor goals?;National;"The impact will be very minimal. The tariff on the exported products of the Government is increased from 29c to 34c. The export tariff is increased from 29c to 35c, and the import tariff is increased from 28c to 32c. The Department of Conservation has dropped its foreign exchange rate from US$1.45 to US$1.48. The Government will provide a more open environment for exports of New Zealand's exports to the United States.<|endoftext|>
"
Will the Minister be making any amendments to the rules for 20 free hours before 1 July 2007?;Labour;"As I have said to the member for Maramarua, I have no objection to the reforms that the member has proposed. The point is that the way in which the question was framed is troubling, and I think that it was a proper use of the time to quote some of the comments made by the member for Otaki, who may well have further comments to make.<|endoftext|>

"
Will the Minister be making any amendments to the rules for 20 free hours before 1 July 2007?;National;"The Minister will be making any amendments to the rules in respect of 20 free hours before 1 July 2007. I was talking about the most recent bill.<|endoftext|>

"
Can you quote the Standing Order so that we are for ever informed and guided by an actual Standing Order?;Labour;"The Standing Order lists out the substantive questions that must be asked to establish whether a member of Parliament has breached the Standing Orders; the question asked is whether the member has breached the Standing Orders. As the member for Eastern Maori I have been told by the member for Islington North that I have not been asked any substantive questions about the question that I am asking.<|endoftext|>

"
Can you quote the Standing Order so that we are for ever informed and guided by an actual Standing Order?;National;"I can in fact. In that regard, I suggest that the House adjourn for one minute.<|endoftext|>

"
