question;party;answer
Will the Government be receiving the report of the special committee on nuclear propulsion before the end of November?;Labour;"I am advised that the Government will receive the report of the committee of the whole House on the matter of nuclear propulsion by the end of November. I will be pleased to be aware that the report will have been received by the select committee.<|endoftext|>

"
Will the Government be receiving the report of the special committee on nuclear propulsion before the end of November?;National;The Government has received the report of the special committee, and it is due to be completed by the end of this month. I am advised that the committee is still working on some detail of the report. The committee is working through some of the issues raised by the Ministry of Defence. As my colleague Ms Elizabeth Fryer alluded to, it is a very, very important thing to do. I think it is important to have the report back before the House gets around to considering the bill as it is
What indications are there that New Zealanders are building a platform for stronger growth ahead?;Labour;I am pleased to say that the previous speaker Hone Harawira has answered that question, and I am pleased to highlight the fact that a number of indicators, including the net outward migration figures, have shown that the Government has hit the ground running. there is no doubt that New Zealanders are rapidly changing. My colleague the Hon. David Cunliffe said that New Zealanders had not changed so much in 10 years, and that was a challenge that we had to overcome. New Zealand
What indications are there that New Zealanders are building a platform for stronger growth ahead?;National;"The Labor Opposition is holding the Labour Government to account. The Opposition is holding the Labour Government to account as it has done in the past. We are not talking about a Government in the future; we are talking about an Opposition in the future.<|endoftext|>

"
Will this member be putting up taxes on middle-income New Zealanders?;Labour;"I will be putting up taxes. I will be introducing a tax on middle-income New Zealanders. I will introduce a tax that will be applied to people on low incomes who buy their own food, clothing, and all of those things. I will be imposing a tax on people who pay their own taxes. I will be imposing a tax on those who pay their taxes, and I will be imposing a tax on the poor, not on the rich.<|endoftext|>

"
Will this member be putting up taxes on middle-income New Zealanders?;National;It will be putting up taxes on middle-income New Zealanders. I have a very large number of people in my electorate who are paying the rates that are in question. They have not been able to get a job. They cannot get a job because of the lack of job growth in this country. We have a major infrastructure issue in this country. We have a major tax issue. If the Government says to people that if they have a job they will not have to pay their tax rates,
What benefits does this agreement give to New Zealand’s Secure Export Scheme exporters to the Republic of Korea?;Labour;"New Zealand's Secure Export Scheme exporters will have an enhanced focus on export issues and the relationship with the Republic of Korea. This will enable them to continue to expand their business and will help to export to the Republic of Korea. For these reasons, New Zealand’s Secure Export Scheme exporters will benefit.<|endoftext|>

"
What benefits does this agreement give to New Zealand’s Secure Export Scheme exporters to the Republic of Korea?;National;The agreement will provide for increased inter-Korean trade. The agreement will also allow New Zealand to provide greater opportunities for New Zealand exporters to compete internationally, with the greatest possible advantage to New Zealand exporters. The agreement will also give New Zealand exporters the opportunity to participate in the new exporters programme, which will see New Zealand exporters gain an opportunity to participate in the National Export Convention. The agreement will also see New Zealand exporters retain some of the benefits of the previous agreement,
What sorts of programmes will receive Marsden Fund grants?;Labour;"The Government is introducing a programme to help developing countries with the Marsden Fund. It is a six-year programme, and it is funded to support low-income families.<|endoftext|>

"
What sorts of programmes will receive Marsden Fund grants?;National;We will be receiving grants to support the new Marsden Centre at Waikato, and the development of a new Marsden Centre centre in Otara in which the centre will be based. We will be able to utilise these funds to continue the Marsden Research Centre and future Marsden research centres at Waikato. The Marsden Centre will gain access to new high-energy transmitters, and the new centre will have a significant impact on science and innovation, which is why it is so
What improvements to cancer care are expected as a result of the New Zealand Cancer Plan 2015-18?;Labour;"The New Zealand Public Health and Disability Network will be fully funded as a result of the programme. The programme will enable up to 50,000 people to access cancer care, which is equivalent to the number of people who receive free cancer care in Australia. This will mean a third more people receiving free cancer care, and it will create a much more focused and targeted national campaign to help people who already receive free cancer care; this will be achieved through improved communication with patients and their families.<|endof"
What improvements to cancer care are expected as a result of the New Zealand Cancer Plan 2015-18?;National;"As a result of the plan I have been tasked with, I have been able to announce the first of four major initiatives. This includes the establishment of the New Zealand Cancer Centre, the new cancer management centre, and the new cancer research centre, which will provide our clinicians and researchers with the tools to take on more advanced and more complex cancers.<|endoftext|>

"
Will the Minister answer a question?;Labour;I shall try to be as clear as I can. I am not going to answer the question because I have not seen it. I will try to answer it as soon as I can, because I am not sure whether it has been seen. It is the first question that I have asked. The second question from Mr Parker is about the re-name of the department, and I cannot tell whether it has been seen. I think that the Minister has indicated that it should be the Corrections and Immigration
Will the Minister answer a question?;National;"I would have thought that would be the first question that I would ask. All I can say is that I am sure he would have answered it before the press conference began. I am not sure that he was briefed, but I am sure he would have been briefed. I hope he would have been briefed.<|endoftext|>

"
Is the member telling the House that Government members are carrying on with the business of the select committee now?;Labour;"I am telling the House that Government members are carrying on with the business of the select committee now.<|endoftext|>

"
Is the member telling the House that Government members are carrying on with the business of the select committee now?;National;There is no way that Government members are going to sit around and consider the other side of this debate, because there are a few things that they have not said to answer the question. one of them was a suggestion that the Government should be looking to privatise the rail network. I ask the member, who is obviously a very intelligent, responsible, and capable member of Parliament, why not to privatise the rail network? Why not privatise the main railway network? Why not privatise the rail
What change was there in the waiting-list of Hutt Valley Health from 1993 to 1994?;Labour;"The waiting-list of Hutt Valley Health was reduced by 511 patients in 1995, from 1,357 to 1,023. The number of people on the waiting-list of Hutt Valley Health dropped from 1,000 patients to 2,000 patients by the end of the year. The hospital is now operating on a much lower operating budget than it was in the 1990s.<|endoftext|>

"
What change was there in the waiting-list of Hutt Valley Health from 1993 to 1994?;National;The waiting-list of Hutt Valley Health has been reduced from 16,000 patients to 4,000 patients since the beginning of 1992. The earlier figures were from the Health and Disability Commissioner. I am pleased to note that, since the end of 1992, Hutt Valley Health has been able to provide a greater range of services to its patients. In the last year alone I received about 2,700 letters from patients expressing concern or having difficulty with a particular service, and I have just heard that
How has the card been received by key stakeholders?;Labour;The card is received by a number of key stakeholders. It has been a very positive experience to work on this legislation. The card is received at the Parliament building by a number of key staff. It is also received by the New Zealand Association of Realtors, which is the organisation that is supporting the bill. The card is also received at Wellington Airport, the Wellington Airport Corporation, and the Wellington Business Centre. The card is also received at the headquarters of the Ministry of Transport, where the Minister
How has the card been received by key stakeholders?;National;"The card has been received by key stakeholders, including the Association of New Zealanders, the New Zealand Council of Trade Unions, the New Zealand Federation of Labour, and the Ministry of Transport. The card has been being used for patients in Auckland and Bay of Islands. The card has been used for patients in Hobson, as well as for patients in Whangarei, and in the South Island.<|endoftext|>

"
