question;party;answer
Is the Minister aware of any disciplinary hearings associated with disclosing confidential information?;Labour;"I am aware of a disciplinary hearing and I have seen the matter reported to me. I am not aware of the disciplinary proceedings.<|endoftext|>

"
Is the Minister aware of any disciplinary hearings associated with disclosing confidential information?;National;"It is a matter of discipline. That was the case in this case.<|endoftext|>

"
What is the Minister doing about petrol price increases that may affect regional development?;Labour;It is an interesting question, and I think that it was addressed by the member for Rotorua in his comments. The Minister has investigated a number of different areas of rural development, and has worked with the Regional Council of New Zealand. The Government’s policy on gas price increases has been to look at these areas of spending, and has made it clear that there will be a significant increase in petrol prices. If the member intends to spend money in those areas, he or she is not
What is the Minister doing about petrol price increases that may affect regional development?;National;"The answer is that the Government is taking a comprehensive programme of action to address the problem of petrol price increases.<|endoftext|>

"
What announcements has the Government made regarding building developments at Middlemore Hospital?;Labour;"I am not aware of any announcements.<|endoftext|>

"
What announcements has the Government made regarding building developments at Middlemore Hospital?;National;"I have announced a lot of announcements, and I am not sure whether that is a good thing or a bad thing. I am just saying that it is always good to see the development of public hospitals. It would be nice to see them redeveloped to suit New Zealand’s needs, and we are absolutely committed to doing that.<|endoftext|>

"
We are not going to cut them out?;Labour;I’m not going to cut them out. We are not going to cut them out. We are going to give them a bit of extra time to come back to Auckland, and I’m sure that people will come back to Auckland with their families. We are going to give them the opportunity to come back to Auckland. We are going to give people the opportunity to come back to Auckland. Labour members have absolutely no idea about what is going on, and no idea about what is
We are not going to cut them out?;National;"I will not take any more time.<|endoftext|>

"
Is this continuing the point of order that I have dealt with?;Labour;"I am sorry that I was interrupted, but I cannot remember the point of order.<|endoftext|>

"
Is this continuing the point of order that I have dealt with?;National;The point of order that I have been using has been very, very good. We are at the stage now where we have to introduce the legislation, and I think it is time we get a bit of a sense of the nature of the legislation. I would be interested in the member for Epsom to tell the House what the bill does. I think it is a good thing that he has been able to work in a bipartisan fashion with the Greens, the Alliance, the Alliance-all parties,
How does this Government’s approach to energy efficiency contrast with that of the previous Government?;Labour;The Government’s energy efficiency initiative is a successful example. It has helped more than 5,000 New Zealanders than most of us expected it to help. It is an ambitious programme, and it does not begin to cover the cost of energy efficiency. The main objective of the scheme is to achieve a reduction in energy consumption from the current level of about 20 percent, which has been achieved by the previous Government. Energy efficiency is not a complete solution. The Government has given priority to reducing energy
How does this Government’s approach to energy efficiency contrast with that of the previous Government?;National;I will not answer that question. I will tell it to the House, because it is a very good question, and I will answer it from the point of view of the energy efficiency of the building. The answer is that a building can be improved by energy efficiency by the use of thermal panels, and by the use of some of the things that are available. The Energy Efficiency and Conservation Authority has a lot of green issues, and I would not want to waste my time here. I would like
Why is the Government looking at universal screening?;Labour;"The Government is looking at universal screening. I do not believe that the public will be affected significantly and dramatically. I think that the Government would get the most of the benefits if it looked at universal screening.<|endoftext|>

"
Why is the Government looking at universal screening?;National;"The Government is looking at universal screening as a way of reducing the rate of HIV infection, which is a public health problem. The current screening system is based on the premise that because the rate of HIV infection is lower by the number of people being screened, the person who has been tested will be diagnosed with the disease.<|endoftext|>

"
Does that mean that the Acting Prime Minister is saying that the payout was received in 1999-2000?;Labour;"The payment was received in 1999-2000. It was not received in 1999-2000 because the Government's scheme was not in place.<|endoftext|>

"
Does that mean that the Acting Prime Minister is saying that the payout was received in 1999-2000?;National;"The answer to the second part of the question is that the Act of 1999, as amended by the Bill, provides for a payout in 1999, which has transpired.<|endoftext|>

"
How have retail electricity prices tracked given the greater commercial pressures on the “gentailers”?;Labour;I would say that since the introduction of the supermarket levy about 5.5c a kilogram has gone up only by about 0.05c. The other big change in the taxation legislation is the introduction of a fuel tax. that is not a big change. I would like to finish by saying that the retail electricity tax is not a very big thing, the petrol tax is a very big thing, and most of it is paid by the community. The Government does not have much of a policy
How have retail electricity prices tracked given the greater commercial pressures on the “gentailers”?;National;"The retail electricity prices have been higher than the commercial ones, which is a good thing, and that is good news for consumers and for the Kiwi who pay for electricity. It is a sign of public confidence in the electricity industry that there are so many people out here using electricity.<|endoftext|>

"
Would the Minister take a question?;Labour;I might be in a hurry to get up, Mr Connell, but I should like to finish my answer by saying, that the bill will streamline the process for the planning of the Railways Corporation. The Government has made a decision to have the corporation's management, and not the Corporation itself, be a Crown entity. The corporation will have to submit its proposals on an annual basis, and it will have to submit the proposals to the Railways Corporation's management board, to the Railways
Would the Minister take a question?;National;"I would like to take a call in support of the Economic Development Amendment Bill. The House adjourned at 8.59 p.m.<|endoftext|>

"
