question;party;answer
Are you going to allow that member to make those insults unchecked?;Labour;"I am going to allow that member to make those insults unchecked.<|endoftext|>

"
Are you going to allow that member to make those insults unchecked?;National;I am going to allow him to make those insults, because I think that that is the proper course of action. The member has used his words in this debate, and he has been quite right to say
Are doctors and nurses having more say in how the health system is run?;Labour;I am not aware of that. I am not aware of that. But I do know that it is the best system that has been devised for the long-term care of the Auckland population. Under the current system, a GP cannot prescribe or prescribe in the way that is necessary to ensure that the member for St. Kilda would like to see in the area of prescription of drugs. She could not prescribe to her patients, as the member for Auckland Central could not prescribe to her constituents. The
Are doctors and nurses having more say in how the health system is run?;National;That is the obvious answer. the Minister’s statement today is that in the first three years, the total number of hospital beds has increased by 6,000. It has increased by 8,000 in the last 3 years alone. That is what the Minister said, and he thinks that is good news. He thinks that that is good news. But let us look at what the figures tell us. It tells us that the number of doctors and nurses, who do make up the bulk of
Is not the problem with that that you are prejudging the Attorney-General’s response?;Labour;The truth is that the Government is certainly heading down a slippery slope, and they are not getting to the bottom of it. The problem is not that they are not getting to the bottom of it. The problem is that now we have a very slippery slope. There is no question that at this stage the territory of the National Party is the territory of the National Party. If you look at the list of the Government’s surrogates, you beheld the names of the members of the New
Is not the problem with that that you are prejudging the Attorney-General’s response?;National;"What I am certainly aware of is that the Attorney-General has been playing his cards very deliberately. He has been prepared to give us a very clear answer with regard to the issue of the individuals who have been fined, the fine of $10,000-a very good start. If the member wants to quote me on that.<|endoftext|>

"
What steps are being taken by Statistics New Zealand to ensure better collection of information about the rainbow community?;Labour;The main aim is to improve the collection of information on the rainbow community, and to provide accurate and timely information. The information is collected in a number of ways, including through the use of the various forms of centralised survey data, the use of remote surveys, and the use of telephones. A national register of the community is already in place, and it is being expanded by several hundred new locations, including in Waikato, in Christchurch, in the North Shore, and in Tar
What steps are being taken by Statistics New Zealand to ensure better collection of information about the rainbow community?;National;I know that we do have a population of single parents who are struggling to provide for their children. I am aware that our numbers of single parents have increased over the last 5 years. But I am not aware of any increase in that proportion. State house occupancy is the lowest it has been since at least 1990, and we are seeing this trend continuing. In the last year, rents increased by 4 percent. In the last year, there was a increase in the number of homes that are currently occupied
Does the Minister have any reports on how company income tax revenue is expected to change over the next 2 years?;Labour;I have just received a report on the projections from the Ministry of Business, Innovation and Employment, and the National Council of Trade Unions. The Government is forecasting that the tax rate will be reduced by 2.2c in the year ending March, from 44.4 percent to 35.4 percent, and the tax rate will fall by 1c in the following 2 years. The Government is expecting that the tax rate will drop back to 35.4 percent by the end of the year, and
Does the Minister have any reports on how company income tax revenue is expected to change over the next 2 years?;National;"I am aware that the minister is looking at the figures. I am surprised that the member has raised that issue.<|endoftext|>

"
What campaign is the Department of Social Welfare launching to combat fraud and abuse of the welfare system?;Labour;"The Department of Social Welfare is teaming up with the Government to seize the perpetrators of serious fraud and abuse of the welfare system.<|endoftext|>

"
What campaign is the Department of Social Welfare launching to combat fraud and abuse of the welfare system?;National;"This campaign is designed to help people to report fraud, abuse, and abuse of the welfare system.<|endoftext|>

"
Why was Karel Sroubek granted residency?;Labour;That was his application, not the one that was rejected. I was the one who said that he had to go. I was the one who said that he had to go. I was the one who said that he had to go. He did not take my advice and go. I was a member of a select committee that I chaired and I spoke to him and said that he had to go. I was not a member of the committee who was rejected. When he was rejected he made a
Why was Karel Sroubek granted residency?;National;"That’s a good question.<|endoftext|>

"
What's the Government got to hide?;Labour;The member is asking me a very good question, and I think a lot of it is about the Government’s Christmas Budget. That is the one that will be delivered on Christmas Day. That is the one that will be delivered on Christmas Day, and the other one that will be delivered on Christmas Day, and I say to the member that that is the one that is delivered on Christmas Day. That is the one the Government will deliver on Christmas Day. I am not surprised that the member
What's the Government got to hide?;National;I give the member a very vivid example of a design that is on the back cover of the book of the National Party. It shows the outline of a party manifesto, and, in its original form, it states
What has the Government done already to assist those in financial difficulty?;Labour;"There is no doubt that there are many New Zealanders in financial difficulty. But in the first quarter the Government announced that it would provide an extra $8 million in emergency funding to help people who may be caught in a situation where they cannot afford to pay the rent or the mortgage. I think that is an excellent move by the Government.<|endoftext|>

"
What has the Government done already to assist those in financial difficulty?;National;The Government has provided $12 million for the Salvation Army. The Government has provided $6 million for the Vulnerable Children Agency. This year the Government has provided $5 million to help those in need. Families have been helped, and New Zealanders have been helped. The Government has also provided $12 million for the Department of Social Welfare. This is an enormous increase in funding compared with the amounts allocated in previous years. It is the most significant funding increase in the Department of Social Welfare in a
How will local authority trading enterprises be accountable for these new responsibilities?;Labour;We will be accountable to the Minister for the Environment, who has to review the whole operation of the trading enterprise. We are expected to carry out a review of our trading enterprise system in 2008. By then our trading enterprise system will have been reviewed and should have been able to carry out its functions without any external oversight. The Government has a plan for our trading enterprise system. It is a plan to get some real business done. It is a plan to try to make the trading enterprise better inform the
How will local authority trading enterprises be accountable for these new responsibilities?;National;I have no idea. I think it is a matter of consultation, and what I can tell the member is that it is a matter of a select committee. I believe that it is a matter of consultation, and I think it is a matter of consultation. It is a matter of consultation in the sense that it is a matter of a select committee. If the member wants to know how it will work, and what it will look like, I have no idea. It is a matter of consultation
