question;party;answer
Are you ruling that “slippery” is now a non-parliamentary term?;Labour;"I am ruling that slippery. I have used the term slippery in the House for a number of years now, and it is now slippery when it comes to the Government’s decisions. I do not think it is a valid term, and I think it is a very slippery way to describe what is happening.<|endoftext|>

"
Are you ruling that “slippery” is now a non-parliamentary term?;National;The member for Knightsborough raised a matter on which I should like to draw the attention of the House to the fact that it is a matter that has been raised several times, the first time when we were discussing the Bill. The second time was on the very point of the first question, that Mr Key has indicated that he is prepared to defer the Bill to December. I challenge Mr Key to tell the House that he is prepared to wait until this year, and not until December.<|end
Would the Minister consider granting others exemptions to policy on similar lines?;Labour;I have a list of them in front of me, and I am sure that the member for East Cape will be pleased to see that there have been increased numbers of children staying here. There is an urgent need to make it easier for our young people to stay in New Zealand. I have put on a supplementary order paper to ameliorate the situation of a number of young and old people who are in need of assistance. It is to enable the Labour Party to provide that assistance. I have
Would the Minister consider granting others exemptions to policy on similar lines?;National;"I have no intention of taking that option. I am advised that the Ministry of Health has already been contacted by a number of other voluntary organisations, and that in the next couple of weeks it will be following a follow-up programme to ensure that it is in compliance with the new policy.<|endoftext|>

"
What about asset testing and income testing?;Labour;We have been looking at that, and the Government is accepting that we will be looking at it in the Budget. I do want to say that there are some measures that the National Party is opposed to, but the position has not changed. The National Party is in complete opposition to the asset testing. It is prepared to sit down and listen to the member for Tauranga, who is a Labour member, and to help her to get her message across. The member for Tauranga tries to
What about asset testing and income testing?;National;Those are good ideas. they are good ideas, but they are not quite as good as the first one proposed by the member for Mangere. Let us take it a step further. Let us talk about the issue of asset testing. That is a good one, because it is a very good idea. We will be looking for that in the bill. I was not in the Chamber when the third reading speech was made, but I am sure that I will remember it in a second or so
What feedback has the Minister received on this announcement so far?;Labour;I have received a number of reports on what this announcement will mean for New Zealand. I have received a number of reports. I have had reports on the number of jobs that will be gained, the number of people as a result of this new scheme, the number of people who will be affected by the announcement, and the effect that this will have on the flow of people in this country and, on their ability to stay in New Zealand. I have received reports from employers, from overseas, and
What feedback has the Minister received on this announcement so far?;National;I am not sure the answer to the earlier question. I am sure it would be a great surprise to me if the Government did not take a call. The primary concern I have is that of the family of this young man. It is really sad to come to the conclusion that this young man has been subjected to unimaginable cruelty under this Government. He is not a victim of anything like that. He is a victim of what is happening under our Government. He is a victim of the poor allocation of
What is the source of the document?;Labour;"The document is a draft of the draft of the Labour Party's policy for New Zealand. I have not seen the draft, but I think you will agree that it is in the best interests of the Labour Party to be prepared to take the proposal. I think that will be the only way to do it.<|endoftext|>

"
What is the source of the document?;National;The document produced by the Ministry of Transport was the official Government report on the Maori Affairs Bill. It was published in November 1997. The committee heard an oral submission from the Maori Affairs Association, the Maori Affairs Council, the Maori Affairs Association of New Zealand, the Maori Affairs Council New Zealand, the Maori Affairs Association of New Zealand, the Maori Affairs Association of New Zealand, the Maori Affairs Council New Zealand, the Maori Affairs Council of New Zealand, the Ma
Will the member agree that Edwin Perry said that 10 minutes ago?;Labour;"I have just said that it was 10 minutes ago. It is not 10 minutes ago. It is 10 years ago. I have not got a good explanation for why that is the case.<|endoftext|>

"
Will the member agree that Edwin Perry said that 10 minutes ago?;National;The member for New Zealand First thinks that we were in agreement. I think he is mistaken. I tell him that I think the member for New Zealand First is saying something that we are opposed to. He is saying that we should be more than 10 minutes ahead of National. He is saying that we should be 40 seconds ahead of the National Party. He is saying that we should be about 40 seconds ahead of National. I point out to him that we are equal to the National Party in the polls
When will the Government respond to the Early Childhood Education Taskforce Report that was released on 1 June 2011?;Labour;I have been receiving reports on the taskforce for some time, and I have been encouraged by the evidence that some positive changes have been made in the way that we are delivering early childhood education to children. I am advised that there is a child's-brain connection. I have been hearing reports this week about how the response to the taskforce and its recommendations has been positive. The taskforce has also indicated that quality early childhood education is essential for our children and young people. We are committed to
When will the Government respond to the Early Childhood Education Taskforce Report that was released on 1 June 2011?;National;I will not speculate on that at this stage, but I will say that the report will be of no surprise to anyone, as it is quite an important area that needs to be addressed. I know that the Task Force report is a very positive and comprehensive report, and I encourage the Minister to bring it to the House. I know that it is very useful for the House to hear that. I am not surprised that the Minister has taken no interest in the report. that is because he knows that
What progress has been made on construction of the Museum of New Zealand Te Papa Tongarewa?;Labour;"The Museum of New Zealand Te Papa Tongarewa is being constructed; there is a construction team at the site. There is a number of projects that need to be completed under this Government’s programme of national heritage restoration, including the restoration of an old Maori museum, the replacement of the Te Pūkerei Museum, the restoration of the Maori Museum of New Zealand, and the restoration of Te Pōkaro Museum. The redevelopment of Te Ture Whenua Maori"
What progress has been made on construction of the Museum of New Zealand Te Papa Tongarewa?;National;It is a great pleasure to report that the museum is a success, with a number of improvements being made. The museum is in good financial shape. The museum is now operating well, and we will be able to move on to the next phase of the project, which is a new exhibition space, which is a huge undertaking in its own right. The new museum is just the beginning of the development of Te Papa Tongarewa. We are now moving on to the next phase of Te Papa Tong
Has not New Zealand First already had two calls, before a return call to United Future?;Labour;I ask United Future members to condemn this legislation, which is the most significant and significant piece of legislation to come out of the select committee process that has seen the introduction of the Local Government Amendment Bill. I have been advised that the Government has requested the select committee to hold a further submission on the bill, and the Government has indicated that it will remain until the end of the week. I ask United Future members to condemn this legislation, which is the most significant piece of legislation to come out of the
Has not New Zealand First already had two calls, before a return call to United Future?;National;That is right-the New Zealand First call before a return call to United Future. That is exactly what happened. But I say to the member for Mangere and to any member on the other side of the House who is on the Government benches who is trying to make a contribution to the debate, that we do not have any conflict of interest. We have a Minister who is trying to get on to an issue, and we have a Minister who is trying to get on to a question.
Have 80 percent of submissions to the review not supported the idea of a single New Zealand institute of skills and technology?;Labour;Not supported the idea of a single institute of skills and technology, but the new system is a much more effective operation than the current system. It is a system that is both more efficient and more focused on the skills that New Zealand needs. It is a system that will enable New Zealand to provide the best training experience for our children and for our young people, to provide them with the strongest possible training opportunities for their families, and to provide them with the knowledge, skills, and confidence that this country
Have 80 percent of submissions to the review not supported the idea of a single New Zealand institute of skills and technology?;National;I have received no reports that are opposed to the proposal I have outlined, but I do want to take a point of order. The member who was speaking last said that this Bill was not the new National Development Act. That is absolutely untrue. It is the new one, which was introduced in the last Budget. I think that that is a little bit of a misnomer, and I think that we need to have some discussion on it. I think that the Bill in its first reading was
