question;party;answer
What are the benefits of supporting these initiatives?;Labour;There are all the benefits. I was told the Government would have made good progress if the Bill had been passed. The Minister of Transport said, that he would have been delighted to see it passed. He said that there were some things that needed to be done, and we do not have time to do them. The member for Auckland Central said that it was a good idea and that it would have been 'a good idea' if it had been passed. He said that it would have been better
What are the benefits of supporting these initiatives?;National;The first is that the Government and the community of the Waikato will benefit from a more accurate and more comprehensive programme of government action. The second benefit is that the Government has a clear plan for the district. It will be far more effective, with fewer of the problems that have beset the area. the Government is now considering the feasibility of a plan to push this development, and is working to ensure that it will be viable. We have been very pleased with the work of those people and
Who needs to be told that taxation is compulsory?;Labour;I have to say that I was not told that taxation is compulsory. I was told that the tax system is controlled by the Government, not by the Government. I was told that it was a Labour Government that had run the tax system in the past. I was told that it had been run for a few decades. I was told that this was a Labour Government. I was told that it had never been run for a few decades. I was told that it had been run for a few decades
Who needs to be told that taxation is compulsory?;National;"Who needs to be told that taxation is compulsory? I am not talking about the Labour Party members.<|endoftext|>

"
will you ask the member to be quiet?;Labour;"I will ask the member to be quiet. I am sure that the member will be able to answer, because I am sure he will be able to answer when we come to the end of the debate. I am happy to answer that if it is so important.<|endoftext|>

"
will you ask the member to be quiet?;National;"The member asked me to be non-committal.<|endoftext|>

"
To what does the survey attribute the turn, round in New Zealand?;Labour;I would not say that the result of the survey is a little bit miraculous. That is what it said. The survey shows that New Zealanders think, and they think the Government and the National Party think, that it is a great idea that the National Party should be in the House again. That is what it said. The National Party has now said that it will be in the House again, and now we have the survey results. I repeat that the National Party will be in the House again
To what does the survey attribute the turn, round in New Zealand?;National;the survey does not attribute the turn, round in New Zealand. The survey also shows a significantly greater level of confidence in the National Party than at any time since the 1991 election. This is attributable to the Government's commitment to show real leadership, to show real leadership, and to show real leadership in a way that can be sustained for the long term. This can be achieved by a National Government that is driven by good ideas and not by political pablum. This Government is driven by good ideas
Is this one of the questions we agreed to put?;Labour;"We agreed to put it in the word ``praise''.<|endoftext|>

"
Is this one of the questions we agreed to put?;National;I think that one of the most important things to note in this debate, is that the National Party actually did ask the question. ``Do you have a letter from the Department of Conservation saying that it intends to begin its consultation process with the Forestry Commission tomorrow?''. I thought that was a boundary matter, but it was not a boundary matter, because the question was asked by the National Party. The question I have asked, in the House this afternoon, was whether the Government's policy of selling State
What is being done in the public sector to promote women to leadership positions and to close the gender pay gap?;Labour;"There is a very good report out of Wellington. The report is entitled The New Gender Gap, which refers to the fact that, in the last year, the employment of women fell by 15,000, while the employment of men fell by 32,000. This is a very good report. It is also a very good report that is being used to promote women to leadership positions and to close the gender pay gap.<|endoftext|>

"
What is being done in the public sector to promote women to leadership positions and to close the gender pay gap?;National;"The Government is committing $4.6 million to address the gender pay gap by introducing the Career and Employment Partnership programme, which is a nationwide partnership of the Ministry of Women's Affairs, the Crown Employment Service, the New Zealand Institute of Economic Research, and the New Zealand Council of Trade Unions. The programme includes an emphasis on the recruitment and retention of women.<|endoftext|>

"
But there would be a day's gap, after a motion?;Labour;In other words, if you take the motion that was put, the member who has just resumed his seat, the Hon. John Key, who has just resumed his seat, said that the motion was not necessary. The member who has just resumed his seat said that the motion was not necessary. What a ridiculous statement! I can imagine that the member who is now the leader of the National Party has been a member of this House for more than 20 years. He has been the leader of this House
But there would be a day's gap, after a motion?;National;Then we have to look at the bill. It is a bit long, and it is corked. It gives the Minister the power to do some things that he will not be able to do, and the Minister will not be able to do them. So there are some very serious problems in this bill, going through the select committee, and I will give one example of the one that Labour members should be aware of, because that is very important. It is a matter in which the select
Where’s the independent inquiry you promised?;Labour;I have been assured that the chief executive of the NZ Health and Disability Commissioner has been reviewing the performance of the organisation. He has confirmed that the organisation has been in a state of crisis since the appointment of the chief executive. In light of that review, I am advised that the chief executive, who is a former chief executive of the organisation, has been working closely with the director general of the organisation to ensure that it is operating in a more effective and efficient manner.<|endoftext|>
Where’s the independent inquiry you promised?;National;There’s not, and we’re not going to have one. So long as we have this Prime Minister who is so confident that she can get agreement from her party and the Prime Minister who is so confident that she can get agreement from the Prime Minister, this is the way the Government is going to do it. So I think it is a great irony that this is the way that we are going to get agreement from this side of the House. But by the way, in
Will the decision to supply New Zealand troops for truce monitoring in Bougainville have an impact on the current Budget?;Labour;The decision to supply New Zealand troops for truce monitoring in Bougainville is very much our view. I have been told that it is actually a very good idea, and that the announcement has been well received, but I do not think it will actually have any significant impact on the number of troops who will be sent to Bougainville or in Bougainville. That is the view that we have taken. I have spoken to many of the people involved with the peacekeeping effort, and they are
Will the decision to supply New Zealand troops for truce monitoring in Bougainville have an impact on the current Budget?;National;"At present the decision to supply New Zealand troops for the monitoring of peacekeeping missions does not have any impact on the current Budget. The Government has been advised that as a result of the decision to supply New Zealand troops for peacekeeping, it is expected that the number of peacekeepers will increase by approximately 50. However, the ministry's current mission will not be fully funded and will be reduced to a level that does not meet the needs of the peacekeeping effort.<|endoftext|>
"
When was the law changed to enable trout to be legally imported and sold?;Labour;The law was changed to allow trout to be imported and sold in 1996. The introduction of the bill in 1992 was prompted by the fishers' concern about the slow-moving introduction of the new system. The legislation has received a lot of feedback from the fishers, but the bill still allows the fishes to be caught and sold in the wild. The introduction of the new system was delayed by the introduction of legislation to deal with the new catch, it is now a necessary part of the reintroduction
When was the law changed to enable trout to be legally imported and sold?;National;I am not aware of that. I am not aware of that at this stage. The member might say that I am very worried about the police having to take the precaution of putting more patrols around the river. I think that is a matter that should be carefully considered. If the majority of New Zealanders want to commit their lives to maintaining the rivers, then the police should be able to make that decision for them, in the same way that they can make that decision for the farmers. I am
