question;party;answer
On what date was the coalition document abbreviated?;Labour;"That is a matter for the member.<|endoftext|>

"
On what date was the coalition document abbreviated?;National;"That is a matter for the member. The abbreviations were on the basis that the document was slightly changed from its original version. The member is correct that the Government is not aware of the change. I do not know whether it has been announced or reported to the House. We have been told that the Government is aware of it.<|endoftext|>

"
What efforts were made by the employment task force to ensure that the concerns of Pacific Island communities were heard?;Labour;"The staff were not able to hear those concerns, but were able to work with the Minister to ensure that the Pacific Island community was consulted. The task force also worked with the department to ensure that the consultation process provided for by the Employment Contracts Act was successful and that the committee had the opportunity to conduct its discussions. I am pleased that the Minister of Employment heard those concerns, and has been able to take action to deal with the issues as best as possible.<|endoftext|>

"
What efforts were made by the employment task force to ensure that the concerns of Pacific Island communities were heard?;National;The task force achieved much. It was established over a period of time and managed well. The task force has been very successful in dealing with the problems of Pacific Island communities. It has seen that the issues of family, shared values, and community engagement are important to the success of all New Zealanders. The task force has had considerable success in providing a voice of support for Pacific Island communities, and the issues that it deals with are very important. I am proud of the work of the task force
What steps is the Government taking to assist teachers into schools with teacher shortages?;Labour;The Government wants to make sure that teachers are able to line up and give a good presentation in front of a new class of students. We have made sure that the status of teachers from the beginning is the same as the status of students, and that they have the same education. We have made sure that a new teacher is brought to the school so that they can be moulded to succeed, and that they can be moulded to succeed in front of a new group of students. That is why
What steps is the Government taking to assist teachers into schools with teacher shortages?;National;"As a result of an agreement between the Labour Party and the Alliance, the Government has addressed the teacher shortage issue and will be working with the Alliance to ensure that a school has adequate teachers. I will also say that the Government has made no decisions in relation to the issue of teacher shortages. This will be a matter for the Alliance in the future.<|endoftext|>

"
When does the Minister expect economic growth to create the number of new jobs required to bring unemployment under 200,000?;Labour;The Minister is expecting to create about 6,000 new jobs, and that is a large number of people. We know that unemployment is at its lowest level in 80 years. We also know that the Government has been building on the support it provided in the last Budget. We know how much the Government is spending. We know that the Government is spending $4 billion more on health, and we know that the Government is spending $3.6 billion more on housing. We know that the Government has
When does the Minister expect economic growth to create the number of new jobs required to bring unemployment under 200,000?;National;I expect that the Government will be able to get the numbers right. We have got to look at the figures and ask what we are doing on employment. I do not believe that we are doing enough. The statistics tell us that we are not doing enough. The shadow Leader of the House has been unable to get his facts right. He campaigned on the National Party platform that no more housebuilding in New Zealand was to be prevented from taking place and that unemployment was to be reduced by a minimum of
What is the value of the mining and petroleum sector to the New Zealand economy?;Labour;The value of mining and petroleum is a measured one. It is not a number that is calculated at the moment, with a view to it becoming a number. It is an estimate of the value of the mining and petroleum sector. It is not a number that is written down. It is an estimate, based on multiple choices. The member is probably aware that the member for Tauranga has a real-life experience in that respect. I suggest that she should take a look at the figures for
What is the value of the mining and petroleum sector to the New Zealand economy?;National;"The value of the mining sector to the New Zealand economy is as high as it has ever been.<|endoftext|>

"
What does your lawyer think about it?;Labour;"I will give him some examples, because that is the way in which things are done in the law.<|endoftext|>

"
What does your lawyer think about it?;National;That is the background, and the Minister of Finance has made the point that if the Government is committed to this legislation, it will be a substitute for the legislation before the select committee. The committee has not had a good look at the legislation and it has not been able to agree on the amendments. It has been through a good deal of discussion, and I hope that we will have a good look at it before the select committee releases its report. The Bill is only one of the many measures introduced
Why does the department use and store 1080 poison on the West Coast at all?;Labour;"The purpose of that is to provide a service to the public that is safe and secure. The number of service providers and their networks were established to provide that service. Such a good service is not a Four Corners program.<|endoftext|>

"
Why does the department use and store 1080 poison on the West Coast at all?;National;"In the West Coast it is only 1080, and the area is not in the national scheme of things. The West Coast is not in the national scheme of things.<|endoftext|>

"
We have some about you, so what does it matter?;Labour;"That is a good question. the Government has been very good at trying to avoid it, because the Opposition members have been trying to bring it down to the point where it is time to act.<|endoftext|>

"
We have some about you, so what does it matter?;National;"I think it matters a lot if you make it up as you go along. There is nothing wrong with that.<|endoftext|>

"
Who was the clever person who designed this?;Labour;The clever person who designed this is who used to be known as the clever one. He used to be known as the clever one, and that is why he got up in the House today and said he was not the clever one. He now says
Who was the clever person who designed this?;National;He was the clever one. He was the clever one. He was the clever one. he was the clever one. I am sure that he was the clever one because he was the one who brought the clever one. I am sure that he was the one who brought the clever one. I am sure that he was the clever one because he was the clever one. I am sure that he was the clever one, and that is why the clever one remains undecided. What I do not accept is
Is the member raising a point of order?;Labour;"I am not raising a point of order.<|endoftext|>

"
Is the member raising a point of order?;National;"I am simply asking how the member can get a point of order. I do not think the member is repeating a point of order. it is a very good point of order, and I think he should be careful this time. He could be saying that I am saying that I will not make any further comment on this matter.<|endoftext|>

"
