question;party;answer
What initiatives has the Government undertaken to support science and innovation since the 2009 Budget?;Labour;The Government has embarked upon a programme of research-led research initiatives that has resulted in a series of research grants totaling $6.5 million in the past financial year, including $1.8 million for the National High-growth Agenda. This grants are a significant part of the Government’s technology strategy and programme. The Government is committed to supporting science and innovation in New Zealand through the New Zealand Science Fund so that funding can be targeted to the sectors that matter most to New Zealand and to
What initiatives has the Government undertaken to support science and innovation since the 2009 Budget?;National;"The NZTEX report for January 2009 shows that the Government has had a significant impact on science and innovation since the previous Budget.<|endoftext|>

"
What is the staffing requirement for kindergartens?;Labour;The staff of kindergartens are very busy. The staff of kindergartens have reported to me that they have had to deal with the biggest crisis in their lifetime. There are no longer enough teachers. The principal of one kindergarten has had to furlough one teacher because of a shortage of staff. The number of kindergartens has been cut by 10, the number of kindergartens has been cut by 8, and the number of kindergartens has been cut by 10. There are
What is the staffing requirement for kindergartens?;National;The staffing requirement for kindergartens has been established as follows
What is the Minister of Employment doing to improve employment in the Bay of Plenty and the Hawke’s Bay region?;Labour;"the Minister of Employment is trying to encourage people to get off fixed-term contracts to stay in the workforce in the Bay of Plenty, the Hawke’s Bay, and elsewhere. That is the key to the jobs and the health and welfare policies that are needed in the region.<|endoftext|>

"
What is the Minister of Employment doing to improve employment in the Bay of Plenty and the Hawke’s Bay region?;National;I have been doing that with the Employment Contracts Act and the Employment Contracts Amendment Bill. The Employment Contracts Act provides for the same protections and guarantees as the Employment Contracts Act, but it also provides a mechanism for the employment of more staff. The Bill provides some additional assistive measures, and I am delighted to see that there are now some more than 100 staff in the Bay of Islands and the Hawke’s Bay region. I am sure that the Minister has been listening to the comments that have
Where has Deborah Coddington been for the last 6 months?;Labour;"She has been in the House, and she is in a good position to be commenting. That is the way it works in this House. It is not so bad if the member who has been on the other side of the House for 6 months does it as well.<|endoftext|>

"
Where has Deborah Coddington been for the last 6 months?;National;"She has been in New Zealand for the last 6 months. She has been in New Zealand for 6 months. I am sorry, I have not had any reports on her. She is in New Zealand now. I would have thought that would be right, because she has been here for a number of months and has been here for a number of days, but I am not sure that she has been here for longer than 6 months.<|endoftext|>

"
But how can you adjust something for results you haven’t got?;Labour;That is quite simple. The Government has put in a new tax rate, very much in the spirit of the Labour Party’s tax cuts, that we will have to wait for a Budget to see whether it will actually be effective, and what it will mean to New Zealand. That is what the National Party’s tax cuts will mean to New Zealand. The National Party has no plan to tax them. The National Party's tax cuts will mean less tax, less expenditure, less spending
But how can you adjust something for results you haven’t got?;National;The member’s question was very interesting. I’ve answered that in the answer. I’ve been doing that every day for the last week, and I’m trying to give the people a sense of how strong we are. That’s exactly what I’m doing. I’m trying to give people confidence in the way we’re doing things. I’m really proud of our strong economy, and that’s why
Is that why that member voted for market rents?;Labour;The member is very interested in the issue of market rents, and she will get to a point. I am not in any position to try to further her argument, but I am not in any position to argue that. I do suggest that in the future when there is a housing crisis, there need not be a shortage of housing. There are many housing crises around New Zealand, and it is no longer a crisis. There are a couple of examples. In the last 12 months there have been a
Is that why that member voted for market rents?;National;"because the member wants to put in a surplus for the people of New Zealand. Then they voted for the Government's policy, which was to put in a surplus for the rich. That is what they voted for. They voted for the Government's policy, which is to put in a surplus for the rich, and now we have a surplus for the poor.<|endoftext|>

"
Has the Minister had any reports on the uptake of Taskforce Green for this financial year?;Labour;I did not hear anything from the Minister. I did not hear any reports until about the time of the Budget, at which point I thought
Has the Minister had any reports on the uptake of Taskforce Green for this financial year?;National;"I am advised that the Minister is considering the number of members of the taskforce as part of the Government's strategy to ensure that we have more capacity to respond to the changing situation. I am not aware of any problems with the number of members on the taskforce.<|endoftext|>

"
Could the Minister confirm that, given those figures, it is more dangerous to be a travel agent than it is to be an accountant?;Labour;"I think it is more dangerous to be a travel agent than it is to be an accountant.<|endoftext|>

"
Could the Minister confirm that, given those figures, it is more dangerous to be a travel agent than it is to be an accountant?;National;I am not aware of that. Certainly I can confirm that the figures released by the Department of Corrections show a huge number of new people in prison. I think that is an important part of the question. I do not think it would be appropriate to have a ministerial statement on that point. In the next 2 weeks there will be another release of crime statistics, and this one will be a little more controversial, because the Minister of Corrections will be in the spotlight. I think it would be inappropriate for
When will the Government's strategies to deal with dioxin levels in New Zealand be announced?;Labour;I am very pleased that the Opposition is prepared to support the Bill. We have heard from the member for New Plymouth that dioxin levels in New Zealand are now down to 0.1 micrograms of dioxin per kilometre. He said that he was prepared to give the Bill to the select committee for additional investigation. He said that he certainly would not have rushed it back to the select committee. I conclude by saying that the previous member for New Plymouth, the member for Auckland Central
When will the Government's strategies to deal with dioxin levels in New Zealand be announced?;National;New Zealand has been working very hard in the last year to reduce the levels of dioxin in the environment. The Government is going to announce a strategy in the next few hours to deter dioxin from the New Zealand environment. the strategy will be focused on two areas
Have you received reports on this matter?;Labour;"I have received reports on this matter, but they were not in the form of a certain paper on the front page of the Dominion Post yesterday.<|endoftext|>

"
Have you received reports on this matter?;National;"I have not, but I ask the member who has.<|endoftext|>

"
