question;party;answer
How is the savings behaviour of households contributing to New Zealand’s improving overall debt position?;Labour;"The savings behaviour of households contributing to New Zealand’s improving overall debt position is improving. The Government has been able to continue to make improvements in the household sector at a much faster pace than the previous Government.<|endoftext|>

"
How is the savings behaviour of households contributing to New Zealand’s improving overall debt position?;National;The savings behaviour of households contributing to New Zealand’s improving overall debt position is that a relatively small number of households have been contributing to New Zealand’s stability and prosperity. The majority of household savings are being recorded in our economy in the form of accumulated savings, savings that have been saved for retirement, and savings that have been saved for investment. This is a relatively small number of households that is encouraging broader economic development. This is a sector that is creating the jobs that are needed.
What is the rationale behind the move to prohibit the display of tobacco products for sale in retail outlets?;Labour;"The grandfather clause is the reason for the change. The grandfather clause makes it clear that any tobacco product that is sold at retail or in retail outlets must be clearly marked as such and may be used only on those premises in which tobacco is sold.<|endoftext|>

"
What is the rationale behind the move to prohibit the display of tobacco products for sale in retail outlets?;National;I am able to confirm that the reason for the move was that after the recent New Zealand Herald article, which showed that cigarettes were being banned from New Zealand stores, I received a call from the tobacco industry. I was told that the ban had been lifted, and that the tobacco industry was moving to a tobacco-only policy. The ban was lifted after these newspaper articles were published. The tobacco industry is not moving to a tobacco-only policy. The tobacco industry is moving to a policy of selling
Just as a point of clarification, is the speaker talking in real or nominal terms?;Labour;The member should listen to what he said. He is quoting from the transcript of the debate last Thursday. I want to write to the House that I believe that this is a very important issue and that the member should listen to it, to the real answers that the member has given in confidence. I will start by stating my view that the member is driving on a slippery slope. The member has taken the Government's policy of reducing the number of children in the care of their grandparents and reverting to
Just as a point of clarification, is the speaker talking in real or nominal terms?;National;"I am talking in nominal terms. The member, and I congratulate him on this distinction, is also using the phrase ``real''. That is very unparliamentary, and that is exactly what he was doing.<|endoftext|>

"
Was the decision to drop the Crown's treaty settlement proposals a Cabinet one or a Treasury one?;Labour;There was a Cabinet decision to drop the Crown's treaty settlement proposals, and a Treasury decision to drop the final settlement proposals. The final settlement proposals are a result of the strategy that the Government has been pursuing for many years. The strategy is to negotiate a settlement that is consistent with the Government’s stated objectives and commitments. This has been a strategy for many years, and it is a strategy that is consistent with the Government’s stated objectives and commitments. We have been able to negotiate
Was the decision to drop the Crown's treaty settlement proposals a Cabinet one or a Treasury one?;National;The decision to drop the Crown's treaty settlement proposals was a Cabinet one and a Treasury one. The Government did not take the position that the principles of the new treaty were better than those of the previous one, particularly in relation to the Chatham Islands and the South Island. I was not in any way pressured by the Government to introduce that legislation. The bill does not require amendment. It does not require a vote. I want to be clear, and I shall take some time to finish, that
What are the average waiting, urgent eye surgery at Wellington Hospital?;Labour;As of May, in the Wellington area, there were 66,000 urgent eye surgeries. That is a 53 percent increase over the same period in last year. This increase in emergency surgery is due to the increased number of cases being referred to the Mangere Eye Centre as opposed to the other facilities that the centre has. In the last 12 months there has been a 39 percent increase in urgent eye surgery, and now there are 67,000 urgent eye surgeries. There has been an 80 percent increase
What are the average waiting, urgent eye surgery at Wellington Hospital?;National;I would say that at the moment there are some very serious cases of eye surgery being performed at Wellington Hospital. The average waiting, urgent eye surgery is 3 years. I support that statement. It is interesting that the member was quite busy trying to base his contribution on the previous Minister of Health. He is not. He is not suggesting that the Minister of Health could be doing something. He is suggesting that the Minister could be doing something. I think that that is a very interesting comment. I have
When are you taking over from Bill?;Labour;"I am taking over from Bill. I don’t think it is too much to ask that the member for Whangarei talk to the Minister of Corrections as she might be able to say. She has had some experience, as we all have had some experience, in the area of Corrections. What does she have to say?<|endoftext|>

"
When are you taking over from Bill?;National;The member should ask the Minister of Finance, he is the Minister of Finance, because he has the task of being the leader of the National Party. The member should ask him who is the leader of the National Party. The member should ask members of the Opposition about the leader of the National Party. It is wonderful that the member should ask a question about the leader of the National Party. I was a bit concerned that the member should ask a question about the leader of the National Party, because that
Why has the Cabinet delayed making a decision on the future of the new $94 million parliamentary building until next week?;Labour;The Minister of Labour has been informed by the New Zealand Herald that the construction of the new building is on track. While it is too early to say that the new building will commence as planned, it is expected that the new building will be completed by the time the new Speaker is in the House. Members will recall that the original building was built in the 1930s and was constructed in the style of the National Party. In the late 1960s and early 1970s the building was built in the style
Why has the Cabinet delayed making a decision on the future of the new $94 million parliamentary building until next week?;National;"The decision to move to some time next week is an indication of the Government’s intention to move this legislation to the select committee, but we have not yet decided whether to tell the House the timing of that move. what we are waiting to see is the select committee’s report on the bill.<|endoftext|>

"
What is the outlook for the export sector?;Labour;The export sector is in good shape. The export sector is expected to grow to about $3.2 billion by the end of this year. The export sector is projected to grow to about $1.1 billion by the end of the year. The export sector is projected to have increased gross domestic product by about 0.8 percent this year, in line with the Government’s target. The export sector is expected to have increased exports of machinery, machinery parts, machinery components, and other
What is the outlook for the export sector?;National;"The export sector is well supported by the Government, and in the past year it has increased its exports by 8.2 percent. That is the best result in the sector for 6 years, and it is the only result since the New Zealand Herald reports the issue on 15 December 1991.<|endoftext|>

"
Does that reduction in unemployment for the quarter ended December indicate a general trend?;Labour;"I suggest that that is only a guess. The member should ask him why he was not elected to stand in the House in the previous term in which the Government did not do that. I think that is the reason he is not there now. He has slightly changed his mind on that. He is not in the House to talk about the previous term. the member says that he is in the House to talk about the future.<|endoftext|>

"
Does that reduction in unemployment for the quarter ended December indicate a general trend?;National;"The general trend indicates that the unemployment rate is lower in the last quarter than in the previous quarter.<|endoftext|>

"
What were the results of the 2010 Top Scholar Awards?;Labour;"I can confirm that the 2012 awards are in good shape, and there is no reason to believe that the number will continue to decline. I can confirm that the number of awards is in good shape.<|endoftext|>

"
What were the results of the 2010 Top Scholar Awards?;National;The results of the 2010 Top Scholar Awards are as follows
