question;party;answer
Does the Māori Language Bill give effect to the Māori language being a language of the New Zealand legal process?;Labour;The bill gives effect to the Māori Language Act of 1991, which provides for the use of the language in the hearing of oral oral or written questions. The minister responsible for legislation, who is a Māori, has made it clear that the bill will not remove the language from Maori. The bill is not about the language. The bill is about establishing the language of the New Zealand legal process and the language that the public can use to access justice. The bill provides for the use
Does the Māori Language Bill give effect to the Māori language being a language of the New Zealand legal process?;National;The bill is much wider than that. The intention is to give effect to the Māori language being a language of the New Zealand legal process, and to ensure that the appropriate resources are available for the Māori Language Board to serve the interests of the Māori language. In the end I would say that I have to say that the language policy is one of the most difficult decisions a Government can make, and I would take the opportunity to welcome any suggestion that the language policy is not
How many votes did the member get in Waitaki, 5 percent?;Labour;"The member got 12 percent. The member got 7 percent in Mangere, and the House is now looking at a very tough challenge. The House is now looking at finding another 5 percent.<|endoftext|>

"
How many votes did the member get in Waitaki, 5 percent?;National;I got 5 percent. I got 5 percent, but I have to say that I am not sure whether it was 5 percent or 10 percent. I think it is 10 percent. I think it is 15 percent. I am pretty sure that it was 15 percent to 20 percent. I can tell that member that the message from the other side of the House was that if she got a proportional representation system she should have been prepared to accept that it is a bad idea to introduce a Parliament. But that
Will the Minister recommence good-faith negotiations with the National Party to find common ground on a methane target?;Labour;There is a chance that we can have some talks with the Labour Party, and I want to reiterate that to the House, because it is an important point that I have to make. The Minister of Conservation has said that the time frame for the review of the draft exercise plan is left open for negotiation, and that the Government believes that it is appropriate to seek consultation on the draft exercise plan. The Government has said that it wants to consult and to seek input from the public and the community on a
Will the Minister recommence good-faith negotiations with the National Party to find common ground on a methane target?;National;I am sure that it is a good thing to have a common ground. I think it is a good thing to have a common ground. I am sure that that is a common ground. I am sure that the Opposition will be supporting a common ground to find a common ground on a methane target. I am sure that the Minister will be supporting a common ground. I am sure that the member will be supporting a common ground. In terms of the Bill, I am sure that the Minister will be
Do you want me to answer that interjection?;Labour;"I want to confirm that the member who was asking the question had a single-minded focus on the issue and did not even acknowledge the fact that there were thousands of people who had their services and their benefits cut and stopped because of this Government. I think that is an example of why the National Government is doing the things it is doing at the moment.<|endoftext|>

"
Do you want me to answer that interjection?;National;I am glad to answer that one. I have had a call from the Leader of the Opposition, who is not happy that the Government is moving forward with this bill. He is saying that it is the Government's policy to move towards a levy regime, but he says that it is the Government's policy to move to a non-payroll tax regime. That is the sort of thing that the National Party has been doing, and that is what is so bad about it, because these National Government
What about the pyramid selling schemes?;Labour;The Government is absolutely delighted to see that the rates have been reduced in the areas of inflation and interest rates. The Government is pleased to see that the Budget's target is the lowest the proportion of national wages that are going up. The Government is pleased to see that there is a welfare-funding scheme in place and that there is a range of measures that will assist to keep the unemployed down. The Government is pleased to see that there is a programme to reduce the number of New Zealanders on the
What about the pyramid selling schemes?;National;We have heard from many people, particularly from my colleague the member for Kaimai, that the problem is not as big as it was when we put in the scheme. Public confidence in the scheme is at a very low level, and the scheme is not as much as it was in the past. The scheme is still under review, and that is a good thing. We have to look forward to the review, because when we look at the scheme we see that it is still at risk.
Are New Zealand First and United New Zealand not Opposition parties?;Labour;The Opposition is the only party that was comprehensively reformist in its approach. The Reform Party was not reformist. The Reform Party was not reformist. New Zealand First was not reformist. United New Zealand was not reformist. The Reform Party was the reformist option. The Reform party was not reformist. The Reform party is the only party that was comprehensively reformist. The Reform party was not reformist. The Reform Party was not reformist. The Reform party was not
Are New Zealand First and United New Zealand not Opposition parties?;National;We are not. United New Zealand is a new name. United New Zealand is a new name. The people of New Zealand will not be pleased to hear that. They will not be pleased to hear that. they will not be pleased to hear that. The people of New Zealand will be unhappy to hear that. They will not be pleased to hear that. The people of New Zealand will be unhappy to hear that. So what? United New Zealand is a new name. New Zealand is a new
Are there any particular negotiated discounts that will be part of the card?;Labour;That is the number that has been put up in the most recent offer. They will be involved in the negotiations with the Government. They will be part of the discussions. I acknowledge the efforts that have been made by the Minister of Finance and the Member for St. Kilda to ensure that this card is not a minority one. It is meant to be the majority card. It was meant to be the majority card, in fact, we have made it the majority card. I also acknowledge the efforts
Are there any particular negotiated discounts that will be part of the card?;National;"there are some that are very good. The two that I am talking about are the discount for the number of children who are under 13 and the discount for the number of children who are under 14. the same as that, it is a very good card, I have to say, given that it is a card that only works for the very wealthy.<|endoftext|>

"
Why is the member worrying about us so much?;Labour;What I worry about is the cost of the operation of the major New Zealand department, which is in effect the Ministry of Transport, so it is not more expensive than it is in the United States. That is the point I was making. The person who has already been able to attend the debate is the member for Maramarua. I am not sure how many other members of the House are in Maramarua, but I am sure that many others will be in Maramarua. The member
Why is the member worrying about us so much?;National;"Just as it is with the member who is standing up and saying that the Minister gave a speech.<|endoftext|>

"
What are you asking me to withdraw now?;Labour;"I am asking you to withdraw.<|endoftext|>

"
What are you asking me to withdraw now?;National;"I am asking you to withdraw the Bill. The member can ask you to withdraw the Bill. That is all I am asking.<|endoftext|>

"
Is that the National Party and the Young Nats?;Labour;That is the National Party and the Young Nats. National members have said nothing about this bill. The Labour members have said nothing, but National members have said that they want to see the legislation work. But National members have said nothing, and they have even abandoned their own policies. National members have said nothing about this bill, and they have gone back to a Government that has never had an election in this country. They have said nothing about the fact that this bill will fund the rest of the
Is that the National Party and the Young Nats?;National;The Minister of Transport is the spokesperson on health. It is a very interesting example of the fact that it is a Conservative Government, and that is exactly what is going on. The members of the National Party are quite proud that the Government is not getting rid of the National Health and Disability Commissioner. It was the Labour Party, which was trying to get rid of the health commissioner, the head of the health commissioner, and the chairperson of the health commissioner. that is the kind of Government that would
