question;party;answer
Would you ask the honourable member to pronounce my name correctly?;Labour;"I am saying that the member should go to the right-hand side of the House.<|endoftext|>

"
Would you ask the honourable member to pronounce my name correctly?;National;I would certainly advise the honourable member that I used to be a member of the Labour Party. I was a member of a party that was led by the member for New Zealand First, who is now the leader of the New Zealand First Party. I was a member of the National Party, and I will be the leader of the New Zealand First Party when we reach the election. I ask the honourable member to support the Opposition to the Government, John Key. The Opposition is the party that
What is the Government's policy now on tax increases and control of public expenditure?;Labour;My colleague the member for Tamaki has raised the issue of controls of expenditure. The problem we have here is that what is going on is that the National Government is spending more than it can spend. It is spending more than it can spend, without control, and it is not using that money wisely. It is using it to spend on itself, but it is not spending on the good of society. The National Government is the worst of the lot, and it is spending it at the expense of
What is the Government's policy now on tax increases and control of public expenditure?;National;Tax increases and control of public expenditure are one of the Government's priorities. The Government has made a commitment to increase taxes by 0.2 percent in the 2010 Budget. Those tax increases are in the budget, they are the Government's immigration policy, and they will be passed into law. The Budget also includes a mixed-income tax rate of 23 percent, the first time in New Zealand's history that the Government has gone for a mixed-income tax rate. What is the Government's policy on
What specific outcomes does the Government expect from the work of the Food and Beverage Sector Taskforce?;Labour;I think it is quite appropriate to say that the Food and Beverage Sector Taskforce has achieved a considerable amount of understanding of the food industry. It has seen the industry develop a framework for dealing with the problems of food and beverages industry operation. I have had the opportunity to visit the General Inspectorate of Foods and Beverages, in the company of Mr John Carli and the Minister of Agriculture, to see that the sector is doing a great job. There has been a lot of discussion about how
What specific outcomes does the Government expect from the work of the Food and Beverage Sector Taskforce?;National;The Food and Beverage Sector Taskforce report is a collaborative, national initiative between the Ministry of Health and the Department of Labour, with a number of independent and professional people involved, particularly in the field of food science. The report identifies the work of the taskforce in relation to the food industry, its recommendations, and the progress being made by the taskforce in relation to any of those matters. The report is the first component of the Minister's response to the Food and Beverage Sector Taskforce
What role, did the Minister play in those negotiations?;Labour;I have played a very small role as the chairman of the select committee. I am a bit disturbed to sit here now that we have to have a debate about the bill that is so important. I acknowledge the efforts of the select committee, and the people involved, to ensure that we get a bill that brings New Zealand into the 21st century. I thank the chair and the committee for their determination to get it through the select committee. I am pleased to see that the bill is now coming to
What role, did the Minister play in those negotiations?;National;"I was not present at the negotiations, but I have been informed, and I am glad to be able to read it, that the chief executive of the Ministry of Health and the chief executive of the Department of Labour-one of the many people who took part in the negotiations, which was a great exercise. They concluded that the bill was not suitable to use as a vehicle for health reform.<|endoftext|>

"
Are we going to get any chance to debate schedule 1?;Labour;I think we will get a little bit more than that, because there is a little bit of a time-table discussion. We will get that in the first reading debate, but I would encourage the National Party to come up with a proposal that will give us a real chance to debate the second reading. I would also encourage the Labour Party not to get bogged down in the second reading, because that would give us a real chance to debate schedule 2. I think the first-draft of the
Are we going to get any chance to debate schedule 1?;National;The Committee stage of the bill is now almost three-quarters of the way through, and we are still debating it. I would like to draw the attention of the member for Auckland Central to one or two of the major changes. I have to say that I am not sure whether the member has got his act right. I am aware of the fact that there is some concern that a change of Government will result in the National Party having control of the party. I am sure that there are quite a
What does my mother think of this bill?;Labour;My mother is not deeply fussed about this bill. She is concerned because it is a very small bill, and she is concerned because it is not dealing with some of the issues that are important to people who are affected by the new law. I am sure that the Minister, who is the Minister of Health, will be able to take a call in the Committee stage and talk about those issues. I am sure that the Minister will be able to take a call and tell us how this bill will
What does my mother think of this bill?;National;I am sure that we have a very short time to debate, so I would like to thank the chairperson of the Commerce Committee for having the courage to take the bill to a select committee. I could not agree more, and I hope that we can have a speedy and robust debate on it. I also wish to commend the committee in its work on the bill and the committee's work on the committee’s recommendations. I thank all the members of the Commerce Committee for their work on the
Why did the member write a column in the New Zealand Herald saying that the economy was doing well?;Labour;"I do not know whether that is a good thing or a bad thing, but I think it is a good thing that the member who writes the column, who is from Auckland and who is a very good person. That is exactly correct. It is a good thing that we have a Minister of Finance who is directly responsible for the economy. He is responsible for the economy.<|endoftext|>

"
Why did the member write a column in the New Zealand Herald saying that the economy was doing well?;National;"It is a snapshot.<|endoftext|>

"
Why is it important to keep Government debt under control?;Labour;We need to pay our debts. I think the point we need to be dealing with here is that debt can fall as quickly as it rises. I think that is a very good point. That is why we have been able to successfully manage to raise the debt limit. The other thing that we have been able to do is to actually have a sustainable surplus in the year 2008. We have a surplus for the next 4 years, and I think this Government will be able to make it happen. I
Why is it important to keep Government debt under control?;National;"I want to start by talking about the heady days of the 1990s. I would now like to say that it is important to acknowledge the role that the previous Labour Government played in bringing down debt. I say that the previous Labour Government did not have a positive approach to debt reduction. I look forward to the discussions that we have with the previous Labour Government, and I would like to hear their views on the debt crisis.<|endoftext|>

"
Including the Supplementary Order Paper?;Labour;"I am just asking the member what she meant by that. What she meant was that the Government has found that it can not justify the overall structure of the Bill, and that is why it has dropped it. That is what the member means.<|endoftext|>

"
Including the Supplementary Order Paper?;National;"No, I am talking about the supplementary order paper. The member's outburst is completely inappropriate. I am talking about the supplementary order paper. It was not a supplementary order paper; it was a supplementary order paper with a title that was introduced into the House an interim report. it was not in the House an interim report, but it was in the House an interim report, and if the member wants to continue to interrupt me, and to continue to interrupt the House, he will be forced to go"
Does the Minister have any information regarding Te Roopu Whakamana Hauora?;Labour;I am not in a position to comment on that, but I would make a number of points. The first one is that Te Rau Omataha is a community of interest that has a lot of interest in it. the community of interest includes the lands of the Ngāti Tama and Makariki people, which are in the hands of the Taupo Road Corporation. There are some areas where it could be better managed, but the land is owned by the community of interest, and
Does the Minister have any information regarding Te Roopu Whakamana Hauora?;National;"The Minister has been informed by the district health boards, and the area health boards in their reports have confirmed that a large number of cases of diarrhoea have been occurring. The district health boards are expected to report to the Minister in the next few days.<|endoftext|>

"
