question;party;answer
Can the Prime Minister outline to the House the increasing threat that the National Cyber Security Centre has reported on?;Labour;The National Cyber Security Centre has reported a number of serious cyber threats and cyber attacks. The centre has also reported breaches in the information technology industry in the past. This year we received a threat in the Auckland office of a cyber attack. This is the most significant threat to date. Our centre has learnt from the threat and the breach that this is a cyber attack. The centre has been advising the National Cyber Security Centre and, the Centre for Strategic and International Studies, the Ministry of Foreign Affairs, Trade
Can the Prime Minister outline to the House the increasing threat that the National Cyber Security Centre has reported on?;National;The National Cyber Security Centre has reported on the increasing threat posed by the National Government. Because of the Government's increasing public focus on cyber security, awareness, and awareness-raising, there has been a major increase in the number of cyber threats affecting New Zealand. The Government believes that cyber security is of utmost importance to New Zealand. Although we might think of it in terms of sending out a message, cyber security can be used to create an effective and lasting effect. I want to emphasise the importance
What’s in the member’s pipe-some of that “northern green”?;Labour;"I have heard some of that, but I think that that is not in the choice.<|endoftext|>

"
What’s in the member’s pipe-some of that “northern green”?;National;I think the member’s pipe is a good sign, because it is good to see that humour is the final word in politics. The member for Whangarei made a funny reference, and I think that it was important that the member took it up. I think that one of the most important things to note is that this bill is not about reducing New Zealand’s tax burden, or the reduction of the level of income tax, or the reduction of the GST, or the
What facts has the Minister got to say it was a matter of affordability?;Labour;I know that the Primary Production Committee has had a very good hearing today and is to have the report back before the end of this month. It is a matter of affordability, and it is a matter of quality. It was absolutely the case, as the member for Tamaki also pointed out, that the primary producers who had to pay the price of the alternative were the primary producers who were facing the highest price increases on any product. The real problem faced by the consumer was that the prices were going
What facts has the Minister got to say it was a matter of affordability?;National;The fact of the matter is that the average family has become a bit like the average person in the world. People's incomes have gone up. There is a lot of speculation about where that will lead. It is not a good state of affairs, but the Government must consider what it wants to do. It will not want to see people getting squeezed as much as it can. The Government must consider what it wants to do. The Labour Party, with its socialist ideology, will not want people to
Will the Minister answer a question?;Labour;"I am not needed.<|endoftext|>

"
Will the Minister answer a question?;National;I am happy to answer that question, as I said to the member earlier. I will give another example
So certification would be in breach?;Labour;"That's what the member has said.<|endoftext|>

"
So certification would be in breach?;National;I think that the Minister is probably trying to make the point that, if the member thinks that he has the facts, I should like to ask him how he has the facts to back up his claim that certification was in breach. Who knows what he might have been talking about in his contribution on this issue. I should like to ask him about the NCEA certificate, which is a form of certificate that was issued under the National Certificate of Educational Achievement. That certificate is certified by the ministry,
Is the member seeking leave to ask a question?;Labour;"I seek leave to ask a question.<|endoftext|>

"
Is the member seeking leave to ask a question?;National;"I should like to answer that question.<|endoftext|>

"
What Budget policies will soon take effect and help to distribute dividends from the growing economy to New Zealand families?;Labour;I am not going to comment on the fiscal outcome at present, but I would like the House to reflect that in respect of the Government’s fiscal agenda, the Government’s budget policy statement for the next Budget is estimated to be $2.3 billion. That is a huge amount of money. I would like to make a comment as to why we are talking about $2.3 billion in the Budget, because if we look at the amounts of money that will be available in
What Budget policies will soon take effect and help to distribute dividends from the growing economy to New Zealand families?;National;"The Government is committed to delivering strong economic growth, especially for the disadvantaged New Zealand families in this Budget. The Government has made a commitment to deliver a decent, competitive, and fair economy. The Government is focused on helping New Zealanders get ahead and into the future.<|endoftext|>

"
Has any additional funding for education been allocated for schools in the Canterbury region?;Labour;We have increased the resources for schools in the Canterbury area. Some of that is under the auspices of the Patea Education Trust, which is a charity that is funded through the community. We have increased from $7 million to $36 million, and that is an increase of $10 million. We are saying to the young people of Canterbury that they should not be ashamed of what they have. We are saying that schools should be proud of what they have achieved and that they should be proud
Has any additional funding for education been allocated for schools in the Canterbury region?;National;"I can confirm that additional funding has been allocated to schools in the Canterbury region. The resource has been taken into account and will be fully utilised during the next Budget.<|endoftext|>

"
Can I take a moment to have a laugh?;Labour;The person who has been asking the question in the House this afternoon was the Government member of Parliament who advised the House that any courses of action that would have involved the elimination of the capital gains tax would have been wrong. I have come here today and told the House that policies that would have involved the elimination of the capital gains tax would have been wrong and that the Government would have been better off spending our time talking about how to make this economy more efficient. I did not say that. But the
Can I take a moment to have a laugh?;National;I think the members have just made up their minds. I think the first thing that we should do is get those people who are the most vulnerable to read the history books, and to read up on the reasons why that is so. I think that that is a great thing. I would like to hear some of the other ideas that have been put forward by this National-led Government. I think it is important that we do that. I want to hear some of the suggestions that have been put
Can the Minister identify any other proposals for issues such as the control of possums, ``task force hot, free zones?;Labour;The proposal for the control of possums would be a public health emergency and would be a matter for the Department of Conservation. There are a number of other areas where New Zealand can do better. the Ministry of Environment and the Ministry of Transport have a number of more effective ways of dealing with the issue of possum control. The Ministry of Transport has been working hard with the Ministry of Environment and the Ministry of Local Government to develop a more effective package of measures to control possums. Throughout the country
Can the Minister identify any other proposals for issues such as the control of possums, ``task force hot, free zones?;National;I have to say that I am not in a position to give a definite answer to this question. I have received many reports, and the way in which they have come out is that the Government is determined to have a high level of control in New Zealand of the possum population. That is a very good measure, and I think it will give New Zealand a very good start in controlling that pest and in reducing the pest's population. I will talk about the number of possums on our farms
