question;party;answer
Could we have the question again?;Labour;"I am not sure that I could have it again, and it is obviously an off-the-cuff answer.<|endoftext|>

"
Could we have the question again?;National;I guess that the member who asked the question, and I have to say that the member who asked the question, thought that the question was a very interesting one. I think it is one that I will give some consideration to, because I think that it has a lot of merit. I think that it is actually a very interesting question. I think that it is one that is a very long-winded one. I think that it is a very long-winded question. I think it
Can I ask the Minister what the Māori word is for “egg all over your face”?;Labour;It is the word that means “egging over your face”. The word has been used in that sense for many, many, many years in a variety of different contexts. I am sure the House would agree that it is typical in many parts of the world, and I am sure that it would be appropriate for the Minister to use it on this occasion. I am sure that the member will take it from that point. I think that is a good point. I think that it
Can I ask the Minister what the Māori word is for “egg all over your face”?;National;"to ask the Minister what the Māori word is for “egg all over your face” is to ask how that phrase is defined. It is not “egg all over your face”; it is the word “all over your face”, which is a very different word, when people understand it. So there is a difference between that and the word “all over your face”. I say to Mr Turei that we are all about the"
Is it now in order to ask the Minister of Health questions about the implications of trade agreements?;Labour;"The Minister of Health has been asked about trade agreements, but I am not aware of anything.<|endoftext|>

"
Is it now in order to ask the Minister of Health questions about the implications of trade agreements?;National;"The Opposition is very keen to get an assurance from the Government that trade agreements will be worth the paper they are written on.<|endoftext|>

"
Is the Reserve Bank of New zealand Amendment Bill a “snake oil solution that would achieve nothing”?;Labour;It is a very good one. It is a very good bill. I remind the member that the Reserve Bank of New Zealand is a very good apparatus, and it is very much like the National Bank’s KPMG 2014, which has been with us for a number of years. It has been successful, and it has had success in a number of regards. The reason for that success is that it is set up to replace the Reserve Bank of New Zealand, which is not a very
Is the Reserve Bank of New zealand Amendment Bill a “snake oil solution that would achieve nothing”?;National;I will give you one example that proves my point. The $450 million announced by the Government would go towards fixing the number of New Zealanders on a waiting list for health services in the New Zealand area. That is a serious matter, and I know that the member for Whangarei is very concerned. He has promised to solve that problem. Let me tell the member for Whangarei that the member for Whangarei is saying that if there is really a problem with waiting
What effect will the separation of Trans Power from ECNZ have on the price of electricity to domestic and commercial consumers?;Labour;The price of electricity to domestic and commercial consumers will drop by $6.6 million, a little over half, as a result of the separation. We are talking about a reduction in the wholesale price of electricity that is just 1c a kilowatt hour. That is how much it will cost them. That is good news for the consumers. That is good news in terms of the reduction in the price of electricity to wholesale consumers. I think that is a good thing. I think that that
What effect will the separation of Trans Power from ECNZ have on the price of electricity to domestic and commercial consumers?;National;The move is a very positive one in line with the Department of Energy’s policy of not separating primary sector power providers. The changes put in place by the previous Government in relation to the sale of the Auckland Power supply will ensure that the costs of the Auckland Power operation are significantly reduced, and will also demonstrate the commitment that the Government has shown to the wider power industry over the last few years. The Government spent $7 million on the Auckland Power operation. It then spent another $1 million
what are you threatening me with-not being able to raise a point of order?;Labour;"What are you threatening me with?<|endoftext|>

"
what are you threatening me with-not being able to raise a point of order?;National;I can tell the House that the Minister of Māori Affairs has sent me a copy of a letter that states
And that is what it believes needs to be more highly taxed?;Labour;What it believes needs to be more highly taxed is the higher tax rate on those at the top of the income scale. I do not think that is what we would want to see. I think we would want to see the people of New Zealand in a position where they could pay more in tax, so that they could afford better food and more, so that they could afford to buy a couple of cars and go on holiday to Ireland, so that they could afford a good home, so that they
And that is what it believes needs to be more highly taxed?;National;"It is exactly the same position that the Labour Party took a couple of years ago.<|endoftext|>

"
Is the member going to vote for it?;Labour;I think that it is essential that we have a very clear and lasting approach to the Labour Party's policy. The member will be aware that the member for Tamaki, who is the representative for the National Party in the House now, has been a member of the National Party since the beginning of the 1970s. He has spent most of his time in the House now in Opposition, except during the previous session of the House. He was very fond of the idea of having a party that had a
Is the member going to vote for it?;National;I will vote for it. I think it is a good bill. I think it is a good addition to the legislation. It gives the Minister of Labour, the Minister of Labour, a lot more authority to carry out the job of the Minister of Labour. I think there is nothing wrong with that at all. I think that is right, and I think that it will be a great addition to the legislation. All I can say is that I think it is a pretty good one. I think
How does New Zealand’s overall economic performance compare with other OECD countries?;Labour;The overall economic performance of New Zealand is very good. It is seen as a good plan for growth, and the Government is taking it to the next stage in the economic recovery. We have avoided the recession, which would have been a disastrous outcome, and we are the sixth-best economy in the OECD. This is the second time since I have been in office that we do not have a recession. We have been ahead of the OECD for the last 6 years. In the last year we had
How does New Zealand’s overall economic performance compare with other OECD countries?;National;"The overall economy is performing well, as is the case in many other countries in the OECD. This is encouraging.<|endoftext|>

"
can I just understand what leave is being sought for?;Labour;The leave is being sought for the adoption of the Bill, but it is not a matter of adoption. It is a matter of formally requesting leave, and some of the people who are opposing it on this side of the House, as we have got into the debate, have said that this is not a matter of adoption. This is a matter of adoption. It is not a matter of adoption. It is a matter of adoption. What is the issue of adoption? Are they saying this is not
can I just understand what leave is being sought for?;National;There is a limit to the amount that can be used. I do not want to get into that point. I think that we should be looking at the number of posts that have been withdrawn, and then putting in place a plan to get the volume back on track. That is the bottom line, and that is what we are all looking at. It is a very important point. We do not want to leave this House with a lot of chaos. We are asking the Minister of Finance to come
