question;party;answer
Is this an absolutely fresh point of order?;Labour;"I am listening carefully to the Minister's answer.<|endoftext|>

"
Is this an absolutely fresh point of order?;National;The member should take a moment to read and to consider the words of the question. That is not the point at which the answer should be made. The point is that a member of the House has moved to put the question before the House. What is the point in giving the answer? The point is that the member has moved to put the question before the House, and it is not as if the House has been sitting. It is quite different now to give the answer to the question. It
For how long has the issue of cardiac services for people in the South Island been discussed, and when will services start?;Labour;"The issue of the South Island has been well canvassed in the House. The issue of the South Island is not new, and there are no plans now to move to that position. The member who has just resumed his seat said that the South Island had been exploring the idea of transferring services to the region.<|endoftext|>

"
For how long has the issue of cardiac services for people in the South Island been discussed, and when will services start?;National;I can tell the member that the Government has been working for some time on the issues of services for people in the South Island. The changes are not easy to implement, and I am sure that the member will not be surprised to hear that. The South Island, which is a very proud and well-run country, has had some problems in the last few months. It is quite interesting that the Government is removing from the payroll records people who are likely to be a problem. That is not good
Are you saying such an expression is parliamentary?;Labour;I am saying that that is what it was. It was what it was. I am saying that the fact of the matter is that the House is in disarray. The House is in disarray because the Opposition has been running the show and the Government is trying to use this opportunity to come clean and make some progress. If it is to come clean, the Government will not hold back, and it will not use the opportunity to be opportunistic. ``Look at me, I am not going
Are you saying such an expression is parliamentary?;National;"I am saying that it is quite proper that the House is adjourned until the next sitting day. It is a simple bill and it should be quite simple to understand, but the issue of Waitangi has been going through the select committee for some time. This is a very important matter, and I am sure that in this House we will come to terms with it during the next sitting day.<|endoftext|>

"
Is that a publicly available document?;Labour;"No, that is a document that will be available to the public. The issue of those services is in the public interest, and in the interests of New Zealand.<|endoftext|>

"
Is that a publicly available document?;National;"That is a publicly available document.<|endoftext|>

"
Does the member for East Cape know the rate of unemployment for young Maori women?;Labour;I do not know the rate of unemployment for young Maori women. I know that a number of Maori women are currently unemployed, and they are very worried that they will not be able to go into employment. They are worried that they will not be able to get jobs to make ends meet. There are a number of Maori women who have worked in the past. My colleague the Hon. Jim Sutton said it was a bit like being a carpenter, Mr Taumarunui, who
Does the member for East Cape know the rate of unemployment for young Maori women?;National;"Mr Tuku Mai or the member for East Cape knows the rate of unemployment for young Maori women. I am sure that Mr Tuku Mai, as he is known, would be shocked, the member for Canterbury Central, who has been in the House for a number of years, would be shocked to hear that I am talking about the unemployment rate for young Maori women.<|endoftext|>

"
How does the current increase in building consents compare with long-term trends?;Labour;The current figures show that the number of building consents increased by 16.5 percent in the last year. This is a higher level than the number of consents in the last year, which was 12.2 percent. in the last year the number of building consents increased by 29.9 percent. That is a quite a significant increase. That and in the next 6 months we will see the number of developers increase as a result of the Government’s building, consents policy.
How does the current increase in building consents compare with long-term trends?;National;The annual increase in building consents has been well below the national average. The National Party’s own figures show that the number of new houses built this year is down from 301,200 in 2010 to 300,000 today. The growth in the number of new houses is down from 875,000 to 700,000, and the overall number of houses built in this country has been significantly increased from the number of homes built in 2010 to the number today. In the last 10 years,
Do you want me to say what my point of order is?;Labour;"I want you to say what your point of order is. I know that you have been trying to find out what your point of order is.<|endoftext|>

"
Do you want me to say what my point of order is?;National;"I do. I want to ask you to define the words that I used.<|endoftext|>

"
What progress is the Government making in its programme to build a more competitive and productive economy?;Labour;The Government's programme is continuing to build on the Government’s massive investment in infrastructure, particularly in the South Island and the West Coast, and in the Auckland area. We are investing $16 million in the West Coast, and $20 million in the Canterbury area. The Government is also investing $81 million in the West Coast region for the construction of a new rail line, upgrading the existing rail network, and the West Coast region is an investment of $87 million. The Government is also
What progress is the Government making in its programme to build a more competitive and productive economy?;National;"There has been a considerable progress in this area. The Government has established the New Zealand Innovation Fund, which will provide additional funding to encourage companies to establish new lines, to set up new plants, and to create new products. New Zealand will focus on the most innovative products, and the fund will be focused on new and innovative products.<|endoftext|>

"
What are the awards designed to achieve, and what impact, will the programme have on meeting the Government's strategic goals?;Labour;The awards are aimed at providing a higher level of support to people in need of long-term support. Over the next 3 years the programme will also provide support to children affected by the severe effects of poverty and disadvantage. The programme will also provide support to children and young people who are at risk of losing their parents. Over the next 4 years the programme will provide support to children, aged 10 and over, who have suffered a serious injury or illness, who have suffered a serious injury or illness,
What are the awards designed to achieve, and what impact, will the programme have on meeting the Government's strategic goals?;National;"The awards are designed to encourage the people of New Zealand to continue to be involved in their community.<|endoftext|>

"
So the advice was correct back then, but it is not correct now? Do you see the dilemma we get into,;Labour;the advice that has been given to the House in the last few days has been correct. The main thing is that we have to be sure that the public are safe. That is the subject of an inquiry being undertaken by the Department of Conservation, which is a fine operation. I am quite aware of the facts, and I am sure that the member will be reassured by that. I am more sure that the member will be reassured by the fact that this Government is committed to ensuring that the public are
So the advice was correct back then, but it is not correct now? Do you see the dilemma we get into,;National;The advice was correct, but it was not correct at the time. I do not have any comment to make on that. I am not aware of the extent of the effect of the policy, but I do say that we should have learnt from the first eight years of the National Government. We should not have put in place a policy of defence cuts that we are now having, and that we are going to have in the next 8 years. The second piece of advice I would like to give is
