question;party;answer
If that is right, does the Minister agree that I am right in principle, but I have the wrong mechanism?;Labour;The Government has put in place a mechanism whereby those who have been rejected by the previous system will not be able to get work on the new scheme or the national scheme until they have been offered a work programme. The probationary system will be more flexible than the current system, and will allow more flexibility to those who are in need of work, and to those who have been rejected by the previous system. I believe that it will be of benefit to the system in the long run to ensure that it
If that is right, does the Minister agree that I am right in principle, but I have the wrong mechanism?;National;The Minister of Health thinks that I am right in principle and that we should have an independent inquiry into the matter. But I do not think that we should rely on the Minister of Health to provide an inquiry. I think that the Minister should be the subject of an inquiry. I do not think that we should rely on the Minister of Health to provide an inquiry. I think that we should have one of the chairman of the inquiry be the person who is the person who determines the inquiry. Then we
Why don't the producers support it?;Labour;Because they want to hear it, and they want to see it in action. It is an important announcement. It is a very significant one. It is a very timely announcement to make it clear that the Government is committed to the development of a national standard of care. It should encourage New Zealanders to come forward to say that they will work in partnership with the Government to develop a national standard of care. That will bring greater investment in the health system, and it will bring increased investment in the
Why don't the producers support it?;National;The producers are not that concerned about it, because the primary objective of the bill is to ensure that the industry can continue to produce a $4 million a year in marketing costs. It is not a subsidy. It is not an investment that will be made or a subsidy that will be put in place. It is an investment that will be made only to create the conditions for the industry to continue to commercialise. It is a very good investment. The other target of the bill is to ensure that
What other tobacco controls are being introduced to reduce tobacco consumption?;Labour;The previous speaker has mentioned some new tobacco controls, but they are not very effective. The advice I give to people is that they buy only what they need to buy. They buy only what they really need to buy, and they buy only what they are really after. They buy only what they are really interested in buying, and they buy only what they want to buy. They buy only what they really want to buy. They buy only what they want to buy. They buy only what they are
What other tobacco controls are being introduced to reduce tobacco consumption?;National;The tobacco thing is a good one, and it is a good one. The Government has spent billions of dollars on it, and I think that that is a good thing. The problem for tobacco companies is the Government has given them a mandate to create nicotine-causing products by introducing them on the market. That has been done in the tobacco industry. Tobacco companies cannot compete in a market that is not dominated by nicotine. The major problem is that nicotine is addictive. It is very difficult to quit
Let me tell members, that my first voting foray was in 1978 when I voted- Mr Chair?;Labour;I voted for the man who has just resumed his seat, the Hon. Ian McKelvie. He has taken a very long time to settle into that chairmanship. He has been a member of this House and, as a member of this House, I have treated him with respect and deference. I say to him that I have been treated with respect and deference over the last 2½ years. I say to the Minister, who is now Minister, who is now the Chairman of
Let me tell members, that my first voting foray was in 1978 when I voted- Mr Chair?;National;The member is the first New Zealander to be a member of a party that has won the biggest election in the history of New Zealand. That is a pretty remarkable achievement, and I think that it is one that should be recognised. Let me tell the House about a little bit of history, because I remember when we looked at our history book, in the last few years, we could not see, how things had changed. Only a few months ago, just before Christmas, the National Party was
Does the Minister not understand what a disgrace that is?;Labour;I think I have met a good number of people who did not have the opportunity to go to a briefing or to have a look at the figures. The statistics tell us that the Government did not have a budget surplus. It was a deficit of $15 billion, but it was actually over $16 billion. The Government has been playing around with the numbers. It has been playing around with the numbers. The numbers tell us that the Government has not been able to put through the reforms that are needed
Does the Minister not understand what a disgrace that is?;National;It is the disgrace of a Government that can happily boast that it is doing a good job, but that is the reality of what we are dealing with. We know that, and we have heard it, for years, that the Government is suffering from a policy problem. We know that it is a policy problem, and we have been told that that is nonsense. We have been told that the Government is spending too much, not too much, and that it is a policy problem. They say that
What does that have to do with the Bill?;Labour;I think it is quite sensible that a wide discussion of the Bill be held in Parliament, because the Minister has said in the debate that there is a significant number of objects that have been admitted to the European Parliament and that they should be excluded from the New Zealand Parliament. That is clearly not the case. I think it would be wrong to withdraw from the debate and try to hide the fact that there are a number of objects that have been admitted to the European Parliament. I think it is a sensible
What does that have to do with the Bill?;National;"Well it does not, because the Government is now saying we should not have any further hearings on the Bill. The Opposition has a little understanding of the Bill, and I think they are about to have that understood. The Opposition will not be supporting the Bill. It is not good for New Zealand.<|endoftext|>

"
As my colleague said, who knows what the ACT party wants?;Labour;"The ACT party has a manifesto.<|endoftext|>

"
As my colleague said, who knows what the ACT party wants?;National;"The ACT party has not even been on the front bench. It seems that it is trying to try to hide its problems. That is not a result of the Budget; that is what is happening. Government members are trying to hide their problems. They have not even been able to put their own words on the record in the House today. they have not even been on the front bench, and they are using the rest of the country's problems as an excuse to try to explain away the problems they"
What else is the Government doing to close the gender pay gap?;Labour;There are some good measures. Since the introduction of the legislation, there has been a reduction in the number of women in the workforce. In March 1991, there were 45,000 fewer women than there were in March 1991. The number of women in the workforce has fallen by 9,000 since the introduction of the legislation. The number of women out of the workforce has fallen by 14,000. There are good reasons for that. The Government has increased the number of women in the workforce, which
What else is the Government doing to close the gender pay gap?;National;"I am afraid I do not have any additional information. The Government has taken a number of measures in recent years, such as supporting the careers strategy of the Department of Work and Income, and encouraging young people to join the workforce and to stay in work.<|endoftext|>

"
Why do we need this reading initiative?;Labour;As I said in my answer to the last question, we need this reading initiative because we are all about the health of our children. We are all about the health of our children. We are all about the health of our communities. We are all about the health of our communities. We are all about the health of our communities and the health of our people. We are all about people's health. We need to be looking at how we can assist families to have the best quality of life.
Why do we need this reading initiative?;National;"The Government is committed to ensuring that the Government Reading Room, which will be opened from 1 April, is ready for the new and improved format of the new reading programme. The Government has decided that it has to start with the reading programme, which will include a new textbook and a new programme of exercises and quizzes. I acknowledge the work of the Department of Education and the Ministry of Education, and the good work done by the staff of the new reading programme.<|endoftext|>
"
Has the Government agreed in principle to the taxation of redundancy payments, is work being done on the detail?;Labour;The Government has agreed in principle to increase the number of redundancy payers to the maximum of 2,500, which is the number of redundancy payers that will be paid in the next financial year. A selection process of 1,400 redundancy payers will be carried out to find out the best number of redundancy payers. The Government is currently contemplating a reduction of all redundancy payers to 3,200. The Government will not be supporting the new redundancy legislation. I will turn now to the question
Has the Government agreed in principle to the taxation of redundancy payments, is work being done on the detail?;National;That is a matter for the committee to consider in the future. The Government’s policy is to make redundancy payments public. The payment will be made to the employee who has been terminated or has left a job. It will be made to the employee’s immediate family members, and it will be made to the employee’s spouse or partner. The employee’s immediate family will be not only the employer’s family members but also include spouses, and children. To
