question;party;answer
What other significant overseas 70th anniversary commemorations will New Zealand World War II veterans be able to attend?;Labour;The celebration will be held at Kororangi on Monday, August 23, in honour of 70 years of the New Zealand Commonwealth War Entities Act, the New Zealand Armed Forces Act, the New Zealand Treaty Act, the New Zealand Defence Force Act, the New Zealand Overseas Investment Act, the New Zealand Act of 1990, the New Zealand Act of 1949, the New Zealand Act of 1949, the New Zealand Act of 1957, the New Zealand Act of 1955, the New Zealand Act of 1950
What other significant overseas 70th anniversary commemorations will New Zealand World War II veterans be able to attend?;National;The Association of New Zealand War Graves will be able to attend the commemorations, and I want to say that I am very pleased that the association is planning to send its representative to New Zealand. The association has been involved in commemorating the 20th anniversary of the arrival of the first shipment of the group of military personnel to Australia. It was a very significant achievement, and the association will be able to attend this important event. The association will also be able to attend a commemorations in Australia,
What announcements has the Government made to further improve maternity services?;Labour;I can confirm that our maternity services also have a very robust and now open maternity waiting-list system. We are funding a number of paid visits to ensure that staff are available to meet the needs of those who are waiting. This includes
What announcements has the Government made to further improve maternity services?;National;"The Ministers have been working hard to ensure that the services are more cost-effective. We are investing in new maternity and birth centre sites, we are increasing the number of doctors on waiting-list lists, and we are increasing the number of nurses. This is a more focussed approach than the previous Government.<|endoftext|>

"
Did the working, prone activities such as sport?;Labour;The working, prone activities such as sport are completely unacceptable. I have had to take a call in the debate in which a number of the things have been raised are not acceptable to me. If the Minister understands the problem, she will give me some advice. I have been trying to get him to agree. He is not sure. I am sure that the Minister of Transport would agree with me on that. The member who raises the point of the word “predisposed” misunderstands
Did the working, prone activities such as sport?;National;it is fair to say that sports have been also a major priority. A number of community organisations have been working for sports and fitness. The National Sports Council is the body that is working on this initiative, and we are developing that group of people into a group that is well-resourced, well-organised, and well-led. We are also working to ensure that people can achieve their best selves by taking up sport. The National Sports Council is not only promoting sport, but also training
What benefits do historical aerial photographs have in New Zealand?;Labour;"The New Zealand Aerial and Marine Photographers Act of 1947 provides for the retention of a photographic archive for the benefit of New Zealanders. The photographic archive was established under that Act and has been maintained under that Act since 1948. The archive is a great asset to the country, and it is only appropriate that it should be maintained under the new, statutory regime set out tonight.<|endoftext|>

"
What benefits do historical aerial photographs have in New Zealand?;National;The benefits are wide ranging. They include the increase in tourism from 1.2 million visitors in 1992 to 1.4 million today. Many of these tourists are coming for the opportunity to photograph the country in the atmosphere that is familiar to all New Zealanders. In 1993 New Zealanders were amazed to hear that the average New Zealand family spends $80 per week on travel alone, and the cost of travel is $400 per person. In 1991 the cost of travel was $400, and in 1992
I’ll interject on you, Is that what you are saying is OK?;Labour;"I ask the member, the member who introduced this bill, to get her hands off that member’s bill.<|endoftext|>

"
I’ll interject on you, Is that what you are saying is OK?;National;"I’m saying that it’s not OK. It’s not OK.<|endoftext|>

"
What’s that got to do with Korean oysters?;Labour;I’ve got a question about that. I know that the member thinks I’ve been in the House a whole week. I think he’s been in the House for about 5 years, and he’s been in the House a whole week. He’s been in the House 5 years, he’s been in the House for 5 years, and he’s been in the House for 6 years. So let’s get real,
What’s that got to do with Korean oysters?;National;I would not have to ask that question. I have asked it before. There is a lot of activity in the local production sector. The market is very competitive, with the markets of other parts of the world showing similar levels of activity and competition. Some of the best money-spending in the world has occurred in the past. We have seen the competitiveness of the New Zealand dairy sector, the competitiveness of the dairy industry in the United States, the competitive competitiveness in the United Kingdom, the
How have businesses in the regions reacted to the Budget?;Labour;"The businesses I have spoken to have generally been very pleased with the Budget. The main thing that has been positive is that a number of small businesses are getting off the unemployment line and are looking forward to seeing growth in the future.<|endoftext|>

"
How have businesses in the regions reacted to the Budget?;National;"The rate of turnover in the regions has been extremely good. The turnover in the regions has been very good, and the turnover in the regional centres has been very good. In the regional centres, the turnover is very good. The turnover in the regions in the past few years is almost at parity with turnover in the major centres.<|endoftext|>

"
Why did the Opposition members on the select committee support it?;Labour;They supported it because of the assurances it gives to the public that the Bill will achieve the objective of ensuring that New Zealanders get a good start in life. I make it abundantly clear that New Zealanders are being encouraged to take part in the scheme because of the assurances that are provided to them. The Government's policy is to get young people to enrol in the scheme. The Government is also looking to make the scheme more attractive to the proportion of households that will participate, and to make the scheme
Why did the Opposition members on the select committee support it?;National;"I think that the member should recall that the Opposition supported the bill in its first reading. But today it has put forward a different proposal, with the addition of the word ``compatibility'' in the title, to avoid the embarrassment that should have been provided by the title. That is a different proposal from the one that was brought forward to clarify the transaction of the hospital.<|endoftext|>

"
Is Mr Speaker saying that the Minister never said it?;Labour;"That is the intention of the member. He is deliberately misleading the House.<|endoftext|>

"
Is Mr Speaker saying that the Minister never said it?;National;The Minister is saying it is not true. It is not true. That is what the Minister said. The Minister said that he would not have taken the advice of the Minister of Finance, the Governor-General, or the Secretary-General. He said he would not have taken the advice of the Minister of Finance, the Governor-General, or the Secretary-General. That is what the Minister said. That is what he said. The Minister said he would not have taken the advice of the
One doesn't pay off one's mortgage, does one?;Labour;I don’t pay off my mortgage, I pay off my debt. I pay off my debt to the Government, and the Government pays back the debt. so that the Government can borrow more, it pays back the debt. That is the Government's policy. The other policy is the one that was announced this morning by the Minister of Finance, and that is to borrow more. That is what the Minister of Finance “said”, he said that the Government will borrow more.<
One doesn't pay off one's mortgage, does one?;National;"I pay off my mortgage. So I am quite firmly of the view that if a Government member wishes to raise this matter, she should do so in a united voice, and that the House should not have to sit through another period of debate on this matter.<|endoftext|>

"
