question;party;answer
Has the Minister seen any other reports regarding the safety of the bridges in question?;Labour;"I have seen the report, and I am sure that all members of the House will be aware that the National Party opposed the bill, but the Labour Party supported it. I support the report. The Labour Party moved a point of order that put the question to the Minister of Transport, who was in the chair, and the Minister decided to go for a 5-minute recess, which was not a wise move.<|endoftext|>

"
Has the Minister seen any other reports regarding the safety of the bridges in question?;National;I have seen a report on the safety of the New Zealand-Australia border, on the safety of the New Zealand-Australia border, and on the safety of the New Zealand-Australia border. The safety of the New Zealand-Australia border is absolutely paramount. It is essential to our security. It is important for our long-term security, and it should be maintained. The safety of the New Zealand-Australia border is of great concern to all New Zealanders. New Zealanders should be aware
Is the member saying that the Chairman has half a brain?;Labour;"I have half a brain, but I want to say to the member for Tamaki that she is kidding.<|endoftext|>

"
Is the member saying that the Chairman has half a brain?;National;"I am saying that the member has half a brain. I am not saying that the Minister has half a brain, but I am saying that the member has half a brain. That is the majority view of the Government.<|endoftext|>

"
What are some of the risks to the economic outlook, and what steps is the Government taking to manage those risks?;Labour;The feet of the Government are firmly in the ground. There are big risks to the financial markets, and there are big risks being taken in the world. The risks are that the Reserve Bank will be forced to buy up some of the securities of some of the banks. The dollar is losing in value, the dollar will fall in value, and the dollar will fall in value as a result of the liquidity problems that are the result of the National Government’s policy. That is why it is
What are some of the risks to the economic outlook, and what steps is the Government taking to manage those risks?;National;"The most significant risks to the economy are that reductions in the price level will lead to the loss of jobs; the loss of jobs is not possible to predict; there is a danger of a sustained slump in exports; and the Government is facing serious trade and capital controls issues. In the past New Zealand has had relatively low unemployment and a low capital-labor ratio. The current unemployment rate is 14,000 people, and the capital-labor ratio is 3.9 percent. The capital-"
Did the indigenous forest policy implemented in June 1990 guarantee that no native forests would be clear-felled?;Labour;The indigenous forests policy implemented in June 1990 guaranteed that no native forests would be clear-felled. The policy also guaranteed that no native forests would be cleared if the situation was deemed to be such that the timber would be worth more than the forest value. The policy also guaranteed that no native forests would be cleared if the management plan was deemed to be such that the management plan would be worth more than the management plan. I want to make a discussion about the policy. The policy was devised with the
Did the indigenous forest policy implemented in June 1990 guarantee that no native forests would be clear-felled?;National;"I am not aware of that. I am not aware of that. I would have to check with the Minister.<|endoftext|>

"
What recent reports has the Minister seen regarding the pace of Treaty settlements?;Labour;I am directed to present my report of the Trade Negotiations Committee, dated 8 August 1993, to the House. In the report I describe the progress that is being made in relation to the settlement of the Navaho Claims and the Te Pukere territorial waters, and to the date on which that progress is expected to be complete. I also describe the progress that is being made on the Treaty settlements in other areas, and the realignment of the Treaty settlements to the peace process, as a
What recent reports has the Minister seen regarding the pace of Treaty settlements?;National;I have seen a report that states that the Government will continue to settle settlement disputes in the way it has done for the past year. I have seen reports that state that the Government has a plan for settlement settlements that are achievable. I have seen reports that indicate that the Government will continue to negotiate settlements with parties that are prepared to accept them. I have seen reports that indicate that the Government will continue to settle settlement disputes through negotiations as it has done for the past year.<|endoftext|
What does the Government expect the select committee to do with the Paid Parental Leave Bill?;Labour;That the Bill be now read a first time. The Bill amends the New Zealand Employment Relations Act 1988. It provides for the appointment of a new committee of the Employment Relations and Employment Contracts Committee. The committee will consist of not fewer than five members, of whom at least one shall be appointed by the Prime Minister. The members of the committee shall be appointed by the Prime Minister, or his or her representative, as the case requires. The committee will meet at least every 2 years, unless the
What does the Government expect the select committee to do with the Paid Parental Leave Bill?;National;The Government’s intent is to streamline the work and parental leave arrangements for New Zealand’s most vulnerable families. It is important that the legislation we pass provides an environment for the most vulnerable families to be able to take advantage of the benefits of a paid parental leave scheme. The current legislation allows some flexibility for employees to take up paid parental leave if they choose to do so. This legislation provides flexibility for employees to take up paid parental leave if they choose to do so. I am
Is the member seeking further leave?;Labour;I am asking the Minister of Finance to place into the record the following statements in relation to the Government’s revised Fiscal Management Bill
Is the member seeking further leave?;National;The member is asking a question that is important. I want to take the opportunity to make two points in my contribution on the Bill. I want to refer to the interference in this Bill for the purpose of seeking the leave of the House. I question the ability of the member for Tamaki to ask questions during a select committee hearing. I want to draw to the attention of the member for Selwyn whether he has been consulted by the Attorney-General on this matter. I believe that the member who
What other projects were announced in Hawke’s Bay last week?;Labour;"I have not seen any reports, but I would advise that the member should get to his feet and tell us what he has seen in Hawke’s Bay. I have not seen any reports, but I would advise that he should get to his feet and tell us what the Government is doing.<|endoftext|>

"
What other projects were announced in Hawke’s Bay last week?;National;I do not want to please the Hon. I have to tell the House that this is a big announcement, and I have to tell the House that the announcement was made this week. I am sorry that the Hon. I am sorry that it has to come to that. I do not want to take it away from the hon. I should like to bring it back to the Hon. I should like to say that it is a very important announcement, and I wish to say my congratulations to those
-dealing with the housing crisis?;Labour;I am busy doing my little housekeeping here. I am sorry to interrupt the member but I am just trying to get a bit of a perspective on why we have a housing crisis at the moment, and that is through the housing crisis we have in this country. We have a housing crisis in this country because what we have in this country is a massive housing crisis. People have been in this country, have lived here, have been educated here, and have been involved here, and that is what
-dealing with the housing crisis?;National;I am not aware of that. I am not aware of the Housing Corporation arrangements being in place. I am not aware of any of those arrangements being in place. I am not aware of any changes in the planning of housing within the Government department. I am not aware of any changes to the Housing Corporation. I am not aware of any changes to the sales strategy being undertaken by the Department of Social Welfare. I am not aware of any changes to the housing strategy being undertaken by the Department of Social
What are the major provisions of this package?;Labour;The major provisions in the package are the new Youth Justice policy, which provides increased resources to youth in the community. The policy will see youth who have been suspended or expelled from school or other educational establishment receive an extra 3 weeks of detention. More than $1 million has been spent on that policy. The new Youth Information and Referral Service will also provide more support for youth in the community through a new website and a new mobile app. The Youth Court in the North Shore is being expanded, with
What are the major provisions of this package?;National;"The major provisions are the repeal of the Government's Taxation Reform Bill, which currently has a rate of 6.5 percent and is forecast to rise to 10.5 percent by the end of the year and to fall back to 8.5 percent by the end of the next April; the repeal of the Energy Efficiency and Conservation Amendment Act, which currently has a rate of 13.5 percent and is forecast to increase to 11.1 percent by the end of this year and to fall off to"
