question;party;answer
How does growth in the past year compare with previous growth in the economy?;Labour;The latest update from the Ministry of Economic Development shows that gross domestic product growth has been 3.2 percent, adding a further -0.8 percentage points to our gross domestic product. Just a year ago this year GDP growth was 2.7 percent, and now it is up to 3.2 percent. That is the global trend. The trajectory is not far off from the one in the 1990s. Our domestic economy has been growing at 3.6 percent, and our export industry, which
How does growth in the past year compare with previous growth in the economy?;National;"The latest figures show a very good economy, with more than $5.3 million in the bank, which is about twice as much as the figure for the previous year.<|endoftext|>

"
Can I ask that the member speaking pronounce Maori names correctly?;Labour;The member for Palmerston North was asking the question in full and correctly. It is important to know what the nominal position is in terms of the percentage of New Zealanders who have access to tertiary education. That is the number of people who are in tertiary education, and the Government is aimed at ensuring that they have access to tertiary education, not just to tertiary education at a relatively low cost. The minister is pleased to report that there is an increase in enrolment and enrolment
Can I ask that the member speaking pronounce Maori names correctly?;National;"Where is the member?<|endoftext|>

"
What level does the member want for the dollar?;Labour;"I don’t know. I cannot tell the member for Papatoetoe what the dollar is at. But I can tell the member for St. Kilda what it is at.<|endoftext|>

"
What level does the member want for the dollar?;National;I want to make it clear that the member for Papakura and the member for East Coast want to increase the dollar, not drop it, as he proposes. We are trying to get the dollar back to where it was when the Government took office. That is what is important to New Zealand, and we have had some suggestions from the member for Papakura, and from the member for East Coast, and from the member for Rangiora that we should drop the dollar. I give the member
Would the member please assist the Minister by just naming that school again?;Labour;What a great pleasure it is to serve in a coalition Government! It is a tremendous pleasure to serve, a woman who has served in the House for 19 years. she was the public face of the National Party during the year when it was in Opposition. she was the public face of the National Party when it was in Opposition. She is the public face of the National Party, and we are all very proud that she is going to be the next speaker in the House. I do not think that
Would the member please assist the Minister by just naming that school again?;National;It is not my school. I have to say that we are always very pleased to see the excellence that the Rotorua School of Education is doing in terms of teaching our children. But I have to say that I think that today we had a very poor performance in relation to the number of successful students enrolled at Rotorua School. What is more, I would say that there is a very high turnover rate in Rotorua School, which is a very good thing. It is disappointing to
What other policies has the Government put in place to address disparities in the health system?;Labour;As the member for Waikato I am not focused on the health system, but I am interested in the issues of the education system. In the past in my electorate, under Labour, there was a very serious question about the quality of education in my electorate. There was a great deal of debate during the election campaign about the quality of education in my electorate. People were very concerned about the quality of education in my electorate. I know that the Government has implemented a number of measures to improve the
What other policies has the Government put in place to address disparities in the health system?;National;"The Government has put in place a number of initiatives aimed at addressing the health inequities in New Zealand, and these include direct counselling, the new Neighbourhood Health programme, and the new health and social services counselling services. These are all aimed at addressing the growing health inequities, which are affecting our communities today.<|endoftext|>

"
How do net migration figures this year compare with migration figures for last year?;Labour;Net migration figures for the year to May 2013 compared with migration figures for the year to June 2013 compared with migration figures for the year to July 2013 compared with migration figures for the year to October 2012 compared with migration figures for the year to April 2012 compared with migration figures for the year to May 2012 compared with migration figures for the year to June 2012 compared with migration figures for the year to July 2012 compared with migration figures for the year to April 2012 compared with migration figures for the year to May 2012 compared
How do net migration figures this year compare with migration figures for last year?;National;the figures for net migration this year are very good. This year's figures will be better because of the uncertainty of the new Minister of Transport. he does not have a clear idea of how he will respond to the changes that have been introduced to the Immigration Act. He is trying to convince people that they will get a better deal, and that is not the case. The new Minister of Transport has been described by the member for Whangarei as a ``low-down'' Minister, and
How are trades academies delivering for young New Zealanders?;Labour;"It is a huge privilege to be in the House tonight. I am not going to say that we are seeing the end of the world, but I say that we are seeing the end of a very long journey. We used to have a system of apprenticeship training and apprenticeships. It was an apprenticeship system.<|endoftext|>

"
How are trades academies delivering for young New Zealanders?;National;"The Government’s Trade Policy Initiative is an innovative and well-run program that provides trade and education opportunities to young people who are in need.<|endoftext|>

"
Does the member recommend Gilbert Myles join the Christian Party?;Labour;"We are going to have to wait and see what happens with Mr Evans. He is not likely to be a future member of the Labour Party. I think he is a very clever member of the House. He has got a firm grasp on the Labour Party and its targets. He is going to be a good member of the Labour Party.<|endoftext|>

"
Does the member recommend Gilbert Myles join the Christian Party?;National;"I am sure he does. We do not want to see him in the House. He has been a member of the Christian Party for about 6 years.<|endoftext|>

"
On what issue are you bringing me to order?;Labour;"The member's question is an absolutely typical one, and I am at the same level as the member for Tarawera. I seek the leave of the House to suspend the House for 6 months to allow a written question to be put before the House.<|endoftext|>

"
On what issue are you bringing me to order?;National;I have just been informed that the Opposition has been advised that the Government has been advised that the Reserve Bank Governor will be replaced by a new, independent chairman, Mr Peter Smith. The list of these changes, which I am sure the chairman will be aware of, includes the appointment of a member of Parliament, a member of the House, and a member of the finance and business committees. The deputy chairperson of the committee has been elected. The committee has been chosen by a general meeting, and
Can you please just quieten down for a while there?;Labour;I am very pleased to be able to speak in this debate, and to tell members of this House, the sad thing about this bill is that it has been delayed until this week. It is an excellent example of what is wrong with this bill, and it is a shame that it is delayed. So I have to say that the fact that this bill is delayed, I think, is all the better, because it means that the Government is not waiting until this week to introduce its own supplementary order
Can you please just quieten down for a while there?;National;I should like to speak briefly about the Bill before the Committee. I think that this is a very good Bill. It is a very good Bill. I think that it is a very good one. We have the same old thing. It is not so bad. It is a very good Bill, but I think that it is a very good one. I have to say that sometimes I read that the member for Christchurch North is working long and hard to get the bill to the House. I
