question;party;answer
What steps has the Minister taken to listen to the views of young people on this issue?;Labour;That question is in response to the questions of the member for Tamaki, the member for Tarawera, and the member for Whangarei. I want to say that the Government has taken a number of steps to overcome the problems that are currently facing young New Zealanders. The Prime Minister has outlined a number of these steps, and I want to refer to one or two, and I will give a short summary of them. The Government has introduced a number of measures to improve the housing
What steps has the Minister taken to listen to the views of young people on this issue?;National;I thank the member for Selwyn for her contribution. I want to thank the Minister and the delegation for the work they have done, and for the work with the National Party and the New Zealand First Party. They have been very good at trying to get the balance right. I also want to thank the members of the select committee, who were members of the select committee, for the work they have done. I want to thank the member for Tarawera for the contribution he made, and the
Which groups will bear most of the cost of the Budget 2010 tax changes?;Labour;Those who are currently earning less than $10,000 are expected to bear most of the cost of the Budget 2011 tax changes. Those in the middle are expected to bear most of the cost of the Budget 2011 tax cuts. Those in the bottom third of the income. Those in the bottom third of the income are expected to bear the greatest cost of the Budget 2011 tax cuts. That is the basic assumption of the Labour policy. That is the basic assumption of the Labour policy. this is a policy
Which groups will bear most of the cost of the Budget 2010 tax changes?;National;"The cost of the Budget 2010 tax changes will fall on the business and labour sector, new-home buyers and those on low incomes. The cost of the Budget 2010 tax changes will fall on the high income earners, on the pensioners, on the elderly, and on the poor. The cost of the Budget 2010 tax changes will fall on the poorest New Zealand families.<|endoftext|>

"
To what extent has the Hobsonville development been a success?;Labour;The value of the project is that it is a complete success. It is a massive project. It is the biggest development in Christchurch, and it will provide a much greater view of Christchurch than the existing city has. It will take a while for the new view to reach the Council of Trade Unions, as we have seen with the Lido project, and it will take some time for that view to reach the other side of the House. There is no doubt that it will provide a
To what extent has the Hobsonville development been a success?;National;"The project was not a success. It was delayed from the time it began to become apparent that the economic viability of the project was not in the best position to be able to take part. the report was basically positive, with some suggestions being made that the project may be delayed; that it may be reduced in size; that it may be improved upon; and that it may be offered to private owners in a competitive market in a more controlled way. The committee received a number of reports that were positive"
Why shouldn't the member be accountable?;Labour;"I'm sure the member is not. I certainly would not want to see her in charge of the Maori Affairs Committee.<|endoftext|>

"
Why shouldn't the member be accountable?;National;I am accountable because I am accountable for the financial position of the Government. I have shown that the Government is in a financial crisis. The National Party tries to explain away the financial crisis by saying that the member is not accountable. The member is accountable. The National Party tried to explain it away by saying that he was not accountable, but that the member was not accountable. There is no accountability. The member has shown that the Government is in a financial crisis. He has told this House, and
What progress is being made in improving road safety?;Labour;"The Ministry of Transport has a very good track record, and the Government has been very pleased to see that it has improved considerably in the last year. Road tolls have been cut in half, and the number of accidents has increased by 182 and 79, respectively.<|endoftext|>

"
What progress is being made in improving road safety?;National;I would like to thank the Police for the activities they have undertaken, and to acknowledge the work of the Police and other agencies in supporting the initiatives. I would also like to acknowledge the Police for the effort they have put in assisting in the hunt for the missing members of the New Zealand Border Force. I acknowledge the efforts of the member for Tauranga, who has been actively involved in the hunt for them. I acknowledge the efforts of those in the region who have worked hard to locate them.
How come this member can just make things up?;Labour;I think it may be that he is trying to make things up, but I think when the member asked that question he was trying to get the member to clarify his comment. We may be back to the question of whether or not we have to have a referendum, and that is all that this Government is trying to do. This Government is trying to give the people an opportunity to make their choice. The Government is trying to give people an opportunity to make their choice. We have some very good things
How come this member can just make things up?;National;because the member has not been in the House the whole time. He has not been in the House on this side of the House. So the fact that he has been in the House for 8 years, and he is talking about it in the committee stage, and he is saying it was an accident and that the member was not at home when the accident happened, just shows how in the past he has been able to make up things that are not actually there. He is going to be brought down
How does New Zealand’s current economic performance compare with other developed economies?;Labour;"New Zealanders are well aware of that. The demand for energy is at record levels, and New Zealanders are increasingly buying lower-priced energy from abroad. The Government's focus on energy is based on long-term strategic objectives. The Government has identified that energy is the key to our future prosperity. Any policy that attempts to limit the use of energy will be ineffective because more energy will always be available.<|endoftext|>

"
How does New Zealand’s current economic performance compare with other developed economies?;National;So far we have had a very positive economic performance, with growth of about 2.5 percent. That is the first positive economic performance since National took office. We are now doing very well. We have lost a bit more than a quarter of a percent from the peak in the early 1990s. But we have not lost a lot of things. We have gained a lot, and we have got a lot of things. New Zealand is going to be very tough in the near term.<|end
What about the Minister being accountable?;Labour;The Minister is accountable, and he is, if the member wants to know that. The member wants to know that when he comes in here tomorrow morning at 6.30 p.m. he is going to find that the Minister will not be here. Mr Key is being held accountable for the Minister's actions, and that is what the member wants to know. He wants to know that the Minister was not here, that the Minister was not present, and that the Minister was not the Minister.<
What about the Minister being accountable?;National;I have been in government for the 5 years of this Government, and I think that if the Minister is to be held accountable, he should be accountable for how he has handled the things he is responsible for. The Minister should be accountable for the modifications to the accident compensation scheme in the accident compensation bill. It is very important that the Minister is held accountable for that, that he is accountable for all of the Ministers who have been responsible for the accident compensation scheme. There are some changes that have been
In the light of today's Treasury forecasts, how will the Government manage the current economic and social climate?;Labour;"It is a great question. I think that the National Government is in a very good position. It is in a very good position. It has the recent surplus. It has some surplus.<|endoftext|>

"
In the light of today's Treasury forecasts, how will the Government manage the current economic and social climate?;National;"The Government is focused on delivering a strong economy. The Government is focused on delivering a strong society. The Government is focused on delivering a strong economy. The Government is focused on delivering a strong economy. The Government is focused on delivering a strong economy. The Government is focused on delivering a strong economy. The Government is focused on delivering a strong economy. The Government is focused on delivering a strong economy.<|endoftext|>

"
Will the member answer a question?;Labour;"I will not, because I am not sure. I am not sure whether the member is trying to say that I did not ask him a question. In most cases a question that is asked of a member of Parliament is not a personal question, and I have not told him one. I have asked him a question.<|endoftext|>

"
Will the member answer a question?;National;"We will not. The member I think is asking the question about is the Hon. Richard Prebble, who says that he will not be there when the Parliament rises and he is not there when we have a debate tonight.<|endoftext|>

"
