question;party;answer
Have Maori withdrawn from the process of treaty negotiations currently under way?;Labour;"We have not withdrawn from the process of treaty negotiations.<|endoftext|>

"
Have Maori withdrawn from the process of treaty negotiations currently under way?;National;"I have not heard any reports of Maori withdrawing from the process of treaty negotiations. I am not sure that that is quite the case.<|endoftext|>

"
How many people have been employed on ``Taskforce Green'' since December 1990?;Labour;The number of people employed on ``Taskforce Green'' has increased from 2,400 to 7,500. That is a significant increase in the number of people employed on ``Taskforce Green'' in the last 8 years. There are currently 1,400 people employed on ``Taskforce Green'' in the health area. The number of people employed on ``Taskforce Green'' in the health area has increased from 2,400 to 7,500. That is a significant increase in the number of people
How many people have been employed on ``Taskforce Green'' since December 1990?;National;As of 31 March 1990, there were 163 full time staff employed on the ``Taskforce Green'' programme, which is now called the ``Taskforce Green'' programme. That figure includes the 165 fulltime staff employed by the Ministry of Business, Innovation and Employment as of 1 October 1990. The number of staff employed on ``Taskforce Green'' has increased from 68 to 239. The number of fulltime staff employed on the programme has increased from 33 to 179. The number of staff employed on the
Is the member going to resign from the National Party?;Labour;"I have not got any problem with him.<|endoftext|>

"
Is the member going to resign from the National Party?;National;"The member does not need to resign from the National Party. He will be eligible for a different party in the next election.<|endoftext|>

"
What assistance other than the accommodation supplement is being provided to assist persons in mismatched accommodation?;Labour;"I would not assume that I was talking about the accommodation supplement, as the member for Auckland Central is, but there are many other things that are provided to help. There is a lot of help for the better-off. There is a lot of help in the accommodation assistance scheme. I think it is a good scheme. I think the member for Auckland Central is saying that he wants to see more of it.<|endoftext|>

"
What assistance other than the accommodation supplement is being provided to assist persons in mismatched accommodation?;National;The assistance that is being provided is not being provided by the National Party but by the Housing Corporation and the Department of Social Welfare. The Government has provided a substantial and continuing assistance to assist tenants in mismatched accommodation. The problem of mismatched accommodation is one of the major problems facing New Zealand. I know that there are many landlords and tenants in New Zealand who are trying to find the answer to the problems of mismatched accommodation. I know that there are many landlords who are finding it difficult to find
How do placements of long, term unemployed during the previous Administration, from October 1988 to May 1989?;Labour;From 11 to 16 July 1988, Mr John Key was on the front bench, in the House. I have a copy of the newspaper of the New Zealand Herald. The headline is
How do placements of long, term unemployed during the previous Administration, from October 1988 to May 1989?;National;"The current figures show that, of the 806,000 people in the New Zealand workforce, 1290,000 are long, term unemployed. That means that the total number of long-term unemployed has been reduced from 1290,000 to 1370,000.<|endoftext|>

"
What assistance, will be provided to marae like Te Puea, who in an expression of manaakitanga are supporting homeless whānau?;Labour;I think it is a great honourable citizen who is qualified to speak in this House. It is a great privilege to have this contribution from the member for Whangarei. It is a privilege that he deserves. I think it is a great honourable citizen who has done that. There is a great honourable citizen who has done that, and I think it is a great honourable citizen who has done that. It is a great honourable citizen. I think it is a privilege to
What assistance, will be provided to marae like Te Puea, who in an expression of manaakitanga are supporting homeless whānau?;National;"I have been informed that a number of marae will be supported by the Government in a number of ways, including the provision of food and accommodation assistance. I have been informed that a number of marae will be supported by the Government, and I look forward to the development of these schemes.<|endoftext|>

"
Was an official report produced on the merits or otherwise of a substance abuse council?;Labour;The substance abuse council was one of the very important organisations that was established under the previous Labour Government. It was the council that was responsible for taking suggestions and for ensuring that the council was functioning and that it was getting the job right. We have seen a great deal of progress in a short time. The council has had a tremendous number of meetings, meeting when, as I recall, the last council meeting was on 2 December 1999, and the council was operating at a very good level of service.
Was an official report produced on the merits or otherwise of a substance abuse council?;National;I have not seen that report. I have seen a report that was prepared by a central office based on the findings of a drug and alcohol survey. I think that is a very good report. I think that it is a very good indicator of the future of the sector. It is the best example of the trend towards treating substance abuse as a matter of preventable disease, with the public and the task force saying
How much has GST per litre of petrol increased in real terms since April 2000?;Labour;"The exact figures are not available, but I am pleased to say that they are now $4.80. The total cost of the excise is now $4.80 per litre, as the car industry has just confirmed. That is better than what the previous National Government did.<|endoftext|>

"
How much has GST per litre of petrol increased in real terms since April 2000?;National;"The figures were obtained by checking the statistics to see whether they had been affected by the introduction of GST, the figures were obtained by checking the statistics to see whether they had been affected by the introduction of GST.<|endoftext|>

"
What is the next stage of the review process from here?;Labour;The next stage is a comprehensive review of the Canterbury Earthquake and Housing Corporation. The selected member of the select committee confirmed that the Canterbury Earthquake and Housing Corporation is an investment for the city of Christchurch, that it will be utilised for the benefit of Christchurch, and that it will be necessary to set up an operation centre within the next year or so. The committee is currently considering whether to make some changes to the management and functions of the corporation. The committee will also meet at that stage.<
What is the next stage of the review process from here?;National;The next stage of the review process is a review of the whole structure and procedures of the tribunal, because that is the only way we can get results. More appointments are probably necessary. The tribunal will be reviewed in the next quarter, and the tribunal will be reviewed again in the next quarter. I think that the member has the right point, but the tribunal has a lot of work to do. I was quite surprised that the Minister of Finance did not raise the question of how many tribunals
What progress has been made in implementing the INCIS computer system?;Labour;I can assure the member that the INCIS computer system is much more advanced than it was when the present system was introduced a couple of weeks ago. The computer system looks more sophisticated, much more sophisticated, and much more accurate than it did when the INCIS system was introduced. The INCIS computer system has been run in the past by a number of persons, including the person who introduced it, the person who is the controller of the computer system, and the person who is the operator of the
What progress has been made in implementing the INCIS computer system?;National;"The INCIS system has been able to identify more than 22,000 suspected and confirmed sexual offenders who have been successfully convicted. It is expected that the system will be operationalised by January next year. The system is now being used by the Police Service of New Zealand to identify and apprehend offenders on the basis of the offender’s previous behaviour, including previous convictions, and to monitor offenders’ behaviour.<|endoftext|>

"
