question;party;answer
-given that most of the information given to us comes from Ngāti Whātua?;Labour;"The fact that the member has misquoted the answer says it all. It is the same person. He is the same person.<|endoftext|>

"
-given that most of the information given to us comes from Ngāti Whātua?;National;The member should clearly understand that, because that is what is in the public interest. It is the best information that the member is aware of, and it is from his own people, and I am sure that he is well aware of what the figures are. It is a very good point to make, and I have to say that sort of thing is not good for Te Ture Whenua Maori policy. In the last year alone, the Government spent $70 million on Te Ture When
Why is the Government selling the Housing Corporation's prime rate mortgage portfolio?;Labour;The Government is selling State house mortgages at a loss. The Government is selling State house mortgages at a loss, and we are talking about the mortgage portfolio of the Housing Corporation. So why is the Government selling State house mortgages at a loss? That is why the Government is selling State house mortgages at a loss. If the Housing Corporation is so desperate to sell its mortgage portfolio, why is the Government selling State house mortgages at a loss, and why are the Government selling State house mortgages at a loss?
Why is the Government selling the Housing Corporation's prime rate mortgage portfolio?;National;"The Government is selling the Housing Corporation's prime rate mortgage portfolio. The government is letting down the housing stock.<|endoftext|>

"
Why did the Minister for the Environment describe the proposed carbon tax as a second-best option?;Labour;The current carbon tax is a pretty good one. The Government has done a good job reducing emissions and will get even better in the future. I will give it a try. Let us look at the emissions trading scheme in the next Government. It is a good idea, with some improvements to it. It was opposed by the previous National Government. It was voted down by the previous National Government. It is no longer a good idea. It is not a good idea and it is not a good idea
Why did the Minister for the Environment describe the proposed carbon tax as a second-best option?;National;"I was not referring to the carbon tax, which is a much more straightforward tax. The carbon tax is an effective one, because it is the best option, and quite a lot of people feel that the carbon tax does not deliver a good deal in terms of carbon reduction targets. I believe that the carbon tax will deliver in terms of reductions in carbon emissions.<|endoftext|>

"
What steps are being taken to protect the environment as increased numbers of tourists visit New Zealand?;Labour;As the number of visitors to New Zealand has increased, the Government is taking a number of measures to ensure that the environment is as safe as it can be. These include the establishment and use of enhanced patrols, increased police numbers, the use of extra resources, the use of more sophisticated technology, and the development of a marine surveillance system. The Environment Court has been moved to the Wairarapa to meet the growing number of visitors to New Zealand. These include the announcement today of the appointment of
What steps are being taken to protect the environment as increased numbers of tourists visit New Zealand?;National;"The Environment Protection Authority, has been working closely with the tourism industry to promote sustainable tourism in New Zealand.<|endoftext|>

"
Does the Minister still agree with the Prime Minister’s comments that we’re filling our prisons with low-level criminals?;Labour;The Government has been able to keep track of the numbers of prisoners we have. I believe that the statistics show a reduction in the number of prisoners we have. I have found that the number of prisoners we have has been reduced by about half. It is a good thing that the Minister of Corrections believes that the numbers are the same, because it means that there is not the need for an increase in the numbers. the numbers have been reduced by about half, and the Minister of Corrections believes that the
Does the Minister still agree with the Prime Minister’s comments that we’re filling our prisons with low-level criminals?;National;"That is what the Prime Minister said.<|endoftext|>

"
What progress has the Government made with its economic programme in 2013?;Labour;The Government has made progress in the last 2 or 3 years, and it is important to note that. The most important thing is that the Government is able to focus on what it is able to achieve. That is why the Economic and Fiscal Update, released last week, is so important. There are a number of important things that the Government is doing today. I think it is worth going through the major areas. The Government is working hard to improve the lives of all New Zealanders. The National
What progress has the Government made with its economic programme in 2013?;National;We have made a huge commitment to get New Zealand back on track by the end of the year. We announced this programme on 3 April. It is the most ambitious programme of any Government in the world. I think that it is a very good programme. It is the most ambitious programme of any Government in the world. The Government is now saying to New Zealanders that it has come up with a blueprint for how to have that kind of programme. It is a programme that has been endorsed by the
What percentage of the total young unemployed has the Government’s Youth Opportunities package assisted?;Labour;"With the Youth Opportunities package, I am not talking about just one job, but several apprenticeships, and the training of about 1000 young apprentices.<|endoftext|>

"
What percentage of the total young unemployed has the Government’s Youth Opportunities package assisted?;National;The number is about 3 percent. That is a pretty good percentage. Those are the numbers that are going into the hands of the Youth Opportunities programme, and it is very good to see that. I would like to deal with some of the issues in this bill, because I know that the Hon. Nick Smith and his colleagues have been quite busy in this debate. I want to highlight some of the things that we have been able to achieve in terms of the Youth Opportunities programme. The first
Can the Minister describe some of the desirable characteristics of future leaders that the programme seeks to foster?;Labour;We want to promote more commitment to education and more engagement with the workforce. We want to promote a more positive, collaborative economy, and we want to promote the quality of relationships between New Zealanders and their families. We want to promote a more dynamic and sustainable economy, and we want to promote strong relationships between the Crown and industry. We want to promote a more sustainable and competitive economy, and we want to promote a more positive, collaborative economy. We want to promote a more positive, positive,
Can the Minister describe some of the desirable characteristics of future leaders that the programme seeks to foster?;National;"I am advised that the programme is aimed at promoting a healthy society. The programme aims to promote a healthy society by encouraging citizens to keep their health at a good level.<|endoftext|>

"
How many times has that member interjected from way back there?;Labour;And how many times does that member stand there before the House, and says that they need to be listened to, in order to get the attention of the authorities. I wonder whether that member would like to have a look at the other member for Auckland Central, who has been here for almost 16 of the last 17 months, has been a member of the National Party since 8 November, and has been able to do an honest day's work. I wonder whether she would like to listen to that member
How many times has that member interjected from way back there?;National;I am not looking at whether my time is up, so I will just go back to my question. There is a large number of New Zealanders who would say that this is the kind of Government that we would have if the member for Papakura had not got into it. He has got into it, and he is now trying to get into it. There is a huge amount of debate. Let me just give something that the member for Papakura might not be aware about. It is the
Why penalise all the good 15, olds who are responsible?;Labour;That is the issue, and I hope that the Minister will take note of that, because if he does not it will be a very serious matter, and I am very concerned about that. I am concerned that we have had to do this in the first instance to get the reforms that the Minister so rightly promised in his original speech. I am concerned that we have had to deal with this in the first instance to get the reforms that the Minister so rightly promised in his original speech. I am concerned
Why penalise all the good 15, olds who are responsible?;National;I believe that the law is making it very difficult for people who are responsible to pay a fine. It is the same with running a business. The law is making it very difficult for people who are paying their fines to be able to pay a fine in a legal manner. The law is also making it very difficult for people who are paying their fines to get their fines reduced by 20 percent. It is also making it very difficult for the Government to take away the revenue stream from those people. The
