question;party;answer
When will you start repaying the $88 billion?;Labour;I started repaying the $88 billion in the last Budget. I will have to take that up with the Minister, because she is not responsible for the $88 billion. But I will tell the member who was talking about the sale of the public assets that we are in trouble. We are in trouble because people cannot believe that the sale is going to be completed by March 2000. I am going to tell the member who was telling the House about the sale of the roads that I got a letter
When will you start repaying the $88 billion?;National;"I have asked the member for St. Kilda to explain some of the matters. I have already answered that question in the House tonight, and I will get to them at some stage tonight.<|endoftext|>

"
I thought I said “that last speaker”?;Labour;That last speaker was the Hon. I said that the Hon. Jim Sutton, the Hon. Clare Curran, the Hon. Nick Smith, the Hon. Clare Curran, the Hon. Chris Hipkins, and I want to say to members opposite that they should not be thinking about doing this sort of thing. We had a Labour honourable member of Parliament who, up until this point, in this House has shown a total lack of respect for the public. I want to say again that
I thought I said “that last speaker”?;National;That last speaker is the Minister of Communications. He is the one who will take the blame for the reality that New Zealanders are facing today. He is the one who will take the blame for the middle class that is being squeezed out by the National Government. He is the one who is looking at the future of the economy. He is looking at what will be the consequence of the National Government’s policies, and at what will be the end of the middle class. he is looking at
How does the current level of inflation compare with that in recent years?;Labour;"The current level of inflation is 5.7 percent. This is good, not great, but it is below what we had when the previous Government was in office, which was about 7.2 percent. It is not good, not great, but a little above the level that we had when the previous Government was in office.<|endoftext|>

"
How does the current level of inflation compare with that in recent years?;National;The current level of inflation is 4 percent higher than in the same period in 1992. The inflation rate is also lower than it was in 1992, when the improvement in the housing and the economy was exactly what the Government promised to do in 1993. We are now looking at a 60 percent increase in real household incomes, and the improvement in housing is being driven by the Government's policies than it is by the housing market. The other important factor is the reduction in the number of people in the labour force
Does the Minister think ceasing all oil and gas exploration would help New Zealand’s regions?;Labour;"I do not think it would. The second thing that has been wrong, is that the Government has not bothered telling people what this means. It does nothing. We have heard from the member for Selwyn that the Minister of Energy is not prepared to say what this means; he will not even admit it. The Minister knows that people will not know what this means, that the changes will take time to be made and that there will be a very long delay. It is not a good thing,"
Does the Minister think ceasing all oil and gas exploration would help New Zealand’s regions?;National;I certainly will not. I do not think we would be affected by any of the technology. The only thing I would really like to see is a back-down from the technology that we have now. I would love to see us having a back-down. I think we should be looking at a different set of technologies and different countries. In the United States there are currently no plans for shale gas exploration. There are no plans for shale gas exploration in the United States. But there are some
Is there any objection to leave being granted?;Labour;"I am not sure of the exact wording of the question, but I am not aware of any objection.<|endoftext|>

"
Is there any objection to leave being granted?;National;"I think there is an issue of some importance that is being raised in the House today, and I seek leave to move that there be a time limit for the House to exercise its powers of adjournment and to have a number of questions put in order to try to sort that out. I seek leave to adjourn until Tuesday, so that people can give their submissions.<|endoftext|>

"
What announcements has the Government made to further help New Zealand exporters succeed internationally?;Labour;"The announcements announced today include further investment in export marketing and trade promotion strategies, which will bring New Zealand exports to the forefront of the international market. The Government is also providing access to export markets, including the export of dairy products, as well as supporting export processing in New Zealand.<|endoftext|>

"
What announcements has the Government made to further help New Zealand exporters succeed internationally?;National;We have made very good progress in this area. New Zealanders have heard some of the better stories in the past few weeks. On the morning of the World Trade Organization Summit in June, we heard about the economic benefits that this country will reap from the elimination of import tariffs. That was because of the commitments the Government has made to ignore the harshness of the trade policies that are being used to drive down trade barriers. The Prime Minister and his colleagues in the National Party have made good progress in
What's this got to do with the Housing Restructuring Bill?;Labour;The Housing Restructuring Bill is a very important piece of legislation. I think that it is a very important piece of legislation because it breaks down the shackles that were put on the State in the 1970s, and it is the first time in the history of the State sector, as a whole, that a State house has been sold. I think that is a very important piece of legislation. I think that it is simply a case of the Government putting the kibosh on the reform package
What's this got to do with the Housing Restructuring Bill?;National;The Housing Restructuring Bill is a significant piece of legislation. It has been an interesting debate, with the member for New Plymouth, the Minister of Housing, and the member for Tamaki. I think it is a good day to be an MP and to be involved in a piece of legislation. I think the member for Tamaki, the member for St. Kilda, and the member for Maramarua have done a good job. I do acknowledge the fact that a lot of work has
Does the member’s mother have an amendment?;Labour;"I have one. I’m sorry, I’ve forgotten it. I’m not sure what the answer is to that question. I’m sure you’ve checked the Ombudsmen’s office again.<|endoftext|>

"
Does the member’s mother have an amendment?;National;"I am following her advice. The member should not leave the House to find out the details of the private details of the member. the member will be aware that there is a list of names of the members currently in the House. I have a list of names. I do not want to see the list of names in the House.<|endoftext|>

"
How important is the support of the business community in the promotion of economic development?;Labour;The Government is committed to supporting the development of greater prosperity by supporting businesses to grow and create jobs. We have increased the level of tax relief and of rebates for small businesses, and we have introduced a new tax regime that is more aligned to the lowest income earners. We are also supporting the business community through the support of the New Zealand Manufacturing Agenda initiative, which is focused on innovation in manufacturing. We are also supporting the growth in the exports sector through the New Zealand export strategy, the New Zealand
How important is the support of the business community in the promotion of economic development?;National;As my colleague Mr Peters has pointed out, there is a lack of confidence in the implications of economic development. The business community is in a shambles, I am talking mainly about the rural sector. I am talking about the areas around the country where, New Zealand has a lack of confidence in the future. I am talking about the rural areas of New Zealand, where there are no jobs, and where there is a lack of confidence in the possibility of recovery. The rural sector is the economic
Is it usual practice to withhold from public release material that is commercially sensitive?;Labour;I think a very good question to ask in the House is this
Is it usual practice to withhold from public release material that is commercially sensitive?;National;There are two cases, the first relates to the media unrest in the South Island, and the second relates to the alleged use of hypnosis for the purpose of producing a positive response to a chemical or radioactive substance or substance-like substance that has been found in a workplace. The media unrest in the South Island made it clear that the public would be well aware of these matters if the media were asked to make a disclosure. I have the disclosure of the names of the parties involved
