question;party;answer
Is the member seeking leave to do that?;Labour;I am asking the member for Auckland Central to do that. The member who has just resumed his seat, Mr Tariana Turia, can take that call. If he does not want to do that, you can just ask him to go and talk to the people of Newcastle. I am not sure whether he will be a Labour member in Newcastle, but I do not think he will be a Labour Party member in Newcastle. I think he will be a Labour Party member.<|endoftext
Is the member seeking leave to do that?;National;"I am not seeking leave to do that. I am asking the Minister of Local Government to consider a different course, and I shall give the House the opportunity to have a brief discussion of that.<|endoftext|>

"
So it would flog the tracks again?;Labour;"Yes. It would. I am sure it would flog the tracks again, if it went back to the select committee.<|endoftext|>

"
So it would flog the tracks again?;National;It would flog the tracks again. What did we hear from the member for Maramarua? We heard a lot of talk about the state of the economy. We heard the word ``growth'' in the last speech of the member for Maramarua. The member for Maramarua made a speech about how great it was that the economy is growing. He is a bit of a daft old man, and he said that the economy had to grow because it was in trouble. That is
Is the Minister concerned by this issue being raised?;Labour;We have not taken any action in relation to the matter. We are certainly not talking about the controversy surrounding the Minister's statement that he did not know about the problem before the announcement of the decision of the chief executive. My brother Andrew is the chief executive of the Ministry of Health. He has been involved in the decisions that have led to us from the delivery of the New Zealand Health Model Plan to the arrangements with the Department of Corrections to get at the root of the problem. He has been involved
Is the Minister concerned by this issue being raised?;National;It is in relation to the Minister’s statement. The Minister has been very clear that the Nuclear-Free Act does not include the possibility of deploying nuclear-armed ships, and this is to be left to the Arms Control Convention. I say to the Minister
Did the Labour Government support the introduction of the private member's Bill in the name of the member for Raglan?;Labour;The member for Raglan was the member for Tarawera in the first place, and he was a member who is still a member of Parliament. He stood for the Labour Party in the second reading of the Bill, and I think that he has done a wonderful job in that respect. He has said that the Bill is an abysmal failure, and that it will not improve. He has said that it is a failure because the Opposition will not give it a chance. I will give the
Did the Labour Government support the introduction of the private member's Bill in the name of the member for Raglan?;National;We supported the introduction of the private member's Bill in the name of the member for Raglan. We supported the introduction of the Bill, and I remind the member that since the last election the Opposition has put forward a supplementary question on the backbench and the member for Mangere has supported it. But the member for Raglan has not supported it, and she should remind him of that. I think that is the reason the member for Ngāti Tamariki is so angry. She
The Minister admits to whingeing?;Labour;"I do not mind whingeing.<|endoftext|>

"
The Minister admits to whingeing?;National;I say to the member for Auckland Central that the member for Auckland Central does not really know what he is talking about. I do not think that he has a clue what he is talking about. To be fair to him, he did manage to get a point across in that last speech, and I think that that is a point of agreement. I think that is a point of agreement on which we can have a good, good, good, and a good, good government. I think that is
Can I speak to this briefly, Madam Chair?;Labour;It does not need to be spoken to. The member who asked the question is referring to a comment made by the member for Selwyn in her contribution. It was directed to the Minister of Transport, who then had the opportunity to make a contribution of some substance. I think that the member who asked the question is now going to try to get some substance from the Minister of Transport, but I shall not allow that. The member for Selwyn made some comment about the comments made by the member for
Can I speak to this briefly, Madam Chair?;National;It is a pleasure to speak in the second reading of the Marriage Amendment bill. I have a special interest in this bill. It deals with the issues around the marriage of a man and a woman. I understand that the previous speaker, the Hon. Jim Anderton, was not a member of the National Party. He was a member of the Alliance, who were the party of the Alliance at the time. However, I think that we have to consider the bill in terms of the real issues
Under the usual circumstances of urgent debate?;Labour;"I am answering the question,<|endoftext|>

"
Under the usual circumstances of urgent debate?;National;I will tell the House what is happening, and what it is happening to the members of the select committee. The point of order to the Select Committee was that the Minister of Fisheries, when he spoke, was asked how much of the fisheries that he regarded as fisheries, and he said it was $14 million. He said that the select committee identified a problem and that it was urgent. It was no longer urgent. The select committee was told that a problem was not there. The select committee was
Shall I put the question again, so that the Associate Minister has another chance to answer it?;Labour;I think she is the Minister of Finance, so I would like to ask you a question. I think it is an extremely important one. I think that it shows the honesty and integrity of the National Party in the face of this constant call for some sort of reform. I think that even though it is an extremely important question, I think that it needs to be answered. The question is this
Shall I put the question again, so that the Associate Minister has another chance to answer it?;National;I am happy to answer it. I refer to the name and the title of the Bill and to some of the matters that are mentioned in the submission. I should like to take a short call on that matter, because I acknowledge the comments of my colleague Alex Epley, who has a point for the first time in the debate so far. I also acknowledge the remark of my colleague Mr Speaker, who has been very clear that, in the committee, the title of the Bill is ``The
Can you have a hypocritical position?;Labour;Can I say that I do not have a hypocritical position, and I am not going to write for the ``Paremoremo'' press release that is now in the newspaper. I want to draw the attention of the House to the fact that this is a very important piece of legislation. we have put it in the headlines. It has been a bumpy road up to this point, and the minister has been the man in the chair, at times appearing impatient, but I believe that he has
Can you have a hypocritical position?;National;In the last couple of days, I heard the member for West Auckland tell the House that he would not mind the Auditor-General making a report on the issue. He would be surprised to hear that what I would say to him is that the Auditor-General would be very concerned about it because it would show that the Government is not really doing its job. I am not totally opposed to the Auditor-General raising the issue of the Auditor-General raising it, but I think that what the member
What steps has the Government taken in relation to land information to further help the rebuilding of Christchurch?;Labour;I have made contact with the owner of the property, and I have assured him that the owner's family is in good hands. It is my understanding that the police have a detailed report on the property at the moment, which I hope he will be able to assist me with. There is also the matter of the property in the area of Ellesmere Rd, which is the main thoroughfare in Christchurch. The police have the details. There are a couple of additional questions that I would like
What steps has the Government taken in relation to land information to further help the rebuilding of Christchurch?;National;I have been talking to the people of Christchurch in the last 1½ days about the urgent needs to rebuild the city. I have been talking to the people of Christchurch about the opportunities to make a positive difference in the region by setting up a centre for the community to make a positive difference. The Government is making a positive difference in Christchurch by opening a centre, in which we can get the assistance that we need to get back to a stable and prosperous country and to have a stable and
