question;party;answer
How do you know it was directed at him?;Labour;I have an image of what I think it was directed at. It was directed at the Minister, and I think that the House should be able to see that that is the most serious thing today. I have to say that I was alarmed when I heard my colleague and the member for Annette King say that Mr Key is a grip, and that he has been on the Treasury benches for 9 years. I think that that is about the most serious thing. I think that is the most serious thing
How do you know it was directed at him?;National;The aim, as the member for Palmerston North said, was to murder. We know that the person who directed the bomb at the Bank of New Zealand was a wanted man, and it was his four children. The target would have been the financial system. It is disgusting that the member for Palmerston North supports the Government's action. She did not vote against it, and she is now in Government. She was a member of the select committee. She was not a member of the select committee
What role does primary and secondary education play in labour productivity and, wages for Māori?;Labour;It is a very important part of tourism. Many people in New Zealand have travelled to places that are not listed on the tourist guides. They have been to places that are not listed on the guides, and many of them have been to parts of New Zealand where they are not listed on the guides. I agree with the member for Tamaki that a tourism education programme is very important. The tourism industry is very successful in New Zealand, and in the past year alone it has increased its annual revenue by
What role does primary and secondary education play in labour productivity and, wages for Māori?;National;"I am aware that this question is not the first time that this Bill has been debated in the House. I am also aware that the Senate has had a discussion on this Bill; I am waiting for the result of that.<|endoftext|>

"
Would the member give it a chance to work?;Labour;"I would love the member to consider the proposal that the previous speaker put forward; it is in the name of the Prime Minister. I remind the member that the last time the member was here, when she was raising the issue of the Bill, she was talking about a bigger piece of legislation. That is all we want. It is a piece of legislation that will enable the industry to continue to have a good deal of competition in the market. The member for Bay of Islands has been at it for"
Would the member give it a chance to work?;National;I will give it a chance to work, because I am sure the member for Tarawera will be interested. The member for Tarawera wants to know what the Government is doing to help the tourism industry. Is it the Government's intention to reduce the cost of the tours? Is it the Government's intention to increase the number of visitors on a weekend? Is it the Government's intention to increase the number of visitors to New Zealand on a weekend? The Minister of Tourism has said that he
What did publication of the Crown’s accounts for the year to 30 June 2009 reveal?;Labour;What publication does that contain tell us about the current situation in the health industry? The Ministry for Health and Welfare did not publish its financial position for the year to 30 June 2009. That is from the Ministry for Health and Welfare, which is the ministry that is responsible for this legislation. The ministry is reporting to the Minister that its financial position for the year to 30 June 2009 shows a very good performance. The ministry is reporting a positive financial performance, and the ministry is reporting, that the key area
What did publication of the Crown’s accounts for the year to 30 June 2009 reveal?;National;I should like to report that the Deputy Prime Minister went to the Press Gallery to give a very clear message to the media to get the facts right. I know that the media have been asking that question, so I will ask them again
Does the member support citizens' initiative referenda?;Labour;"The National Party has no problem with citizens' initiative referenda, although I will be interested to see whether the member will be supporting them. I will be interested to see what the member will do, if he does support them, when he will be in Government.<|endoftext|>

"
Does the member support citizens' initiative referenda?;National;"I believe that people should have the opportunity to have their say about referenda. I do not think that this legislation needs amendment.<|endoftext|>

"
Is any thought being given to training an illiterate Afghani camel driver for the vacant position of Leader of the Opposition?;Labour;The Minister is not suggesting that we are talking to the whole of this Parliament, the member is suggesting that we should have a full and frank debate in the House today and tomorrow. The member is saying that it will cost $3 million and that it will be the next Budget that will be under scrutiny. That is, not good enough. I say that the member is not suggesting that we need to pay, on a government budget, $3 million to train a camel driver for the Leader of the
Is any thought being given to training an illiterate Afghani camel driver for the vacant position of Leader of the Opposition?;National;"I am not aware of any intent to train an illiterate Afghani camel driver for the vacant position of Leader of the Opposition. I think it would be a good idea to get some experience from the Prime Minister in that regard. If that is the case, we will be going a long way towards helping to curb the growth of this economy.<|endoftext|>

"
What is the aim of the time-use survey, which commenced on 4 July 1998?;Labour;The time-use survey has identified several areas of concern. These include the need to secure adequate support for the health of our young people, to ensure that our public health system is capable of delivering quality patient care, to ensure that our public health system is capable of delivering population-based health care, to ensure that our public health system is capable of delivering quality patient care, to ensure that our public health system is capable of delivering quality population-based health care, to ensure that our public health system
What is the aim of the time-use survey, which commenced on 4 July 1998?;National;"The time-use survey commenced 1 July 1998, and it is now 30 October 1999. The intention of the time-use survey, as I understand it, is to collect information on the domestic purposes areas of the scheme. The aim of the time-use survey is to collect information on the domestic purposes areas of the scheme. What we need to know is how many people are in the scheme.<|endoftext|>

"
To get information out to travellers?;Labour;"To get information out to travellers, for a whole range of reasons, I believe that the member is asking about the work that the Transport and Environment Committee has done. The member is also referring to a report that was presented to the committee, and that contained the comments that the member is now quoting. I am not aware of any of that.<|endoftext|>

"
To get information out to travellers?;National;"I ask the member to tell me the truth. The minister of transport is the one who is most responsible for the problem, and I am sure he is aware of the facts.<|endoftext|>

"
What are the long, -of principals having individual rather than collective contracts?;Labour;Just about any question can be answered by one word
What are the long, -of principals having individual rather than collective contracts?;National;The Government is aware that it is a significant problem, and it is working to improve it, as the member for Waikato pointed out. One of the things that is important to note is that there are no plans to have compulsory redundancy. It is a very important issue to address. It is not a matter of looking for cheap redundancy. I do not believe that it is good enough to have to have to have redundancy because of a lack of employment. That is something that is very important to
What are the policy and management issues being examined by the department?;Labour;"The department is reviewing the policy and management of the industry and trying to assess whether it might be better to move away from a more focused focus on the performance of the industry.<|endoftext|>

"
What are the policy and management issues being examined by the department?;National;"The department is looking at some of the questions that were asked earlier.<|endoftext|>

"
