question;party;answer
Is the honourable member in favour of rating roads?;Labour;That is a moot point. The Honourable member could have taken issue with the comment that the Government had been doing to address traffic congestion, and that the Government had been doing to address the problem of waste. I think that that comment is one of the most interesting in recent times. I was in Auckland at the weekend and was blown away by the waste problems in some of the areas of the city. I think that the Hon. Julie Bishop should have made a contribution in that respect. She should
Is the honourable member in favour of rating roads?;National;We are not in favour of rating roads. The question is “Is the Government in favour of rating roads?”. That is absolutely correct. The honourable member raises a very good point about the fact that the Government has to rate roads. I should like to give the honourable member the point. I am quoting from a report in the Dominion, which states
What consultation was carried out before the appointment of Christine Rankin to the Families Commission?;Labour;the chief executive of the Department of Social Welfare, the Chief of Social Welfare, was trained in the social welfare sector in her duties as chief executive. The appointment to the Commission does not preclude the appointment of a junior person to the Family Commission. The appointment is the culmination of a successful programme initiated by Ms Rankin, through a review of the Family Court system, to establish a new and innovative approach to family issues. The outcome of the review will be provided to the deputy leadership team at the end
What consultation was carried out before the appointment of Christine Rankin to the Families Commission?;National;I have to say that it is a massive process. I am aware of the number of submissions that have been received from the public on the issue, and I am also aware of the fact that there are many submissions on this particular bill. I am not aware of anyone who thinks that this is a good bill. What I am aware of is that the Government’s decision to make it a one-off bill in order to save money after the last review of the Family Court was so that
Do you think you can get it to back down on its 4c tax?;Labour;Yes, I think that the Government has had a good go, and I am really pleased to see that we have reached the stage where we have got this legislation in front of the House. That is done in a way that can be seen to benefit the economy, to make it more attractive for New Zealanders to invest, and to make it more attractive for New Zealanders to repatriate overseas. All of that is good, and I told Mr Young that in a way that was not really my
Do you think you can get it to back down on its 4c tax?;National;I am not going to get it to back down because we have got it to back down on its 4c tax. If we were to run it through the House again, we would end up with a 4c tax rate, with the same submitter in the chair. I have got a 4c tax rate, which is not too much, and I know that it is not too much, but just because the Government is running it through the House as though it is not a huge amount,
Did Jami-Lee just vote from the table?;Labour;The member has just shown how dishonest he is. He has been this way for a long time. I have not been in the House for long, but I am sure that the hon Derek Doocey will be voting for me. He has been very confused for a long time. He is in the House for a long time and I think he would be quite happy to be here for a long time. I think that is why we have so much confusion about this legislation. I am not
Did Jami-Lee just vote from the table?;National;"I did. I voted from the table. But I have got to say that I think there are areas that are getting a little bit choked up at the moment. If the member wants to describe them, I am happy to do so.<|endoftext|>

"
What would that member know about principles?;Labour;I am not aware of that. I believe that the member should not be questioning the members of the House about their interpretation of the Bill, but it will be helpful if he or she goes into the House, not just to sit there. I believe that the Bill is not necessary for the New Zealand Parliament to be able to fulfil its democratic obligations. That is the very reason that members of the Opposition are opposed to the Bill. I believe that it is the very reason that the Opposition is opposed to
What would that member know about principles?;National;I would know that the Bill relates to the introduction of the Parental Leave and Employment Protection Act 1976, the Employment Contracts Act 1984, the Employment Contracts Act 1977, the Employment Contracts Act 1989, the Employment Contracts Act 1992, the Employment Contracts Act 1994, the Employment Contracts Act 1993, the Employment Contracts Act 1995, the Employment Contracts Act 1997, the Employment Contracts Act 1998, the Employment Contracts Act 1999, the Employment Contracts Act 2000, the Employment Contracts Act 2001, the Employment Contracts Act 2002, the
Why does the Government regard the issue of housing affordability as a priority?;Labour;It is a priority. It is through this Government's housing policy that our nation has responded to the housing crisis. We have seen record rates of home-ownership, but low interest rates and lower interest rates are helping to ease the housing challenges. The Government's housing policy is helping to reduce the housing pressures in the heart of the country. It is delivering affordable housing for all. It is delivering affordable housing for all New Zealanders. It is delivering affordable housing for all families. It is delivering
Why does the Government regard the issue of housing affordability as a priority?;National;"I have a very good reason for that. The Minister of Finance has said that the Government is committed to increasing housing supply.<|endoftext|>

"
What about Western Heights school?;Labour;"We are not going to have a Western Heights school; we are just going to move on to Middleton School. That is what the Minister of Finance is saying. Where are the improvements in a number of areas? If we look at the statistics we see where we have been, and what we have been doing in the last couple of years. In the last period there was a lot of improvement in the education of children and the progress of children in education. In the last 3 years the number of"
What about Western Heights school?;National;The same school, but with a new name. I was not present at the last meeting, but I am sure that the school chairman did get the message and the new name will be Western Heights. I am very pleased that the board of trustees has been able to get some support from the Government for that. I have been to the Board of Trustees meeting at which it is very clear that the members of the board are working so hard for the best outcome for the school. It is interesting to
What is the outlook for jobs and wages?;Labour;Today I would like to say that the unemployment figure of 8,000 is certainly far higher than the number of people in the labour force. The figures here are very, very good. This is the number that the Prime Minister has been talking about. I would like to take one of the headlines, the headline that was printed in today's Dominion, to highlight it. The headline states
What is the outlook for jobs and wages?;National;"Today there are only 700 fewer jobs than there were in June 2000. Employment is at a high level, and the number of people in the workforce is up by 1,000 since the last employment survey, to 758,000.<|endoftext|>

"
How will the trialling of mobile safety alarms help police provide better protection to victims of domestic violence?;Labour;I do not think that anyone would think that, given the number of complaints I received about the person who died, the person who was attacked, and the fact that the police had not even found out who the victim was. I think that would be a huge mistake for the police to handle this issue. The police should not be handling this issue. I think it is a very serious one. I hope that the Minister for Police and Crime has the courage to put the police in front of the problem
How will the trialling of mobile safety alarms help police provide better protection to victims of domestic violence?;National;"Mobile safety alarms will provide a proactive service by being able to respond to the online reporting of incidents immediately, which will assist in the investigation of those matters. They will also give a pre-emptive capability to have a full service capability, when any alarm is going off, the police can operate immediately. It also provides an ability to provide online reporting of incidents immediately, which will assist in the investigation of those matters.<|endoftext|>

"
What impact has New Zealand First's stance on immigration had on the contribution of ethnic groups?;Labour;The impact of the National Party's position on immigration has been negative in many areas. It has swung the public policies of its party negatively. It has led to the establishment of policies that are discriminatory against ethnic groups. It has been able to reduce the number of skilled migrants, so that New Zealanders are less able to compete successfully for jobs in New Zealand. It has led to the position where the number of skilled migrants from overseas has increased, so that New Zealanders are less likely to be able
What impact has New Zealand First's stance on immigration had on the contribution of ethnic groups?;National;I think the fact is that New Zealand First is the party that is on the fence and definitely the party that is going to be on the fence when it comes to immigration. In the case of the Māori Party, when it was in Government, it would not have been so tight. It would not have had the whole of its manifesto on the front page of the Dominion. That is right, National. That is what National members would be in Government for. They would not have been so
