question;party;answer
Did we hear the Leader of the House just say that you had received a letter from the Alliance?;Labour;"I did not receive that from the Alliance. I received the letter, which is an indication of the kind of report we are talking about. I do want to ask the member to clarify who the report was. It was from the Alliance.<|endoftext|>

"
Did we hear the Leader of the House just say that you had received a letter from the Alliance?;National;I have received a letter from the Alliance. I do not know what that is about. It is very interesting that we hear a Government member actually tell the people of New Zealand that they have received a letter from the Alliance. We have not heard any Government member tell the people of New Zealand that an email has been sent to them. We have not heard any Government member tell the people of New Zealand that they are receiving a letter from the Alliance. That is what the Leader of the House is saying
How many submitters on the Land transport Amendment Bill have requested to be heard in person?;Labour;"I do not have the statistics.<|endoftext|>

"
How many submitters on the Land transport Amendment Bill have requested to be heard in person?;National;"There have been a total of 5 submitters on the bill. There have been only 5 in person. The committee has heard only 2 submissions so far, and I am expecting to hear two more in person in a short period of time.<|endoftext|>

"
When does the committee intend to resolve to report back the Forests Amendment Bill?;Labour;"The committee intends to report back the bill of its own volition.<|endoftext|>

"
When does the committee intend to resolve to report back the Forests Amendment Bill?;National;"It is on Friday, 15 September.<|endoftext|>

"
What is the Government doing to address the problem?;Labour;"The Government is working to address the increased demand for land under the new management regime, and we are having a look at the existing system. We are also looking at the Government's capital planning and housing policy, which is being better thought through. We are looking at ways to provide more affordable housing in our country.<|endoftext|>

"
What is the Government doing to address the problem?;National;The Government is addressing it by enabling the carriage of e-mails automatically by post, which could be a very expensive and time-consuming process, but it also has a dedicated telephone number line in the Wellington area, which has been put in place as a benefit for some people who cannot get their e-mails through the national delivery system. It is not fast, but it is realistic. It is the best solution that we can give to the problem, and it is a very, very good one
Since 1 January 1991 how many pieces of legislation have been passed that have a Treaty of Waitangi clause?;Labour;"I am not aware of that, but I am just checking to see whether I can get that information from the member.<|endoftext|>

"
Since 1 January 1991 how many pieces of legislation have been passed that have a Treaty of Waitangi clause?;National;"The question I asked asked the member earlier was of course how many pieces of legislation were passed that had a Treaty of Waitangi clause. The answer was that there were only three.<|endoftext|>

"
What is the Government doing to improve the safety of State highways?;Labour;"The Government has been working to make the State highways safer to operate. The Government has taken the initiative in a number of ways, including the introduction of a roadside breath test for motorist carrying a breath of fresh air test. That is a measure that will save lives and of very high quality. Traffic officer, State Highway Route 38.<|endoftext|>

"
What is the Government doing to improve the safety of State highways?;National;"The Government is engaging with the industry to assist to increase safety and security of road transport. The two major initiatives are the Highway of Safety Strategy and the Transport for Life programme. The Government is also providing a $350 million dedicated to improving safety and security of road transport.<|endoftext|>

"
The member is seeking leave to ask an additional supplementary question?;Labour;"He is seeking leave to raise another supplementary question, and I am not aware of any such question, so I am asking whether the member wants to ask another supplementary question.<|endoftext|>

"
The member is seeking leave to ask an additional supplementary question?;National;"The member is seeking leave to ask another supplementary question. It is not a bad one.<|endoftext|>

"
If it was not 15, how many was it?;Labour;It was 15. I ask whether that is the case in relation to that Government, because certainly it is not in relation to the National Government. I do not think the member should be concerned about that, because the member is entitled to his opinion. He could care less about that. He should be concerned about the issue of the National Party, and that is what he should be concerned about, as he has done in the past, and it is what he should be concerned about in the future.
If it was not 15, how many was it?;National;The member has asked me how many are there, and I have no idea. The member has asked me how many are there. I say that for the sake of the House, I say that there are probably only two, because there are only two. But I will give the House an indication. I have a series of documents, one after another, that show that the Minister’s statement was wrong. The documents show that the Minister has not been given the truth. I ask the member
What options for the Government do the economic development policies of this Labour-Alliance coalition provide?;Labour;The economic development policies of this coalition Government support New Zealanders to grow their businesses and our exports. New Zealanders have a strong economy, the strongest exports, and the strongest jobs in the world. They have a strong economy, and it is a strong economy that is supported by Government policies. It is a strong economy that is supported by policy. We have the lowest unemployment rate in the developed world, and we have the lowest unemployment rate since the first recorded official unemployment figures were published in 1939.
What options for the Government do the economic development policies of this Labour-Alliance coalition provide?;National;The economic development policies of this Labour-Alliance coalition are a major aim of the Government. The Government's economic development policies reflect the Government’s vision of the future, and the New Zealand people’s vision of the future. They are already making a positive contribution to the New Zealand economy, and they have the potential to deliver for New Zealanders. The policies of this Government are part of a coalition of policies that provide New Zealand with the tools to sustain the success of this Government
Given that Māori are disproportionately affected across unemployment, how will the Budget reduce Māori unemployment?;Labour;The Government has been making a commitment and a promise to ensure that this Government does work for all New Zealanders. I will make it clear that it is the Government's intention to ensure that that is done. We have a very different view on this issue. I believe that we should have a commitment to reduce unemployment. Our own experience has shown that that is not the case. So that this National Government has a commitment to reduce unemployment, as my colleague the Minister of Employment has said, the significant
Given that Māori are disproportionately affected across unemployment, how will the Budget reduce Māori unemployment?;National;I do not have that information at large, but I would like to refer to the latest statistics. In the last 12 months there have been a total of 2,723 Māori unemployed, and this is 8.8 percent of the total unemployed. That is a very encouraging statistic, and one that should be applauded. The figures are still a good deal lower than what we were expecting, and it is clear that the Government will make this a priority. The Government will also be focusing on
