question;party;answer
It is the case, or you understand it to be the case?;Labour;It is the case. The member for Selwyn tried to drag me into an argument that I was not interested in. He presented a hypothetical case, and I was not interested in hearing it. I said that it had been done in that hypothetical case, and that it was nonsense. That is what he said. I pointed out that it was the same case as the one that he presented in the House the other day. I said to him that it was the same as the one that he presented
It is the case, or you understand it to be the case?;National;I have said many times before that it is not the case, and I do not believe that it is the case. I have to say that there is a disabling of the Government’s performance in relation to the Maori Affairs portfolio, and it is moving away from the policy of continuous service to focus on delivering a positive and constructive relationship with Maori. That is what this Government should be focusing on, and that is what this Government should be focusing on. Despite the fact that it is
Is the member against the surtax, or for it?;Labour;I have nothing against the surtax. The member for Maramarua looked at the Prime Minister's statement and said that the statistics were wrong. Well, it is the statistics that are wrong, but that is the point. It is the statistics that are wrong that have caused the Opposition to turn against the surtax. Opposition members know that the statistics are wrong. They know that it is wrong. They know that the Government is going to do something about it. People know that. They do not
Is the member against the surtax, or for it?;National;"I have come to the conclusion that the member is wrong in saying that I have come to the conclusion that this bill does not go far enough. I am glad the member has been asked to revise and clarify that fact.<|endoftext|>

"
That being the case, which ruling am I to follow, today's ruling or last week's?;Labour;"I think it is the latter.<|endoftext|>

"
That being the case, which ruling am I to follow, today's ruling or last week's?;National;It is a result of the Competition and Markets Committee's careful deliberations. I am glad to say that we have come to the conclusion that we have to look at the legislation in a wider way. Tomorrow we will go to the select committee to listen to submissions, and we will make sure that the competition regime is seen as broadly the marketing regime that Labour likes to refer to. The select committee is looking at a wider view. We will also be reviewing the unfairness provisions of the Competition Act, which
Are we going to put the amendment straight away?;Labour;"It is a matter of deliberation, in which we have to consider the implications of the Bill of Rights Act.<|endoftext|>

"
Are we going to put the amendment straight away?;National;That is the point. I think the member is trying to frustrate the cause of the Hon Mr Peters. The Hon Mr Peters said that the Government was not doing enough for the poor. The Government is not doing enough for the poor. When I go to the general practitioner's association, I find it has not been able to get to the top of the income tax slab. I think that the Government has been more than adequate, although I think that it is still not quite adequate. That is
Will the member answer a question?;Labour;"The member is asking the question.<|endoftext|>

"
Will the member answer a question?;National;The member has asked a question that is very simple. The member has asked a question that is very obvious. There are questions that our experts say are impossible. The member asks a question that is very simple. It does not mention the fact that there is a major shortage of water, and that the Government has been aware of it for some time. That is the first point that the member has made. The second point that the member makes is that there is a shortage of water. The Government has
What did the royal commission say?;Labour;"We found the industry in serious need of a thorough review.<|endoftext|>

"
What did the royal commission say?;National;The royal commission recommended that the bedroom tax be considered as part of the government's broader tax package. There were some significant issues in the review that the royal commission recommended, including the particular question of whether the tax should apply on behalf of a partner or a child. The royal commission also recommended that the tax should apply on behalf of a partner or a child. Those were the major recommendations. The ministry decided not to pursue those recommendations. The first suggestion was that the tax should apply only on behalf of
Why not give a supplementary question to the Opposition?;Labour;"It was one of the first actions of the Labour Government. I don't think that is a bad thing.<|endoftext|>

"
Why not give a supplementary question to the Opposition?;National;I think that it is a bit rich that the Opposition can get it wrong, and that those who are intent on maintaining the ability of the Ministry of Health to provide health care to the people of New Zealand should make submissions. We have had to put up with that in the last six years. I think that it is wrong that the Government should seek to take away the ability of the ministry to provide health care to the people of New Zealand. It is the second time that this House has taken away
How much money has the Central Regional Health Authority spent over the last 3 years on home-support services?;Labour;"I cannot tell the member for Waitaki whether that is just in the area of $5.8 million or $12 million or $25 million. I am not sure whether that is the figure that he is referring to, but I am always opposed to those figures, because I think that it is a good indication of the health service in this country.<|endoftext|>

"
How much money has the Central Regional Health Authority spent over the last 3 years on home-support services?;National;The Central Regional Health Authority has spent $11.9 million on home-support services over the 3 years from 1999 to 2002. The biggest areas of improvement are in the area of employment and people who need help. The Ministry of Social Development spends more than $500 million on home-support services. The biggest areas of improvement are in the area of work-related problems and housing. The biggest area of improvement is in the area of the mental health issue. The biggest area of improvement is in general
Why is the Minister filibustering?;Labour;"I am well aware that the Minister of Conservation has been in Government.<|endoftext|>

"
Why is the Minister filibustering?;National;"I have simply put it down to the fact that the member has not spoken!<|endoftext|>

"
Does that mean the Alliance will vote against it?;Labour;"I make the point that the Alliance did vote for it. The member will not hear me say that. what will be stated by the member, is that the Alliance voted for it.<|endoftext|>

"
Does that mean the Alliance will vote against it?;National;This is what the Alliance has said
