question;party;answer
What reaction has the Government had to its efforts to promote the economic development of the Tai Rawhiti - Gisborne area?;Labour;It has been a very positive experience, and the business had a very positive experience this year. There was a very strong labour movement out in the community, particularly in the Gisborne area. I am very pleased that the Labour Party has now put forward a very positive agenda. The Government has given the business a very positive upgrade. It has given it a very positive upgrade in terms of its investment in the area of business development. The business is very happy, and I think that the Government is
What reaction has the Government had to its efforts to promote the economic development of the Tai Rawhiti - Gisborne area?;National;The Government has been working very hard to promote the economic development of the area and to get it to a satisfactory state. The Government is currently involved in a total of four development projects, all for the benefit of the people of Gisborne. The Government is now looking at the next stage where it intends to invest $100 million for the development of the area, thereby enabling the people of Gisborne to have the opportunities for the economic development of the area. This is a very good example of
Why do we bother asking it at all?;Labour;The member asked about the trade unions. I will tell him why. It is because the Labour Government and the National Government, Labour's Government, refused to negotiate with the unions. They refused to negotiate with the unions. They did not negotiate with the unions. They refused to negotiate with the unions. They did not negotiate with the unions. They did not negotiate with the unions. They did not negotiate with the unions. They refused to negotiate with the unions, and they refused to negotiate with the unions
Why do we bother asking it at all?;National;"I have been a member of the House for 9 years now. I have never heard of such a thing as a Parliamentary debate, I am amazed that it has been allowed. I am not sure that I have ever heard of such a thing, but I believe that it is so important that we should have it called as a debate, not as a discussion.<|endoftext|>

"
Which of the hospitals where the role delineation model was applied were found to have practices that were considered unsafe?;Labour;The Canterbury Hospital is a very safe or very safe hospital, because it is an important hospital. I think that was the case in the Hauraki Hospital where there was a suggestion that there was a problem with the operation of the hospital. The hospital was found to have some problems, and the operation was found to be safe. That is exactly what occurred in that hospital. I think that is the case in the Hauraki Hospital. I think that is what happened in that hospital, and that
Which of the hospitals where the role delineation model was applied were found to have practices that were considered unsafe?;National;"The department has been identified as having a high level of risk of infection. It will be determined by the department's own risk assessment staff.<|endoftext|>

"
Does the member now have a supplementary question?;Labour;"I have a supplementary question. I think it is extremely important that that member comes to this House and takes his views on this bill. But I ask him to be more specific on this matter, to put it in a paragraph of the second reading, and to put it in a Bill.<|endoftext|>

"
Does the member now have a supplementary question?;National;The member is now asking a supplementary question. I shall give an answer to her first. The member has been the victim of some serious fraud. I have been told that the Minister has made it clear to the member that he will get her money if she has to go through another change in her employment. She is a very bad person. Her employment is never going to look good. I have had a letter from the Minister of Finance stating that she will get her money when the member is not in
Does the point of order relate to the motion that has just been moved?;Labour;"The point of order is in relation to the motion that has just been moved. I have no other questions to add.<|endoftext|>

"
Does the point of order relate to the motion that has just been moved?;National;"From the time that the previous question was put, the Minister was not answering that. He was saying that the member was asking a question.<|endoftext|>

"
What is the Reserve Bank’s outlook for economic growth?;Labour;At the moment the economy is doing well, and I am optimistic about the next six months. The Reserve Bank expects the level of labour force participation to increase by 0.8 percent in the first quarter of this year. It expects that the level of unemployment to be down to its lowest level in 30 years. This is a very good result. If one looks at the figures for the last 4 months, one sees that the good times are over, and that the good times are starting to slow down
What is the Reserve Bank’s outlook for economic growth?;National;As recently as yesterday the Office of the Governor-General warned that there was a risk of economic collapse and that it had the potential to create unemployment. The warning is based on the Reserve Bank’s recent analysis of the national accounts. The warning states
What role will local authorities in the Tai Rawhiti community play in the Government's approach to the region?;Labour;I am not aware of any plans to move forward with a tourism sector that has been very successful in the past, and that has been well managed. The other option is to make plenty of money from the foreign exchange through the tourism industry. The bigger problem for tourism in the north is that the tourism industry is not really up to scratch with the people of the north, and that is a mistake. The tourism industry is looking ahead, and that is a mistake. We are not looking to set up
What role will local authorities in the Tai Rawhiti community play in the Government's approach to the region?;National;The role of local authorities in the health area is that of a, council-in the sense of the Health Amendment Bill. It is not a specialist-in the sense that the Taumarunui Health Council is. It is not a council for a particular area. It is simply a council of its kind. I am sure that the people of Taumarunui will be delighted to see that the council is being established in the 21st century and that it has faced down the challenge of health
To what extent does the member want to amend it?;Labour;Yes, to the point that we need to look at some of the supplementary order paper amendments that have been tabled in the House. We have already had some amendments put forward by the member for Waitangi, and it was the member for Waitangi who brought the Supplementary Order Paper that put the supplementary order paper back before the House. I ask the member for Waitangi what he thinks the Government is doing, and whether he thinks that it is a good idea to bring it back before
To what extent does the member want to amend it?;National;I do not know, but I would like to speak briefly about the Bill. my colleague the member for Papatoetoe has indicated that one of the changes in the Bill is the provision that allows the Governor-General to refer to the Governor-General in the House of Representatives. I think that is an important one. I also want to speak about the amendments to the Electoral Act. The Electoral Act is very close to the point where it is actually a matter of principle, and the Bill does
Could the member repeat the question?;Labour;"The member must look at the question. I thought there was some clarity about the question.<|endoftext|>

"
Could the member repeat the question?;National;"I am sorry, I am not sure that I have done my homework. I do not think I have. I have probably got it wrong. My line of inquiry in this debate is to ask the member for Napier, who has just resumed his seat, to think about that. I am sure he will think about it. I am interested in how he will think about it.<|endoftext|>

"
-9 long years of Labour, how many hectares were sold to foreigners?;Labour;If the member wishes to seek the leave of the House to have me take another call, I am happy to do that. I would like to just repeat the point that I made in my answer to the previous question, as it is a good reminder of the cost of this party’s policies. We are talking about the cost of a party that is trying to advance its policy on a sustainable basis. That is the key thing that is missing from this question, and that is the cost of
-9 long years of Labour, how many hectares were sold to foreigners?;National;The Minister has the answer to that question. I want to know whether the number of hectares sold to foreigners was less than 10,000 or 30,000. I think that is a reasonable question to ask because the number of hectares sold to foreigners was about 10,000. We have not had any discussion on that matter. we have discussed it at length. The Minister has probably already answered the question with the answer to it of 10,000 hectares. The Minister has probably already answered the question with
