question;party;answer
What opportunities does the Minister see for the New Zealand economy from this proposal?;Labour;The National-led Government is offering New Zealanders the opportunity to save, grow, and generate surpluses in times of uncertainty. We are offering New Zealanders the opportunity to save, grow, and generate surpluses in times of uncertainty. We are offering New Zealanders the opportunity to save, grow, and generate surpluses in times of uncertainty. We are offering New Zealanders the opportunity to save, grow, and generate surpluses in times of uncertainty. We are offering New
What opportunities does the Minister see for the New Zealand economy from this proposal?;National;"The National Party is very pleased that the Housing Corporation has been selected for a new, and quite innovative, programme. It is a very innovative programme, and it has been selected for the first time in the organisation's history.<|endoftext|>

"
What does the member think student loans do?;Labour;I think student loans do a great job in helping young people to get into tertiary education at a decent rate. I think that the fact that some of our best students are going into tertiary education, the fact that some of our best students are going into tertiary education, and the fact that some of our best students are going into tertiary education, is a great achievement. I think that it is a great achievement that we should be able to support our best students at a decent rate.
What does the member think student loans do?;National;It does nothing to enable young people to get into tertiary education. I recommend that the Minister of Education should go back to the National Party to explain to the House why he thinks it is a good thing to have student loans on university campuses, as that should be a feature of the New Zealand education system. There is absolutely no way that student loans are going to turn the tide in improving the quality of New Zealand's education system. The Opposition has a very good point of view. I believe that
On what basis was the recall and cancellation of New Zealand Passport LN138690 undertaken?;Labour;Records show that New Zealand Passport LN138690 was cancelled on 21 March 1993, when a submitter of the National Party's newspaper, the Dominion of the day, wrote to me
On what basis was the recall and cancellation of New Zealand Passport LN138690 undertaken?;National;"The recall was undertaken for the purpose of verifying the credibility of the New Zealand Passport Service. The cancellation was undertaken to verify the validity of the New Zealand Passport Service. The recall of New Zealand Passport LN138690 was undertaken to assist the New Zealand Passport Service to increase compliance with the New Zealand Passport Act.<|endoftext|>

"
Is it Phil Twyford who’s been reset?;Labour;"I’m not sure what that means. I don’t think we’re talking about that.<|endoftext|>

"
Is it Phil Twyford who’s been reset?;National;I am pleased to confirm that it is Phil Twyford. I seek leave to table the report that was prepared by the Department of Conservation for the Government’s 2009 Budget. It states
What markets will the Minister target to promote New Zealand as a tourism destination?;Labour;The Minister is very concerned about the financial impact of the tourism industry. It is a unique export industry in New Zealand, and New Zealand is the second largest export earner in the world. We spend $300 million of tourism revenue on the tourism industry, and from that $300 million we have $7 million to spend on the economy. It has been estimated that New Zealand provides about $200 million of tourism revenue to the country. The New Zealand tourism industry is primarily funded from overseas, and the
What markets will the Minister target to promote New Zealand as a tourism destination?;National;"We are targeting New Zealand for the tourism industry. New Zealand is a very good place to visit. The tourism industry is defined as the activities associated with the promotion, the exhibition, or the exhibition of cultural, or social values, of New Zealand in general. We are targeting whole sectors of our economy, such as tourism, food, beverage, and hospitality, in this way.<|endoftext|>

"
What initiatives are under way to support Māori Language Week?;Labour;"I am aware that there are a range of initiatives under way, including the Youth and Family Centre initiative, the Māori entertainment launch in front of the Parliament and the public theatre in Wellington; the educational launch of the Pacific Centre of Excellence, which is being funded by a grant from the Ministry of Social Development and the New Zealand Council of Trade Unions; the rollout of the new digital media strategy for the Government, which will be focused on Māori; and the Māori Language Week"
What initiatives are under way to support Māori Language Week?;National;The New Zealand Language Week is a celebration of Māori culture. It is unique in this country and internationally, and is of great importance to Māori speakers and Māori speakers in New Zealand, including the member for Tauranga. We are giving our best efforts to promote Māori language awareness, research, and cultural development. It is estimated that Māori speakers alone account for about half of the total population. More than half of our population is Māori. More
Is that increase also reflected in the rural sector?;Labour;It is reflected in the rural sector because of the relatively small number of jobs that were lost in the previous year. The jobs that were lost include approximately 400 jobs lost in the rural sector, which is about 2.6 percent of the total population. The total loss of jobs in the rural sector is about 1.6 percent of the total population. That is an increase of 1.1 percent. That is a reduction of 1.5 percent-a reduction of 1.5 percent. It is
Is that increase also reflected in the rural sector?;National;I think the farming sector is the most important sector in New Zealand, and the Rural Business and Development Bill is the most important part of the bill. I suppose that the member is probably right to say that the rural sector is the most important part of the bill. That is probably what she means when she tries to justify the fact that the bill is so important, when a member should listen to her speaker’s speech, that it is the most important part of the bill. She should listen
So why, did the Prime Minister lose confidence in Meka Whaitiri?;Labour;I do not think that it is a matter of the Prime Minister losing confidence in Meka Whaitiri. I think that it is a matter of the Prime Minister not being able to see the benefit of his policies in relation to the New Zealand economy. I think that we need a Prime Minister of a Government who is well known to the public and who is well known to the Government, and I think that that is the Prime Minister. I think that all of us in the House have to go
So why, did the Prime Minister lose confidence in Meka Whaitiri?;National;I think she obviously lost confidence in her. I think she lost confidence in her speech. I think she lost confidence in her speech to the National Party conference. I think she lost confidence in her speech. I think she lost confidence in her speech to the New Zealand First conference. I think she lost confidence in her speech to the New Zealand First conference. I think she lost confidence in her speech to the New Zealand First conference and I think she lost confidence in her speech to the National Party conference.
Are you talking about Southpower?;Labour;"I am talking about Southpower. I can tell that that is what the Opposition is doing, because this is what this is all about.<|endoftext|>

"
Are you talking about Southpower?;National;I am talking about the Northland Power supply, which is a very important project for the region. Southpower is operating a generation of electricity that, if it were to go out of operation, would create a massive disruption in the area of power supply. Southpower is one of the most important generators in the region. It is a relatively small company that is mainly operating in the region. We are talking about a generation of electricity that is a very significant issue. Southpower is operating a generation that
Is this a challenge to the Chair?;Labour;I think this is a very good question. I think it is interesting that Mr Williamson is talking about the responsible use of words. I think that it is quite an honourable thing to speak here in this debate about the Middle East. I think that that is a very good thing to do and I do hope that the Speaker will take note of that, and that members are equally responsible in their use of the words that they use in this House. I think it is something that we should have a
Is this a challenge to the Chair?;National;"I am not sure that the Chair has the right to challenge it. I have no doubt that the Chair, as he is known, could be challenged.<|endoftext|>

"
