question;party;answer
Although it has to be said-what was that?;Labour;It is a very good question. I think that the member should put down some co-operation with the Minister, and that is what I have said. For the last 2 or 3 days, my colleague the member for Mutahi has been when the Minister has been and I have been the member for Birkenhead, and we have been talking about this matter in public. This means that I have to get my facts right. I have to get my facts right. I have to get my facts
Although it has to be said-what was that?;National;"If it had been true, it would never have got to Viera. I am not sure why everyone thinks that that is the way it is.<|endoftext|>

"
Does the Minister believe that public servants should be able to attend training seminars and conferences?;Labour;"The annual reports of the Ministry of Education show that the Ministry of Education has been able to attract more than one hundred new staff over the last 12 months. That is more than twice as many as before. The ministry's overall profile has improved markedly in the last 12 months. The ministry currently attracts more than 1,500 staff, and the turnover rate has dropped from 23 percent in 2009 to 13 percent this year.<|endoftext|>

"
Does the Minister believe that public servants should be able to attend training seminars and conferences?;National;I believe that public servants should be able to attend training seminars and conferences. I think that the Minister should answer that question. I think the question is asking whether the Minister can give directions to the National Service Association in respect of the training seminar and conference. It is a question of whether the Minister can give directions to the association. The answer to that question is ``yes'' in the case of the National Service Association, which is the association that is being asked to provide directions. if the Minister is
Can the Minister spell out the significance of improved confidence?;Labour;"The Minister answers that question by saying that the increase in confidence is a result of a series of actions. ""I think it is indisputably a result of what we are doing in the House. It has to be said that as a result of what we are doing in the House we are in a much better position to attract the business of the House than we were in 2008. In 2008 we had the Hon. John Key, who was not in Government. Now we have the Hon. Dr"
Can the Minister spell out the significance of improved confidence?;National;"I have seen the various reports and I believe that confidence is very, very important. So I have nothing but confidence in the Government’s policies.<|endoftext|>

"
At what date and time was the Ministry of Health first made aware of the outbreak of typhoid in Auckland?;Labour;"I am not sure. The first information I received from the Ministry of Health was that it was on 30 May. At that time I was told it was a small outbreak. There were signs that the outbreak was not isolated. The Ministry of Health advised me that the outbreak was in the Auckland area, and that it was not an isolated occurrence.<|endoftext|>

"
At what date and time was the Ministry of Health first made aware of the outbreak of typhoid in Auckland?;National;I give that information to the member because it is in the public interest to do so. I should like to say that I believe that the Ministry of Health is doing its best to combat the outbreak of typhoid in Auckland. There were a number of people who were working on a Friday afternoon who were notified by the Ministry of Health on the following day. Other than the work of the member for Auckland Central, I say that the ministry has responded very quickly to the outbreak. I do not believe that
What success has the campaign had so far in reaching its key audience?;Labour;The campaign has been very successful. It is based on the message that people want to hear. It is a very good campaign. The media attention it has received has been a very good thing. It has been a very good campaign. There is not a lot of media attention being paid to the issue when we are talking about the issues that people care about. the media attention is being paid to the issues that people care about, when the issue is what they care about. The media attention is being
What success has the campaign had so far in reaching its key audience?;National;The success of the campaign has been very good. It is important to realise that this is not a new approach in this country. The first multinational campaign in a new country to reach a key demographic is the successful campaign that was undertaken by the National Party in New Zealand in 1994. The campaign was successful in Australia and the New Zealand campaign was unsuccessful in Australia. We have got the message that this is a new strategy now and we can do it. It has been successful in New Zealand. The Government
Has the Minister heard any reports of compromise to patient safety in respect of junior doctors in the Auckland area?;Labour;"The Minister has heard. There is a report from the Auckland Health and Disability Commissioner, which states that the Auckland health care system has, achieved a result of improved patient safety. I have also received reports of a significant reduction in the number of emergency triage visits, and good progress in the Auckland area.<|endoftext|>

"
Has the Minister heard any reports of compromise to patient safety in respect of junior doctors in the Auckland area?;National;"The chief executive of the Auckland Health Association has briefed me.<|endoftext|>

"
How have negotiations with the Māori Party and iwi leaders progressed over the last 19 months?;Labour;I have spoken to the Māori Party delegation, and the party has been reaching out to the Māori Party and to iwi leaders. I have been talking to the Māori Party delegation in an informal way. I have been trying to find out what the opposition is saying. I have been trying to find out what the opposition's views are, I have been asking, and I have been trying to find out what the Opposition's thinking is. I have been trying to find out
How have negotiations with the Māori Party and iwi leaders progressed over the last 19 months?;National;The settlement agreement with the Māori Party is now a result of the settlement agreement with the Maori Party. The Minister acknowledged today that there were differences of opinion between the two parties. I am pleased to report that as a result of a very constructive process of mediation over the last 3 years, the parties are now in a position to settle their differences on a mutually acceptable basis. The settlement agreement between the two parties is a result of the negotiations between the Māori Party and the Maori
Is the honourable member seeking the call?;Labour;"The honourable member is asking you to call.<|endoftext|>

"
Is the honourable member seeking the call?;National;"I seek the call.<|endoftext|>

"
What is New Zealand doing internationally to ensure offsetting is incorporated in international climate change rules post-2012?;Labour;The Government is currently working closely with the Minister for Climate Change Change Change Issues to identify new strategies to offset New Zealand’s current low-carbon emission targets. This includes the development of the New Zealand Climate Change Commitments Framework and the Climate Change Summit. The Government is also working closely with the Business Roundtable, which currently has a portfolio of issues and initiatives on climate change, to identify ways to offset New Zealand’s low-carbon emissions targets post-2012. The Government’
What is New Zealand doing internationally to ensure offsetting is incorporated in international climate change rules post-2012?;National;I think that one has to be extremely careful when one talks about offsetting. Just as the previous speaker said, the third thing I would like to do is to talk about the new carbon tax that is coming down. I think that that is something that needs to be addressed in terms of the New Zealand economy. The National Party, which has a lot of confidence in the country, is looking to introduce a carbon tax. I am not entirely convinced that it will be effective. I believe that it
What progress is being made on ratification of the United Nations Convention on the Rights of the Child?;Labour;The ratification of the United Nations Convention on the Rights of the Child has been met with considerable enthusiasm. The progress in implementing the Convention has been welcomed by the Children and Young Persons Commissioner. He has been able to concentrate on the Children and Young Persons Amendment Bill, which I have a copy of. I commend that bill to the House, and I thank the Children and Young Persons Commissioner for his efforts. I acknowledge the considerable efforts put in by the commissioner and others who have been involved in the Bill,
What progress is being made on ratification of the United Nations Convention on the Rights of the Child?;National;The Bill is currently being considered by the Committee. The draft is being amended so that the adoption of children by adoption agencies can take place only after the adoption of a suitable family. The Government is currently considering the adoption of children by adoption agencies. The Bill is intended to allow adoption agencies to process adoptions with a greater degree of certainty. The safeguards will be maintained and the adoption agencies will be able to adopt children on a discretionary basis. The Opposition is concerned that adoption agencies may be used for abuse
