question;party;answer
What commitment has the Government made to improve productivity and security at the border?;Labour;"In the House today I told the House that there was no plan to increase productivity at the border. I said that we would not be able to keep the jobs at the border. The Opposition has made that statement in the past.<|endoftext|>

"
What commitment has the Government made to improve productivity and security at the border?;National;"The Government's commitment to a low-wage economy is the kind of commitment that will make New Zealand a more competitive nation. The promise of low-wage jobs is what will make New Zealand a more competitive nation.<|endoftext|>

"
Will an office of the Department of Social Welfare be established at Ngaruawahia?;Labour;A department of the department will be established at Ngaruawahia. This will be done to ensure that the office is in the hands of a genuinely qualified person who is capable of handling this complex undertaking. It is important to note that the decision to establish the department is not yet complete. The department has not been officially established as a department, and there are a number of operational issues that need to be addressed before it is be established. I am happy to have the department formally established.
Will an office of the Department of Social Welfare be established at Ngaruawahia?;National;"There are some suggestions in the bill for an office of the Department of Social Welfare, but I would say that the current office of the commissioner of the department is too full, and it is very difficult to move into a new office. I hope that in the next election, if the current office is not to be abolished, there will be some office of the commissioner of the department, and that the secretary will have some experience in that job.<|endoftext|>

"
On what criteria is the granting of a transport service licence based?;Labour;"I am happy to disclose that, based on the evidence and on the evidence available to me.<|endoftext|>

"
On what criteria is the granting of a transport service licence based?;National;"The criteria are based on the transport needs of the person who is applying for the licence. There are no criteria that are not based on the needs of the person.<|endoftext|>

"
Did the member not hear the answer?;Labour;I am not aware of that. I am not aware of the answer, but I do not think that it is a matter of any concern to the House. I do have to say that the member who introduced this Bill, the member who has just resumed his seat, seemed to be focussing on the Prime Minister’s statement that the Labour's opposition to the bill was not so much to do with the principle of it being a waste of time as it was to do with the fact
Did the member not hear the answer?;National;It was a long answer. I have attached two answers to the question. The member of Tauranga had a number of questions to answer. I think that with the member for Tarawera's participation it is a good start. I think it is a good start. There were a number of points of order, and I am sure that the member will be able to provide a number of answers to the questions in due course. The member for Tauranga was asked whether he had received any
So why are you taking it off them?;Labour;I think it is time that we did a bit more research and consulted them. We know that the different types of work, including the small amount of work that is being done by the Minister, will require different workarounds than that being done by the current system. I think it is time that we thought about the cost of the system. We know that the Department of Labour and the Department of Social Welfare will need a lot of time to deal with the issue of the work experience register, and
So why are you taking it off them?;National;I will take it off them. That is how you go about it. You go around, people say
What specific steps will be taken this year to implement Medicines New Zealand?;Labour;It has been a long time coming. The new Medicines New Zealand system will be a collaborative process involving the New Zealand medical community, the Pharmaceutical Research Council and New Zealand Pharmaceutical Association, the respected international association of pharmaceutical companies. Although it will be much more limited than the current system, it will be a much better system. I note that the Pharmaceutical Research Council has a number of new members and there are now a number of new organisations, including the New Zealand Medicines and Pharmaceutical Council and the Pharmaceutical
What specific steps will be taken this year to implement Medicines New Zealand?;National;The Pharmaceuticals Amendment Bill is based on the Renewable Energy Amendment Act and the Medicines and New Technologies Act, and the Pharmaceuticals Amendment Bill is based on the Medicines Amendment Act. The pharmaceutical industry is in the midst of the process of reviewing its supply arrangements under the Renewable Energy Act. The company has set up a supplier management framework as part of that review. The industry is responsible for ensuring that its supply arrangements are optimized, and it is a long-term focus of the company to
What steps is the Government taking to encourage more investment in New Zealand’s regional economies?;Labour;"The Minister of Transport has informed me that that is one of the initiatives in the Government’s new economic package. The Minister of Transport is working closely with the Minister for Regional Development to encourage more investment in New Zealand’s regional economies. The Minister of Transport has indicated that that will be an important part of the package, with a view to bring our regional economies into line with the rest of the world.<|endoftext|>

"
What steps is the Government taking to encourage more investment in New Zealand’s regional economies?;National;"I have a working paper about this very question.<|endoftext|>

"
Why does the Government not seek leave as well?;Labour;"The Opposition will not seek leave. The Government cannot get it out of the way. I have not seen what a Government can say in reply that is acceptable to the member for Tauranga. The Government should say what the member for Tauranga says. I have not seen the member for Tauranga say what the member for Maramarua thinks. The member for Maramarua thinks the Government should go for a different policy; the Government should say what the member for Tauranga thinks"
Why does the Government not seek leave as well?;National;"The Minister has indicated to the select committee that the Government would prefer to wait until after its election to receive the final report of the report-back committee, which will be due to the House, before the final decision is made. The Minister has indicated that the Government would prefer to wait until the House returns to order to receive the final report, which will be due to the House, before the final decision is made on the bill.<|endoftext|>

"
What progress has been made towards achieving the Government’s national health target?;Labour;"The target was originally set at $32,000 in 2006. It is now $40,000. In the last 2 years there has been a good improvement in the target. The target has been trimmed back to $20,000, and the Government will now be talking about a target at $40,000; it will be $40,000 by 2017. So the target and the National Party’s economy would be very, very good if the target was $40,000."
What progress has been made towards achieving the Government’s national health target?;National;"There is a lot more to do, as a result of this report, and we have a lot more to do.<|endoftext|>

"
Did the Minister announce any other measures?;Labour;I have not announced any other measures. I have announced a number of measures, including the funding of a conference to help promote health and social equity. I have announced that a conference will be held in the Western Cape region. I have announced that the conference takes place at Waipa, where the aboriginal people of Wairoa and the Waikato are living in relative peace and tranquillity for the first time in a generation. The conference will also take place in Kaipara, where
Did the Minister announce any other measures?;National;"In the last 24 hours I have announced the appointment of a new chief executive, a new boss, a new organisation, and a new, new Speaker.<|endoftext|>

"
