question;party;answer
Does the chairperson consider that there is a need for a full, independent inquiry into the INCIS computer system?;Labour;"I consider there is a need for a full, independent inquiry into the INCIS computer system. I think this legislation gives us a good idea of what it might mean. It is not a major piece of legislation, but it will make a real difference to the way that we manage information on the computer system, and that is a good thing. I think we should proceed with caution.<|endoftext|>

"
Does the chairperson consider that there is a need for a full, independent inquiry into the INCIS computer system?;National;The chairperson has made it clear to the member that the committee has had a wide-ranging role. The committee is in the process of confirming its role as the regulator of immigration intelligence. This is a cumbersome task, which is why we have said to the member that it is not appropriate for a committee to spend a greater amount of time on the committee stage than is indeed the case. The committee has had a wide-ranging role in the past, as I said in my answer to the previous
Does the member for Glenfield think Murray Laugesen is a zealot?;Labour;He does not. He is a democratic figure, and he has not been a member of the House for more than 5 years. He is a tactical figure, and he knows his place, and he knows what is the best way to manage the party. He has a very good sense of proportion. He knows that when the member for Glenfield takes his seat, at the appropriate time, he will be able to do that. He knows that, and he knows that the reason that he has been
Does the member for Glenfield think Murray Laugesen is a zealot?;National;"If he is a zealot, I am very glad to see that he does not have to lie about his assets, and that he can use his funds to pay a tariff bill. He has already told us who he is. I know that he has an interest in his coconut palm, and I have an interest in my coconut palm. Mr Key wants to tell us who he is. I will bring him to the line of an alleged tax cheat.<|endoftext|>

"
Does the Minister agree with the Prime Minister, who today did another U, General’s inquiry is under way?;Labour;I certainly agree with the Prime Minister. I turn to where the stand-off is. It is with this bill that the Government's policy on the future of New Zealand is coming into focus. I would like to take this opportunity to say a few words about the draft of the bill that was presented to the select committee, which was first reported back before the House last September. I want to say that the draft that was presented to the select committee was much better than the way in which the bill
Does the Minister agree with the Prime Minister, who today did another U, General’s inquiry is under way?;National;"The Prime Minister has been working hard to achieve a better outcome for the people of New Zealand, and I congratulate her on her efforts.<|endoftext|>

"
Is this vote on clause 3 or on the Graham Kelly amendment to clause 3?;Labour;Clause 3 is a continuation of the Bill introducing the offences of conviction under false pretenses. It was introduced a year ago, and this is the first time that an assistant Speaker has addressed the House on the matter. It is a very simple amendment. It has been worked out by the Committee. The committee has had to look at a lot of issues, and it is all right to be more precise than this. The committee members have taken the advice of the previous speaker and his subsequent comments. I
Is this vote on clause 3 or on the Graham Kelly amendment to clause 3?;National;The vote on clause 3 is on the Graham Kelly amendment, which makes the legislation more sensitive to people who have been disadvantaged by the Government’s policies. The wording is an attempt to improve the law in a way that will make the law more sensitive to those people who have been disadvantaged by the Government’s policies. I think it is important that we do that because we have got a House of six members. If we were to have a House where three were in leadership and one was
How many submissions were received after the submission due date?;Labour;"The total submission number received after the deadline was 966 on 26 December. That is more than double the number received at the submission deadline. After that deadline, the Department of Corrections received 695 submissions; the Department of Social Welfare received 523; the New Zealand Police received 515; the Corrections Corporation received 400; the Serious Fraud Office received 400; the Ministry of Defence received 300; and the Ministry of Education received 300. The total number received after the deadline was 819 on 26 December."
How many submissions were received after the submission due date?;National;I have listed the number of submissions received. I will continue
Which part of the bill is the member addressing?;Labour;There are a couple of different ways of looking at the question. I think that the member of the North Shore Central is right that there are a couple of different answers. I think that the member is correct in saying that the Bill that is currently before the House is a retrospective measure from the previous Government. I think that the Bill that is now before the House was the first piece of legislation that the Government introduced to deal with the issue of the public interest. It was introduced in the House on the
Which part of the bill is the member addressing?;National;The member answers that question in the first reading. I want to get back to the point of the Bill and to the purpose of it, to show how this is a genuine Bill to address the problem of fraud. As a result of the member’s comments I want to take a call and to address the bill’s second reading and to show that it is a genuine Bill. I have been in the Parliamentary Chamber before, and I have been in the chair at the moment and I
We’ll stay with this point of order rather than a new one, can we?;Labour;"I am not sure whether the member is asking me whether I am satisfied with the final contribution. I am not sure because I have got my head down, but I am still trying to get my head up. If the member wants to go back to the motions, I will be happy to oblige.<|endoftext|>

"
We’ll stay with this point of order rather than a new one, can we?;National;"I am not prepared to throw out the point, because I think it is important and it certainly should be clarified to the House.<|endoftext|>

"
What are the details of the proposed community and local tradesmen involvement in the renovations at the Kerikeri Stone Store?;Labour;The proposed community and local tradesmen involvement will be in conjunction with the permanent improvements to the store, which will be completed under the scheme of improvement. The establishment of the Kerikeri Stone Store is a significant achievement in the New Zealand history, and the previous Labour Government made it a priority. The store has been closed since 1972, but the store was converted from a casual shop to a full-fledged department store. The store is the only permanent department store in New Zealand. The Kerikeri
What are the details of the proposed community and local tradesmen involvement in the renovations at the Kerikeri Stone Store?;National;"The principal job at the store is to provide services for the community. I am sure that the best training and employment opportunities will be available for local tradesmen and other community staff and construction workers when the store is fully operational. I am sure that this will happen gradually as the store is not yet fully functioning. I am sure that the store will attract the best trade union members and construction workers to the area.<|endoftext|>

"
How does DOC’s pest control work help threatened native species?;Labour;That is a very good question. What we have is a very good service to provide to the community. The concept of pest control is getting a bit old, and it is a little like the idea of a set of toothbrushes. We do not have any toothbrushes, but we have some toothpucks. We are pointed at a different place, but we have some teethpucks. The idea of a toothbrush is that if you want to brush your teeth for a while,
How does DOC’s pest control work help threatened native species?;National;"The pest management programme targets the most threatened native species in New Zealand. The programme is based on the management and monitoring of pests that are introduced to a country, such as mites, white fly, didgeridos, and brown flies. The programme is not based on any particular species or species type; it is targeted to most of New Zealand’s most threatened native species. The programme is designed to provide incentives to encourage pest management to be undertaken.<|endoftext|>
"
Would the member answer a question?;Labour;I will try to clarify that. I think it is fair to say that I have tried to keep a fairly low profile. I would seek leave to table a report in which the Minister describes the oracle as a ``cricketer'' because that is the word he uses to describe the placard. I have some other matters to report to the House. I also think it was a pretty good day for the member for Nelson, and I have a variety of other things to say in relation to
Would the member answer a question?;National;I would like to answer a question. I have to say that the member’s question is extremely interesting. I have a very substantive one, and I think I will give it to him. When I came into the House in 1983 the member for West Auckland said to the National Party that the Government is a Government of ideas. That is the way the National Party is. It is a Government of ideas, and that is why it is the National Party. The member for West Auckland said that
