question;party;answer
How have increases in household disposable income contributed to the lift in savings and the reduction in debt?;Labour;The recent announcement of an increase in household disposable income was a very encouraging sign in terms of the economic recovery. It is an encouragement to those who are struggling. I am pleased to see the number of people on low incomes reaching record levels, and I am pleased to see that more people are getting a job than ever before in our history. Interest rates have been low for a number of years, and the economy is showing an incredible level of confidence, which is very encouraging. That is a good thing
How have increases in household disposable income contributed to the lift in savings and the reduction in debt?;National;As a result of the continued improvement in our productivity and economy, we have been able to move into a new phase of economic growth, which is now producing a surplus of $1.5 billion. This means that we have a surplus that is being spent in the right way and that we have an economy that is on track to return to surplus within 12 months. The key to the economy is our ability to make the most of our surplus. Apart from being able to spend it, it is also
Does the member still support bulk funding?;Labour;I have not had the opportunity to listen to the member's speech. I do not think I have. I am glad that he is prepared to stand against the legislation. I know that he will be the next Minister of Transport. People will be watching him closely. I heard the member for St. Kilda. I think he has the same capacity for embarrassment as the member for Tauranga, who was quite right to be concerned about the Government’s spending in this Budget. I have
Does the member still support bulk funding?;National;I think it is quite important that we have a top-up on the budget, given the scale of the problems of the education sector. The Minister of Education has been very good in his performance as Minister of Education. He has put together a budget that is a very good budget. It has addressed the problems of the education sector, and it is a budget that will be judged on the performance of the Minister. The Minister has been very good in his performance as Minister, and I have to say
If members do not mind, could I begin by making a refinement to an answer?;Labour;"I did not understand what you were going to say, so I just wanted to talk about something that was not an answer. In answer to your second question, I was going to say that the member for Whangarei is the member who has asked the question. I think he is asking the right question.<|endoftext|>

"
If members do not mind, could I begin by making a refinement to an answer?;National;"The Minister has, and I do not intend to take anything further from that. I ask that the Minister stop making the statement that the Government believes that this bill should not be passed. I would be interested in the statistics how many of the 900,000 people who are in the labour force will be affected by the bill.<|endoftext|>

"
Why is climate change not mentioned even once in the action plan on page 51 of the 30-year infrastructure report?;Labour;Climate change is not mentioned on the Government's part. I understand that the Minister of Transport has urged the Transport and Environment Committee to consider a submission on the topic of climate change. That is why I am asking that question. I know that the Government has not taken the time to have this debate. I know that the Minister of Transport is looking forward to having this debate because he knows that the Government will be unable to deny the reality of climate change. I know that the Minister of Transport knows that
Why is climate change not mentioned even once in the action plan on page 51 of the 30-year infrastructure report?;National;It is not used in any of the planning documents. It is not in any of the major documents that the Government has been putting out, but it is in the action plan, which is not the most important document, and that it is not even mentioned in the committee process. I think that is the reason. It is not used in any of the planning documents. the Government is not even listening to what New Zealanders want. They want the Government to get this right. They want it to
Do you want an economically illiterate speech?;Labour;I would not like that, but I think those are the sorts of things that we should be talking about. The last thing I want is to see the Government do that. The National Party is a party of economic illiteracy. That is the reason that the Government gave it its name. It is an economic party. It is not a policy party. It is a party of economic illiteracy, which is why it has been called a party of economic illiteracy. It is a party that has
Do you want an economically illiterate speech?;National;I think in fact there is a significant majority of the House. I think that it is a very good thing that the Government has had a look at the Employment Contracts Bill in its entirety. I think that it is consistent with the Government’s view on the legislation, and I think that that is very, very useful. I want to finish by mentioning a couple of important things that have been mentioned in this debate. I want to start with an issue of concern to the members opposite. they
Has the Minister any information on the costs of producing comparable education reports?;Labour;"I have a copy of the report that was produced by the Department of Labour, which showed that the cost of producing comparable education reports is about $10,000. If it were produced in an acceptable manner, it would cost about $50,000, so that is why it is not produced a different way.<|endoftext|>

"
Has the Minister any information on the costs of producing comparable education reports?;National;I have some information on the costs of producing comparable education reports. The Minister has a good idea. I will give him a hint. The averages in education are making them better. The average of the last year's report, says that there were 16,000 fewer students in tertiary education last year than there were a few months ago. It is the very same report that says there were only 13,000 fewer students in tertiary education this year. How can it possibly be that the Government is
What percentage of the total plantation forest has been deforested in the last 6 years?;Labour;The total plantation forest has been deforested in the last 6 years. The total plantation forest is approximately about 1,600 hectares. It consists of about 1,200 hectares of land and is located in the South Island. The total land has been deforested in the South Island for the plantation of palm trees. That is a significant reduction in the area that has been deforested in the last 6 years. In the past 6 years, the land has been deforested for the plantation
What percentage of the total plantation forest has been deforested in the last 6 years?;National;That is a matter for the Forestry Commission. The figure is down from 7.5 percent to 5.5 percent, but I can confirm that the total plantation forest deforested was up by around $1 million, from 4.1 percent to 4.2 percent. So it is a good thing that the Forestry Commission is doing this, because it has been a pretty dismal track record. It has picked up its share of the total plantation forest deforested in the last 6 years, but
How can that member stand there and make that speech?;Labour;"I am not going to give the member a mouthful of this substance, because he cannot stand it. He has to say something else, and he will. I say to the member that he is a little bit like that. He has just got in your face and you are going to send him to Australia.<|endoftext|>

"
How can that member stand there and make that speech?;National;What the member needs to understand is that the Government’s policy is that these changes are not going to be made. The Government’s policy is to take the opportunity to change the way we are able to assess people’s income. If we look at the analysis of the Employment Contracts Act, we see that the Government has made changes to the employment contract laws, and we are looking forward to ensuring that the reforms we are making are being implemented in a way that gives people a
What’s that got to do with the bill?;Labour;The issue of dealing with royalties on armaments is one that is always a contentious issue. In my electorate, the National Party is supporting this legislation, I am supporting it in my electorate, and the National Party is supporting it in the House of Representatives, because it is important that we do not have arms in our country that have been used to kill innocent people. I believe that there is a good basis on which we can have a realistic discussion about the allocation of arms and the rules we need to
What’s that got to do with the bill?;National;"This bill brings forward the Government’s intention to consult on this legislation. If the Minister is careful, that intention is to consult on the introduction of the Bill on 27 October 2011, and to consult on the introduction of the Bill on or before 31 September 2011. The ministry is instructing the select committee to advance the legislation as soon as possible so that it can be passed into law.<|endoftext|>

"
What do you wear when the ballot’s being drawn?;Labour;I wear a hat, I wear my glasses, and I wear my computer, because on the other side of the House I am a member of the Countryside Alliance. People would have thought that this was a matter of the National Party, not of the Labour Party. The Labour Party has been on the forefront of the Opposition in this debate, and that has been a matter of debate for the previous 3 years, but it has not been the point of the debate, The member who asked the question
What do you wear when the ballot’s being drawn?;National;I go to the polling place to vote and to vote in the local elections. I think there are some pretty good people here, and some of them are not all of them voting. I will get back to that when I get back to the most important thing, which is the vote. I think the most important thing is the vote. It is about time that we had a vote. Let us get back to the vote. If the poll is not accurate, then let us get back to the
