question;party;answer
What background work has gone into the development of this National Policy Statement on Urban Development?;Labour;The National Government has been working with the local community and local government around urban development. I was not aware of the development of the policy until the member for Waikato asked me about it. I have retained the expert advisory services of the Planning and Housing Committee. I have consulted on the matter with local government, the local community, and the public. I think it is very important that the public is able to see the extent of the Government’s commitment to the issue of rural housing.
What background work has gone into the development of this National Policy Statement on Urban Development?;National;The draft document, as it is now, is based on the work, of the then-Assistant Minister of Housing and Housing. I will draw to the attention of the House a few points in terms of its contents. The document is a serious exercise, involving the Australian Government and a wide range of other Government departments, and I shall continue with some of the highlights. As I indicated earlier, the draft document is a lengthy one, and it has been a long time since I had a chance to
What other mechanisms are being considered by the Government to address the issue of greenhouse gas emissions?;Labour;"The Government intends to go further and more ambitious in terms of its emissions trading scheme by 2020. I recommend that the Government consider and announce a public-private partnership to develop a scheme that will cover the full range of emission sources, including greenhouse gases, and this will be done through the development of a carbon capture and storage system. This will represent a significant contribution to the reduction of greenhouse gases in New Zealand.<|endoftext|>

"
What other mechanisms are being considered by the Government to address the issue of greenhouse gas emissions?;National;The Government will be getting more involved in that, and the Minister of Climate Change, Mark Peck, will be working with the Minister of Finance to talk about how we can make a real difference to the future of our country. The New Zealand Herald report states that the Government is announcing that its emissions trading scheme will save $1.2 billion. That is not bad, that is not bad. It is a very good start. If we look at the cost of the scheme, we see that it
How will yesterday's agreement help improve the health of young New Zealand children?;Labour;"The agreement will result in the healthiest of all children being able to go to school. That is the most impactful thing that the Government can say. It will ensure that the healthiest children receive the maximum benefit from their parents, and will ensure that they are not left behind to spend money on drugs and alcohol.<|endoftext|>

"
How will yesterday's agreement help improve the health of young New Zealand children?;National;"The agreement will also mean that the department’s annual review of the health and education performance of all district health boards will be completed in 2014. This will enable the department to better meet the needs of the young and vulnerable of New Zealand.<|endoftext|>

"
Is this a point of order, Mr Brownlee?;Labour;On a point of order. I am not prepared to allow Mr Brownlee to bring in a point of order. The reason that I say that is that we are in the middle of the Act and the present member of the House has been here for some time. He is here at the moment. I am not going to get into an argument with him here. He is a member of the select committee that is investigating this bill. I am not going to get into an argument with him here.
Is this a point of order, Mr Brownlee?;National;"I am referring to the question you were asking that has been asked many times in the House this morning, and answered many times in the House this afternoon. The point is that the Government has made it clear that the member for St. Kilda was not present at the select committee, because he did not have time to answer that question.<|endoftext|>

"
I am sorry-you are wanting to debate clauses 1 to 3?;Labour;"I am doing that.<|endoftext|>

"
I am sorry-you are wanting to debate clauses 1 to 3?;National;I am saying to Mr Key that I support the bill and I hope that he will support it in its third readings. It is a good bill, and we support it in its third readings, though there are some minor annoyances within it. There is a lot of good work that has been done in this area over the last year, and I hope that Mr Key will consider moving on to the third readings and bring this bill through in one piece. It is an interesting piece of legislation, and
Has the Minister received any advice concerning the intention of the parties to appeal the decision of the High Court?;Labour;The Government has said that the committee should be extended into the second reading so that it can deal with the first reading. What we are talking about here is the matters that are properly before the House, such as the third reading of this legislation, and the issues that are not, such as the introduction of the Bill into the House. There is no objection to the third reading of the Bill, but there is a matter of intent. The intent of the House is to see the Bill pass through the
Has the Minister received any advice concerning the intention of the parties to appeal the decision of the High Court?;National;"I have received no advice from the National Opposition on that matter. I am advised that the National Party is prepared to take the case to the High Court, and that the Government is prepared to accept that appeal. The Government will seek leave for the National Party to take the case to the High Court.<|endoftext|>

"
Which pony club is in the centre of Napier?;Labour;We are in the centre of Napier, and that is where the location of the centre of the party is in the Labour--led coalition. It is in the centre of Napier. It is where the place of the centre of the party is in the Labour--led coalition. It is in the centre of Napier. The Leader of the Opposition will be in the centre of Napier tonight. We have been in the centre of Napier for a long time. The centre of a coalition
Which pony club is in the centre of Napier?;National;I say to that Member, that it is the Maori Party. It is the Maori Party that is in the centre. I say to that member that he should go and talk to the Maori Party and ask it to tell us about the roots of the proposal. that member must go and talk to the Maori Party and ask it to tell us about the roots of the proposal. There is a very obvious case to make. The member for Napier is the member who says that the
So this amendment does nothing to Sue Bradford’s bill?;Labour;The point is that, as I have said, the bill is a very good one. It is almost a perfect copy of the bill that was introduced in the previous session. The amendment that is proposed by the member for Tauranga is a more satisfactory one than the one that was introduced in the previous session. The last speaker was the member for Wairoa, and I hope that he will be able to contribute to this debate. I think that we should bring him to heel, because this
So this amendment does nothing to Sue Bradford’s bill?;National;Well, I am pleased to speak in favour of the bill, which I am sure her colleagues in the National Party will support, but this was a very good amendment. I am very pleased that the member for Hauraki is pleased that this is a well-designed bill, because I think that we are all aware of the fact that a number of other amendments have been considered. I think that we should go back and review the bill, just to be sure that it is the one that has
Was the evidence given in public?;Labour;The evidence given in public is very much the same as that which was given in private. The experts who sat in on the committee heard the evidence carefully and properly. They did not have to take the opportunity to make any comment as they were told. They were told that the evidence was not as strong as the Deputy Leader of the Opposition has said it was. That is the conclusion. The ''good news'' that the Opposition has made is that the Government will be looking at the detail of the Bill
Was the evidence given in public?;National;"I was asked the question by an individual who had made a complaint against me. If the member wants to act as though that member has acted in that House, I am happy to give evidence in that House, provided that the member actually has to act in the House.<|endoftext|>

"
Does the member have a different point of order or not?;Labour;"I do not have a different point of order, but it is a very different point of order. I would like the member to think about it for a moment.<|endoftext|>

"
Does the member have a different point of order or not?;National;If the member is asking me to answer the question, I have to ask him to explain himself, and I am not expecting him to take a call to tell me whether he thinks it is a good idea or a bad idea to prosecute people for petty offences. I would not expect the member to do that, but I am not delaying the business of this debate because I am asking him to say what he thinks. I am asking him to say whether he thinks it is a good idea to prosecute people
