question;party;answer
So why didn’t it go to a select committee, and all your questions would have been answered?;Labour;To get the most satisfactory answers we needed to have the legislation before the select committee. This is not the legislation we put before the House. What it is is a transitional measure. The third thing that the Government did is take it to a select committee after all the submissions were received and before it passed into law. I want to say that I am amazed at how that has been done. I don’t want to see that happen again. It is a pretty good thing that we have had
So why didn’t it go to a select committee, and all your questions would have been answered?;National;"I am not here to answer that question. I do not think that the parliamentary process is that simple, but I do say that the Government has insisted that the select committee process be used. That is what the select committee process was aimed to be, and that is what the select committee process actually was. It was not a process that was about getting answers; it was a process that was about getting the right answers. The select committee process was never intended to be a process of getting answers, and"
Is the member asking the member to withdraw and apologise for the comment?;Labour;I am asking the member to withdraw and apologise for the comment. I am also saying that any member of this House, who is committed to the issue of gender balance, and who has a child or young person, or any member of this House who is committed to the issue of gender balance, should have a look at some of the statistics that have been published, and I certainly should have looked at some of the statistics that have been published. I simply want to make the point that there are some
Is the member asking the member to withdraw and apologise for the comment?;National;I think it is quite a good one to make. I have had an opportunity to read the report by the Commissioner of Inland Revenue on the seizure of assets under the investigation of the Department of Justice. I do not think that it is inappropriate to refer to it as the ``Policing Reform Bill'' because of the report of the Commissioner. I think it is a good report. But I believe that it is important that the House should read the report in its entirety, because it has a
What is the Government's view of low, year-old girls whose care has been entrusted to them, and what are we doing about it?;Labour;We are doing everything we can to ensure that the right parents are in the right place, in the right place at the right time, and with the right person to take care of them. In 2008 we saw a major increase in the number of people in care. That was a very good thing. The number of people in care has increased by almost 60,000 in two years. That is a significant increase. We have seen a much lower number of people in care in the last 2 years,
What is the Government's view of low, year-old girls whose care has been entrusted to them, and what are we doing about it?;National;The main focus of the Government's job is to encourage provision of quality and affordable services to low, year, old children. This focus is emphasised by the recent announcement of the new Head Start programme, which will see the Government investing $10 million in the Primary Health Care Trust, which has been a primary provider for low, year, old children in New Zealand for many years. That will help to increase the number of services offered to low, year, old children. The headstart programme will
Is there a Minister in the House?;Labour;There is a Minister in the House, and I am glad to see that. What we are talking about, with the member for Bay of Islands, is a National Bill that was introduced into the House last Thursday, and while it is not a National Government bill, we are talking about a National Bill. So I am pleased that the member for Bay of Islands, who is a National Party member, is here in the House, and that she has been here today for some time. She is a
Is there a Minister in the House?;National;I am the Chairperson of the Government Administration Committee, and I can answer that question. I am happy to report to the House what the committee has done. I remind the House that the Hon. Phil Goff wants to know what the committee has done. I want to know whether the committee has done something about the problem of public concern for the people of New Zealand. I want to know whether the committee has done anything about the problem of public concern for the people of New Zealand. I want to
Which bill are you talking about?;Labour;I am talking about section 15 of the New Zealand Bill of Rights Act. The reason I am talking about that is that the Bill clarifies the interpretation of the act. It is a very important and not often-known matter. Earlier this year I submitted a submission to the select committee on the expression of one or two words in paragraph. One of the submissions was from a member of the National Party who was concerned that it seemed to be an infraction of the Act.<|endoftext|
Which bill are you talking about?;National;I am talking about the Bill, the Employment Contracts Amendment Bill, and the legislation that provides for that. That legislation provides for the Employment Contracts Amendment Bill, or the Employment Contracts Amendment Bill, to be implemented as soon as possible. If the Minister thinks that that is a good thing, then he should think again, because I think there is a good reason for it. I think he is just looking for a chance to get a piece of legislation through before the end of the year, and that will
Has the Minister heard any reports about how Māori have received the concept of Whānau Ora?;Labour;I have heard reports about how Māori have received the concept of Whānau Ora, and I am sure that the Minister will give me a report about that. I know that there have been reports on it. I am sure that there will be a report on it when we get to the select committee. I know that there is a lot of interest in the concept and in the concept of Whānau Ora. There are very few right-thinking Māori who
Has the Minister heard any reports about how Māori have received the concept of Whānau Ora?;National;The report mentioned that the Māori People Party's education policy was not focussed on the needs of Māori. That is the case in the whole of the report, it is included in the report that the Minister of Education put out to the public last week. It is a very positive report. I want to refer to the education initiatives announced by the Government earlier this year. The Prime Minister has said that there will be an extra $7 million for Māori, and I think
Is it now the “Year of Striving and Not Delivering”?;Labour;The National Party is planning to change the name of the organisation, because it believes that it is a better name than the term “Stripes”. The name will be “Stripes for the Government”. I am sure that members opposite will be able to agree with that. The National Party wants to give the organisation a more appropriate name. I think it would be more fitting for the organisation to be called “Stripes”, because it might not
Is it now the “Year of Striving and Not Delivering”?;National;I am pleased to say that. I am told it is a very good year. Our track record in this area has been really good, and I think it is a very good year. We are also seeing more stability in this area of medicine. The most important thing that we can do to improve that in the future is to improve the quality of the service, but of course that will be better if we have the right quality of service. We have some of the best doctors in the country,
What groups of offenders does the report identify as most likely to reoffend?;Labour;"The report says that the most likely offenders are men who have committed offences, not just women who have committed offences. So when one looks at the statistics, one is dealing with a very different category of offenders from the ones who are most likely to reoffend. So I am asking the Minister why the Government chose to include men and not women in the debates.<|endoftext|>

"
What groups of offenders does the report identify as most likely to reoffend?;National;"The report identifies almost all of the groups of offenders identified by the prior Question and answer period as most likely to reoffend. The report also identifies the groups of offenders that are most likely to reoffend. The report identifies the groups of offenders most likely to reoffend as the most likely to reoffend in the period from 1 January 1995 to 31 May 1997.<|endoftext|>

"
What measures has the Government taken to control new psychoactive substances?;Labour;The Government has taken a number of measures to limit the drug trade. We have increased the number of police, through a number of officers, who are out on the street making arrests, and our drug squad has been taking more of the heavy lifting. We have also taken a number of measures to trace the drug use of our young people, and we have made sure that those who are producing new drugs and selling them are caught. We have taken some action to limit the production of new psychoactive substances
What measures has the Government taken to control new psychoactive substances?;National;The Government has taken several measures to control new psychoactive substances. These include the establishment of the new department of Health, the introduction of the National Policy Statement on Drugs, the licensing of new psychoactive substances under the Misuse Act, the establishment of the new department of Health, the establishment of the new Drug Enforcement Agency, and the joint risk assessment and research initiative. These have been successful in the past. We have seen increased public awareness of the dangers of new psychoactive substances, the need to
With export potential for New Zealand?;Labour;"I do have a tenuous connection to New Zealand.<|endoftext|>

"
With export potential for New Zealand?;National;I was just asking what New Zealand has to offer. New Zealand is a mature economy. It has been in that condition for a very long time. We are a modern, developing economy. We have seen the dramatic improvement that has occurred in the last 2 years. We are doing well, we have seen some progress in terms of productivity. We are not as productive as we were when the previous Government was in office. We have seen a continuation of the positive trend of productivity growth. We have seen
