question;party;answer
When did the Minister last attend a Grey Power meeting?;Labour;"In the course of my business I attended a meeting on Friday in Auckland. I had an interesting talk with a colleague who had been working with me for a number of years.<|endoftext|>

"
When did the Minister last attend a Grey Power meeting?;National;"He was on the West Coast.<|endoftext|>

"
What are our bovine blood products used for?;Labour;It is used in some countries for the treatment of rheumatic fever and tuberculosis. It is used in France as a drug to treat syphilis and malaria. It was a common gift in India, and it is used in the Chinese and Indian countries. The drug is also being used in Japan for the treatment of tuberculosis. It is also used in Japan for the treatment of chronic respiratory syndrome, tuberculosis, and other infectious diseases. It is used in India for the treatment of infectious diseases.<|end
What are our bovine blood products used for?;National;"The bovine blood product is used for the treatment of tuberculosis in sheep. It is also used to treat certain diseases in sheep. The product is not used for animal husbandry purposes. We do not sell the product for that purpose. We sell the product to the Department of Conservation for use in sheep, but it is given to the Department of Conservation for use in the treatment of other diseases. The purpose of the product is to be used in sheep.<|endoftext|>

"
What will be required to produce balanced growth in the economy over the next few years?;Labour;The Government will need to look at the economic policies that have been in place for a long period of time. There is a look of concern in some of the Opposition benches. It is similar to the look that some of the National Party members have taken, which is a look of concern, in the House. They have the look of worry that some of the National Party members have, as they have the look of worry that the Leader of the Opposition has. Those two look of worry, are characteristic
What will be required to produce balanced growth in the economy over the next few years?;National;"The Minister of Finance has said that it will take the Government three or four years to achieve a balanced economy. I am pleased to say that the Minister of Finance has put himself on record as saying that the Government's economic policy is in good balance. That statement is in good balance.<|endoftext|>

"
Is that all the member has to say for herself?;Labour;"I said that the member is very, very confused. She should read the Bill.<|endoftext|>

"
Is that all the member has to say for herself?;National;What a very good start to a debate! I think that is a very good one, I think that is all the member has to say for herself. I think that is a very good start. I am delighted that the Minister has taken the opportunity to speak on this Bill. I think that there is a great deal of merit in the Bill, and I am delighted that he has taken up the opportunity to speak on the Bill, and that the Minister has also taken up the opportunity to speak on
What insights does Energy in New Zealand 2015 reveal about resource development last year?;Labour;"Energy in New Zealand 2015 shows the good news for New Zealand-the Government’s plan to invest in energy. I am pleased to say that the Government’s plan to invest in energy is fully supported by New Zealanders. Energy in New Zealand 2015 also shows that the Government is willing to make strategic investments to provide jobs and to ramp up infrastructure. This is what the Government is doing.<|endoftext|>

"
What insights does Energy in New Zealand 2015 reveal about resource development last year?;National;"It is a good read, and I am hoping that members will give it a go. I look forward to seeing this bill through.<|endoftext|>

"
Is that all I was going to be interested in?;Labour;The member should take a call and tell the member that that is what I was going to be interested in. I am not. I have a different view. I did not have any intention of being a member of this House on my own initiative. I have spent more than 12 years in the House of Representatives given my experience in the House. I have had my experience of Parliamentary life and that is what I thought I would be interested in. I was not interested in what the member told me.
Is that all I was going to be interested in?;National;"I am thinking that the member is out of order. I am not actually interested in the question, but I am interested in the fact that the Government is passing legislation to make it so that those who are in poverty, whether they are poor or rich, can get treatment.<|endoftext|>

"
Are any services provided by Rehabilitation Management Ltd that were not previously provided by the Artificial Limb Board?;Labour;I am not aware of any services that were not previously provided by the Artificial Limb Board. It is a very good organisation. The boards have a number of functions, and one of the main functions is the regulation of the artificial limbs, which is being undertaken by the board's president, and a number of the board's top officials are also under the chairmanship of the board. The board does not operate as a commercial entity and, as a result of the Act, it is not required to
Are any services provided by Rehabilitation Management Ltd that were not previously provided by the Artificial Limb Board?;National;"The services provided by Rehabilitation Management Ltd are not provided by the Artificial Limb Board. The service is provided for the care of prisoners, and they are not provided by Rehabilitation Management Ltd.<|endoftext|>

"
Does the Minister have any evidence that lowering the drinking age has increased abuse?;Labour;I have a very detailed report in front of me, which will be out in the public arena tomorrow. It is a very detailed report that has been prepared by the Ministry of Social Development and it is widely known in this country. a member of the House will recall that I brought the report to the attention of the House in the House during the Committee stage of the Bill. That was very much the case during the Committee stage. In the Committee stage we heard from the member of the House that the
Does the Minister have any evidence that lowering the drinking age has increased abuse?;National;The Minister of Food and Beverages has said that that is an argument for lowering the drinking age. I have a paper from a back-bench member of the National Party, who has said that lowering the drinking age would not be necessary. I have to say that the point is that the Government is trying to stick it to the Government. The Government is trying to market this legislation to the public. I have been talking about that for a long time, and the Government is not willing to make any
What are the main elements of New Zealand's policy approach to the East Timor question?;Labour;I am not in a position to give any precise answers to that question, but I would say that the main focus of the Government's policy approach is, to make sure that the people of New Zealand are well aware of what is going on in East Timor. In the East Timor campaign there has been a lot of focus on the way in which we are dealing with this issue. In the East Timor campaign we have been focused on the fact that today we are dealing with a situation of
What are the main elements of New Zealand's policy approach to the East Timor question?;National;The first thing is that the Government has recognised this situation. The second thing is that if there is a new element of discussion in the future, it will be on the basis of the facts and not of what one thinks is the best option. The third thing is that the Government has put forward a plan to deal with the problem, and there have been no complaints about it. The fourth thing is that the Government has been able to work with the member for Waitaki, as have the member for
So we're going to have to do that too, are we?;Labour;I am very pleased to take a call to support the second reading of the Crimes Amendment bill, which is a very good bill in many respects. The bill was introduced to the House on 7 September last year, and the select committee has been working on it since. I do want to congratulate the select committee members on their work, and I congratulate the Ministry of Justice for its contribution to the bill. There are a number of amendments that have been made. There are some minor amendments, including one that
So we're going to have to do that too, are we?;National;The principal relationship that I have with the minister is in the portfolio of health, and I am very pleased to see that there are no major health challenges in the country. In June the Minister announced a major extension of the community health programme, which is what I think the member for Waitaki wants to talk about, the one point that seems to be lost in this debate, and that is the real question, which is how much it will cost. I think the issue is that it will cost a
