question;party;answer
Is the member not going to sign up to it?;Labour;"He signed up to it. I am sure that he can find out the answer in a few minutes.<|endoftext|>

"
Is the member not going to sign up to it?;National;"The member is not going to sign up to it. If she had signed up to it, she would still be here.<|endoftext|>

"
What achievements can the Government claim that give substance to this year's Conservation Week theme ``Unique New Zealand''?;Labour;Let me tell you what is unique about this year's theme, and that is the uniqueness of the iconic views of the Great Barrier Reef. The view from the Great Barrier Reef is like nothing that we have ever seen. The awe of that view is so great that the Prime Minister is quoted as saying
What achievements can the Government claim that give substance to this year's Conservation Week theme ``Unique New Zealand''?;National;The theme that will be adopted from here is ``Unique New Zealand''. The theme will be that New Zealand is a country of exploration, and that that the country is unique from other countries. This is a theme that is created by the Government, because the Government has to come up with a theme. I will explain that theme in this speech. It is a theme for a completely different reason. It is a theme that will be adopted by the Government for the message of this year's conservation week.
What was wrong with Mrs Wellwood?;Labour;This is a very sad day for New Zealand, for the Minister of Maori Affairs, and for the people of New Zealand. If I could say this to the Leader of the Opposition, that it is an absolute shame. The Leader of the Opposition is the Chief Executive. He is the Minister of Maori Affairs. He is the Minister of Māori Affairs. He is the Minister of Te Reo. He is the Minister of Maori Affairs. He is the Minister of Te Rū
What was wrong with Mrs Wellwood?;National;"I am sorry, but I have not read the report. I have read the report. I have read the report, and I have also read the report of the New Zealand Law Society. That report said that the use of that report was a deliberate act by the Ministry of Education. The report went on to say that the ministry had conspired to pay the lawyers in the Litigation Settlement Bill so they could settle their clients' cases.<|endoftext|>

"
What are the risks to current superannuitants if there is a ``No'' vote in the September referendum?;Labour;I would have to say that the risk to current superannuitants is that the Government could withdraw from the scheme. It is important to remember that this scheme is a very high priority, and the Government will roll it out. It is very important that the scheme is difficult to administer. As the member for Whanganui has pointed out, the Government does not have the resources to administer it. The scheme is very much a Government initiative. The Government has budgeted $86 million for it.
What are the risks to current superannuitants if there is a ``No'' vote in the September referendum?;National;The risks are very low, in terms of the amount of risk, and in terms of the possible wording of the phrase, ``No'' and ``Yes''. The answer was
How would that have helped those four people?;Labour;They are all on the unemployment benefit. All four of them were paid for by the National Party. If that had happened when the National Party was the Government, they would be on the unemployment benefit as well. It is just a shame that the member for Selwyn says that she would love to see people earn money. I am not so sure she would. She would like to see some people earn money. I am not sure she would want to see them earn money. I am not so sure
How would that have helped those four people?;National;"They would have had the medical insurance rebate, the assistance from the police, and the number of workers who could be worked up to the salary threshold, because this Government is working hard to give them that. They are struggling because of the poor performance numbers.<|endoftext|>

"
What steps has the Government taken to help take-home wages for New Zealand families increase faster than the cost of living?;Labour;The Government is working with the industry on the cost of living. We have also managed to reduce the cost of living for New Zealand families by $48 million. All of that has been achieved through the work of the industry, through the work of the unions, and through the work of the New Zealand Council of Trade Unions. I am thinking of the work of the unions in the past when employment was at its peak. The unions would have been in trouble in the past, they have been in
What steps has the Government taken to help take-home wages for New Zealand families increase faster than the cost of living?;National;"The Government is currently working on a package of measures that will provide a more competitive, higher-income workforce. This includes a range of measures including the introduction of a new, flexible work system; the introduction of a new, flexible work system; the introduction of wage insurance and the number of employees who will be covered by paid sick leave; the introduction of a new, flexible work system; the introduction of a new, flexible work system; the introduction of a new, flexible work system; the introduction"
Why does the Government need to build both State homes and KiwiBuild?;Labour;The State house and KiwiBuild are the only two developments that the Government has built since the time of the current Government. The other development is the Pukekohe campus, which is a new building that will emerge from the Government’s investment of $21 million, which was announced last week. The new building will be a huge success. It is a fantastic example of State house development, and I think it will have a very positive impact on the State house sector. I am concerned
Why does the Government need to build both State homes and KiwiBuild?;National;"I do not know. But I do know that the State levy is a pretty good idea. I do not know whether the member for Auckland Central is aware that that levy is revenue neutral, that it is a very useful, yet very expensive, way of trying to address the housing crisis, or whether she has heard of it. I do not know whether she has heard of it. But I do know that the Government is introducing a State house in Auckland.<|endoftext|>

"
shows net international debt rising by over 8 percent of GDP in the next 4 years?;Labour;The member is asking me to confirm that the net international debt in 2010 is $9.6 billion, whereas the previous question asked the member to confirm that the net international debt in 2010 was $7 billion. The member was required to confirm that the net international debt in 2010 was $9.6 billion. We have just had the answer that shows that the net international debt is more than $9 billion. There is a matter of accuracy in the member's questions, which are what the previous question
shows net international debt rising by over 8 percent of GDP in the next 4 years?;National;The National Opposition has been told by the Government that the Government spends $4.7 billion a year. The Government spends $4.7 billion a year. But that is the cost of the Labour Party. That is the cost of the Labour Party. The Labour Party is in the Opposition, and the Opposition will not get it. When the Opposition will get it it it will be in Government. The Opposition has been told that the Government spends $9 million a day. The Government spends $9
Do I take it that the inference around that statement is now struck out of the Hansard record?;Labour;"The inference is now struck out of the Hansard record.<|endoftext|>

"
Do I take it that the inference around that statement is now struck out of the Hansard record?;National;It is struck out of the record. I do not want to go round that again. I think that is a very good example of the mechanism that the Minister of Finance has used in this Parliament, and I think it is a very good example of how to operate in this House. The reason I am asking the member to continue his question is because it is a very good one, and I think that it will be very difficult for the member to put it down as another one of his research questions
Will the member answer a question?;Labour;I have a question. In the past week, the Leader of the House of the Opposition has been in the House
Will the member answer a question?;National;I will answer a question. that is not really necessary, as the member will know. I think that she has asked a question, and I think that she will receive an answer. I think that she has asked a question, and I think she will receive an answer. I think she has asked a question, and I think she has received an answer. I think she has asked a question, and I think she has received an answer. I think she has asked a question, and I think
