question;party;answer
What are some of the policy matters contained in the coalition agreement that are of concern to Maori?;Labour;The issues contained in the coalition agreement are of concern to Maori. The coalition agreement sets out a range of requirements for Maori Land Affairs. The coalition agreement also sets out a range of objectives. The Coalition Agreement will provide for the development of a Maori Land Information Review Committee. The committee will have a range of responsibilities to undertake, including the development of a Maori Land Information Review System. The committee will also have a range of responsibilities to perform, including the development of a Maori Land
What are some of the policy matters contained in the coalition agreement that are of concern to Maori?;National;Well, I can confirm that the coalition agreement was a very positive document. All the substance was positive. There was no room for doubt that the Government was set on the course that was appropriate for our economy. The Government was determined to be innovative and flexible. The Government wanted to be transparent. the Government is trying to be innovative and flexible. It is trying to be innovative and flexible. The Government is trying to be innovative and flexible. The Government is trying to be innovative and flexible. The Government
What action has been taken in relation to advising prescribers of these drugs?;Labour;"I am advised that the Department of Corrections has been advised that there is a possibility, that the drugs may contain a substance that is common in New Zealand.<|endoftext|>

"
What action has been taken in relation to advising prescribers of these drugs?;National;The Ministry of Health is aware of the concerns that have been expressed by some prescribers of the use of some of these drugs. In some cases prescribers have asked for additional monitoring and reporting, and have been advised that they are not getting a clear picture of the effectiveness of the drugs they are prescribing. In other cases, such as in the case of the HIV/AIDS drug Seroquel, the ministry has been concerned that the drug is not being used to manage the disease. In
What is the Government doing to tackle child abuse?;Labour;The Government has been working with the community and providing support. The Government has increased the number of police officers within the department, increased the number of child-care workers within the department, and increased the numbers of nurses within the department. There has been an increase in the number of staff in the Department of Social Welfare, and the number of people who are out on the street, providing assistance to those who are in need. There is an increase in the number of police officers in the district crime prevention
What is the Government doing to tackle child abuse?;National;The Government is working hard to help children in our communities. We have an excellent programme of community-based child protection, on which the founder of the programme was based, and which has led to over 6,000 children being in care by the end of the year. This year we are continuing with that work on the delivery of the programme, and key to that work is the programme of early intervention. By its very definition, early intervention involves the provision of a child protection service, which is called
Is that the Minister's old electorate?;Labour;It is the old electorate. It is not a new electorate. The Minister's electorate is the constituency of the member who was the member for Tarawera, the member who was the member for Papakura. He is the member for Papakura. He is a man of principle. He has made it clear that he is prepared to sit and listen to his constituents, and he has said that he would oppose any move that would transfer from a member for Papakura to a member for Tarawera
Is that the Minister's old electorate?;National;"The member for St. Kilda knows about this. She is a member of the select committee. She is not an expert in the area of forestry, or anything else, but she is at least an authority on forestry and the land management of the North Island.<|endoftext|>

"
The Mafia would qualify, wouldn’t it?;Labour;The Mafia would qualify, wouldn’t it? So this bill will allow the police to investigate further on the basis of intelligence, and it will provide a framework for the investigations that I speak of. What about the other half? The other half is the review of the Operations of the Police Act, which has been running in the background for 3 1/2 years, and this bill will give the police the tools to do that. This bill will enable us to continue to do that review.
The Mafia would qualify, wouldn’t it?;National;"a former member of the New Zealand Police, and he is now a member of the New Zealand Police. I am not sure what his qualification is. He is considering joining the New Zealand Police. He is also a former member of the New Zealand Police.<|endoftext|>

"
Are police resources alone devoted to tackling the issue of organised crime?;Labour;"I have a presentation that is available to the public. It was put together by staff from several police stations and the staff are well trained to deal with organised crime groups.<|endoftext|>

"
Are police resources alone devoted to tackling the issue of organised crime?;National;"I am not prepared to indulge in this debate on this issue, because it is a very difficult issue. The member referred to a report from the police, which indicated that only 3 percent of the total number of arrests made in the period from 1 April 1994 to 31 March 1995 were for organised crime.<|endoftext|>

"
In what circumstances does the Otago Crown health enterprise waive hospital partcharges for which it has invoiced patients?;Labour;"In that case the invoicing relates to a relatively small number of patients that would not be covered by the Waiver of Charges Act.<|endoftext|>

"
In what circumstances does the Otago Crown health enterprise waive hospital partcharges for which it has invoiced patients?;National;The Otago Crown health enterprise has invoiced patients to the tune of $1.9 million for 70 days, because the cost of administering the service, as defined by the Crown health enterprise, is $1.9 million. The cost of the operation and maintenance of the hospital, as defined by the Crown health enterprise, is $1.9 million. The cost of the operation and maintenance of the hospital, as defined by the Crown health enterprise, is $1.9 million. The
What did the member say about Jenny Shipley?;Labour;The member is ably, in the House. She is the member for Tarawera, which is a seat that, with the exception of a few other people, is a very good seat. I know that, as I have said, she has done a good job in it. Her opponent in the South Island is a very good member of the House. I have the pleasure and honour of standing in the House today and giving my view on the Maori Affairs Bill. I want to concentrate
What did the member say about Jenny Shipley?;National;The member is wrong. She knows that the bill is the Government's response to the financial crisis. The bill has been praised by the Greens and the Alliance, and by the National Party, but not by New Zealand First. National members have said that they will not vote for this bill. They will not vote for it. The bill is not about fire, but it is about fire. It is about using fire as an instrument of policy and as an instrument of communication. The bill is not about
Given that the companies involved are all foreign, off of New Zealand consumers?;Labour;I find the comments to which I have referred to rather ironic that the Minister of Transport, the Minister of Local Government, or the member for Waikato, who has been the leader of the opposition, should now be running the Government. Time and time again I have been told that the Opposition is in the business of undermining the Government's policies in the House. This time the Opposition is the Government. The member for Auckland Central, who has been the leader of the opposition, should be saying that
Given that the companies involved are all foreign, off of New Zealand consumers?;National;The companies involved are all foreign, off of New Zealand consumers. I am not aware of that. There is a very good reason why the company that is importing the product is not a New Zealand company. In the case of the fruit and vegetables imported in this country, that is because they are on importation entry-date. The importation date can be different. So the importation date is what the company is importing on its entry-date, and the importation date can be different.
where is the control on Huntly staying when someone else builds a new gas-fired power station?;Labour;This Government has made clear that Huntly will stay in Huntly until it is fully developed. That is the only way this Government would be prepared to take the Huntly issue. Having said that, I think I need to put the issue on the record for the record, and for the record of this House and the people of New Zealand. When the Government sees the backlog of Huntly gas stations, it will have to consider that the long-term future of Huntly gas stations is better than
where is the control on Huntly staying when someone else builds a new gas-fired power station?;National;I have no control over that, but we are not building new gas-fired power stations at Huntly. We have moved them around a bit, but they are still there. They are in the Auckland area. We are improving the provision of those services in the rest of the country, as we are all aware, because the Government is looking at the large number of new gas-fired power stations of which we have had to start the year with. I have a very simple question for the member
