question;party;answer
How was that answering the question?;Labour;It was pretty good. It was a great surprise to me I was not in the House when the Minister of Finance said that the new offending levels had not been announced. I was not aware of that. I thought that would be of great interest to the select committee. I was not aware this morning that the offending levels had been announced. I thought that was quite a good thing. I thought that was a good thing. That surprised me. That shocked the select committee and the Chairwoman of the
How was that answering the question?;National;"I am happy to answer that question, if I can. The member is asking whether the Government is taking the necessary steps to ensure that those two matters are addressed in the Bill.<|endoftext|>

"
How will the development of the Winter Games benefit New Zealand?;Labour;The Winter Games will deliver for New Zealand in every way possible
How will the development of the Winter Games benefit New Zealand?;National;The Winter Games will improve public confidence in our country. The Games will provide a forum for our sporting and cultural communities to showcase our nation’s achievements. The Games will encourage the sports industry to continue to develop and develop, and will add to our national identity and culture. The Games will bring to mind the many games that have also been played in New Zealand in past seasons, including rugby, cricket, rugby, rugby, rugby, rugby, rugby, rugby, and cricket. The Games will
What progress has the committee made in its inquiry into school decile funding?;Labour;As I said in my supplementary question, the committee has now finished its work. It had to go back and look at most of the proposals that were submitted earlier. The committee has not made any recommendation on where to go from here and if it should be to stay in the system. The committee has recommended that the average teacher differential be increased to 5.6 percent, that the support workers be awarded a new award of $13.7 million or $17.6 million, or $28,
What progress has the committee made in its inquiry into school decile funding?;National;The committee has made progress in its inquiry. I refer to a letter dated 15 September from a United Future member who said
What is the Government’s plan for reducing net debt as a percentage of GDP?;Labour;Less than half. It is less than 8 percent. The Government intends to release the results of the debt management programme in early 2010. The Government has forecast a surpluses of only $1.5 billion. That is not a lot of money to pay off the debt because the Government is facing a deficit of $60 billion. It will need to borrow $12 billion more. The Government has to deal with the $10 billion deficit. The Government is not spending in the way we would expect
What is the Government’s plan for reducing net debt as a percentage of GDP?;National;The Government’s plan is to keep the debt down. We are reducing net debt in a way that will enable us to spend more and spend less. That is the plan. As a result of the Budget, we have managed to reduce net debt below what it was under the previous Government. The reasons that the current Government is not as bad as it was under a National Government are the same reasons that members opposite have been saying that the National Government was. It is because of the fact that
It is only 4 percent currently, but it will rise immediately from 1 July-is it?;Labour;It will increase from 1 July, because the number of staff will be reduced in the process, and they will be transferred to the service sector. We do not want to see a return of people to the workforce. We do not want to see an increase in the number of people in the workforce. We do not want to see people gaining skills or qualifications in the workforce. We do not want to see people going into the workforce in a way that is not in accordance with their skills or qualifications.
It is only 4 percent currently, but it will rise immediately from 1 July-is it?;National;The answer is that it is only 4 percent. That is not a very good answer. It is as if the member has answered that there is a problem with the legislation. There is no problem with the legislation. The good news is that the bill was introduced early. That is good news. The bad news is that the select committee process has been very thorough. The select committee process has been very thorough. The legislation has been good to the public. It is good to the public. The select
Can I clarify whether this is a motion without debate or a motion that includes debate?;Labour;"The question is whether this is a motion without debate or a motion that includes debate. I personally have not been asked to take part in the debate.<|endoftext|>

"
Can I clarify whether this is a motion without debate or a motion that includes debate?;National;"it is a motion that includes debate, as it is a motion that includes debate.<|endoftext|>

"
What other agencies are the police working with to protect children from exploitation by online predators?;Labour;The Ministry of Education is controlling the online activity of student predators. This has been achieved by the sophisticated use of the Internet and the proliferation of pornography. The Ministry of Education has a new website to help students in their everyday lives. The Ministry of Education has worked closely with the Ministry of Education to identify and report on online threats. Teachers have been trained in the use of electronic monitoring devices, and the Ministry of Education has been working with local police, the New Zealand Police, and law enforcement agencies on
What other agencies are the police working with to protect children from exploitation by online predators?;National;"A number of agencies that are working to protect children from online predators are working with the police to identify and stop such victims. The new initiative will be a first in New Zealand for the use of undercover police officers.<|endoftext|>

"
How do burglary clearance rates in New Zealand compare with other comparable Western countries?;Labour;We have one thing that we do not do very well in New Zealand, and that is the financial sector. We have the highest level of burglaries in the OECD, and we have the highest number of conviction rates. We have the highest rate of repeat burglaries in the OECD. There is a positive trend in burglaries, as we have seen recently in the South Island, the increased number of convictions that we have. We have the highest rate of convictions in New Zealand of repeat burglaries,
How do burglary clearance rates in New Zealand compare with other comparable Western countries?;National;It is an interesting matter, Mr Lockwood Smith-it is a very good one. I will quote from the latest statistics released by the South Island District Health Authority, which show the number of burglaries reported to that authority this year, the number of burglaries reported to the police, the number of burglaries reported to the prosecution and the number of burglaries reported to the police. The burglary clearance rate in South Island is a very good figure. There were 6.8,000 burglaries
What's the youth Pacific Island unemployment rate?;Labour;"It is now at almost half of the rate at which it was 30 years ago.<|endoftext|>

"
What's the youth Pacific Island unemployment rate?;National;The youth Pacific Island unemployment rate was 26.3 percent in December 1984. That was down from 35.8 percent in December 1983. The youth unemployment rate in December 1984 was 2.4 percent, compared with 1.3 percent in December 1983, at which point the youth unemployment rate in December 1984 was 1.7 percent. So when we think of the unemployment figures, we have to ask ourselves whether we can put them in a positive light, whether we can put them in a positive light as
Is the Prime Minister aware of any mines currently situated in environmentally sensitive areas?;Labour;The Minister of Conservation’s recent visit to the Hamaruru mine, which is located in the hills of northern New Zealand, is a good example of this. There are currently some mines near that mine, and there is currently a mine near Wangleton, and there are mines near Camp Cintra in the heart of Taranaki that the Prime Minister has recently visited. If the Minister wants to visit those mines, then I am glad to have that opportunity.<|endoftext
Is the Prime Minister aware of any mines currently situated in environmentally sensitive areas?;National;The member for Waikato has mentioned mine, because my colleague the member for Waitangi and I have been talking to people, and have found that there are 600 hectares of mine in bush, in Taumarunui, in Nelson, in the south of Canterbury, and in the north of the country. I have sent a telex to the member for Tarawera to report that statement, which is interesting. It is from an organisation called the Ministry of Tourism, which is a private
