question;party;answer
What moves has the Government already made to combat the problem of methamphetamines?;Labour;"I have announced a strategy, in consultation with the police, to deal with this threat. I am concerned that a few people have been caught and the numbers involved will be significantly higher. I also want to make a comment about the question of whether it is reasonable to allow a synthetic drug to be purchased in this country. I believe that it is not unreasonable; it is something that we need to be aware of and that is something that should be done. We should be aware of the risks that are"
What moves has the Government already made to combat the problem of methamphetamines?;National;"The Government is now taking urgent action to deal with the problem of methamphetamines. The Government is advancing a comprehensive programme of action to combat the problem. The Government is investing $60 million on community policing and providing additional police to the Auckland region. The Government is also investing $60 million on the introduction of the immediate prevention programme, which will result in a reduction in the number of calls and calls for treatment; $120,000 to assist the staff of the Rape Crisis Ministries office at"
Why has the Minister released the public discussion document on the review of the Health and Safety in Employment Act?;Labour;"The public discussion document was released on 6 June, shortly before that minister's Government issued its report. After that report was released, I said that the public discussion document was a good measure of what was going well, and that it was not the time to release it. I do not think that is the case.<|endoftext|>

"
Why has the Minister released the public discussion document on the review of the Health and Safety in Employment Act?;National;The public discussion document was released with the Bill just before the announcement of the review. I think it is appropriate that the public have a look at the report. I am pleased that the public will have a look at the report, because I think that it will make it more clear that the Government is taking a very pragmatic approach to the safety of New Zealanders. I think that will be of considerable benefit to the public. I think that the public will be pleased to see that there is no suggestion
What about the local tangata whenua?;Labour;The local tangata whenua will be notified of the decision by the Hon. Laila Harre, who is now an Associate Minister of Health. As I have said before, the member for Tarawera has a view on the matter. The Government has decided to move to that end of the debate. I am pleased to see that the member for St. Kilda is now an Associate Minister of Health. I will be reporting on the matter to the House tomorrow. The member for Auckland Central
What about the local tangata whenua?;National;I want to take a call in this debate in reply to the Minister’s statement in the House yesterday that the local tangata whenua are in a position of strength. I want to make two points. The first is that the Government should have learnt from the mistake that it made. The Government should have learnt from the mistake that it made last week, when it decided that it would go with the National Party in its second reading speech, and decided that it would not have the discussion,
What is already happening to reduce the use of plastic bags?;Labour;"The Product Safety Commission's research has shown that the majority of plastic bags used in New Zealand are not plastic at all.<|endoftext|>

"
What is already happening to reduce the use of plastic bags?;National;I have a new bag on the back of a van. The Government announced a national programme of funding at the start of this year for an early childhood education programme. That was probably the first thing the Government did, and it is something that I think all parents would expect to see in their schools, and I was a mum myself for many, many years in the back of a van, so I know what it is like. I am sure that the Government is looking at what it can do,
Who will benefit from these initiatives?;Labour;"This is the first time I have heard of a company achieving more than 1,500 percent in the number of submissions it receives. That is 3,000 percent.<|endoftext|>

"
Who will benefit from these initiatives?;National;I have informed the House that this is the biggest area of welfare reform in New Zealand for a very long time, and there are some very good changes in the Budget, which will see a significant reduction in the cost of achieving the target of $1.2 billion. That will result in a significant reduction in the number of people on benefits, and in the number of people that need to be on benefits, as a result of the savings in the number of people receiving benefits.<|endoftext
What is the source of the document?;Labour;"This is a document that was prepared in consultation with the media. It is obviously a draft document, and it is not perfect, but it is better than nothing.<|endoftext|>

"
What is the source of the document?;National;"I am talking about the Government’s press releases. The publication this morning states that the Department of Conservation is underfunded. That is absolutely correct; we are underfunded. Where we were last year, the department was funded for the purpose of providing services for our Maori and Pacific Island communities. It is now funding and its services are not the same. The department is spending only $4 million on Maori and Pacific Island services, 0.26 percent of the total budget. I want"
What reports has the Minister read on the Government’s commitment to the Waikato region?;Labour;We’ve been at the centre of it. It’s been the centre of our discussion. We’ve been talking about a strategic plan over a period of over 3 years. We’ve been talking about our future and our plan for the future of the Waikato region, and we’re going to be able to see that, in the specific areas of the Waikato, by the time we get to the election, this will be a very different
What reports has the Minister read on the Government’s commitment to the Waikato region?;National;The Government’s primary focus has been on the Maruia area, and it has been very clear that the Department of Conservation and the Waikato Regional Council have played a very important role in this effort. I have received briefings from the Department of Conservation and the Waikato Regional Council on the activities of the Department of Conservation. The department has been very committed to ensuring that the Māori Trustee is supported by the Government. The Department of Conservation has been doing a fantastic job
Then why did the member ask the question?;Labour;"I am afraid that was not a question.<|endoftext|>

"
Then why did the member ask the question?;National;I was asking the member how he could possibly be supporting something that gives people such a good deal. I am happy to support the packaging legislation, but I think that we need to do more with it. I think that the way it is currently structured and the way it is currently organised is a good start, but I think that we need to get a little more inventive if we are going to get to the new age of packaging. I think that we need to find ways of making it a little
Is it a condition of a sustainable surplus that there would be a reduction in the 41,000 New Zealanders who are homeless?;Labour;"there would be a reduction in the 41,000 New Zealanders who are homeless for the Government to be in power.<|endoftext|>

"
Is it a condition of a sustainable surplus that there would be a reduction in the 41,000 New Zealanders who are homeless?;National;I agree that it is a condition of the sustainable surplus that there would be a reduction in the 41,000 New Zealanders who are homeless. That is a condition of the sustainable surplus. That is not a condition of the sustainable surplus. The Government has made no commitment to reduce the number of people who are homeless. It is a condition of the sustainable surplus, and the Government is committed to its maintenance. The Government has made no commitments to reduce the number of New Zealanders who are homeless.
What messages does the Treasurer take from these reports?;Labour;"I am advised by my deputy that the report on the employment impact statement, which was released yesterday, states that the Government is focusing on the need to reduce workplace injury, the need to focus on reducing the number of injuries and deaths of employees, and the need to focus on reducing the number of injuries and deaths of workers in the workforce. The effect statement states that it is an important priority for the Government to achieve these results.<|endoftext|>

"
What messages does the Treasurer take from these reports?;National;I know the impression the member is trying to create. I take the member’s distress at what has happened. I know that the member has to take that to his Cabinet colleagues and her colleagues. I know that she has to take it to her members of the House. I know that she has to put it in front of her people. I know that she has to put it in front of her people. I know that her people cannot stand it. They are in the middle of the
