question;party;answer
How do the new e-gates facilitate travel at the border?;Labour;I can tell you that the e-gates have been a huge success. I think it is very important to note that the National Party was not able to advance its policy, because the National Party suggested it in the last election. So it will be interesting to see whether that is the case when the Government passes legislation that deals with the e-gates in that way. I think it will be a good way of carrying out the new e-gates system.<|endoftext|
How do the new e-gates facilitate travel at the border?;National;"The new e-gates at Te Ohu Wai are more efficient for the Government, and the move will be easier for motorists, for the public, for the staff, and for the travellers.<|endoftext|>

"
Did the member make a derogatory comment?;Labour;"The member is not entitled to give a derogatory comment. The member is entitled to make a comment.<|endoftext|>

"
Did the member make a derogatory comment?;National;"I just said it was a compliment to the speech of that member.<|endoftext|>

"
What are the most recent forecasts for movements in Government spending as a percentage of GDP?;Labour;The latest forecast says that the government's expenditure forecasts for the next year in relation to this year are as follows
What are the most recent forecasts for movements in Government spending as a percentage of GDP?;National;The latest Government spending forecasts, published yesterday, show that the Government's fiscal strategy is working. The Government's forecasts show that gross debt is falling again, and that the Government's fiscal plan is working. The Government's forecast shows that gross debt is falling at a reasonably rapid rate. The Government's forecast shows that gross debt is falling at a rate that is consistent with the Government's fiscal strategy. The Government's forecast shows that gross debt is falling at a rate that is consistent with the Government's
What is the Government doing to ensure the safety of recreational boating?;Labour;"The Government is continuing to review the rules for recreational boating. The review will be led by authorities such as the North Island and South Island, and will involve the principal ministerial adviser to the Ministry of Transport.<|endoftext|>

"
What is the Government doing to ensure the safety of recreational boating?;National;"It is a matter for the Cairns District Council to decide.<|endoftext|>

"
How do the arrangements of New Zealand Post comply with international treaty requirements?;Labour;New Zealand Post is undertaking the process of compliance with the Treaty of Waitangi by signing a number of agreements. It is a very similar process to that undertaken by the New Zealand Post Corporation, who signed agreements in Europe and in Australia a few years ago. New Zealand Post has commenced the process of compliance by installing a new system. The contractor for the system will be selected from the current process. The New Zealand Post Corporation has signed a number of agreements in the past, and has been in a
How do the arrangements of New Zealand Post comply with international treaty requirements?;National;"We have a system that is similar to the system of New Zealand Post and Australia Post that is up to the task. There are some differences, which are owned by the Government, but New Zealand Post is still New Zealand Post. it has its problems.<|endoftext|>

"
Didn’t Michael Cullen go to boarding school?;Labour;I remember going to boarding school. I was going to go to boarding school, but I did not have. I did not have the opportunity to go to boarding school. I went to school in my hometown. I went to school in my hometown because it was open to all of us, and because my mother was a teacher at the time. I did not have the opportunity to go to boarding school. I went to school in the middle of the night, and my mum went to the next evening
Didn’t Michael Cullen go to boarding school?;National;"I did not go to boarding school.<|endoftext|>

"
Given the Minister’s statement, what are the Government and the Minister doing to combat the present situation?;Labour;The Government is working closely with the New Zealand Post Corporation to achieve a more effective delivery of services. The Government is working closely with the New Zealand Post Corporation to transform its delivery of services to the business community. More than $2 million has been spent on the service, and the cost of the upgrade and maintenance of the network has been reduced from $700 million to $400 million. The Government is also investing $100,000, at the present time, in the future to provide more capacity for
Given the Minister’s statement, what are the Government and the Minister doing to combat the present situation?;National;"I think it is appropriate to have a look at the work that is being done by the Parks and Wildlife Service. I think it is a very good service. I think it could be improved. I think that the Government is not making the right decisions.<|endoftext|>

"
Was that information extracted from an official report, or was it supplied for the purpose of answering a question?;Labour;I think that is a very interesting question. The reason I gave that information to the member is that the member has asked a second question. I think the member is well aware that the Minister, who has been a member of the National Party for a little over 3 years, is not to be trusted, and has asked a second question. I think that is a very good question and I would like to just finish on that topic. The point I make is that this bill is about addressing the problems
Was that information extracted from an official report, or was it supplied for the purpose of answering a question?;National;"I did not put it in a report. I was looking at a question.<|endoftext|>

"
how can one stop a member telling lies about what was said?;Labour;I can advise that that is not possible. I am not aware of any malice that has been shown against the member for Tamaki in contravention of the Official Information Act. I can also say that there is no malice. There is malice about the fact that he has been in the House as a member of the National Party for 7 years. He has been in Parliament for 7 years. He is a regular member of the National Party. He is a very close friend of the National Party. He
how can one stop a member telling lies about what was said?;National;"I put it down to his political position. He is a member of the National Party, and that is what this committee has decided to do.<|endoftext|>

"
Then how can it be a “must”, Marama?;Labour;That’s a very good question. My colleague the member for Christchurch North has just answered it. I’m sure that member would not mind reading it and answering it, if she were to look at page 3 of the report. The Minister of Health has said that the report contains 158 recommendations. There are nine that are not supported by the recommendations. I know that the Minister of Health has wanted to talk about the recommendations on page 3 of the report. I think that is a
Then how can it be a “must”, Marama?;National;It is a must. It has been a very good speech. The select committee heard a lot of submissions from the Opposition. We heard some submissions that were very strongly in favour of the changes that were made in the bill. so the member has just been very, very clear that this is a bill that is going to be a change from the previous one, which was that we are going to implement a system of compulsory purchase of a new car, because that is the way that we do it.
