question;party;answer
Is the member seeking leave to correct an answer?;Labour;What I would like to know is whether the member wants to clarify the question to which he is referring, and whether the member is correct that the member for Mt Albert is saying that the member for Auckland Central is the person for whom the television news is concerned. I will not give the member a blank cheque, because I am quite sure that he would be interested to find out, or the member for Auckland Central, as he is the person who is asking the question, the member for Auckland Central
Is the member seeking leave to correct an answer?;National;"I apologise. I think that the member's question was really quite useful.<|endoftext|>

"
Why did the Government halt the review of mine safety in 2009?;Labour;The Government changed the decision to stop the review of mine safety in 2009, not in 2009. The review was actually carried out in 2005. At that time, the Government said that it was not going to review mine safety. It carried out an independent report. In 2005 the Government told the industry that it was not going to review mine safety. So why was that? The industry went to the Government and asked for a review, and it was denied. The industry was told that the Government would not
Why did the Government halt the review of mine safety in 2009?;National;The Bill is currently before the Transport and Environment Committee. The Government is now considering releasing it in the public arena, and we expect it to be published by the end of the year. At the same time as the public will be able to find out about the way in which the New Zealand Transport Agency operates, the new Ministry of Transport will be able to present a focus group report to the public to show how it operates and will be able to identify the problems. If there are any major problems,
Does that three-three include Mr Peck?;Labour;"I am happy to table that report. If Mr Peck is the person who asked this question he should say that he has not been on the front bench for a long period, he would know that. I think that is the best way of putting it. I think that is what this is all about. It is the National Party talking about a Government of Government; it is the Leader of the Opposition talking about a Government that has been in office for a long period of time. It is the National"
Does that three-three include Mr Peck?;National;that three-three include Mr Peck, because there are three of them. I should like to answer a question that I raised earlier in the debate. The Minister of Maori Affairs said that the Maori Affairs Committee had heard evidence of some of the problems of Maori affairs in the last session, but that he had not heard evidence of any of the problems of Maori affairs. I have been in this House for a number of years. I have been in this House for the past four years
Are you going to listen to my point of order?;Labour;For one moment, I am going to take a call, and I am going to make a couple of points. The first point is about the effect of the bill. I want to focus on the effect of this bill, because it is a manifestation of the Labour Party’s agenda. I want to focus on the effect that this bill has on the education of our young people. I want to give an example of a young child who is almost ready for school. She is in sixth grade
Are you going to listen to my point of order?;National;"I have been advised that there is no report of the inquiry that was set down by the member for Whangarei in the House last week. The inquiry is still in progress.<|endoftext|>

"
Are you saying that the Greens are not politically correct?;Labour;I am saying that they are not, and they should be. I ask you to consider the comments made by the member for Tarawera, who has just resumed his seat. He said that he thought that he was the spokesman of the National Party on budgeting. He said that he was the spokesman of the National Party on the Minister of Finance. he said that he had been in the National Caucus for 7 years and he had been in the National Caucus for 8 years. He said that he
Are you saying that the Greens are not politically correct?;National;They are politically correct. They are saying that the National Government is simply trying to put the Greens on their feet, and therefore the Greens should just go back to the hapū. The member for Tauranga is not the only one who is saying that. I have had a lot of people say that. Members opposite say that the member for Tauranga is simply asking for votes. I am telling the House that it is a political statement, for the member for Auckland Central could say that
What would be the effect of trying to change sites for the prison?;Labour;"The effect of trying to change sites for the prison would be to reduce the population in the prison by 25,000.<|endoftext|>

"
What would be the effect of trying to change sites for the prison?;National;"The effect of setting up the new jail in Kapiti would be to reduce the capacity of the Kapiti prison.<|endoftext|>

"
Is there any objection to that course of action being taken?;Labour;From the outset, I have been in favour of the course of action that has been taken. I think it is an appropriate course of action, as I see it, to take. There is a tendency to treat the problem of crime so much that it will go away in a few years. There is no doubt that there will be a major problem of crime in New Zealand. I think the Government, and the Opposition, would be well advised to try to find an alternative way of dealing with the
Is there any objection to that course of action being taken?;National;I am concerned that the Government is moving to put in place a scheme that will see the payoff of the Auckland nuclear catastrophe, which is costing us $35 million, but it will not send the message to the future generations of New Zealand that we will not be a nuclear-free country. I think that the best way to represent that message to the future generations of New Zealand is to keep the nuclear deterrent option in place, and to keep the missile defence capability in place, and to keep the
Is there any objection to that course of action being taken?;Labour;"I am not asking that question, but I am raising a point of order. I think that the member should go back to his original question, which was about the emails.<|endoftext|>

"
Is there any objection to that course of action being taken?;National;"I was not able to answer that question. I can tell the member that, because I have had no answer to that question.<|endoftext|>

"
Is there any objection to that course being followed?;Labour;I am concerned not only about the uncertainty, but also about the effect that that course might have on the student body and the quality of life in this country, and I think that it is important that the National Government is prepared to listen to that. The thing that has to be considered in relation to the committee stage is the cost of the education component of the program. The cost of the education component of the program is a critical one. Student enrolment is a very important part of the program.
Is there any objection to that course being followed?;National;That is quite clear from the statements made by the Prime Minister. I have some concern that a number of New Zealanders are not prepared to come to terms with the reality of what they see as the future. I have to say that I really do not want to hear the words of the Labour Opposition on this matter in the debate tonight. I do not want Labour members to be the party of social engineering, of economic speech, of making political speeches. I want Labour members to be prepared to take
How many practices have opted in and how many children are benefiting from free under-13s GP visits?;Labour;I am not aware of the number of children who have been treated for dyslexia, and I am not aware of the number of children who have been treated for autism, but I assume that there are many of them. You will accept that the public of New Zealand is far more concerned about people who are in need of assistance than about the number of people who are being treated with dyslexia and who are being treated with autism. The Minister of Social Welfare will be pleased to know that 92
How many practices have opted in and how many children are benefiting from free under-13s GP visits?;National;The figures are not available, but I think it is safe to say that there are some very good indications that there are some very good indications that there are some very good indications that there are some very good indications that there are some very good indications. One of the good indications that the then Minister for Social Development, and now the Minister of Health, were using to justify our current policy is the number of ''services'' that have been provided through the dental services. They used to be called ''services
