question;party;answer
How does the member think that the police got the documents?;Labour;"I believe that the original question was about the wording of the words in the question, not about the fact that there is a reference to this Bill.<|endoftext|>

"
How does the member think that the police got the documents?;National;I think they got them from the Department of Corrections. They were in the hands of the Department of Corrections. I am not sure of that, but I am sure they were given to the National Party. It was the National Party, and the National Party had no use for them. But the member might be right. So they were handed to the National Party. They were handed to the National Party. They were handed to the National Party-they were handed to the National Party. That is a
Does the member have any examples?;Labour;"My colleague Dr Adamton has been in the House for 2 years and hasn't had a single question asked. He is a very good member. He has not been in the House for 2 years, and he has not been asked a single question today. That is typical. The member for St. Kilda is a very good member. He has been in the House for 7 years, and he has been asked a question. He is a very good member.<|endoftext|>
"
Does the member have any examples?;National;"I have an example of that in recent times, when earlier this year the member for St. Kilda was allocated the $10 million allocation that was made available to the member for Maramarua and when the member for Tamaki was given $9 million that was made available to the member for Tamaki. That is what is going on.<|endoftext|>

"
What is the Government's total investment to support te reo Maori this year?;Labour;The Government has invested $1.6 million on te reo Maori in the last few years, and we are making a positive dent in the problem by cutting the number of people in Te Ora Maori and reducing the number of the Ora Maori Council members. At the end of last year we announced that Te Reo Maori would be fully funded for the second year in a row, and the council has continued to make a positive contribution to Te Reo Maori. We
What is the Government's total investment to support te reo Maori this year?;National;The Government has invested a total of $3.3 million to support te reo Maori this year. The investment is part of the Government’s strong commitment to support a strong Te Ture Whenua Maori leadership programme. Together with the Government’s $800 million investment in Te Ture Whenua Maori, Te Ture Whenua Maori has been put on a sound footing. The Government’s support for Te Ture Whenua Maori is a solid
Has any meat company asked the Government for a $200 million suspendiary loan?;Labour;"I am not aware of such a request. I am not aware of any such request.<|endoftext|>

"
Has any meat company asked the Government for a $200 million suspendiary loan?;National;"I have no information to indicate that that has happened. It is a matter for the company's management to decide on the basis of the company's needs and the ability to repay the loan.<|endoftext|>

"
Is the member seeking leave to table a document?;Labour;"I am seeking leave for the member to table a document.<|endoftext|>

"
Is the member seeking leave to table a document?;National;"The member is asking a question.<|endoftext|>

"
Is it reasonable for me to expect an answer from the Minister or not?;Labour;"The question was about the amount of money that you were talking about. The member could have answered it while he was in Cabinet.<|endoftext|>

"
Is it reasonable for me to expect an answer from the Minister or not?;National;I think my colleague from the Opposition has a very interesting point to make in relation to the definition of ``at a reasonable cost'' in the Bill. I think that the words ``at a reasonable cost'' and ``comply with'' are used interchangeably. I think that the word ``comply'' is the appropriate word. I think that the word ``comply'' is a very good one, the word ``comply'' has an adjective meaning ``to put in place or in effect''.
What other specialist prison-based units aimed at reducing reoffending levels does the Government support?;Labour;The Government supports the rehabilitation and rehabilitation programmes, which are carried out by other Government departments. The Ministry of Corrections has invested a lot in these programmes, and the Government is also investing in the rehabilitation of each offender at a time when many of them have been in prison for a very long time. We are also investing in a number of other areas, including the Community Corrections programme, which is a programme that has been going for some years now, but there are some issues that need to be addressed.
What other specialist prison-based units aimed at reducing reoffending levels does the Government support?;National;"I am pleased to say that we are supporting the Community Corrections Unit. I was not able to make that comment to the member for Palmerston North, but I would urge the member for Wallaby to listen to the comments made by the member for Tauranga.<|endoftext|>

"
Do we know the source of the photos?;Labour;The source, that I have been told, is a text message from a friend, who has been in contact with the family, to say that she had been told of her husband's death. The family had been told later that her husband had died of a broken heart. I believe that that text message was sent by her friend. I have been advised that it was a friend who was a bit aggrieved with the family. I have been advised that the family has called me to tell me that
Do we know the source of the photos?;National;"That is the question, I have said to the House, that the member is trying to answer.<|endoftext|>

"
What part of my question was out of order?;Labour;It is a little bit out of order, but I think the member should listen carefully. This is a very important question. If we did not have the right information in front of us, and I think that is what this debate is about, then what we have now is a divergence of opinion, and I do not think we should be debating in this House what is the best way of dealing with that. Even the member for Auckland Central is talking about what has been said previously by the Government.
What part of my question was out of order?;National;"I am simply asking what the Opposition's position on this bill is. I was asked to provide a summary of the bill, and I am happy to do so.<|endoftext|>

"
What action does the Minister intend to take as a result of the contents of the report from the Crown Law Office?;Labour;I am advised that the Minister of Justice has been informed by the Crown Law Office that the report of the office's staff on the day of the announcement of the Government's legislative programme, and the report on the day of the announcement of the Government's legislative programme, will contain a number of errors and omissions. I have a few questions for the Deputy Prime Minister. I know what the Leader of the House said
What action does the Minister intend to take as a result of the contents of the report from the Crown Law Office?;National;The Government's response to the report from the Crown Law Office is to check the report’s contents to see whether it is accurate. This is the first time that the Government has acted on the content of the report. The report clearly states that the Crown Law Office has not consulted the New Zealand Public Protector or other relevant authorities. Is that the first time that Government spokespeople have been asked to explain why they have not consulted their colleagues? That is the first time that they have been asked to
