question;party;answer
And the quality of the record keeping?;Labour;The quality of the record keeping has remained the same, and the number of personnel members have increased from 350 to about 700. I am pleased that there have been additional staff in the Ministry of Education. That is a positive development. The Ministry of Education has been the subject of continued criticism by the previous Opposition. The Opposition has previously highlighted the fact that the Ministry of Education is underfunded. The Opposition has pointed out that the Ministry of Education is understaffed, that there are gaps in the system
And the quality of the record keeping?;National;The quality of the record keeping is actually a highly technical matter, and I have had people say that they had had their samples taken for hepatitis B. The quality of that testing is not as good as it is at present, and I have asked the Ministry of Health to get the samples taken. I have had people say that they had had their samples taken for hepatitis B. They had not had their samples taken because of the absence of a highly contagious virus. They had not had their samples taken because
Were any specific proposals raised with Mr Talbott regarding joint exercises with New Zealand?;Labour;"There were a number of suggestions raised by Mr Barrow, and they were not of a technical nature. I have got them all in writing. The question was raised that it was a matter of consultation with the Opposition, not as a matter of speculation, and not as a matter of discussion about a budget.<|endoftext|>

"
Were any specific proposals raised with Mr Talbott regarding joint exercises with New Zealand?;National;"The department has not received any specific proposals, and I am not aware of any specific proposals that have been raised in the past. That is why we were guided by the fact that there are multiple parts of the programme.<|endoftext|>

"
Is that the exclusive hotel in Auckland?;Labour;"He was not at the Auckland hotel. He was in the news media. He was in the front of the newspapers. He was not in a hotel. He was on the front page of the New Zealand Herald. He was on the front page of the New Zealand Herald.<|endoftext|>

"
Is that the exclusive hotel in Auckland?;National;That is the exclusive hotel in Auckland, and it is a very, very nice one. I can see that it is in good shape. The other point I want to make is that this is a very good, very good idea. It is a very good one. It is an improved hotel. It is a very, very nice, very nice hotel. I can see that it is in good shape. That is why we are debating the matter at the moment. I see that a number of
Does the member wear it as a badge of honour?;Labour;"Why would I say that? People will remember that when I took over from Mr Seymour, and I have been here for a long time. The Opposition leader, was not my first choice in that respect. I was not even considered after that; Mr Seymour was. I went to him, and he told me that I could not do that. I looked for someone to replace him with, and I found that Mr Seymour was not the man for that job. I also said to Mr Seymour that he"
Does the member wear it as a badge of honour?;National;The member does not wear it as a badge of honour. He wears it as a badge of honour because he is not an economist. He is a real member of Parliament. The member is putting together a bobble-head story. He is a torso. He is a dummy. He is a guy who has never been in Parliament. He is a dummy. He is a dummy. He is a dummy. He is a dummy. He is a dummy. He is a dummy. He is
Which groups will be using these new standards?;Labour;The national standards in relation to the use of force will be the largest group, and that is because of the sheer number of deaths that have occurred in New Zealand in recent years. There is no escaping the fact that if one wants to keep up with the numbers one has to be prepared to accept some risk. The statistics show that the number of deaths in New Zealand in the last 12 months has increased by 42,000, from 9,500 to 43,000. The number of injured in New
Which groups will be using these new standards?;National;It is a very good idea, as I looked at the new standards, I would be interested in knowing whether there is any particular group of New Zealanders that might have a particular problem. I would be interested in hearing whether that is the case. I would be interested to hear whether that is the case. I would be interested to know whether that is the case. I would be interested to know whether that is the case. I would be interested to hear whether that is the case. I would
So if you do it for money it’s OK?;Labour;The figure I handed to you was $2,000. It is actually a figure of $2.9 million. that is what the figure is. That is what the figure is. That is what the figure is. I have been in this House for the last 2 years telling this Parliament that the figure of $2.9 million is a figure of $2.9 million. That is the figure that I put before you, but it is not what the figure is. There is no
So if you do it for money it’s OK?;National;"After 18 months of this Government’s support, I think it’s time to call a spade a spade; it’s time to get us out of the way.” I think that’s the situation that this country is in, and that’s the way we have to look at it. It’s time to get on with it, and it’s time to leave. The next question that I ask is about the double"
Are there any plans to change the way that surgical services are provided by Capital Coast Health?;Labour;"We are quite happy to look at the way in which we provide our health service. We want to be flexible and responsive to the health needs of our people. We are willing to look at this piece of legislation and consider it in the context of what is best for our health care system. They are some of the changes that the Bill proposes to bring about, and I will be getting up and talking about them.<|endoftext|>

"
Are there any plans to change the way that surgical services are provided by Capital Coast Health?;National;"I am not aware of any plans. We have some significant problems. We have a huge backlog of cases. We have to put more resources into that backlog. We have a situation that is not sustainable. I think that it is obvious that if we just kept at what we were doing, then we would not have a problem in the long term. There is a significant backlog of cases. I think that that is the last thing that we need.<|endoftext|>

"
Even if it doesn't have an Arabic 1 or a Roman 1?;Labour;"There is no reason to believe that this Bill will not make a very significant difference in terms of the quality of the health services in New Zealand.<|endoftext|>

"
Even if it doesn't have an Arabic 1 or a Roman 1?;National;"No, it is a shopping mall.<|endoftext|>

"
In which ways does the training opportunities programme differ from Access training?;Labour;"The training programmes are different in that they are based on relevant skills and experience, rather than the numbers of candidates who have been selected to enter a particular programme.<|endoftext|>

"
In which ways does the training opportunities programme differ from Access training?;National;The difference between Access and that particular training programme is that that programme is a national model, which is much shorter, and it is shared by all the other programmes. On the other side of the House—and I am not talking just about the Labour Party, which has been running the health system, but also the National Party, which has been spending so much time arguing about the health system and the funding of the health system that I think that I have got to see where the money has gone and
The member is not going to relitigate my ruling?;Labour;"I am not. I think he is simply trying to make a political point.<|endoftext|>

"
The member is not going to relitigate my ruling?;National;"My ruling was that the member is not going to relitigate my ruling. I look forward to hearing from the member.<|endoftext|>

"
