question;party;answer
Mr Hide rightly asks the question that we tried to put to Mr O’Connor today in question time-what happens then?;Labour;It is very simple for me. The Government has put in place a number of measures to support the measures that will be agreed to by the House on Thursday. The measures will be agreed to by the House on Thursday. We will take advantage of the fact that there is a very good debate in the House tonight, and I believe that the multiple applications for leave are the best way of addressing the situation. I do not think that there is anything to be gained from having to have an application to be
Mr Hide rightly asks the question that we tried to put to Mr O’Connor today in question time-what happens then?;National;I do not have any specific figures on that, but you will have to go and ask the member for Maramarua. He is quite right. He said that it would not be so bad, that it is so important. The member for Maramarua said that it would not be a problem. The member for Maramarua said that it would not be so bad to have the new system. The member for Maramarua said that the existing system would not be so bad. He went
What steps are being taken to put the teaching profession on a similar footing to other professions?;Labour;The Government's work to increase participation in the workforce is also being taken up by regional educational authorities. The University of Auckland has recently appointed the chief information officer of its business development unit, and the training and knowledge workforce unit is now being identified as the most important unit of the tertiary education industry. The Ministry of Education is taking up the offer of a new chief information officer, as the tertiary education industry has been identified as a key industry. The Ministry of Education has a database of more than
What steps are being taken to put the teaching profession on a similar footing to other professions?;National;An ongoing programme of training for the teaching profession has been developed by the Working-party on Teacher Resignation. The committee will note the progress made by the National Government in recent years on the issue of teacher resignation. I am pleased to report to the House that the new chief executive of the New Zealand Teacher Association, which is the organ of the union, has been appointed by the National Government. I am pleased to report that the new chief executive has completed his or her training, and is now
So what is the comprehensive plan, even though this Government is unaware of what the number of homeless people is?;Labour;As I say, the Government is trying to keep this issue under wraps. Government members do not want to comment or say what the number of homeless is. They do not want to say that it is high school aged or around 40, because that would be political. if the Government is serious about the problems faced by New Zealanders, it should not be looking to keep this issue under wraps for as long as it can. This Government is in the midst of a major programme of criminal justice reform.
So what is the comprehensive plan, even though this Government is unaware of what the number of homeless people is?;National;"It is quite good, because it is not just the homeless; it is people on the street, people on the streets, and people on the street corners. I think it is great that the Minister of Housing and Social Development has got some idea of what is going on in the housing stock, because I think he should know. I think it is great that he has got some idea of what is going on in the housing stock, because so many of the people on the street are facing eviction."
What do the latest statistics show about the growth in wages compared with changes in the cost of living?;Labour;"The latest figures show that the cost of living has increased by a reasonably good margin, and in a consistent fashion. The cost of living has increased by a fair amount in the last year. It has been really good to see that it is a good thing to have a ratepayer.<|endoftext|>

"
What do the latest statistics show about the growth in wages compared with changes in the cost of living?;National;"The latest survey by the Ministry of Business, Innovation and Employment shows that the cost of living is increasing. Employment has increased by 1.9 percent in the last 3 months, and it has increased by 1.7 percent in the last 12 months. The cost of living is expected to increase by 1.2 percent in the next 3 months, and by 1.6 percent in the next 12 months.<|endoftext|>

"
Is it in order for the Minister to challenge assertions that I have quoted from the Auditor-General’s report?;Labour;"That’s an important question, because it is the source of a number of claims that, the Minister cannot comment on. the Auditor-General’s report discusses a range of matters, including the advice that the Minister gave to Cabinet, which was that the investment model should be changed. The House adjourned at 9.30 p.m.<|endoftext|>

"
Is it in order for the Minister to challenge assertions that I have quoted from the Auditor-General’s report?;National;"I say to the member for Selwyn that it would be helpful if the member had been able to copy in his full name the report that was actually related to that question. That is what the member should have been concentrating on.<|endoftext|>

"
How is the Government’s responsible management of its finances, helping New Zealand’s households?;Labour;The Government’s responsible management of its finances, helping New Zealand’s households, is focused on the long-term objectives, and that is why we are doing the things that are right for New Zealanders. That includes the harmonisation of the capital gains tax and the income test for the superannuation benefit, the introduction of a tax on energy. Like every other Government in New Zealand, we have had a very good start in the Budget, but we need to continue to improve
How is the Government’s responsible management of its finances, helping New Zealand’s households?;National;The Government’s responsible management of its finances, helping New Zealand’s households, is working very well. The Government has set aside $2 billion for responsible management this year, which will enable the Government to continue to make decisions responsibly, and that will be the key to ensuring the Government’s sustainable fiscal position. How does the Government’s responsibility management work in practice? How does it help New Zealand’s households? How does it help New Zealand’s
Before I take the next call, can I clarify whether you are doing a 5-minute call?;Labour;"I am not. I am not.<|endoftext|>

"
Before I take the next call, can I clarify whether you are doing a 5-minute call?;National;"I have been told that it is a 5-minute call, and it is not a 5-minute call.<|endoftext|>

"
So how would the proposed changes contribute to the Government’s wider economic programme?;Labour;"I would say that it would be very difficult for the Labour Party to get the backing of the National Party to vote against the changes, because it is opposed to them.<|endoftext|>

"
So how would the proposed changes contribute to the Government’s wider economic programme?;National;It would be positive for the economy to see the economic and social impact of this legislation be improved. It would be positive to see it not lost, as it has been in recent weeks, the support of the bill to ensure that its implementation gets through. It would be positive to see it get through, it is a long, lasting session of this Parliament. I am sure that, as a result, the House will come to appreciate how important it is to see the bill through as quickly as possible
Does the member have a point of order?;Labour;I make that point of order, and I would like to take a call in response to that, as well as the point of order that I made about the submissions that were made by the National Security Alliance, which was the party that attempted to reverse the decision and bring the bill into line with the National Party's policy. I have to say that National members have to learn a lesson about the National Party. National members have to learn a lesson about the National Party. National members are in the minority
Does the member have a point of order?;National;"My point of order has no bearing on the question. I want to raise one thing, and that is the apparent contradiction in the Government’s statement that there is a great deal of clarity in the legislation. The statement is that the Acts are now in force. The question is why the Government agreed to have that statement in place, which is that there is clarity in the legislation.<|endoftext|>

"
Turn the page, or is it all off the top of the Prime Minister's head?;Labour;The Leader of the House is now right, we are talking about electricity. We are talking about our electricity. We are talking about our electricity. The Government has made a profit of $4.5 billion-$4.5 billion. It has to be one of the highest-grossing companies in the world. It has to be the biggest company in New Zealand. What is the President of the company saying? He is saying that we should be thrilled that it is succeeding. That is the
Turn the page, or is it all off the top of the Prime Minister's head?;National;It is all off the top of the Prime Minister's head. The member will not be able to hear it, he is going to have to listen to me. It is coming across to her as though I have been listening to the Prime Minister. The member will have to take it from me. I shall continue with the member's statement that she is going to be calling for a consideration of the bill. She said that she was going to be reviewing the bill in an effort to get it passed
