question;party;answer
How did the schools use the ultra-fast broadband in the classroom?;Labour;Not in a bad way. So I do not know how we can change the story from the one that is put forward by the Government. It is wrong. we need to improve the education system. Thank you, I do appreciate the opportunity to take part in the debate. I would like to congratulate the member for St. Kilda, and also congratulate the member for Christchurch North, who has done a great job in that area. I congratulate the member for Tauranga who is a very
How did the schools use the ultra-fast broadband in the classroom?;National;The schools used it in classrooms. We used it in classrooms. We used it in classrooms. We used it in classrooms. the schools used it in classrooms. We used it in classrooms. The schools used it in classrooms. The schools used it in classrooms. We used it in classrooms. The schools used it in classrooms. The schools used it in classrooms. The schools used it in classrooms. We used it in classrooms. We used it in classrooms. The schools used it in classrooms. The schools
What was the dollar increase in costs for the Police from the new collective employment agreement negotiated in June last year?;Labour;I am not able to confirm that the police have been meeting the cost of the new collective employment agreement. I do not have any information on the cost of the new collective employment agreement. The police have a very tight budget, and they are finding it very difficult. I do not think it is fair to say that on the one hand the police are being squeezed by the Government and on the other hand we have to look at the Government's policies. I think the Government has to look at the Government
What was the dollar increase in costs for the Police from the new collective employment agreement negotiated in June last year?;National;The price of police uniforms has increased by $10.50. It is not a significant increase in cost, but in the past few months the number of uniformed officers has increased by only $10, not by $10.50. The cost of the new uniform has gone up by only $10.50, not by $10.50. The total cost of the police has gone up by only $10.50, not by $10.50. The cost of the uniforms has
Has the Minister seen any reports stating that tax increases would derail the economy?;Labour;"I have seen reports that the Government has an economic plan to ensure the Government's fiscal position so that the Government can achieve its goals.<|endoftext|>

"
Has the Minister seen any reports stating that tax increases would derail the economy?;National;"The reality is that the revenue shortfall is an issue of surplus-leftovers. That is why the Government has been trying to resolve the issue at all costs. The Labour Opposition argued that there was no surplus, the National Opposition argued that there was no surplus, and the Green Opposition argued that there was no surplus. The Green Opposition argued that there was a surplus, and the National Opposition argued that there was a surplus.<|endoftext|>

"
Has the Minister got any concerns about Russian involvement in air disasters that might have been expressed?;Labour;Those are the sorts of questions that are asked in this House today by the front bench of the National Party. They are not appropriate for the select committee to be dealing with, because in a select committee there is a lot of detail put on the table. If we are to go back to the committee room and ask the question of the member for Mangere, who has made it clear that he thinks that the New Zealand First members in this House are the most corrupt of the National Party MPs,
Has the Minister got any concerns about Russian involvement in air disasters that might have been expressed?;National;I have no concerns about Russian involvement in the air disasters that might have been expressed during the submissions. I think the Minister has a very good track record in relation to such things. He has been very positive about air disasters. I think that he has a very good track record in relation to the way he has dealt with them. I think that he is giving the people confidence that when they are in court, they will get justice. I think that this is a good time for the Minister to give
What progress has been made on the Government’s summer research scholarships?;Labour;The Government's summer research scholarships programme is now under way, and it demonstrates that the Government has taken serious action to boost the number of scholarships available to students. The scholarship programme is now attracting a substantial number of applications, and it was less than 2 weeks ago when the Government announced the scholarship awards for the 2013-14 academic year. Over a thousand students have applied this summer. The programme is designed to attract students who have exceptional academic skills, or who want to contribute to the improvement of their local
What progress has been made on the Government’s summer research scholarships?;National;The Government has received several reports on the summer research scholarship programme. I would like to acknowledge the work of the Department of Conservation, which has been extremely helpful in the development of the programme, and the Department of Conservation’s top priority, which is the promotion of sustainable management of species. As recently as last week I spoke to the Claremont Institute of Desert Research, which is the only appointed centre in the world, about the summer research scholarship programme, and discussed it with the Claremont Institute
Does the member mean that the Committee debate this bill as one question?;Labour;"The member is absolutely right. It is a question about the Minister’s statement. The member also made some comments about the Minister’s statement. I was that member on that particular subject at that time.<|endoftext|>

"
Does the member mean that the Committee debate this bill as one question?;National;I mean that the Committee debate this bill as one question. The member has the basic truth
How does New Zealand’s economic growth in the year to March compare with growth in other developed economies?;Labour;We have been very good at getting our economy to work. We have been very good at getting our economy to grow. We have been very good at achieving low inflation, low interest rates, and low interest rates. We have been very good at getting our economy to grow. We are very good at getting our economy to create jobs. We have been very good at creating growth. We have been very good at putting New Zealand into the position that we have been in over the last 10 years, because
How does New Zealand’s economic growth in the year to March compare with growth in other developed economies?;National;It is a very good sign that, we are not as poor as we were in the year to March, and that we have been able to meet the Government’s target of 4.5 percent growth in GDP by the end of this year. The Government is proud of the Government’s record of growth and, how it is translating into our economy. At the end of last year, the global economy was beginning to catch up with us. It was time to be proud of our
Is this a further point of order?;Labour;This is a point of order. I want to make it clear that the Minister of Corrections has been assured by the Corrections and Rehabilitation Commissioner that the figure of $1.2 million is an accurate figure. The Minister has also been assured that the figure of $2 million is correct. The point is that it appears that the Minister is not, and I am not, prepared to sit here and do that sort of thing. I do not think that he is prepared to do that. I know
Is this a further point of order?;National;"That is a further point of order. I would like to ask you to continue to make comments with a sense of humour. When you were a barrister, you were not merely making comments with a sense of humour.<|endoftext|>

"
What plans, does the Minister have to expand the Public Defence Service to other locations?;Labour;"I am sure that the Minister of Social Welfare will be looking to address problems such as those in the North Island, where the Wairarapa harbour, and the Otaki whanau, in the future. The Government will provide additional resources in areas such as the Horn of Africa, the Middle East, and North Africa, and the private sector, as we have done in the past.<|endoftext|>

"
What plans, does the Minister have to expand the Public Defence Service to other locations?;National;The next addition to the Public Defence Service will be the construction of a new command centre in Wellington, and will therefore be a significant expansion. The new command centre will be a significant centre for public security in the country. The new command centre will be located in the centre of Wellington and will provide a modern command centre for the Public Service, as well as the ability to provide information to the community, particularly in relation to major incidents in the city. This will be a major boost to the public relations
Why will the report be released to Maoridom before being released to the general public?;Labour;"We have been informed that the release of the report will coincide with the release of the report on the Maori Affairs Bill, which is the subject of the select committee.<|endoftext|>

"
Why will the report be released to Maoridom before being released to the general public?;National;I spoke to the member for Waitaki, who is not here, and I asked him why he was not here. He said that the report would be released to the general public when it was ready. I am sure that the member for Waitaki is aware that the Minister of Maori Affairs is a Maori, and he is aware that the member for New Zealand First has a Maori background. He is aware that the member for New Zealand First, the member for Auckland Central, and the
