question;party;answer
How is the Government responding to the issue of bullying in schools?;Labour;I am advised by the Ministry of Education that the bullying issue in schools has increased by 7 percent in the past year. The Ministry of Education has also received several reports of bullying and harassment in schools. The Ministry of Education has reported that there have been several reports of bullying in schools, including a single incident in a school in Canmore. A teacher was given a reprimand for joking, and that was the only example of bullying in a school. The teacher was not punished for joking. The teacher
How is the Government responding to the issue of bullying in schools?;National;"The Government's response is quite consistent with the numbers the last few weeks.<|endoftext|>

"
Does the member mean that the Government is equally tough on both men and women?;Labour;In the past few months, the Government has announced the scrapping of the National Child, Youth and Family Support Bill, the implementation of the National Wages and Working Capital Bill, and the introduction of the Employment Contracts Bill, which will see approximately 200,000 workers lose their jobs, up to 2.5 percent, and up to 2.2 percent of all jobs. There are more than 1,000 low and middle-income occupations where the unemployment rate is more than 10 percent, and that
Does the member mean that the Government is equally tough on both men and women?;National;"The member is referring to the point that the Minister of Conservation made during the debate, and I am happy to explain to the House, as he did, that the Government is equally tough on both men and women, and that the Government is also equally tough on all New Zealanders.<|endoftext|>

"
Could I move that the Treasurer have an extension of time?;Labour;"I have the opportunity to extend my time. I think that is very, very important. I think that we should take a call in this debate and make sure that we get answers to some of the questions and I think it is important that we get answers to some of the questions.<|endoftext|>

"
Could I move that the Treasurer have an extension of time?;National;It has been extended, I will be very glad to give that to the member. I have actually got this question from the member for Tauranga. He asked what this Bill was doing and what it is about to do. That is a very good question. I have no particular answer to it, because I am not sure what the Minister thinks this Bill is about to do, but it is a very good question. That is the point. The Minister is still looking at this Bill. He
What is the current average floating mortgage rate?;Labour;The current average floating mortgage rate is $11,000. That is the average floating mortgage rate for that period. The point I make to the member is that it is not good enough that this debate is going on, with the last speaker, the member for St. Kilda, talking about the power of people to raise their incomes or to sell their homes, as the member might say. That is a totally different thing from what people might be doing. People might be selling their houses and America
What is the current average floating mortgage rate?;National;"It is currently at a very good level, and it is about as low as it has been since the mid-1970s. That is why I am saying that in this speech the Minister has done a very good job. What is the current level of interest rates?<|endoftext|>

"
Did United Future vote for those provisions at the select committee?;Labour;United Future voted for them. We voted for them by a margin of 2.4 percent. What I find even more interesting is that there were other issues that were discussed at the select committee. One thing I have never heard from the member of Waitangi, Dr Richard Prebble, is the impact of these changes, and I believe that it will be a very good thing to see him and his colleagues on the select committee. I also know that some of the Opposition members will be in
Did United Future vote for those provisions at the select committee?;National;"I believe that United Future voted for the provisions in clause 4 and clause 5, but I do not know whether I should have voted in favour of clause 6. I support clause 4; I do not support clause 6. I believe that the Bill best represents the principle that it was intended to advance. I think it is important to note that it was introduced in March 1993. It was not until March 1993 that I wrote to United Future, in relation to clause 5, to ask for it to be"
Just to clarify, would you like me to start again?;Labour;"I do not know where that question came from, and I do not know what the answer to that was. I have to refer to the previous question. I would like to talk about the real issue, the reef. The Government has been in office for 5 years now, and the Government is getting a real buzz from the people of the West Coast.<|endoftext|>

"
Just to clarify, would you like me to start again?;National;"I am not sure, but I would like you to get the ball back when you have finished.<|endoftext|>

"
Does the Minister support the Bill?;Labour;I support the Bill, but I do not believe that the Minister's explanation is satisfactory. The Minister should explain to the House whether the Government is going to take the steps to ensure that the Labour Party will be excluded from the draft legislation, and whether that will include the National Party. The member for Selwyn, who has just resumed his seat, was on a review of the bill, and I am sure the member for Selwyn understands that the Bill is a draft. The member for Paxton
Does the Minister support the Bill?;National;I think that quite rightly, the member for Whangarei deserves the support of the House. The Opposition has no problem with it any more, and I think that it ought to go to a select committee. I think that the select committee should have a wider scope to consider the Bill than it has at present. I have some complaints about it. I think the member should have been given the opportunity to explain why she thinks that it is appropriate to extend the Bill to include a new clause.
What about the member's trip to Frankfurt?;Labour;There is a new package of initiatives being undertaken by the Government to ensure that Kiwis get a good start in life. As the member for Pilbara, I know how important it is to have the opportunity to see the progress made by the National Government to ensure that, as our economy grows, we can hold on to the quality of our life. I know that the National Government has been in Opposition for 45 years, and I believe that we should be looking forward rather than backwards. We should be
What about the member's trip to Frankfurt?;National;I will be taking a very long time in New Zealand to go to Frankfurt, because I have not been able to be there. I will be here in New Zealand next week as the Minister of Transport, and I will be there to support my colleague, my friend and colleague the Hon. Tim Macindoe, in the wake of the great earthquake that we have had in the past 12 months. I think we all know that. I think all New Zealanders know that. I think all New
How can a snapshot of someone’s Twitter account, possibly be publicly available?;Labour;"The snapshot can be publicly available, as is the actual account. Although the snapshot is not publicly available, I believe that the object of the snapshot is to provide a better and more comprehensive picture of your public image, so that it is easier for the public to judge whether you are a good or a bad person.<|endoftext|>

"
How can a snapshot of someone’s Twitter account, possibly be publicly available?;National;"It is not publicly available. I have been advised that there is a very high-risk of the project being compromised and I am not aware of the identity of the person whose personal details are being published.<|endoftext|>

"
Is there any objection to that course of action being followed?;Labour;"The member in his speech tonight has not been given advice on what would be found inconvenient in that course of action. The Minister of Health has, because he is the Minister of Health, been briefed on his concerns.<|endoftext|>

"
Is there any objection to that course of action being followed?;National;I have no objection to that course of action being followed. The member for Rangiora asked what the intention was of the bill. I think it is good that the intention of the bill is to introduce a bill that is more on the public side of the matter than the Government's. That is the intention of the bill, and I think it is good to have a positive approach from the Government. It is good to have a positive approach from the Government, and I think it is a
