question;party;answer
Could we ask the Rt Hon Winston Peters to repeat the question?;Labour;"I am not sure whether Mr Peters will have to. The member may want to ask him to repeat the question. I am not sure whether he will have to.<|endoftext|>

"
Could we ask the Rt Hon Winston Peters to repeat the question?;National;"I did not think you had been to the Rt Hon Winston Peters’ electorate.<|endoftext|>

"
What is the Government doing to help the economy deal with the current economic downturn?;Labour;"This Government is focused on fixing it. The Government's priority is jobs. We have created two million new jobs in the last 3 years. That is an astounding record, and nothing can compare with the real unemployment rate in New Zealand.<|endoftext|>

"
What is the Government doing to help the economy deal with the current economic downturn?;National;the Government is stepping up its activity in the area of capital spending. This will help to reduce the level of debt, which is the challenge that the Government faces. The Government is also investing in new infrastructure. We are investing in roads, and infrastructure. This will help to create jobs and help to increase our exports. We are investing in infrastructure, and infrastructure is a very important part of the economy. In the past 12 months we have seen a record, $24 billion worth of investment by the
In the week before the Budget, would it be so unusual to see 2,000 hits on a very popular website?;Labour;"That is very unusual indeed. It is very sad that the member for Selwyn said the budget was a disaster as it affected the people of the North Island.<|endoftext|>

"
In the week before the Budget, would it be so unusual to see 2,000 hits on a very popular website?;National;That is the sort of behaviour that will prompt the Government to look at other initiatives. The Government is considering, as it always does, introducing a number of new initiatives to deal with the issue of the backlog of tickets in the courts. There is no doubt that without the backlog, we would not have the backlog of tickets in the courts. So we are taking a much more active role. There is no doubt that the backlog has been a major issue in the courts.<|endoftext|>
Is there any objection to leave being granted?;Labour;The final thing I would say is that I think the government was trying to justify the bill and that I think it should have been done in a better way. I think there is a real problem with the situation. I think there is a problem with the bill because it does not deal with the issue that is raised by the Greens’ alarmist spokesman, who thinks the Government should be doing this. I think the Government’s interest is to make sure that the right people can get the
Is there any objection to leave being granted?;National;"That is the fear of the member for Sydenham. The House adjourned at 9.24 p.m.<|endoftext|>

"
Why are market rents being charged by Community Housing to the providers in these circumstances?;Labour;As I advised the select committee, the market rents are being charged to the providers as a result of the previous Government's implementation of the Housing Act. Under the previous Labour-Alliance Government there was a lack of accountability. The current Labour-Alliance Government has implemented a fair and effective system for dealing with housing issues. We have effectively moved to the bottom of the world, with the lowest rates of housing in the world. The Government is working hard to ensure that all New Zealanders, all
Why are market rents being charged by Community Housing to the providers in these circumstances?;National;As I can understand it, while the market rents are being charged, the market rents are only being charged to the providers. In the case of any of these providers-I am not sure of them, but I can tell you where they are, and I will get on to them. They are in the South Island. They are in the South Island. They are in the big city of Auckland. They are in the inner city of Auckland. They are in the Mangere area, and
How much is the United Party going to get?;Labour;The United Party is going to get about $1 a share. That is to say that this is a Government that is going to get a fair deal for the people of New Zealand. I am happy to stand by my colleague the member for Tauranga. I believe that we have a Government that is going to get a fair deal. I am sure that one day when the next election is held, in which Parliament is re-elected, we will be in a position to see the truth.
How much is the United Party going to get?;National;The amount is not known, but it is estimated by a former Associate Minister of Health in the Department of Health that the United Party will get about $300 million. I say to members opposite
Would not spiritual health be an important indicator if your whole political strategy is based on a wing and a prayer?;Labour;I am not a religious person, but I do believe that today there is a need for prayer in the Ngāti Tahu House. I have heard the example of the Māori Affairs Committee, which is also a Church of Christ denomination, and the example of the chief executive of the Hutt Valley District Health Board, whose chief executive said that the minister of health was not being spiritual enough. I think it is important that prayer in the House is a touchstone of the way in which
Would not spiritual health be an important indicator if your whole political strategy is based on a wing and a prayer?;National;As we have said, our primary strategy is to get the sick out of the hospital. This is achieved by having the workforce trained and the staff trained. It is a very good strategy, and one that can be supported by our team. So the last point I want to make is that as a result of the financial crisis, we are in a transition phase. We have had to put our policy in place that has, been able to last through the financial crisis. The second point I want to
Can I speak to the point of order?;Labour;That was a very good speech. I shall just leave it at that. I agree with the member for St. Kilda that what we have here is an opportunity to make our argument out of the previous Minister’s speech. I think that that is a well-contested point, and a well-contested point. The Minister for the Environment has been very good at turning the debate and rolling through the issues that need to be addressed, In the broader sense, it is a very
Can I speak to the point of order?;National;"I am sorry but it is not in order.<|endoftext|>

"
In what ways can the review of sentencing better contribute to community safety?;Labour;The review of sentencing can be a much more effective tool to improve the supply of prisoners than the present system of mandatory sentencing. It can also provide much greater flexibility in the scheduling of offenders and the treatment of mental health and addiction issues. This has been achieved by examining the sentencing guidelines and the sentencing guidelines as part of the review process. The review can assess the level of severity at which offenders are sentenced, and can give more weighting to the sentencing level than is given to the severity of the offence
In what ways can the review of sentencing better contribute to community safety?;National;The review will assist the community by giving a clear indication of how sentences are to be changed to reduce the severity of offending. The review will also give the community a more accurate picture of the sentences currently being handed down for serious offences, and will provide the community with a more detailed picture of the punishments being imposed. There will also be a review of the probation service in the future, with the aim of increasing the effectiveness of the probation service. The review will also provide a consistent policy for the many
Would your office have allowed a question as the primary question that you judged to be facetious?;Labour;"I do not know whether they would have accepted a question in the first instance as a matter of fairness, but they would have no difficulty with those that were not able to answer a question.<|endoftext|>

"
Would your office have allowed a question as the primary question that you judged to be facetious?;National;If the member is asking me a question, I am happy to answer it. My answer was
