question;party;answer
That member’s not misleading the House?;Labour;"I think that is simply wrong. The Hon Pat Kelly is trying to mislead the House by saying that the Parliamentary Counsel Office is in a position to do that.<|endoftext|>

"
That member’s not misleading the House?;National;I am not saying that that member should be in the House. I think that it is a reference to the fact that they were actually there. I think that is a very good point that I think a lot of members of this House have made, and that is that it is the third reading of the bill, and it is a very important part of the bill, and then when people raise a concern about whether they think that the move to reduce the voting age will help, I think that the
So what is the ministerial responsibility for Opposition policy?;Labour;In the past, the Minister has been responsible for policy, and she has been responsible for an excellent number of ministerial responsibilities. In the past she has been responsible for the policies, and in the past she has been responsible for a policy, and she has been responsible for the policy, and she has been responsible for the policy, and she has been responsible for the policy, and she has been responsible for the policy, and she has been responsible for the policy, and she has been responsible for the
So what is the ministerial responsibility for Opposition policy?;National;"I am the Minister of Social Welfare, and I am responsible for the policies of the National Government, of the Labour Government, of the National Government, of the Labour Opposition, and of the New Zealand First Party, and for the policies of the Labour and National parties. That is the responsibility of the Minister of Social Welfare.<|endoftext|>

"
Does the member want to seek leave in respect of the late tabling of the amendments?;Labour;"I will seek unanimous consent for the amendments to be taken into order.<|endoftext|>

"
Does the member want to seek leave in respect of the late tabling of the amendments?;National;"The point is that the member will not be able to see the amendments because they are not in the print version of the bill.<|endoftext|>

"
Has that policy been approved by the Government caucus?;Labour;"Has that policy been approved by the Government caucus? It has been approved by the Cabinet office, by the heads of staff, and by the management of the Ministry of Business, Innovation and Employment. I say to the member for Selwyn that that policy has been approved by the Government caucus and that it is now being implemented.<|endoftext|>

"
Has that policy been approved by the Government caucus?;National;"That policy is supported by the Government caucus, and we will be supporting it.<|endoftext|>

"
Are you now ruling that references cannot be made to people outside Parliament?;Labour;"The member is now ruling that reference should be made to different people.<|endoftext|>

"
Are you now ruling that references cannot be made to people outside Parliament?;National;"I shall consider the point of order. I am not ruling that I think that the member should have ruled out of order.<|endoftext|>

"
Is the Government planning to announce any further measures in the near future?;Labour;"I think that the member for Papakura asked that question in the previous session.<|endoftext|>

"
Is the Government planning to announce any further measures in the near future?;National;"The Government is working hard to try to reduce the costs of the Labour Opposition and the Green Party. As the previous speaker has mentioned, the Budget also provides a significant amount of extra money to enable the public sector to carry out its activities. That is why the Opposition is opposed to it.<|endoftext|>

"
What steps can the Auckland Regional Council take to have these matters expedited?;Labour;"The council is working closely with the CEO of the Auckland Regional Council, who has had over 2,000 complaints received. The council has been advised of the number of complaints received, and will now meet with the chief executive of the council to try to expedite the matter. The council has been advised that it has been assured that the complaints will be taken seriously by the chief executive and that the council will get a satisfactory outcome.<|endoftext|>

"
What steps can the Auckland Regional Council take to have these matters expedited?;National;"I am not able to say that at this stage.<|endoftext|>

"
What recent measures has the Government taken to improve the safety and monitoring of commercial pilots?;Labour;The Minister of Transport is well aware of the fact that commercial pilots have been operating in Australia for some years. The Government is making some progress in this area by allowing commercial pilots to fly up to 30 hours without pay, or to fly for more than 25 hours without pay, as part of the implementation of a pilot program that has been running for some time. That is a very good way of looking at it. The Bill does not strike out against operators as such. The Bill moves to make it
What recent measures has the Government taken to improve the safety and monitoring of commercial pilots?;National;I have just informed the committee that we are currently working with the industry to develop a pilot of a new type of radiofrequency identification system, which is expected to be launched in late October this year, that it is aimed at commercial pilots, and that the pilot will be operationalised in August this year. The Bill outlines a total of $6.7 million for the pilot. The Bill is related to the question of the commercial pilot operator licence. It is a different, cost-effective model of
Do you want to speak to the point of order?;Labour;I want to make a couple of points. The first point is that nothing in this Bill has happened to make it clear that the legislation is serious. I have seen reports from the previous speaker, who made some comments about the names of the bills. I am sure that the member will be aware that the names are completely separate, but it is very important to understand that this Bill is serious. I suggest that the member should read it carefully. I would like to thank the member for St. K
Do you want to speak to the point of order?;National;I want to say that I am very much concerned about the participation fee. I would like to see the Minister explain to the House how the participation fee can be controlled and how it can be controlled as it is in relation to the member for Christchurch West, who has represented the National Party in this House for the past 2 years. What the Government has been doing is to give away a very good thing for Christchurch, as opposed to giving it away as a major thing in terms of the commercial
Is the Government satisfied with the provision of replacement toilets for earthquake-affected Christchurch residents?;Labour;"It is a very good system. The Christchurch area has had a very good response to the earthquake. The number of earthquake-affected residents in Christchurch has increased by about 50,000. That is a very good response. I am pleased that within the last 24 hours we have had a lot of discussion on the way forward.<|endoftext|>

"
Is the Government satisfied with the provision of replacement toilets for earthquake-affected Christchurch residents?;National;"During the recovery from the earthquake, we have had a great deal of consultation and consultation with the public and with the local community. The Government has made sure that the replacement of the toilets is a high priority, and is determined to continue to keep finding out the best way of dealing with the problem.<|endoftext|>

"
