question;party;answer
What are the names of the six ports?;Labour;It is very interesting to note that the name of the six ports in Auckland are
What are the names of the six ports?;National;"There are five ports, and the member has been asking that question, so I will give him the details. The answer is that the port in question is called Dunedin. If the member wants to know, the member will have to go to the member's electorate.<|endoftext|>

"
When are the road and the rail line expected to be reopened?;Labour;The Government has made it clear that by the end of this week. It is a matter that the Railways Corporation and the Government will be looking at carefully. I think it is important that we look at the railway industry to see whether it is a good place to invest, or whether it is just an unnecessary piece of infrastructure in the context of the economy. As the member for Maori Affairs said, I think it is important that we have a proper look at that industry, because we must be
When are the road and the rail line expected to be reopened?;National;I think the Government is moving to get the line up and running in a timely fashion. We are getting there by the end of this year. We think this is the right thing to do in the long term, and I think we should appreciate that we are moving towards these projects. One of the things that I heard from the member for St. Kilda that was very interesting was that the Government had moved the line to be a very short distance along the Aorangi Highway. Now we
Will deferring the full funding date resolve the costs facing families from the blowout in the accident compensation accounts?;Labour;"The only answer I can give to that is that the accident compensation accounts will be more than double what they were before the blowout, and that is the biggest issue in the accident compensation system.<|endoftext|>

"
Will deferring the full funding date resolve the costs facing families from the blowout in the accident compensation accounts?;National;That is the first question. I want to thank the member for Auckland Central for her assistance in this debate. I think it is a wonderful opportunity to speak at such a time of the year. I have some good news for the Crown and for the people of New Zealand, and I think it is the first opportunity I will ever have to speak in this House about the Budget. It is probably the best chance I have had to discuss the Budget. I thank the member for Selwyn for his contribution
As passports are provided on a self, pays principle, why has that shambles continued for as long as it has?;Labour;The Government is not in control of the issue. The Minister of Transport has been left to deal with it in the House. I have been encouraging the Bill to go to a select committee. The Bill is not currently on the Order Paper. I have been told by the Minister that the Bill has been thoroughly cleared by a select committee. It is due to come before the select committee shortly. The Bill also has a number of technical amendments to it. I am not able to attend select committee meetings,
As passports are provided on a self, pays principle, why has that shambles continued for as long as it has?;National;"As no doubt you appreciate, the Government does not object to the bill being passed to provide for the self, -that is the intention of the Government.<|endoftext|>

"
What impact has technology had on the cost of providing angioplasty treatment?;Labour;It has had a great impact. There have been fantastic improvements. Since the completion of the Health and Disability Commissioner’s report on the cost of providing angioplasty treatment, the cost of providing angioplasty treatment has been reduced from $93 million to $7 million. In the last year the cost of providing angioplasty treatment was reduced from $178 million to $205 million. This is an extraordinary achievement. I applaud the commissioner’s report, and commend the
What impact has technology had on the cost of providing angioplasty treatment?;National;It certainly has had a significant impact, as shown by my colleague Tim Macindoe. He has just pointed out that the cost of providing a high-tech angioplasty procedure in the Canterbury region is now $1.75 per minute, compared with $1.60 in 2005. The cost of providing a high-tech angioplasty procedure in the Christchurch area is now $1.65 per minute, compared with $1.50 in 2005. The cost of providing a
What is the compliance rate for hut fees, and who decides how the money is allocated?;Labour;The compliance rate for hut fees is one of the highest in the world. I have been in the hut industry myself, and I can tell you that it is fantastic and wonderful. I have been to his camp where I have seen the living conditions, the accommodation, the educational facilities, and the facilities, and I have seen the staff who are working in the camp. I have seen what they look like on a day by day basis and what they do in a rush. I am very pleased that
What is the compliance rate for hut fees, and who decides how the money is allocated?;National;The compliance rate for the hut fee system is the number of hut-owners who have been assessed to be in receipt of a hut fee. The number of hut owners is defined as being in receipt of a hut fee. If this is the case, it will be a very good thing if the Government does not care to abolish this system. I have an unconfirmed report that says that the number of hut-owners who have been assessed to be in receipt of a hut fee increased by 7 percent in
Is the Minister aware that history has moved on and most people actually have cellphones now?;Labour;"That is exactly right. I am not too happy to comment on that, but I am sure that the member has a better idea than I do. The member could use that suggestion to her advantage. I think that is that a good thing, because with members like that, the public will be looking forward to the next election.<|endoftext|>

"
Is the Minister aware that history has moved on and most people actually have cellphones now?;National;I am certainly aware that the current cellphones in New Zealand are up to date and that we have a new generation of smartphones. But I am not aware of any suggestion that we should change the rules of the game. I think it is absolutely ridiculous that the member should think that it would be too hard to get a smartphone, that it would require a lot of resources to do it. The current rules of the game involve one phone per household, but we do not need to change them. We
What steps will the Minister take immediately to walk the walk and eliminate the gender pay gap in the Ministry for Women?;Labour;"We will be building on the success of the previous Government’s earlier work in building on the progress made in reducing the gender pay gap, and taking additional steps to ensure that our office is staffed more effectively. The Government's other major initiative is the recent announcement of the National Certificate of Employment.<|endoftext|>

"
What steps will the Minister take immediately to walk the walk and eliminate the gender pay gap in the Ministry for Women?;National;I have been working closely with the office of the chief executive of the Ministry for Women to address the gap. I have also been working with the office of the chief executive to ensure that the office of the chief executive is successful in its role, and I have been developing a policy in collaboration with the office. The office of the chief executive provides advice and support for the office. The office is responsible for development, direction, and management of the office, and it is, in my view, a
Is this the one that the Minister indicated earlier relates to dead dogs, which was to be removed?;Labour;"I can confirm that, because a person is not required to keep a dead dog.<|endoftext|>

"
Is this the one that the Minister indicated earlier relates to dead dogs, which was to be removed?;National;"it is the one that the Minister indicated earlier.<|endoftext|>

"
What types of proposals have been accepted in this round?;Labour;The Government has accepted some proposals. We have not accepted all of them, but we are doing a good job of that. The Government has accepted that the Australian model is not a very good one. We have accepted that it is not very good. The idea that the Government is trying to introduce this bill is to give that model to New Zealanders, to help New Zealanders cope with the costs of that model. It is not to give any more to New Zealanders than we have. It
What types of proposals have been accepted in this round?;National;The proposals that have been accepted are a range of options. They include the following
