question;party;answer
Are points of order coming out of members’ time now?;Labour;Not a drop. Just a few minutes ago, in answer to a question from the member for New Plymouth, I was told that point of order is being used in the House. That is what the member asked. I have just been told that point of order is being used. I cannot see any point of order coming out of that. That is the way it is. I do not know of any point of order being used in this House. I am sure there are some points of order being
Are points of order coming out of members’ time now?;National;I say to the member for Papakura, who has been talking about the public, that we have been talking about the member for Napier in the House. It is a very good way of putting it. If the member thinks that point of order is coming out of the members’ time, he does not know the member for Papakura. They have not been talking in the House. I would not think that point of order is coming out of the members’ time, because the member
When did the member sit on the front bench for National?;Labour;"I did not sit on the front bench for National; I sat on the front bench for the honourable member, who has a new book under her name, and who has unfortunately got it wrong. This is a Government that will continue to be a Government that will put New Zealanders first, and a Government that will put the rights of New Zealanders first. That is the key difference between the National Party and the Alliance. The Alliance is a Government that will continue to put rights first. That"
When did the member sit on the front bench for National?;National;When I was the Opposition spokesman on health. It was during the last election. I am delighted to have been with the National Party, because we have seen how the National Party will work. The National Party will not be in office if we do not have a Government that is decent. The National Party will not be in office if we do not have a Government that shows and shows that we are striving for a decent society, that we are trying to be fair, and that we are striving to be
What groups are particularly vulnerable to gambling-related crime?;Labour;There are quite a few of them. It would be far too simple to make a distinction between those who are vulnerable to gambling, and those who are not. The real problem is that the lottery is the poster child, and it has been shown that it is no more effective than a limited currency in controlling people's behaviour than the street or the house. I have a number of examples of that in my area, and I think that are very worthwhile to put to the attention of the House. I
What groups are particularly vulnerable to gambling-related crime?;National;"The main vulnerable groups are young people, aged and old, and those aged and old who are interested in gambling or gambling at the same time. The main vulnerable group is the young, I am talking about those who are interested in gambling or gambling at the same time, and those aged and old. Those who are interested in gambling or gambling at the same time are not necessarily vulnerable to the crime of gambling.<|endoftext|>

"
Has the select committee reported to the House?;Labour;"I am sure that the select committee report to the House will give the House a sound warning about the way in which this bill will affect people who are unable to get adequate insurance coverage. That is exactly what the bill does. It will send a clear signal that the Government is not prepared to make the change that will actually eliminate the problems that are plaguing New Zealand.<|endoftext|>

"
Has the select committee reported to the House?;National;The select committee has reported to the House. The Bill is about assisting the Department of Labour to improve the performance of the department. The Bill was introduced in October 1992 and has now been passed by the House. The committee report clearly states that the department must have a plan in place to improve the performance of its employees, to reduce the burden of employee turnover, to provide better management of the department, and to protect the interests of any of the department's employees. I congratulate the committee on its efforts
Am I clear in saying that it is a public advertisement the member is seeking to table?;Labour;"It is a public advertisement. It is not a political advertisement, and it is not a press advertisement that the member is seeking to table.<|endoftext|>

"
Am I clear in saying that it is a public advertisement the member is seeking to table?;National;I am in agreement with the member. I will tell the House what is in the directive. I know that if the member is interested, the directive states that the National Party policy statement from the current election is
Under what circumstances would there be further tax cuts?;Labour;"What would the National Opposition say about the proposal? What would the Prime Minister say about it? What would the member for Tauranga say about it? When would she stand up as a member of Parliament and say that the Government was making good progress?<|endoftext|>

"
Under what circumstances would there be further tax cuts?;National;Under what circumstances would there be further tax cuts? I would be delighted if, in the next 3 to 5 years, it was the case that, for the first time in the history of New Zealand, incomes were going up, and that was the case for a long while. It is now to that extent, that I believe that we are talking about a positive growth trajectory for this country. I believe that we are talking about a positive growth trajectory for the future, and I believe that we should
Why is the royal commission taking so long?;Labour;"The commission has been in place and it has been working for some time. It is the first royal commission, the first legislative commission, and the first royal commission about which I have no doubt. I am not prepared to give away my time and I suggest that the member stop making excuses.<|endoftext|>

"
Why is the royal commission taking so long?;National;There are another 660 people on the commission, so that is 660 people, but it is just not working. It is not working. I believe that there is going to be a lot of pressure over the next 12 months, particularly going to the select committee. The report that we are going to have is going to be a more comprehensive report. The royal commission will be a more comprehensive report, but we will not be getting a full, on-whoopee with the royal commission,
Would it be possible for the member to explain that in the House?;Labour;I would be happy to. It has been an interesting session. I have been trying to work out why the member for Tauranga is in the House, whether she is there because she is a member of the Labour party, or whether she is there for the purpose of entertaining the other side of the House. I thank the member for Whangarei for saying that she is here because she is there to entertain the other side of the House. I thank the member for North Shore for trying
Would it be possible for the member to explain that in the House?;National;"I can tell the member that the phrase ``anodyne'' is in fact a synonym for the word ``hysteria'' and that ``in the House'' is an expression that means to say in the House of Parliament that one is talking about one sitting in parliament. So the member has a point.<|endoftext|>

"
What guarantees can the Minister give that babies involved in the study are not at risk?;Labour;I do not have any specific information to announce from the study. But I can say that the study will involve a small number of babies, and will take a very short time, and I expect that to be included in the decision to proceed with the bill. I also want to say that the study will involve a small number of babies, and I expect that to be included in the decision to proceed with the bill. The National Party is in favour of the bill. The National Party supports the bill
What guarantees can the Minister give that babies involved in the study are not at risk?;National;I would say that it is not just the researchers who are at risk. The most important thing is that the staff involved are safe. At the start of this year I was made aware of a credible threat that a paediatrician had been threatened by an employee. The staff were locked in their offices, and the staff had been threatened by the employee over a phone call. It is credible. It is something that the staff would not have known had they been out in front of the office.<|
Can the Minister answer a question?;Labour;"The answer to that question is yes. I am sure that the member was talking about the fact that the of the Minister of Education actually went down to the District School Teachers Association on a recent day to collect some advice from the members of the unions on the costs of the education of children in the country.<|endoftext|>

"
Can the Minister answer a question?;National;I will go and ask that question again. the member could have quite a lot of trouble. There is no doubt that the Government’s response to the crisis in health has been inadequate. I have said it before, and I will say it again, that the Government’s response to the crisis in health has been inadequate. I think that is what we are dealing with, and we should have been able to look at the statistics and see the extent of the problem. The Government has
