question;party;answer
How long has Australia been an independent, self-governing country?;Labour;"New Zealand is an independent country, although not quite as independent as Australia. There have been some interesting comments in the debate this afternoon, in relation to the other members of the select committee. It is not necessary to repeat them many times.<|endoftext|>

"
How long has Australia been an independent, self-governing country?;National;It was in fact a self-governing country. We are now in the process of a comprehensive review of our policy and have just announced that we will be taking the first step towards our national identity by making the transition to a national identity card, to a national identity programme. Australians are going to have to wait a few years to get that. We have been trying to get a national identity card up to date for a long period of time, and we are getting it today. It is going
What’s New Zealand First’s policy?;Labour;"We’re in favour of ending the payments. Our policy is that we will be reviewing the system, and we will be doing that by moving the payments to a flexible, managed system. We’re in favour of that. We will be moving payments to a flexible, managed system, and we will hold the Government to account for the fact that it’s moving payments to a flexible, managed system.<|endoftext|>

"
What’s New Zealand First’s policy?;National;The 2-year plan of the National Party says that the management of the economy will be a priority. What that means is that the National Party leader will be in charge of the economy, and will be looking at how to attempt to run the economy better, more efficient, and more competitive. The National Party leader will be looking at how to make the economy more competitive and at how to make it more efficient. The key to the economy, which National Party MPs have said is that the economy will
Is there any objection to that course of action?;Labour;"It is opposed by many members. I think that the member for Selwyn has a very specific question. It is one of the most serious in the history of the House, and I think that I would be very interested to hear how the member might like to answer that question.<|endoftext|>

"
Is there any objection to that course of action?;National;"I am not in a position to comment on the matter. Parliament is not yet in a position to give its final approval to such a course of action.<|endoftext|>

"
What other energy efficiency programmes does the Government support?;Labour;"We believe that it is important to decarbonise is economy, as we have been doing. We are making investments in energy efficiency. We are investing in manufacturing, which is making a big difference to New Zealand in terms of the reduction in power costs.<|endoftext|>

"
What other energy efficiency programmes does the Government support?;National;The other energy efficiency programmes are all being supported by the Government. The Government supports the technology to keep our buildings green. We support the costings. We are already using an action plan to put into action a number of measures that will reduce costs of energy and make it easier for businesses, especially small businesses. We are also implementing an action plan to ensure that we are making energy efficiency a priority. That will not happen without the support of the Government. The Government has led the world in this area
Will the Minister make sure that those Eastern European countries get the full story?;Labour;"The information we are giving to the Minister of Foreign Affairs and Trade will be passed on to the Foreign Affairs, Defence and Trade Committee. The final word will be passed on to the House when the final report is made public.<|endoftext|>

"
Will the Minister make sure that those Eastern European countries get the full story?;National;I will have to refer to the Foreign Affairs, Defence and Trade Committee on that. I expect that the member who asked the question, Willie Jackson, will get the full story from me. I intend to make a speech that will be very brief, since I have been in this House for only 3½ weeks. I have been lecturing in the House, I have been talking to the press, I have been talking to the public, and I have been talking about the activities of the National
What are some of the current challenges and opportunities for New Zealand businesses and households?;Labour;I was told that there was a major challenge in my electorate, but I am not sure whether that is actually true. I do not think we should be talking about a major challenge. I think that is one of the nicest things I have heard in terms of the Government’s approaches to business and households. They are very much focused on the notion of what they want in their day-to-day lives. I think that is a great way to talk about what we want in our
What are some of the current challenges and opportunities for New Zealand businesses and households?;National;We have a very active and focused business development programme, which includes in the period June, which is a great time to be a business owner in the New Zealand market. We have a very extensive programme for the next 3 years. We have a very focused programme for the next 3 years for the new Paremoremo building, which is an amazing project. We have a very focused programme for the business development programme that has been underway for some time. We have a very focused programme for the next
Is there any objection to that course of action being taken?;Labour;"I do not think the member is being unreasonable in his questioning.<|endoftext|>

"
Is there any objection to that course of action being taken?;National;I am not afraid to say that I am not concerned about the way in which the Opposition process has been conducted. I do not think that the public should be worried about the way in which the Government is conducting its business, and the members of the House should not be worried about the way in which the Government is conducting its business. The Opposition has tried to use the debate tonight to try to make a political point, but I think that that is not the case. I think that the debate tonight
Does the member support the bill?;Labour;I support the bill, and I would like to congratulate Clive Hensley and the co-leader of the Alliance on bringing it to the House. I was not part of the select committee that heard the submissions, but I can tell the House that I did not feel that there was a great deal of nuance in the submissions. They are not always so much about whether or not they are right, but more about the fact that we did not feel that there was a certain level of nuance in the
Does the member support the bill?;National;"I support the bill. The committee has reported it on the second reading. I think it is a good measure to try to get the balance right of the House in the last stage. If the member can help it, then we will be okay.<|endoftext|>

"
How was the intended daily bag limit for snapper of 20 fish per person arrived at, and did the Minister count the fish?;Labour;The number of fish was calculated by the member for Pahiatua, and he told the committee that it could not be exceeded. I consulted the member for Otaki, who is the chairman of the committee, and he said that the number of fish had been determined by the member for Pahiatua, who was the chairman of the committee, and he told the committee that that was right. I said to the member for Otaki that the actual number was 22 fish and there were 22
How was the intended daily bag limit for snapper of 20 fish per person arrived at, and did the Minister count the fish?;National;"I was not counting any fish. The Minister was making a mistake in determining the number of fish. I did not have the time to answer that; I have been advised that the idea was that 20 fish equal 10 snapper, and that the number of fish was 20, not 10. I have been advised that the plan was that the number of fish would be 20, not 10. The oversight has been found to be deliberate.<|endoftext|>

"
What did politicians have to do with it?;Labour;The Opposition was asked about the idea of the bill being called the Government’s tax bill. It is not a position that I currently hold, but it is something that I will leave to a select committee to evaluate. It is a very interesting issue. The issue of whether the proposed changes will help or hurt New Zealand has been a matter for many years. I am very happy to hear that it is now time to look at the bill as it is now known, rather than coming to terms
What did politicians have to do with it?;National;I think it has to be. I think that the member should have realised that when she said that the member for Waitangi is basically saying that there is a problem. It is that there is a problem, and that it has not been solved. It is an absolutely amazing position to be in, and to have the Minister of Maori Affairs come to the committee, and to have the member for Papatoetoe come, and to make it clear that the problem of Maori representation in
