question;party;answer
Given the steps that the Minister has just outlined to control drug use in prisons, what has been achieved so far?;Labour;The Government has made some progress on the issue of drug use in prisons. The Minister has indicated that a new facility is coming to New Zealand in Auckland, and that there will be new drugs in the prison at the new site and within the new facility. The Minister has also indicated that there will be a new drug treatment centre at Yaldhurst Prison, and that there will be more drugs in the new facility. We have made some progress in that regard. The Minister has indicated that there are no
Given the steps that the Minister has just outlined to control drug use in prisons, what has been achieved so far?;National;A significant number of inmates have been removed from the Bureau of Prisons, and the number of staff in the prisons has been substantially reduced. There are now fewer than 700 prisoners in the Bureau of Prisons. The most important thing that has been achieved in terms of the reduction of drug use in prison is the prevention of drug abuse and the reduction of the total number of current prisoners. It is estimated that there are now only 700,000 current prisoners in prisons. The current figure is about 1 or
What has GDP per capita growth been in the past year?;Labour;"GDP per capita growth in the last year was 4.2 percent, which was the highest rate since the National Government took office in 1990. that figure is in line with the figure for the last year that we were in office.<|endoftext|>

"
What has GDP per capita growth been in the past year?;National;"The latest figures show that the economy is growing faster than the forecasts. That rate of improvement is the fastest rate of improvement in the last decade.<|endoftext|>

"
I take it the Hansard will record that the Minister of Defence objected?;Labour;I am sure that I did. The matter of the Minister of Defence objected to my having a copy of the report. I was not aware of the Minister's objections, because the Minister did not raise them at that stage. I shall read a few paragraphs from the report
I take it the Hansard will record that the Minister of Defence objected?;National;I respectfully disagree with that explanation. When the member for Tauranga asked the Minister of Defence why he did not give us the actual text of what he said, we were told that he did not have such an explanation. It was that he did not have such a reply. I have been informed that he did not have such an explanation. I am told that he is not prepared to give us the reason for that aspect of the matter. I do not know whether he is prepared to give us
How much will the Government’s super-city proposal cost to implement and run annually?;Labour;That is a very good question. I have to ask the Minister and the member for Tamaki to tell me exactly how much the Government’s super-city proposal will cost. The answer is that it will cost somewhere between $600 million and $2 billion. It will cost the Government, and I think that the member for Tamaki has to come to this House with a very good answer. I am sure his colleague the member for Mangere will be able to tell us how much
How much will the Government’s super-city proposal cost to implement and run annually?;National;We were not aware of that, but it is a good thing that we know that. I’m pleased that this measure is being taken at this point in time, rather than waiting until the end of this Parliament to implement it, which is a good thing. The other reason why we will be able to get it moving is that the Government is making a real progress in the last few months, and I’m pleased to see that there is an increase in the number of public hearings
Can I take it, the Prime Minister is against inheriting the Government debt figure and then increasing it by over 800 percent?;Labour;The issue of debt is one of the major concerns that the Government has, and I have no difficulty in saying that the debt is not unmanageable. The Government can borrow on its own accord. The Government can borrow on its own accord. The Government can borrow on its own accord. The Government can borrow on its own accord. The Government can borrow on its own accord. The Government can borrow on its own accord. The Government can borrow on its own accord. The Government can borrow on its
Can I take it, the Prime Minister is against inheriting the Government debt figure and then increasing it by over 800 percent?;National;I will not lose my time. I want to take a minute to congratulate the member for New Plymouth, who is a very brave member and the leader of the National Party. He will belong to the National Party caucus. He is a very strong and determined member of the National Party caucus. I congratulate him on being able to make a contribution to the debate. I congratulate him on his willingness to show his leadership skills. I congratulate the member for Auckland Central, who is a very brave member. He
Will the member answer a question?;Labour;That member is asking a question. I am also asking a question. She is being quite correct. Another point that is worth stating is that the member for Tauranga does not have an interjection. The fact that he is a member of the National Party is irrelevant to the question that he is asking. The member for Tauranga should know that he is one of the people who will be in the next election. He is one of the people who will be behind the next Government. He
Will the member answer a question?;National;"I am not aware of that. I think that will be a matter of negotiation.<|endoftext|>

"
Given the fruitfulness of those discussions, why has the Minister declined to include any of the matters discussed in the bill?;Labour;It is a very interesting point, because the Minister has not been able to bring any of the elements before the committee to the select committee before 1 August. That is a very good thing. I think it is a very good thing that we are able to bring them before the select committee. The problem that I have been having with the select committee process has been the problem of wording. We kept trying to get the word ``serious'' in the bill, and with the addition of the words ``official
Given the fruitfulness of those discussions, why has the Minister declined to include any of the matters discussed in the bill?;National;The Minister has been asked by a number of people around the country why he was not prepared to allow a select committee to discuss the bill. I have to say that he could not be bothered, because he is busy with the next speaker, who when he has finished talking will be very busy, but he has not been asked that question. The only point I would make is that if the Minister was prepared to allow a select committee to have a go, it is absolutely crucial that that process is open
What was the reaction of those groups to the proposed changes?;Labour;The National Party opposed the legislation, and that was proved to be true when the New Zealand Council of Trade Unions, which represents the interests of the unions, voted against it on the basis of cost. Television New Zealand, the New Zealand Federation of Trade Unions, and the New Zealand Federation of Labour did not vote for the legislation, and that was proved to be true when the Government voted against it. The reason that the National Party opposed it is that the National Party believes that it is a
What was the reaction of those groups to the proposed changes?;National;"I am not at liberty to release the details of their responses. It will be a matter for the select committee.<|endoftext|>

"
Has the Minister seen any reports supporting work with businesses through services such as the business growth fund?;Labour;The Business Growth Fund is an excellent initiative. It is a very, very good thing. The Government has committed to it in this budget, and it is a very, very good thing. The Business Growth Fund is in New Zealand. The Minister of Finance is in New Zealand. I want to go on to some of the other external reports that have been made. This is a very good Budget. It is very good. It is very good. It is very good. It is very good.
Has the Minister seen any reports supporting work with businesses through services such as the business growth fund?;National;I have seen reports that give some support to the business growth fund. A recent report of the Business Growth Fund says that New Zealand is expending $3 billion on infrastructure and other infrastructure projects, which is a good investment, and that that is very encouraging. I would like to see more emphasis being put on the jobs that the fund is doing in the areas of tourism, and on the promotion of the entrepreneurship fund, and on other areas of business development, with the aim of encouraging more business activity
What is the source of that document?;Labour;"It is a document provided to me by the chairman of the National Party. It is available to a number of people, including the member for West Coast.<|endoftext|>

"
What is the source of that document?;National;The source is from the Department of Conservation. It is a document prepared by the Department of Conservation. I am not aware of any such sensitive information. What is the use of that information? I know that the department wants to reassure the public, and perhaps it is not wrong to call it a document. I know that the department is asked to review its draft estimate on the proposed legislation on the conservation fund. I am not aware of any such request. I note that paragraph 1 of the main explanatory
