question;party;answer
what was the nature of Mr Paraone’s involvement in the discussions?;Labour;The full extent of Mr Paraone’s involvement in these discussions was to sit on the Agriculture Business Committee, which is now the Finance and Expenditure Committee. He sat on the Finance and Expenditure Committee for 6 years and received $1.5 million worth of advice. He sat on the Finance and Expenditure Committee for 2 years, and received $3.3 million worth of advice. He sat on the Finance and Expenditure Committee for 2 years, and received $1 million worth
what was the nature of Mr Paraone’s involvement in the discussions?;National;The discussions were on the nature of policy, and on the development of a package that would enable New Zealand to keep our exports close to the international standard of living. The member for Selwyn has some interesting ideas about the nature of the package. I do not think that it is a package that will have any practical effect, except as a way of preventing New Zealand from being at risk of falling into the international standard of living and being at risk of becoming a ''tiger'' nation. The member
What success has the Department of Corrections had with reducing reoffending through its programmes?;Labour;The total number of reoffending convictions is now down to 1,143, and the number of reoffending cases is down to 1,088. The number of convictions has dropped to 1,079, whereas the number of reoffending cases has dropped to 1,095. The number of reoffending offenders has fallen to 1,106, which is 98 fewer than the number at the same time last year. And the number of reoffending convictions has fallen to 1,
What success has the Department of Corrections had with reducing reoffending through its programmes?;National;The success of the Department of Corrections is that it is taking the initiative in suspending. It is working with the community, getting community support, and getting the support of the offenders. The Department of Corrections has been very successful in some of the areas it has invested in. It has the most successful programmes in the world, the most successful programmes of any prison. It is just a shame that the Minister of Corrections has not focused on the positive aspects of the Department of Corrections and on the positive aspects of
Is it a new fashion for the Prime Minister to neither do morning media nor come to Parliament?;Labour;I would not say that it is new. The Prime Minister is saying that it is new, and I think that is really important. I think the first thing we need to get to is whether the Government is listening to the people of this country. I think that, when a Government starts to listen to the people of this country, it is a very good thing. I think that is really important. The second thing is whether the Government is having the most open, transparent, and accountable Cabinet operation
Is it a new fashion for the Prime Minister to neither do morning media nor come to Parliament?;National;"I am not sure whether that fashion is new or old. I have heard it said in the debate that the Prime Minister should have done a little more homework before making that statement. I do not think it is particularly fashionable for a Government member to make such a statement. If she is concerned about the reputation of a party or a group of people, she should be more careful. She should tell the truth instead of making a statement that is ill-conceived.<|endoftext|>
"
How many State houses were sold by the previous National-led Government?;Labour;"The previous National-led Government sold a total of 41,000 State houses, and the previous National-led Government sold only 15,000 State houses.<|endoftext|>

"
How many State houses were sold by the previous National-led Government?;National;"There are approximately 150 State houses that have been sold since October 2001. Thus far, there are 10,000 State houses that have been sold, and they are being sold in the following stages.<|endoftext|>

"
Is it appropriate, when we are discussing a Government order of the day, that there is no Minister present?;Labour;The member who has just resumed her seat, and in fairness to members opposite, I want to say that I have a feeling that the information is quite out of date. It is now clear that the member for St. Kilda is the only member of Parliament who has resigned. A member can be dismissed if she is not a member of Parliament. I hope that members opposite, for whom I have a lot of responsibility, will consider the matter of the resignation of the member for West Coast.<|
Is it appropriate, when we are discussing a Government order of the day, that there is no Minister present?;National;"I am talking about the Minister of Corrections.<|endoftext|>

"
You do not want to hear about it?;Labour;"It is not a matter of whether or not we agree with the minister, it is a matter of whether or not the Government agrees with the Bill. I do not think that the member for Tamaki will be able to bring herself to be silent as a result of the remarks we have heard.<|endoftext|>

"
You do not want to hear about it?;National;I don’t want to hear about it. I’m just trying to help the member. I do not think the current schedule of missing and murdered New Zealanders is good enough. We did not do enough to address that. We suffered from cuts in social welfare spending, and now we are in a position where we need to focus on domestic violence. The Northern Mariana Islands have a very high rate of domestic violence. They get nearly half a million dollars of taxpayers’ money
yes or no as to how many were involved?;Labour;It is correct that the previous speaker was able to help the House with this one. It was a very productive session. I say to the member who has just resumed her seat that I think that it is an important part of the legislation that the Labour Opposition is supporting. I do not think that the member should go as far as to try to imply that we are unanimous but that there is unanimity on the legislation. I think that we have to work very hard to get legislation like this through the
yes or no as to how many were involved?;National;We are talking about the number of people in the country. It is not the number of people in the country who received the letter. The number was the number of people who sent the letter to their relatives, and to their friends, to their neighbor, to their family members-the sort of thing that people who are in the middle of a difficult situation do. That is what this legislation is about. What has been said by the member who is introducing the Bill is absolutely true. We were talking
What are the economic implications of not allowing research to continue into the GE area?;Labour;Two things. The first one is that it has cost the Government a lot of money to have the research into the GE industry going through the process that we are now going through. I want to make it clear that the major research centres in New Zealand, based on their returns, are doing very well. I am going to put it all out on the public record, and we will see what happens to the research facilities in the future, because we have had this debate in the House recently about where
What are the economic implications of not allowing research to continue into the GE area?;National;It is not a good political move to have a minister of research who was not a scientist, but that is the reality of the situation. I am not going to comment on the lack of statistics, but the Government is not prepared to look at the numbers in the light of the scientific research that is going on in Canterbury and elsewhere, and I do not think that the Minister of Research has been able to use that issue to the advantage of the scientific community. I say to the Minister of Research that
Why did the Government not extend to all New Zealanders the subsidies available to group 1 families?;Labour;The Opposition will have to wait until the next Budget to see how many people who now receive the assistance will get, but it is my contention that the Government has to take a few extra measures to be better prepared for the future. The Opposition's policy is that the Government should have to put up the subsidy level, which will be very difficult for the Government to do. I think it will be a mistake for the Government to take the current level of assistance to all families at that point. I think
Why did the Government not extend to all New Zealanders the subsidies available to group 1 families?;National;"The Government has not announced the availability of the financial assistance. I have told the House that I have been assured by the Ministry of Social Development that the programme will be available to all New Zealanders.<|endoftext|>

"
What happened to the member's conscience?;Labour;The member's conscience has been very clear. The member forgot to tell the House the Cabinet papers. I think that is the only thing that was missing from his speech, and finally, he was told that he was absent. He was listening to the Leader of the Opposition, and he was listening to the member for Papakura, who had been there. He was listening to the member for Tamaki, and that member said that he was absent. The member for Papakura was the one who was
What happened to the member's conscience?;National;I was called by the member for Whangarei. He asked me what I was doing in my electorate. He did not have to ask me what I was doing. I said that I was getting some advice from the child. I was told that the child was a 12, old boy. I was told that the child was being taken to the local hospital. I was told that the child had been worked on. I was told that the child was not going to the hospital because the child
