question;party;answer
there was a new hospital, and who went and opened it?;Labour;"The new hospital was really different from the old hospital, and it has been closed. The new hospital is just a few metres away from the old hospital.<|endoftext|>

"
there was a new hospital, and who went and opened it?;National;I did not open it myself. I was told that it would be closed by the end of February. I was told that it would take 1 hour to get the hospital up and operating. I was told that it would cost $3 million. I was told that it would be closed on 1 March. That is how it was treated. A new hospital was opened in June, and there is a new bed, a new hospital, and a new hospital-a new hospital. But we are not
Wouldn’t this be more interesting if you said it in Māori?;Labour;I would not say that it’s more interesting, it is more interesting that we are now debating the appointment of a new Minister of Māori Affairs. I think that’s a little bit more interesting. Don’t cut and paste that.”,” We want an honest answer, and it’s been a little bit of a funny commentary here on the radio and all. I think it’s a little bit more interesting that a new Minister
Wouldn’t this be more interesting if you said it in Māori?;National;I would say that it would be more interesting if you said it in Māori. This question is one of the most important questions we face as a Government and as a nation, because of the terrible tragedy that occurred in the community of Tarawera. The tragedy was that, as the official statement of the Crown states, only 10 of the 115 people who lived in the Tarawera community were killed. The tragedy was that the Tarawera community was so small and all the people in
What remedy does a member have when someone tells an untruth then refuses to withdraw it?;Labour;I am not able to advise on that point. I can say that the member for Yaldhurst has not broken any law in that process, but I am very happy to take him on as his spokesman and say that he is not guilty. I would like to say that I have not broken any law in this process. I think that the member should take on board the member for Yaldhurst. I think that he is a responsible person. I think that he should take on board his member
What remedy does a member have when someone tells an untruth then refuses to withdraw it?;National;I have given the member the example of the member for Tauranga who made the claim that the member for Tauranga was a member of the National Party, and he refused to withdraw it. The member for Tauranga is not being unkind to him, because he is being unkind to the Opposition. I have got the example of the member for Bay of Islands, who is refusing to withdraw his statement, and who is being unkind to the Government.<|endoftext|
What other assistance can redundant workers expect the Government to provide?;Labour;The Government will provide about $16 million. The total required for redundancy and industrial disability in the current budget is $37 million. I take issue with the member, and will do so in a minute. The Government is funding a huge number of redundancies and industrial disability. The Government is funding redundancy and industrial disability through redundancy actions, not through the normal redundancy action. The Government is funding redundancy through the normal redundancy action. Another redundancy action-as the member for Tarawera has pointed out for
What other assistance can redundant workers expect the Government to provide?;National;The Government is providing consistent assistance to redundant workers. It is providing that assistance to people who want to stay in New Zealand, and is providing that assistance to people who have been previously employed. Those are the sorts of things this Bill enables the Government to do, and I have to say that I am disappointed that it was not brought to the Government's attention long before the Opposition received the information. I think it is good to have a little bit of information before the select committee so that that we can
Doesn't this argument really depend on whether such a backlash actually does affect our reputation as a country?;Labour;That is a very good point, and I agree with it. It is interesting that the Labour members, are now now saying that we are doing something wrong and that this is the time to be debating this. They are saying that they cannot wait to listen to the Opposition, to the National Party, and to the Greens, all have been saying that this is a time to be debating this. It is a time to debate this. It is a time to debate this. It is a time to
Doesn't this argument really depend on whether such a backlash actually does affect our reputation as a country?;National;I suggest that we think very carefully about it before we get on to it. I think that rightly so, because it is a very safe and well-behaved country, and there is no harm in a good, clean backlash. There is no harm in a backlash that does not actually affect our reputation as a country, and that does not necessarily affect our reputation as a country. The other point that is raised by the Hon David Parker in his supplementary question is the need to consider the effect the
to confirm, does the Prime Minister think rents are decreasing and will continue to decrease-is that what she’s just told me?;Labour;I’m not at liberty to disclose that today, but I say to the Prime Minister that the Opposition is not happy with her. We are not happy with this Government’s handling of housing issues. We’re not happy about the way we are spending our money, and that’s why we’re not pleased. I think it’s time we got a bit more serious about housing. The Prime Minister’s statement is in direct contradiction to what
to confirm, does the Prime Minister think rents are decreasing and will continue to decrease-is that what she’s just told me?;National;"I am happy to confirm that they are getting down. The real concern I have is that the cost of housing is increasing. I think that that is an issue that we need to be examining in terms of the number of houses we need.<|endoftext|>

"
Is that something that has been discussed?;Labour;"I have not. I have not. I have made it quite clear that it is the committee that is responsible for the legislation. I have told the Committee that the legislation is not yet ready to be introduced. I have told the committee that the legislation is not yet ready to be introduced. I have told the committee that the legislation is not yet ready to be introduced. I have told the committee that the legislation is not yet ready to be introduced.<|endoftext|>

"
Is that something that has been discussed?;National;I think it is an area that has been discussed and discussed in some detail in the select committee process. I am sure we will see that it is something that is a matter for discussion in the select committee. I think it is a sensible move to do. I think that it is a good thing to see a select committee address a matter like this. I think it is about time that we had a select committee address a good, solid, practical, and practical proposal. I think it is a
What about business development boards?;Labour;It would be very difficult to make those decisions. The Government has done a good job, and I commend it to the House. I have to say that the Government is trying to be good, to try to make the Government change its view. The Government has got its message wrong. It is trying to be a good-tempered Government and tries to make the Government agree. In the end the Government is just being weak. The Government has got the message wrong. The Government has got the message
What about business development boards?;National;The Minister of Finance is a proud and pragmatic economist. He is even more pleased with the figures, because he knows that the business sector is doing well, and that the Government is delivering a balanced Budget. The Minister of Finance is no fool. I have a letter from him on an airport in Auckland that read
What progress is the Government making in its economic plan?;Labour;The Government has made a number of announcements. One of those has been the introduction of the Universal Childcare Strategy. The strategy is aimed primarily at improving the quality of life for children and their families. We are also focussing on our priority areas of innovation and development. The aim of the strategy is to improve the quality of life of children by improving the quality of life of children in a positive way, and to improve the quality of life of families by improving the quality of life of families.
What progress is the Government making in its economic plan?;National;This morning the Minister of Finance announced a new investment programme that will help all New Zealanders. That programme is an investment in infrastructure, in the skills and in the skills of our people, to create more jobs and to support growth. Those investments will enable us to lift productivity as we move into the future, which will support growth from here on in. This Budget was successful, because it provided for a long, term programme of policy development that will see us moving towards the end of the decade.
Is the Government considering introducing a capital gains tax that exempts Māori from the capital gains tax?;Labour;"I am not aware of any proposals to introduce such a tax.<|endoftext|>

"
Is the Government considering introducing a capital gains tax that exempts Māori from the capital gains tax?;National;"The Government has looked at this issue very carefully. It is not a matter of whether or not it will introduce a capital gains tax; rather it is a matter of how it will change the tax structure. This is not a totally new idea. It is an idea that has been proposed by a number of commentators, but it has not been heard from the select committee. That is the reason for that, because there is no particular consensus on whether it should be introduced. We are seeking a report from"
