question;party;answer
Does the member who raised the point of order wish to assist me with a translation?;Labour;"I was not referring to the member who raised the point of order. He is quite right to be asking a question in this House. That is why we have had a change of name to the Labour Party. That is why we got rid of the name the Labour Party, and that is why we are going to be calling it the Labour Party.<|endoftext|>

"
Does the member who raised the point of order wish to assist me with a translation?;National;"I am sure that the member meant the member for Tauranga. I am sure that that is what he meant. I do not think that it is really necessary; I think it is a great shame that the member for Tauranga did not come across the rules that are there now, in addition to the usual rules, which are there now. He did not understand them. He did not understand that there is an interim Act in force; that there is an interim Act in force, just"
Why was it important to hold these investitures?;Labour;In the last Budget, we had a surplus of $202 million. The last Budget, in which we had a surplus of $202 million was the first time we had a surplus of that sort. It is important to point out that the surplus in the last Budget was in the first year of the Government, and we did not have a surplus in the year before. The surplus in the last Budget, which we had in the first year of the Government, was in the second year of the Labour
Why was it important to hold these investitures?;National;I have been briefed on it. The members of the select committee are all very keen to get the money out of the hands of the people of New Zealand. I am proud of the fact that our Budget was balanced in the last Budget, and I am proud that the Government has kept it in balance. Our Budget is not in balance, and I think that is a very good thing. The reason for the fact that the select committee was so keen to get the money out of the hands of taxpayers
What reports has the Minister had about the long-term prospects of this industry?;Labour;"The Minister has been very concerned when there has been a drop in the prices of tomatoes, potatoes, beans, mushrooms, quinoa, and other produce, and that is one of the reasons the Minister has been very concerned about the future of tomatoes.<|endoftext|>

"
What reports has the Minister had about the long-term prospects of this industry?;National;I can tell the member that at the moment we are in good overall shape. I can tell the member that the statistics show that we have a situation where the number of people in the farming industry is growing steadily. This rate of growth is projected to continue and I think that we need to be optimistic about the future of this industry, and I will give him the example of what we are doing in the capital, the Greens will be celebrating this because it represents the future of this industry.<|end
I have been very patient and heard a lot of points, but is this a new point?;Labour;The point is that this Government has been very patient and has listened to the views of the people of the North Island. The National Party is not prepared to allow this legislation to go back to the select committee. It is not prepared to allow it to go to the select committee because it knows what is in it. The Government has been very patient and has listened to the people of the North Island. The National Party is not prepared to allow this legislation to go to the select committee. The select committee
I have been very patient and heard a lot of points, but is this a new point?;National;That is a new point, and I am pleased to see that the member is waiting to see it. I hope that he will be able to come before the select committee, because it will help him. I have been waiting for a temporary solution as to the moment that the member is getting to. The time is now, and I hope that he will be prepared to come to the select committee to see whether he can get on a plane to Wellington or wherever. I have waited a long time for
how far back would you like me to go for the bits you did not hear?;Labour;I would like to go back to the fact that this bill is about the Administration of Public Works, because that is where the problem lies. I am not saying that it is an entirely bad bill, but it is a little behind where it should be. It is not right that the Government should be able to argue that its bills will improve the State house and the office of the Governor-General, because that is absolutely wrong. I am not sure what the last speaker meant. I am sure that
how far back would you like me to go for the bits you did not hear?;National;I think it is a little over a year, and I think it is a little over a month, when it is another 30 days before the Prime Minister gets to speak. So we are going to have to wait a little bit longer than that. The point was made in the debate that there are a number of ways the Government could have put our economy back on track. I point out to the hon. member for Selwyn that the Government did not do that, and is now actually making the
Can the Minister provide an example of measures being taken to identify callers properly?;Labour;"I have had a number of reports that have shown that the accuracy of caller identification is very much in question. It is evident from the number of calls I have received that there is some concern in the community about the accuracy of the caller identification number. I am not aware of any specific measures that will be taken to identify callers properly.<|endoftext|>

"
Can the Minister provide an example of measures being taken to identify callers properly?;National;I refer to the fact that in the last 12 months there have been more than 500 calls about people who may be interested in joining the Service. The Government is concerned that the number of calls has increased from 589 in the year ended 31 December 1994 to 1,922 in the year ended 31 December 1995, and the number of calls is believed to have increased to 1,253 in the year ended 31 December 1995. It is difficult to understand why the Minister is saying that the number of calls
Is the National Government committed to the principle of public consultation in the development of education policy?;Labour;Yes, Minister. The Government has been putting a freeze on the cost of the system, and that is what will happen to tertiary education, if this bill is passed. I am not opposed to that, but at this stage we are left with the choice of whether to introduce the system to pay for it, or whether we can keep it as it is, on the basis of cost-benefit ratio. That is the choice we will have to make. I do not think it is appropriate to
Is the National Government committed to the principle of public consultation in the development of education policy?;National;"I am not aware of that. I am not aware of any report that says that the Minister of Education has a policy in front of him that will stop people from getting into tertiary education from birth onwards. they are the only people who are not going to be able to get into tertiary education. The only thing that is going to stop them from getting into tertiary education will be the introduction of proper education courses.<|endoftext|>

"
What action will the Government take to make sure there is enough clean fresh water for all New Zealanders?;Labour;"The Government has a range of measures to ensure that we have enough clean fresh water for all New Zealanders. Water requirements are a key priority in the water supply area. Fresh water demands are now being addressed through the requirement for the system to meet the demands of the growing population and to meet our current and future water needs.<|endoftext|>

"
What action will the Government take to make sure there is enough clean fresh water for all New Zealanders?;National;I will tell the House that the Government has already announced a £1 million programme to deliver clean fresh water, which will include a targeted water campaign for the latest 3-year period, which means that there won’t be a repeat of the situation last year. The Government has also announced to the Minister of Conservation that 1,000-odd litres of water will be distributed to the top 5 percent of households in this year’s water campaign, which will include 1,000 hydrop
And what are those new facts, I ask Dr Coleman?;Labour;The new facts that are based on the number of students enrolled in tertiary education are that the number of tertiary students enrolled in tertiary education is up by 7,600, while the number of people enrolled in tertiary education is down by 1,000. That is a significant improvement on the number of enrolled students in tertiary education, and that is what is going on, and that is what the Labour Government has been responsible for. That is what is going on.<|endoftext
And what are those new facts, I ask Dr Coleman?;National;The facts are that NZ tertiary students are having a great deal of success, particularly in the tertiary sector, and I have been talking about that for some years. I think it is a very good thing. I think it is a very good thing that tertiary students have an opportunity to go into science here. I have talked to some of the science students who are still on their undergraduate course and who are not getting a career in science. I think they are very, very happy. I
Do the Better Public Services targets require measurement?;Labour;"The Better Public Services targets are basically the targets that the Department of Internal Affairs and the Ministry of Business, Innovation and Employment have used for years in attempting to achieve the quality of public services. In the last 2 years they have managed to achieve those targets, but the Department of Internal Affairs and the Ministry of Business, Innovation and Employment have not, and they are not likely to achieve them for the foreseeable future.<|endoftext|>

"
Do the Better Public Services targets require measurement?;National;they do. They are a target, not something to test. the Better Public Services targets are a benchmark to show how well we are performing. They are not to prove how good we are as a Government. They are simply to show the progress we have made in New Zealand over many years, and to demonstrate that we have a Government that is doing its best to get better results for the public. I say that we need more good results from New Zealand. We need to remember the good times and
