question;party;answer
Has Wisconsin Central Transportation given any assurances concerning the continuation of passenger services?;Labour;"The Government has asked for, if possible, an extension of the service to cover the road network in the Kimberley from Wairoa to Tauranga.<|endoftext|>

"
Has Wisconsin Central Transportation given any assurances concerning the continuation of passenger services?;National;The company's fares have been reduced over the past year, and it is emitting a lot of carbon dioxide. It is a very good company. It has a very good reputation. It is, you know, it has to be a very good company, because its annual report says that it is the second-best company in terms of the quality of its service. So it is a very good company. I think we are talking about interstate transport, and that is where the problem is for the other
How does the Government intend to control future public sector labour costs?;Labour;The Government has announced a series of measures to address the challenges facing New Zealand. The first is the introduction of the new superannuation policy, which is expected to save $10 billion over the next 10 years. This will lead to a further $10 billion in savings in the region of $10 billion. I am not prepared to see the costs of this policy fall on the shoulders of the taxpayers. The second measure announced today is to introduce a new tax policy. The new tax policy will include
How does the Government intend to control future public sector labour costs?;National;The Budget update shows that we have been able to keep public sector labour numbers under control, with the constant stream of savings in the amount of $30 million. That has meant that we are able to spend less and spend more. The constant stream of savings in the amount of $30 million has meant that we have been able to spend less and spend more. That is the reason that the Government is focused on continuing to spend less and spend more. It is also why we are spending less and spending
When will the remains be returned to New Zealand?;Labour;I can confirm the name of the Committee before which I intend to give my report. It is a committee of eight, with the chairperson being the member for Sydenham and the deputy chairperson being the member for Christchurch West. I also intend to refer to the report of the committee on the Bill. I am sure that the committee will learn from its report that not only amending the law but also removing it is the best way in which to protect the security of New Zealand and the
When will the remains be returned to New Zealand?;National;"The last I heard from Mr Ashburton was that the Minister of Health was preparing to return the body to New Zealand. I hope that he is not too busy to retrieve it. I should like to ask Mr Ashburton how he can be so confident that the body will not be returned to New Zealand.<|endoftext|>

"
Can the Minister provide details of any current prosecutions for supplying or dealing in indecent videos?;Labour;There is information on the web pages of the New Zealand Law Society and the New Zealand Law Society and the New Zealand Lawyers and Conveyancers Association, and I have it. There are a number of prosecutions being prosecuted at present. Those include the case of Mr Smith, who was prosecuted for supplying and dealing in indecent videos, and another case of Mr Smith, who was prosecuted for supplying and dealing in indecent videos. If one has been convicted, one is in the police database, and there are about
Can the Minister provide details of any current prosecutions for supplying or dealing in indecent videos?;National;The number of currently reported offences for supplying or dealing in indecent videos is as follows
Is the Minister aware of any initiatives to increase the planting of Douglas fir species in the South Island?;Labour;We are looking at this issue. I am not aware of any significant programme to increase Douglas fir numbers in New Zealand. We have a very good number of Douglas fir trees in the North Island, and we have some Douglas fir trees in the South Island as well. I am not aware of any specific programmes to target New Zealand's Douglas fir trees. It is very interesting that with the report of the select committee, the Minister in charge of the Bill, the Hon Phil Goff, made very clear that
Is the Minister aware of any initiatives to increase the planting of Douglas fir species in the South Island?;National;I am aware of a number of initiatives to increase the planting of Douglas fir species in the South Island. the large number of trees in the South Island are not particularly resistant to the effects of the pine beetle, and I expect that if they are planted in the right way, they could be quite useful as a management tool in the South Island. The Forestry Council of New Zealand has had a very good season in the South Island, and I expect that it will be a very good year for there,
What is the significance to the Government of the recent financial statements showing a higher than anticipated Budget surplus?;Labour;The significance to the Government of the recent financial statements showing a higher than anticipated Budget surplus on the basis of a deficit for the year ended March 2005 of 2.4 percent of GDP is quite incredible, and the Government is considering a range of measures to diminish the deficit, including a range of fiscal policies. The Government is also considering paying off the outstanding debt, as we do in the current Budget, and we are now considering applying the accumulated debt to a range of non-cash items.<|end
What is the significance to the Government of the recent financial statements showing a higher than anticipated Budget surplus?;National;"The financial statements for the year to June 1990 are the highest since records have been kept. The fiscal outlook is encouraging, and the Government is doing its best to keep the economy going.<|endoftext|>

"
Is the member seeking leave to respond?;Labour;I am sorry to interrupt the member, but I think he is getting to his feet, because he is being very protective of the young and the old, and he needs to be reminded of that. I should like the member to apologise for making his comments out of order. I am pleased that Heylen has indicated that the member has made his remarks out of order. I am pleased that the member has indicated that Mr Peters has made his remarks out of order, and that the member has been
Is the member seeking leave to respond?;National;"I seek leave to answer this question.<|endoftext|>

"
Was the withholding of information confined to public servants?;Labour;"The information was not confined to public servants, and the Minister of Social Welfare has made it clear that the information was not secret.<|endoftext|>

"
Was the withholding of information confined to public servants?;National;"The Government is not releasing information that is deemed to be confidential or is contained in the Official Information Act.<|endoftext|>

"
Who was in the Government at the time?;Labour;"who was in the Government at the time? The last speaker was a former Finance and Expenditure Committee member who was a member of that committee. He is out of his depth. He was not in the Government at the time he said that he made that comment, not in the House at the time he said that he made that comment, and not in the House when he made that comment. The member who made that comment should withdraw and apologise for that comment.<|endoftext|>
"
Who was in the Government at the time?;National;"I am bound to answer that question, but I have been asked the same question.<|endoftext|>

"
Why isn't the member standing this time?;Labour;"I have a few questions, but I think you should come to this House to answer them.<|endoftext|>

"
Why isn't the member standing this time?;National;"The member is asking why he shouldn't be here. That is all he has done.<|endoftext|>

"
