question;party;answer
Was the bill’s process subject to any time pressure due to the need to pass it before the CPTPP is ratified?;Labour;The process was subject to some time pressure due to the need to pass the bill through the CPTPP. The law was not in a mess, as I was happy to be reassured by the Minister of Justice, because we were able to put the bill in a decent place, and progress was made in the House. There was no need for a mess, as I would imagine that the member might say, and the House is in good shape. The bill is not in a mess.<|endof
Was the bill’s process subject to any time pressure due to the need to pass it before the CPTPP is ratified?;National;"The passage of the bill is subject to time pressure due to the need to pass it before the CPTPP is ratified. I am sure that the Minister will be available to schedule the bill as soon as possible.<|endoftext|>

"
How will New Zealand aid assist the new nation of East Timor?;Labour;We are supporting our Australian counterparts. We are supporting our own Armed Forces. We are supporting our former air force, which it is important that we are providing here, because the air force is now the backbone of the forces in East Timor. I want to say that having been a military officer in the Indonesian jungle, I am impressed by the effectiveness, flexibility, and professionalism of our forces. The ability of the East Timor forces to conduct that operation, which is a very tough operation, is
How will New Zealand aid assist the new nation of East Timor?;National;The new nation of East Timor is being founded, and I have a suggestion for the House. If you would like to take it from the member for Eastern Maori, that is the only way this Government can help. The other suggestion is to send the troops back to East Timor. That is the only way to help this country, because the man who has been at the helm of this Government for 10 years and who has inspired this country, as he has inspired people across the world,
What was the policy before the election?;Labour;I was not prepared to give an answer to the first part of that question. I thought that the party was in good position. It had its policies in good shape, and we did not have anything that would make it better. The questions are much more interesting than the answers. I can tell the House that the Government is not going to be in the position where it has to go back to the people of New Zealand and say that the Prime Minister had to be asked to give an answer. That
What was the policy before the election?;National;"The policy before the election was to reduce the number of teachers in New Zealand from 2250 to 1810. We know that that is the target that has been set by the previous National Government, not 1660. The National Party's policy is to increase the number of teachers in New Zealand from 2450 to 2270. That is not the Government’s policy.<|endoftext|>

"
How many times did the member say that on the campaign trail?;Labour;"I am not sure I have been asked that question twice. I am not sure I have been asked that question twice. I think it is a little bit of a stretch. I am not sure I have been asked that question twice. I do not think it is a little bit of a stretch. I think it is a little bit more than that.<|endoftext|>

"
How many times did the member say that on the campaign trail?;National;"That was the last one I used to say on the campaign trail. I will not come to that again.<|endoftext|>

"
Are National MPs exercising a conscience vote on the legislation coming to the House today?;Labour;I am exercising my conscience vote on the legislation coming to the House today. The national spokesman said that 20 percent of the adult population is in the bottom income bracket of $50,000 to $100,000, and that that was why there was a Government-sponsored campaign in 2008 to visit rural areas and to gather examples of how the economy is working. We are looking to see what is happening to rural New Zealand, and that is why the Government is promoting the bill today. The bill will
Are National MPs exercising a conscience vote on the legislation coming to the House today?;National;"Not at this time, but I will be doing so when I have the opportunity.<|endoftext|>

"
Am I being required to withdraw what I understand were the words of a High Court judge about the leader of New Zealand First?;Labour;The High Court judge who had the temerity to say that, to which the member who asked the question objected. It is his judgment. I am not aware of anybody who would take the words of the High Court judge as a guarantee that the Labour Party would support the leader of the National Party. The reports that were tabled in this House yesterday about the Leader of the Opposition's statement about the Leader of the Opposition indicate that the leader of the National Party is highly, highly concerned about the Leader
Am I being required to withdraw what I understand were the words of a High Court judge about the leader of New Zealand First?;National;"That is the case. You are required to withdraw what you understand.<|endoftext|>

"
before I address the Committee, could I seek leave to have Supplementary Order Paper 209 in my name read into the Bill?;Labour;I acknowledge the honourable member for Tamaki for his contribution, and I also acknowledge the member for Remuera for his contribution. I acknowledge the honourable member for St. Kilda for his contribution and for the way in which he has performed in the House, and the honourable member for St. Kilda for his work in the debate. I acknowledge the member for Christchurch North for the way in which he is conducting his business and for the way in which he has conducted the debate
before I address the Committee, could I seek leave to have Supplementary Order Paper 209 in my name read into the Bill?;National;"I ask the member to put the question in my name, as I have done in the past.<|endoftext|>

"
Is that not under clause 6, in Part 1?;Labour;"That is correct, but I do not think that for the reasons that have been indicated to the House tonight, this clause should be amended to refer to the hearing of submissions. The member should be made aware that the bill does not deal with the question of whether the Minister has knowledge of the allegations, it is named as the ``Minister of Integrity'', and is the legislation on the Local Government Amendment bill. It is a better name.<|endoftext|>

"
Is that not under clause 6, in Part 1?;National;"That is all I have to say.<|endoftext|>

"
What’s this got to do with mining?;Labour;"What’s this got to do with mining?<|endoftext|>

"
What’s this got to do with mining?;National;"The Government is looking forward to a significant increase in gas prices in the future, a Government that will work hard to keep the price of gas down.<|endoftext|>

"
Does he, as Minister for Māori Development, think it is a good idea to sell State houses while whānau live in cars and garages?;Labour;I can confirm that it is a good idea to sell State houses while the people who live in them are in the suburbs. The Government has to sell State houses in order to provide the homes for all the Māori, and that is a good suggestion. I want to give some examples of how this is possible. The last time that I was in the electorate of Wairarapa, the last time that the State Housing Corporation was doing that was when it was in the hands of Gordon Morris
Does he, as Minister for Māori Development, think it is a good idea to sell State houses while whānau live in cars and garages?;National;We know that Auckland is becoming a very wealthy city in the West Coast region. We know that there are a lot of people in Auckland who have their own homes. I know that I recently received a letter from an Auckland resident who is a big homeowner, a bigger homesteader, and a bigger property owner. He was saying, that he had not been informed that State house sales were coming. He was quite surprised to learn that when he became the Minister of Housing, he was told that that
