question;party;answer
What is the current status of the police pay round?;Labour;"The status of the police pay round is not the same as the status of the police pay for another service, such as the local police.<|endoftext|>

"
What is the current status of the police pay round?;National;The pay round has been completed and will be carried out in the coming weeks. The pay round starts on 1 October. There is a lot of work to do with the pay round and with the purposes round, and the current award entitlements are equivalent to the award entitlements under the current award system. As the award entitlements will be similar to the award entitlements under the current award system, it is expected that the award entitlements will be upgraded to those awards on 1 October. The award
do you want the point of order or don't you?;Labour;"I am not going to give the point of order to the member. The point of order to the member is to ask him to withdraw his question. I think that he should tell the House what the point of order is.<|endoftext|>

"
do you want the point of order or don't you?;National;As the member for Dunedin West, I am not sure about the point of order. I am happy to take the point of order. I am sure that the member for Papakura asked those questions in the House, and I refer him to the answers that were given to the House on Thursday. The member for Papakura asked what was in the interests of children. I shall say that that question was answered in English, and I find it hard to believe that the member for Whangarei
Are there transport and environmental advantages from such a levy if it should be used?;Labour;There are many, many transport and environmental advantages, and the Government is promising that we will get them and that the transport benefits will be a huge one. But it is not a good idea to think that we can handle the transport issues in Auckland. We have the Auckland Regional Council South. It is a terrible project, but it had its time. It has been in place for a couple of years. It was in place for a couple of years. The Auckland Regional Council South has been a real
Are there transport and environmental advantages from such a levy if it should be used?;National;"I do not have that information, but I am sure that it will be useful to the member.<|endoftext|>

"
Which aspects of the Australian analysis did the Treasurer find of particular interest?;Labour;Some of it can be found in the report on the Australian Government's Fiscal Update. But what I can say to the member and to the Associate Minister of Finance is that when they get to the point of the fiscal projections, I think they will be able to see that the Government is on track. The Government is on track to balance the Budget in the next 4 years, and I think that will be a pretty good year. It is a good year for the Government. I also think that it
Which aspects of the Australian analysis did the Treasurer find of particular interest?;National;It is not a matter of whether the Government has done it well or badly. The point is that the Government has done it badly. It has done it badly. The Opposition has not done it badly. The Opposition has done it badly. The Opposition has put in a Government that is ill-conceived, ill-thought-out, and ill-calculated. It has put in a Government that will not deliver good policy, it will not deliver good policy, and it will deliver bad policy
How will the new initiative work, and whom will it target?;Labour;Under the scheme, everyone who is eligible to receive another benefit will be automatically on a benefit. The scheme will, so far, be operating in conjunction with the State-supported employment scheme and will not introduce any new work test requirement for those who are already employed. The scheme will operate in a manner which will ensure that all beneficiaries are eligible for a benefit. It will also require that beneficiaries receive the benefit in the first place, as is done in the State-supported employment scheme. The number of
How will the new initiative work, and whom will it target?;National;It will be the most advanced and comprehensive programme in New Zealand. It is a programme that will take a year to implement and will be a success. Some seven hundred and sixty-six of the students from the secondary system will be overseas, including students from four other countries
Some people do not even go to them, do they?;Labour;The money that is spent on the Maori Affairs Committee. It is spent to give that committee adequate time and resources to do its job. I am not sure whether that is the case, but it is the measure that we have used. We have put it on a priority list and we will make it a priority. I am glad that the select committee has been given a little bit of time to go through the matter, because I am sure that it will ask about the Maori Affairs Committee,
Some people do not even go to them, do they?;National;Those who are not on the list are people who have been excluded from school, who have had to pay a deposit, who have lost their school and their home, and who have been denied a parent's support payments because they cannot get a job. Some people have had to pay a deposit, and some have been denied a parent's support payments because they have to pay a deposit. That is the case for 43,000 people-43,000 people. That is a lot of people. I
What is the composition of the officials group?;Labour;The composition is a very good one, with an OK balance of the staff. I met the chief executive of the office yesterday to discuss the staff position with the Chief Executive. He clearly told me that the staff, as a result of the discussions with the office, would be given a boost of some 30 to 40 percent. The staff will be given a boost of more than 30 percent to help them in the job. They will be given an extra week of pay, and it will be revenue.
What is the composition of the officials group?;National;It is an organisation that is led by Chris Carter. The members of the group are
What was it under the National Government?;Labour;As I sit here this afternoon I am humbled to hear the new Minister of Transport speak, and I am very pleased to see him in this House. I am delighted to see that he is a very, very good Minister of Transport. I am very happy to see that since he has been in this House he has carried on a very successful track by getting a National Government back into Government. I have to say that I have been looking forward to seeing that. I really do not have a problem
What was it under the National Government?;National;"I am not answering that question. I am merely giving an answer. The question sets out to what extent the Government is operating as a business entity in the sense of the AuditorGeneral’s report, and the answers to those questions are not relevant. The Minister did not actually answer the question this morning, and it was a wholly different question.<|endoftext|>

"
How did the previous National Government undermine DOC’s role as nature’s primary defender?;Labour;That is not something that I will stand by and repeat in this House. What I will say is that this Government and this Minister have put enormous effort into making sure that we have a good plan in place, and they will continue to do that. I say to Mr Russell, that the National Government has put on DOC a plan. I say to Mr Russell that I personally believe that we are going to have a good plan in place. I think Mr Russell should go and talk to the members of
How did the previous National Government undermine DOC’s role as nature’s primary defender?;National;"I am not aware of that. I am aware that the previous National Government’s approach to DOC was to close it down, to cut it out, to shut it down, and to shut down its capacity to provide services to the public. I was not aware that the previous National Government was planning to shut down that organisation.<|endoftext|>

"
What initiatives, has the Minister been notified of that would promote employment growth in the Southland region?;Labour;I will give you an example. I have just received word from the Whangarei Chamber of Commerce that there is a $300 million expansion of the Whangarei Business Centre, and that the new headquarters are due in Dunedin next month. That is a very good example of progress. It is a very good example of leadership. My colleague is referring to the announcement that the New Zealand Tourism Council is expanding the network of business tourism programmes, including the corporate suite for the Bluff Public
What initiatives, has the Minister been notified of that would promote employment growth in the Southland region?;National;Last year there was a strong job, -particularly in the Southland region. The external unemployment rates in my electorate are down by about 50,000, particularly in the Southland region. The Government has been working hard to support the industry and to keep the industry growing. The annual report of the industry reveals that that sector is growing at a healthy rate, and that a strong workforce has been pouring in to fill the gaps. The volume of the construction industry alone is expected to increase by 800,
