question;party;answer
What are the latest forest product export figures?;Labour;The latest export figures are from the Forestry Commission of the Forestry Industry Association of New Zealand. The figures are for an estimate of the timber exports in the last quarter of this year. The report indicates the export volumes of the timber sector for the year ending 31 June were $2.052 million, an increase of 11.9 percent from the previous quarter of the same year. The report also indicates that the export volumes for the year ending 31 June were $1.197 million, an increase of 9
What are the latest forest product export figures?;National;The latest export statistics for the forestry industry are for the export of timber for the year ended last June, 0.1 percent. This was up from 0.6 percent to 0.8 percent. The industry exports $66 million worth of wood products in the year ended last June. This is the number one export in the industry. The industry exports timber for export to the Canadian market, which is in line with the overall exports of the timber industry. The industry exports timber for export to Australia,
Are any other communities in New Zealand either providing now, or planning to provide, services in a similar fashion?;Labour;I am talking to the communities that are actually using the Māori Language as a first language, in the area of the local area health, in the area of the local area health services, and in the area of regional health. The Minister has just been asked to say which community is providing services. I think it is absolutely right that the community is talking to the communities around their communities to say, “Hey, we need your services, here are some good, good ideas this morning.
Are any other communities in New Zealand either providing now, or planning to provide, services in a similar fashion?;National;Some of the communities in New Zealand are providing services and are planning to provide services in the future. I will say that in my area we are providing a much greater level of assistance. We are providing a full range of services, and are providing them very substantially, under the umbrella of the current health system, the new health system, and the health system we see coming in the future. I welcome the fact that, the Minister of Health has put forward the Bill. I welcome the fact that the
Been up to Northland College lately?;Labour;"I have gone to Northland College and it has a very good education service. If the member wants me to take a call, I am sure that he can do that.<|endoftext|>

"
Been up to Northland College lately?;National;I have been up to Northland College this morning, for a course called ''Counselling and Psychotherapy''. I have practised on a number of campuses. I have been in Northland a number of times, and I am very pleased to be able to contribute to the work in that regard. During my time in the House today I encourage the Government to secure the services and facilities necessary to ensure that all my constituents in the Northland electorate, many of whom are not well off, are well
Does the member have a further supplementary question?;Labour;The member has a supplementary question. The last supplementary question was about the member for North Shore. I am happy to answer it, but it is not quite so much a supplementary question as it is a supplementary question. I think the member comes to this House when he or she has a supplementary question, and I think that we are in the middle of a very constructive debate. Perhaps it is a little bit late to answer that question. I think that the member may be able to get another supplementary question
Does the member have a further supplementary question?;National;"The member does not.<|endoftext|>

"
How does Operation Wasawasa II support the Government’s Pacific reset?;Labour;"Operation Wasawasa II is an international campaign that will support the Government’s Pacific reset strategy. It is aimed towards supporting the Government’s Pacific reset strategy to build on a foundation of engagement and success that is based on shared values to promote economic growth and job creation.<|endoftext|>

"
How does Operation Wasawasa II support the Government’s Pacific reset?;National;"Operation Wasawasa is a comprehensive programme, including strategic landings by the New Zealand Defence Force and the New Zealand Special Force; supporting direct-action training for the New Zealand Defence Force; working with the United States to secure assistance for Pacific operations; providing partnership support for the New Zealand Defence Force for the Pacific; and engaging in some joint training between New Zealand and United States forces. The programme does not include professional training. The programme is intended to focus on the needs of the Pacific region and to"
What were the circumstances of Lord Carrington's involvement compared with the New Zealand situation?;Labour;"Lord Carrington is their deputy leader. He and his deputy, Professor Farnsworth, have been the most senior official in the Labour Party.<|endoftext|>

"
What were the circumstances of Lord Carrington's involvement compared with the New Zealand situation?;National;"Lord Carrington was not involved, is he?<|endoftext|>

"
Is it your ruling that that is out of order?;Labour;"It is my ruling.<|endoftext|>

"
Is it your ruling that that is out of order?;National;If the member thinks that that is out of order, I shall be more than happy to lend him a copy of the Standing Orders, which I have handed to the member for Waitaki. How can he possibly have confidence in that member, when he is the leader of the National Party, and when he is the chief executive of the party, when he is the leader of the Labour Party, and when he is the leader of the National Party? He is not a credible leader. I show the
How does the announcement support the Government’s national strategy on financial capability?;Labour;"The announcement is a very positive one. It shows that our economy is strong and that the Government’s plan for growth is working. I think it is also a very positive statement, and it serves to bolster confidence in the future. I look forward to the Government’s speech at its next caucus meeting and the time when economic growth will continue to be strong.<|endoftext|>

"
How does the announcement support the Government’s national strategy on financial capability?;National;It gives us a much better idea of where to go next. We need to be smart about the way we deal with the future, because we need to be smart about what we do now. I have heard the previous speaker say we need to be smart about how we deal with the future. I think that when we look at the World Bank’s projections, we need to be smart about how we deal with the future. So this announcement represents a major achievement in the attainment of the National
Has the Minister received any reports that are critical of the manner in which the sale was conducted?;Labour;I have received reports that state that the majority of the proceeds were used for reconstruction and reconstruction of the nation’s defences, including the New Zealand Defence Force, the New Zealand Defence Force‑specifically the New Zealand Force, if the member wants to know where that is. I am surprised to learn that the majority of the proceeds were used for reconstruction, but the member is asking about the New Zealand Force. I cannot recall that much. I have received reports that state that the New Zealand Force
Has the Minister received any reports that are critical of the manner in which the sale was conducted?;National;In the 1990s there was a very big controversy. They were not in the form that I would describe today. That was an incident that occurred when the House was sitting. It was an incident that I believe, has been exaggerated, and I think that it is the most appropriate way to describe it. I believe that it was an incident that took place at the time that the House was sitting. I believe that it did not happen in the way that I describe in my statement in the House,
Is there any objection to that course of action being followed?;Labour;I think there is a concern about the position of the National Party in this House, which is being dragged back into the age-old debate about which way the wind blows. I think it is incumbent on the Government to be able to answer that question. If it is not able to answer it, then the member is just answering questions. So there is a concern about the position of the National Party in this House, which is being dragged back into the age-old debate about which way the wind
Is there any objection to that course of action being followed?;National;"The member is an honest man. I have made it clear that my view is that even if the member were to hold his views on it, he would not be able to do it. It would be a very serious matter. I do not have any objection to the decision being taken on the basis of the member's position.<|endoftext|>

"
