question;party;answer
Is the Government planning to spend an additional $250 million a year on new roads to offset the effects of a global recession?;Labour;The Government is spending $250 million a year on new roads, to offset the effects of the global recession. I have already pointed out that the annual roading investment package for the earlier stages of this Government’s package includes a further $75 million for new roading in the next 5 years. I would like to thank the member for Auckland Central for his kindness in assisting me to get more information about the roading package. I think he has done a very good job of that.
Is the Government planning to spend an additional $250 million a year on new roads to offset the effects of a global recession?;National;I put it in that category. That is what this Bill is about, and that is the reason it is called the Local Government Amendment Bill. The people who have been affected by this action should be commended. They have been affected by this action. They have been hurt by this action. They have been hurt by this action. They have been hurt by this action. They have been hurt by this action. They have been hurt by this action. The Opposition has been hurt by this action.
From 1 July 1993, where will Bay of Plenty people be able to take complaints about health services?;Labour;I am not quite sure of what this has to do with health services. The main thing that is going to happen is that people are going to be able to make complaints, but I am not quite sure what it will mean. The other thing that I am quite certain about is that GP services will be cut. The main thing that is going to happen is that there will be a reduction in GP services, and that will be a big concern for people who do not have to put up with that
From 1 July 1993, where will Bay of Plenty people be able to take complaints about health services?;National;I am not sure that that is the kind of question that the member asked. The first point is that the department is well aware of a number of the issues that have been raised in the Committee of the whole House, and I am sure that it will be able to answer it. The second point is the fact that the department has been asked to investigate a number of them. I am sure that it will be able to answer questions on that matter. The third point is that it is a very
What is the official record, What becomes the official record?;Labour;The official record is that of the Ministry of Transport, ``This is a measure of the success of the Labour Government's reforms, and it looks good for business.'' A few days later, in a press statement, the Minister of Transport went on to say
What is the official record, What becomes the official record?;National;It is not the official record. If you want to know what makes a good record, it is to have a track record based on the very thing that can be used to give a false reputation. The reason that the record is not accurate is that it is not the official record. What I do not think is really worth debating is the fact that the Opposition, by its own admission, has a track record of saying that it is against the current system of employment insurance. It is not saying that
What other assistance is available to help tertiary students seeking vacation work?;Labour;The ongoing assistance is provided by the Government. It includes the National Certificate of Educational Achievement. It also includes the State Services Commission's work-study programme, the National Certificate of Educational Achievement, and the National Certificate of Careers, which is a 16-week programme that helps students to develop their skills and to prepare for university. The Government continues to provide support through the National Certificate of Educational Achievement scheme, which is administered by the Department of Education. It includes the National Certificate of Educational Achievement, and
What other assistance is available to help tertiary students seeking vacation work?;National;"The Government is providing assistance to students seeking vacation work through a number of programmes, including a new scheme for early childhood teachers, a new scheme for continuing education teachers, and a new scheme for emergency teachers. The new scheme for continuing education teachers is now being trialled in Christchurch and has been trialled in Rotorua. The term ""continuing education"" teachers will be considered as part of the current scheme. The term ""emergency"" teachers have been trialled in Christchurch. These"
Do you mean like Maurice Williamson?;Labour;He was the Minister of Health. He was the Minister of Health, and he was a former Cabinet Minister. He was respected in his own department. He was a very good Minister of Health. But we are talking about the current Minister of Health here, who is now the Hon. and who is now the Minister of Health. We are talking about the Hon. Dr Jonathan Coleman. Dr Coleman was the man who knew what he was talking about, the man who could speak in public and be trusted
Do you mean like Maurice Williamson?;National;It is interesting that my colleague says that I should inform the House that Maurice Williamson is determined to take a brilliant initiative to make a difference in the health of New Zealand. I am sure that the member for Papatoetoe and I have made that point in the debate today, and I am not sorry for it. I should like to clarify that the member for Papatoetoe is determined to take a brilliant initiative to make a difference in the health of New Zealand. I am sure that he
When will ballot results be announced?;Labour;"I doubt whether it will be until December. I have to say that I think it would be very, very interesting to see which parties might be able to gain from the people of New Zealand’s preference vote. I think we might be able to do that with the Greens.<|endoftext|>

"
When will ballot results be announced?;National;The announcement of ballot results will be announced as soon as possible, when the results are available. I acknowledge that the press statement is called ``Press statement on the question of the year'', but it contains no substantive reference to the question. I do not think that it is appropriate for the press statement to say that the question of the year is ``How will the Labour Party perform in the forthcoming election?'', when the question of the year is the question of the year. It is a simple one
Is Helen Clark fit to be Prime Minister?;Labour;The member for St. Kilda has said that I should be Prime Minister. That is a little like the member for Auckland Central who said that I should be Prime Minister. The member for Auckland Central is saying that I should be Prime Minister and I am not, I am Prime Minister. That is the sort of man who is prepared to be Prime Minister. That is the type of man who is prepared to be Prime Minister. That is the kind of man who is prepared to be Prime Minister.
Is Helen Clark fit to be Prime Minister?;National;"I think that that is a very good question. I do agree with Helen Clark that she is well suited to be the Prime Minister, but I do acknowledge her weaknesses and shortcomings.<|endoftext|>

"
How many of those has the member seen?;Labour;This is a terrible bill. Let me start by saying that the Labour Opposition supports the bill, and the member for Selwyn, I say to the member for Tauranga, who, is the last person standing. She is the last person standing in a Parliament. She is the last person standing because the National Opposition is supporting this bill. I want to go back a little bit to particular clauses in the bill. The member for Coromandel, who is sitting, probably knows the most about
How many of those has the member seen?;National;That is very good, and I want to thank the member for Yaldhurst for the additional contribution that she has made to this debate. She has given us the opportunity to go over a number of matters that I think that are of interest to a number of members in this Chamber. The first of which is the disruption of services at the Wellington airport. The Government has a responsibility to ensure that the airport is able to cope with the demands of the airport industry. We have to make sure that the
What's the Alliance going to do about it?;Labour;The Alliance has been in Opposition for 9 years now and we still do not have a plan. What we have to do is get to the bottom of the issue. We have had an opportunity now to listen to the members of the Alliance, to hear them speak, and to see them take a call on this issue. People do not want to see cuts to the Alliance, because they think that, because it is in opposition, it is somehow in control. The reality is that the Alliance is not
What's the Alliance going to do about it?;National;I have a brief answer. It is a good one. I can see the place where it is at, and I think it is just a matter of us having a little bit of that. The member for Waikato, who has just resumed his seat, is doing exactly what the member for Dunedin North has just done. He is actively engaged in that area. The member for Maramarua is actually trying to put out a paper in this debate that is not just about the use of
Why are the police, Fire Service, and Defence Force bars exempt from liquor licensing requirements?;Labour;"The exemptions, as I understand them, relate to the activity of the salesperson, not to the sale of alcohol. The exemptions relate to the activity of the salesperson and not to the sale of alcohol.<|endoftext|>

"
Why are the police, Fire Service, and Defence Force bars exempt from liquor licensing requirements?;National;"If the Minister or the Prime Minister have been to New Zealand, I believe that they have been to New Zealand, and that the bar is still there, which I believe is the case. I think it would be wrong for me to take a vote for this measure.<|endoftext|>

"
