question;party;answer
How is the Government providing beneficiaries opportunities for work in Canterbury?;Labour;"The Government is providing working-age beneficiaries with the opportunity for work, and working-age beneficiaries are getting a real boost in the expectation that their jobs will be secure. So I am delighted to see more than 2,000 young people getting a real boost from this Government.<|endoftext|>

"
How is the Government providing beneficiaries opportunities for work in Canterbury?;National;"The Government has made it clear that the Government is providing benefits to beneficiaries who are not eligible for them. It is a significant benefit that such people are losing their benefits, and I am concerned to see how many of them are losing their benefits.<|endoftext|>

"
If MBIE can’t estimate the true cost of the Government’s policy, perhaps the Acting Prime Minister could tell us what it is?;Labour;I am aware that there is a cost, but I cannot tell the House exactly how much it is. We are trying to find out the cost of the policy, because it is very important. The cost of the policy is $81 million, and that is what the member should answer
If MBIE can’t estimate the true cost of the Government’s policy, perhaps the Acting Prime Minister could tell us what it is?;National;I have no idea what it is, but I am not talking about that. I would suggest that the Government says it is $1.5 billion. That is a small number. It is just a small number. It is a small number in the context of the impact of the changes that have been made. I want to focus on what that has meant for the health system. It means that people, particularly in older people, can get a better deal on health care. It means that people
Did you get a customary rights order?;Labour;It was a customary rights order, I am sure from the member for Auckland Central. I am sure that the member for Auckland Central is one of the good ones, because the member for Auckland Central was a member of the Maori Affairs Committee for many years, and he spoke to the Maori Affairs Committee on a number of occasions during those years. He was a member of the committee for many years. He is a very good man, and he spoke very well, and he gave us a very
Did you get a customary rights order?;National;The member asked me to put in the words
Can I then ask why the Minister himself continues to rule my question out of order?;Labour;It is the second time that I have spoken to the member, because the member came to the House in the last 1 1/2 hours and made a number of false statements around the question that was put to him. I have listened to the member's answers and I do not think that it is fair and reasonable that the member should be asked to rule out the second reading of the bill by the member for Dunedin West. I think that it is appropriate that the member should be asked to rule
Can I then ask why the Minister himself continues to rule my question out of order?;National;That question is a clear indication of why the Minister is not answering parliamentary questions. I will tell the Minister that as a result of the discussion I have had with my colleague the member for Tauranga, and the response he has given me to the member’s question, he has made it clear that he has not received any advice on the matter. He has not received any advice. I think that is why he continues to rule out the Government’s proposal to give a special education
Why is the Government making significant new investment in research, and innovation?;Labour;Today I announced that the New Zealand Science Fund has been increased to $5.5 million from $3 million. The New Zealand Science Fund will further enhance New Zealand's standing as a world leader in science. The fund will give New Zealanders better access to the kind of research they need and the kind of research that is supported by the Government. It will also ensure that New Zealand can continue to provide outstanding science and technology to help improve the quality of life of New Zealanders.<|endof
Why is the Government making significant new investment in research, and innovation?;National;"The Government is investing $6.2 million in research and innovation, up to $9.6 million. That is a commitment to the future of New Zealand. New Zealand is getting ahead by investing in research and innovation. New Zealand is investing more in research and innovation than we have ever seen in the history of the New Zealand economy. That is why New Zealanders know that New Zealand is in good hands.<|endoftext|>

"
Where do you think the gas comes from?;Labour;"The gas comes from the Government, the West Coast, and the Gisborne area. The Government is responsible for the gas in those areas, and the Minister of Transport should be responsible for the gas in the rest of New Zealand.<|endoftext|>

"
Where do you think the gas comes from?;National;"I am not sure. I am not sure where the gas comes from. I have never been able to ask the Minister to confirm whether the fuel is coming from New Zealand or from overseas.<|endoftext|>

"
Did the Auditor-General make any recommendations regarding the management of offenders on parole?;Labour;"The Auditor-General has made no recommendation about the management of offenders on parole. the member who asked the question should say so.<|endoftext|>

"
Did the Auditor-General make any recommendations regarding the management of offenders on parole?;National;"The Auditor-General is not responsible for the management of offenders on parole or suspended sentence.<|endoftext|>

"
Madam Chairperson, is that in clause 6A?;Labour;"Yes. The member is on the right track.<|endoftext|>

"
Madam Chairperson, is that in clause 6A?;National;I think it is in clause 6A. That is where the word ``ministerial'' ends. That is where the word ``minister'', ``ministerial'', and ``ministerial'' ends. The member for Auckland Central has had to pull out his dictionary in order to look up the words that have been used in the House today. He should read it. I bring back to your attention that the definition of ``ministerial'' is ``a person who has a
So this is relevant to this bill how?;Labour;"This is relevant to this bill how?<|endoftext|>

"
So this is relevant to this bill how?;National;The previous speaker, Laurie O’Rourke, used the phrase “my house”, which I think she should put in the House, because it was good. The second part of the bill is the amendments to the New Zealand Post Act 1993, which deals with the integrity of the National Post and the integrity of trusts. I think that was a good example of how to say your house is not your house. The third part of the bill is a variety of amendments to the Financial
Was the Crown at risk because of the dismissal of the Maori Trustee?;Labour;"The Crown was at risk because of the dismissal of the Maori Trustee. I think I am in agreement with the member.<|endoftext|>

"
Was the Crown at risk because of the dismissal of the Maori Trustee?;National;"the Crown was at risk because the chief executive officer of the New Zealand Herald, who is a former New Zealand Herald executive, was let go, and the office of the New Zealand Herald Trustee was not appointed. The chief executive was appointed by the New Zealand Herald Trustee on New Zealand Herald premises.<|endoftext|>

"
