question;party;answer
Which parts of our horticulture industry will benefit the most from the Trans-Pacific Partnership agreement?;Labour;The main benefit will be to the horticultural industry because of the change to the Agricultural and Horticultural Research Act and the proposed new research module. Most of the major changes will be in the horticulture sector, particularly the introduction of a new research module in the hope that it will help to keep costs down. New Zealanders will benefit from the impact of this agreement on our export choices, because we will be able to benefit from the fact that we will, in effect, be trading with
Which parts of our horticulture industry will benefit the most from the Trans-Pacific Partnership agreement?;National;It will be from the introduction of the new tax regimes, it will be from the introduction of the tax regime, and it will be from the introduction of the tax regime. The member is saying that there will be no benefit to the industry, because there will be no tax on the product. That is not the case. I came to this House in 1984 to learn about the value of good taste and the importance of good taste. I did not come here to talk about the tax regime, or
Why will Pharmac not fund drugs to treat Alzheimer's disease?;Labour;I know that the Labour Party and the Alliance are privately opposed to that. I want to deal with a particular issue and that is the issue of the dioxin issue. The member raises the issue of the drugs that are only being administered to sick people, and that is what we have done. I have to say that the pharmaceutical industry is not using the dioxin treatment, and it is not using a treatment that is effective. If we were to acknowledge that the pharmaceutical industry is using the
Why will Pharmac not fund drugs to treat Alzheimer's disease?;National;That is an important question. I cannot comment on that at this stage, but I can tell the member that we have made it very clear, and she should listen to it. It is not about drug control. It is about helping the community, and I think that is a very good thing to do. I think it is time for us to develop a programme that will make a huge difference to the community. It is time to look at the Alzheimer's services and put in place a plan that
How have the latest Provincial Growth Fund announcements been received?;Labour;The latest provincial growth fund announcement is that the cost of goods and services in New Zealand has dropped by 12 percent in the last 5 years, and 73 percent of this reduction has been in New Zealand. We have seen the exponential growth of employment. The best figures of this year are from the district employment branch of the Department of Labour. There are more than 12,000 jobs in this region, and New Zealand's unemployment rate has dropped to its lowest level in 30 years. What can we expect from
How have the latest Provincial Growth Fund announcements been received?;National;I have received almost identical reports of success and failure. The first report, received from the office of the Prime Minister and Cabinet, was that the Government's economic plan is well under way. The second report, received from the office of the Prime Minister and Cabinet, was that the Government's economic plan has been well under way. The third report, received from the office of the Prime Minister and Cabinet, was that the Government's economic policy is well under way. The fourth report, received from the
Has the Government reduced the fees?;Labour;The Government is looking to increase fees. The Government will be introducing a bill this week that will make fees more competitive, and it will commence its review of the fees from 1 April. A review of the fees will involve the Government's consultation with the industry, and it will involve the industry, the industry, and those who are affected, including the Association of New Zealand Deans of the New Zealand Institute of Technology. The fees will be reviewed from 1 April 2003. How many people for whom the
Has the Government reduced the fees?;National;The Government has reduced the fees for a number of purposes. The Government has reduced the fees for making the examinations. The Government has reduced the fees for tuition assistance to students who are in the lowest bracket of earners. The Government has reduced the fees for students who are in the lowest bracket of earners. Students who are not in the lowest bracket have been given a better deal. Students who are not in the lowest bracket have been given a better deal than students who are in the lowest bracket.<|end
What steps can the Government take to reduce petrol prices in the interests of improving New Zealand's economic development?;Labour;We have a very clear idea of what we want to see to improve the economy. The Government is focusing on New Zealanders, and on the average family in New Zealand, having a good life and a healthy life is the key to getting New Zealanders to buy cars quicker. The fact is that the Government is doing two things. The first thing is to introduce the levy. The second thing is to introduce the 2c tax, which is the Government's attempt to get the industry to adopt the
What steps can the Government take to reduce petrol prices in the interests of improving New Zealand's economic development?;National;The Government has taken steps to reduce petrol prices in the interests of improving New Zealand’s economic development. The Government has introduced the 1c tax allowance and introduced the fuel duty rebate, which is a positive move to ensure that low-income families have an incentive to put in some extra money to support their families. The Government has introduced the new petrol tax and introduced the fuel duty rebate. The Government has also introduced the new fuel excise, which will ensure that the petrol tax will not be increased
How does the tree, start contribute to New Zealand’s climate change targets?;Labour;The tree, start contribution will be made through the carbon dioxide emissions savings that we have already made and through the contribution to the atmosphere developed by the emissions trading scheme. The carbon dioxide emissions savings will also be made through the carbon dioxide reduction targets we have already set, through the emissions trading scheme, and through the carbon dioxide reduction targets introduced by the Green Party. That is a very good example of how we can make these emissions reductions in a practical way. This is the first time that we have had
How does the tree, start contribute to New Zealand’s climate change targets?;National;This is a great question. I think that the good news is that we have a plan, and we are not debating this bill right now. This is a very good bill. It is a good bill that will make a great difference to the people of New Zealand. It is a bill that will be a pleasure for the Government to be a part of. I think that it will be a pleasure to be a part of. I think that the Bill is a great improvement on the Climate Change Amendment
How have our regions reacted to the latest Provincial Growth Fund announcements?;Labour;By the numbers, to the great surprise of our people. For the first time in a generation, over half of the Canterbury regional growth programme has been achieved in the last 3 years, and that is not good news. It is also good news for the regional economy, which has been in a very tough place with the latest announcement. The regional economy is looking confident and growing on the back of the good news. It is good news for us all in Canterbury and in the rest of the country.
How have our regions reacted to the latest Provincial Growth Fund announcements?;National;The latest figures are very encouraging. For the third consecutive year, the region has been in surplus, and there is more of it now than there was this time last year. The figures are from the latest National Government Budget, which shows a surplus in the goods and services sector of $43 million. At the same time, wages have been falling, and there are more of them now than last year. There is more certainty for the economy than there was last year. In the last year alone,
What impact will the decision to abolish the independent circumstances allowance have on average student loan repayment times?;Labour;"The effect of the decision to abolish the independent circumstances allowance will be to lower the repayment rates of students who cannot afford to repay their student loan. Students who cannot afford to repay their student loan will be affected by the decision to abolish the independent circumstances allowance.<|endoftext|>

"
What impact will the decision to abolish the independent circumstances allowance have on average student loan repayment times?;National;I do not have an indication of how long the weekday course, and therefore we do not know how many students will have to wait for their studies to be completed before they make the final decision to repay their student loan. I invite members opposite to look at the fact that the Government is now looking at the young people who are not in school to see how many students will have to wait for their studies to be completed to make that decision. I am sure that many of these young people will be able
How will the Reserve Bank of New zealand Amendment Bill help the Reserve Bank pursue a balanced macro-economic policy?;Labour;"I think the bill will make a very important contribution to the way that the Reserve Bank operates, and I am sure it will have quite a lot of support from the members opposite. I think it will be of much help to the Reserve Bank if it were to be extended in this way.<|endoftext|>

"
How will the Reserve Bank of New zealand Amendment Bill help the Reserve Bank pursue a balanced macro-economic policy?;National;The Reserve Bank of New Zealand and the Bill are designed to promote the continued monetary policy stability of the Government of New Zealand and the New Zealand economy. The Bill provides for the Reserve Bank to exercise its monetary policy policies under new rules. The new rules will now be administered using a new system of governance and accountability. New rules will be instituted after the Monetary Policy Committee, chaired by the member for Kapiti, has been briefed on the proposed reforms. The reform will cover a range of matters, including
Why can’t we see the Territorial Force soldiers at work?;Labour;that is not the point at all. The point is that the Territorial Force will be deployed for a short time in the north. the Defence Force officers will be deployed there for a longer time in the north. I am not saying that the Territorial Force will not be deployed. We have to put the Territorial Force on a track, and that will be done through a concerted effort with the people who live in the north. That will be done through the Territorial Force. The member should
Why can’t we see the Territorial Force soldiers at work?;National;I am not sure that we have seen the Territorial Force soldiers at work. I am not sure that any of us have, but I am sure that the Hon. Darren Hughes has been down the corridor talking to any Territorial Force member in the last few minutes who was looking forward to action. He has not been down there, but I suppose he will be soon, and I am sure that all Territorial Force members are awaiting action. there is a Territorial Force force that is under the
