question;party;answer
With a private road you wouldn’t expect that, would you?;Labour;I would not expect it, but I would expect to see a bill that would allow for the responsible use of the road and, I would expect to see a bill allowing for a reasonable use of the road. I would expect that to happen. I would expect that to happen in the way that the Government has proposed. I would expect that to happen. I would expect that to happen in the way that the Government has proposed. I would expect that to happen, but it would not happen. This
With a private road you wouldn’t expect that, would you?;National;I would not expect that. The reality is that in the Northland area about half the roads that are underutilised are in the North Island. What we have in the other sector is that the roads are in need of a sharp re-assessment. They are in need of fresh thinking. They need to be upgraded so that they can provide decent, safe, and reliable transport for all New Zealanders. Where else can we expect to see that result? The other big problem, is that
What's the position of the Port of Tauranga on the Bill?;Labour;The Bill amends the amendments made to the Port of Tauranga Act 1957 by the Maori Affairs Committee. The Maori Affairs Committee has today heard from the Minister of Maori Affairs and from the Maori Affairs and Maori Affairs Committee a number of submissions. The Maori Affairs Committee has recommended that the Bill be passed into law, the committee report on it at its meeting on 21 May, and the House adjourns at 9.30 p.m.<|endoftext|>
What's the position of the Port of Tauranga on the Bill?;National;The Port of Tauranga is now in the process of being put up to date, and the Government has completed a number of rounds of meetings on the project. The Port of Tauranga has been a primary target of the National Government's policy of rebuilding New Zealand. The Government has received substantial contributions from the industry, and it has close ties to the industry. As a result of that, the Government has decided that it would like to have an industry-led plan to deal with the port
What's that got to do with the estimates?;Labour;"The estimates are a good indication of what's going on. Small businesses want to provide good services to their customers, and they are being squeezed out of business by excessive workloads. Businesses are being squeezed out of business because of the excessive workloads being allocated to them.<|endoftext|>

"
What's that got to do with the estimates?;National;"The estimates that I have, are of a very large scale. The issue that the member raises is about how we allocate resources. I can tell the member that we are working very hard to provide places for more students.<|endoftext|>

"
What will the Minister put on the Warriors?;Labour;"The Warriors will be a new unit within the Ministry of Social Development that will provide a bottom-up approach to community engagement and engagement. The Warriors will be staffed by National Party volunteers who will be focused on providing community engagement and engagement, and on building a strong link between New Zealand and overseas. The Warriors will provide a strong link between New Zealand and overseas.<|endoftext|>

"
What will the Minister put on the Warriors?;National;I will put all the Warriors on the Warriors. I would like to ask another question. The Minister told the House that he did not know whether for the first time in his life the money had to be paid. That is absolutely untrue. When the money had been paid, he told the House that he did not know whether a couple of dollars had been paid. That is absolutely untrue. The Minister did not know in the first place what the money had been paid. If the Minister finds it necessary
Do you want me to rephrase that question?;Labour;"I want it to be asked, in the same way as the present question. That is what is being asked.<|endoftext|>

"
Do you want me to rephrase that question?;National;I just want to say that the Minister has asked me to give him a reminder that the bill will not be introduced until after September. The bill is also going through the select committee process now. The process of the select committee is one of the most competitive in the world. There are so many submissions that come through the select committee. I think that it is a very good process. I feel that I have probably done my best in terms of the way that I have presented this legislation to the House
What is the Government's economic strategy?;Labour;What is the Government's economic strategy? It is focused on the long-term economic recovery. That is why we have a Government that is focused on longer-term growth and a Government that is focused on long-term structural reforms, not to mention the low interest rates. So we have a Government that is focused on longterm structural reforms and long-term structural reforms, including the very good jobs that we are talking about. So we have a Government that is focused on longterm structural reform and
What is the Government's economic strategy?;National;"We haven't got any new policy announcements any time soon, but as we have just said, the Budget has been a very productive time for the Government. We have delivered very good results. There is a lot of work to do, and I am happy to roll out additional measures at a later date. I would like to finish by saying that we have a great number of policies coming to the Government.<|endoftext|>

"
Is this all that the Government is doing to improve the collection of fines and reparations?;Labour;The Government is trying to improve the collection of fines and reparations. It is not going to do that by itself alone. There are a number of ways to improve the collection of fines and reparations. The Government has been working with the Law Commission to improve the collection of fines and reparations. It is not going to do that alone. The Law Commission has been asked to assist in the collection of fines and reparations. I am pleased to report that it has been asked to assist with that
Is this all that the Government is doing to improve the collection of fines and reparations?;National;"The Government is committed to the collection of fines and reparations.<|endoftext|>

"
Would the member restate the motion?;Labour;"If she is unable to, then I do not think that she would need to go on to the next speech.<|endoftext|>

"
Would the member restate the motion?;National;"I have not taken that point for one minute.<|endoftext|>

"
Is this combined debate to be held in members' time or in Government time?;Labour;The member wants to ask a question that is not a question, and that is the number of the Lords. She wants to ask a question that is not a question, and that is the number of the Lords. The member wanted to ask a question that was a question, and that was the number of the Lords. She wants to ask a question that was a question, and that was the number of the Lords. She asked a question that was a question, and that was the number of the
Is this combined debate to be held in members' time or in Government time?;National;The member will be aware that in that time the member for Papakura was the chairman of the committee. I will repeat for the benefit of the member who has just resumed his seat the same things I heard from the member for Nelson that were actually put forward in a joint debate in the House last week. It is a very interesting debate to be a member of the committee, and I think that it would be really useful to have the opportunity of a vote at that point. I believe that the most
What impact are low interest rates having on New Zealand households?;Labour;"New Zealanders are finding out that the low interest rates mean they can get a job, get a house, and get back to work. That is really important. That is why I say to the Government that we should be strengthening our immigration policy. Low interest rates are putting New Zealanders on the way towards a more secure future.<|endoftext|>

"
What impact are low interest rates having on New Zealand households?;National;"I have no information that would suggest that that is the case.<|endoftext|>

"
