question;party;answer
Has the Minister seen any reports with regard to the minimum wage?;Labour;"I have looked at a number of reports, including the Ministry of Economic Development’s latest report on the employment outlook. It shows that the economy is quite healthy and that it is growing at a healthy pace. The report states that the Government’s policies aimed at promoting growth and job creation have been leading to a positive outcome for New Zealand.<|endoftext|>

"
Has the Minister seen any reports with regard to the minimum wage?;National;"The Ministry of Business, Innovation and Employment has reported that the minimum wage is now at a level that would be at risk if the Government had not intervened to make it lower.<|endoftext|>

"
Is the Government considering reintroducing lump-sum compensation any time in the near future?;Labour;"I am not aware of any plans to introduce lump-sum compensation at any time. The Government is not considering introducing lump-sum compensation on an individual basis. I am not aware of any plans to introduce lump-sum compensation on an individual basis. The Government is not considering introducing lump-sum compensation on an individual basis.<|endoftext|>

"
Is the Government considering reintroducing lump-sum compensation any time in the near future?;National;I am advised that the Government considers it necessary to do so. I reiterate that the Government is not considering introducing lump-sum compensation as a supplementary measure, as the member for Northland indicated. The Government is pleased to see the issue of lump-sum compensation being referred to the select committee. I assure the member that the Government is moving swiftly to provide that assistance to those people who are called to account for the wrongdoings committed by the Government in the past.<|endoftext|>
Is that what New Zealand First is going to do?;Labour;That's exactly what New Zealand First is going to do. It is a very simple, radical, and politically driven policy, but it is what New Zealand First is going to be about. If that is the policy New Zealand First is going to be about, then that is what New Zealand First is going to be about. One of the things that we have to remember is that New Zealand First is a party of hope and change, and it is a loud, positive, constructive party. It is
Is that what New Zealand First is going to do?;National;"That is what New Zealand First is going to do.<|endoftext|>

"
What will be the main priorities of the Budget on Thursday?;Labour;I am not in a position to say that, as the member for Yaldhurst has just pointed out, the main priorities of the Budget will be to support the KiwiSaver scheme, to close the gap between the rich and the poor, to increase the period of tax, to get people into part-time jobs, and to give more support to the vulnerable. I welcome the announcement that we will be providing 5 days of paid parental leave before the start of the next Budget. I think
What will be the main priorities of the Budget on Thursday?;National;The main priorities of the Budget on Thursday will be the Co-operation, Innovation and Development programme, the Public Service Superannuation Fund, the Building Industry Fund, the New Zealand First programme, and the Government's major infrastructure programmes. All of those programmes will be part of the Government’s Budget 2015 strategy, which will be announced in this House on Thursday. The key projects in the Budget 2015 strategy will focus on the priority areas of Government spending, and will be a reflection of the Government
Has the Minister seen any other reports on the Government’s Youth Opportunities package?;Labour;"I have seen reports on the Government’s Youth Opportunities programme, and I have seen a range of reports that are being prepared by the Government and by the youth development and welfare agency, which is one of the Government’s main objectives. The reports are not yet ready for release, but they are the most comprehensive we have seen in the last few years.<|endoftext|>

"
Has the Minister seen any other reports on the Government’s Youth Opportunities package?;National;I have seen reports on the package. I have seen reports on the package that reveal that the Government has been providing young people with a mission, a blueprint, and some practical suggestions for them to put them on the path to a successful life. I have seen reports of the Government’s policy, which is that there should be a support program for young people. We now have a strategy to get young people into work. That is a very good one. It is an action plan, but
Can I clarify whether the Minister’s answer is that the Government invested the perfect rational amount in obesity prevention?;Labour;The Minister has simply not got the answer right. The question is whether the Government has invested in the right way. it has invested in the right way, and if it has not invested in the right way, it cannot fail to fail to invest in the right way. I am a bit doubtful that the Minister has an answer right, and I am wondering whether the Minister has it right. Would it not be interesting if, one day, we asked the Minister of Health whether she had realised that the
Can I clarify whether the Minister’s answer is that the Government invested the perfect rational amount in obesity prevention?;National;The Minister’s answer to the first question is yes, that the Government invested the perfect rational amount in obesity prevention. The second question is the same as the first question. There was a perfect rational amount of investment to be made in obesity prevention, and I think that is the important point. The member has raised some comments in the debate that I think the Minister should have raised. I think that the Minister should have raised the question of the Bill’s reductions in funding for obesity prevention
Has the member bothered to check whether such advice is also now freely available on the internet?;Labour;that member has got that terrible reputation. I do not think that members should stand up and make the mistake of going on to the internet and trying to find that advice. I do not think that members should be concerned about that. I think, as a member of Parliament, that it is important that when they go out into the public arena, they have a clear idea of what to say. I think that members should be concerned about that, because they are talking about a Government that is now prepared
Has the member bothered to check whether such advice is also now freely available on the internet?;National;there are quite a few emails on the internet, not just from the Labour Party but from the Green Party. They are just cringing at the fact that this Government is going to introduce this bill, and it is going to take a very long time for the people of New Zealand to get through this. The Government will then introduce the legislation for the first time. The idea that a Government is going to introduce this legislation in 15 minutes is absolutely ludicrous. The idea that a Government will introduce this legislation
What have you done with benefits, Jim?;Labour;"The Government has cut the benefits being paid to people who have been on benefits for a period of time under the previous National Government. What have you done?<|endoftext|>

"
What have you done with benefits, Jim?;National;That’s a very good question. I’ve been working on this issue very much since the 2016 election campaign, and it’s a real shame that we’re not moving quicker. I’m very pleased that the Government has increased the benefit eligibility by a couple of thousand dollars. The Government is a fair Government, and I think it’s a very good thing that we’re not making a mess of the whole issue. I think it is
Did the member withdraw both comments?;Labour;"I did not withdraw both comments.<|endoftext|>

"
Did the member withdraw both comments?;National;"I spoke to the member for Tauranga, and I have nothing further to add. The member for Hawke's Bay, who is apparently a member of the House, will be getting up in the House today and saying something that is obviously not true. What is the point of clarifying or changing the member’s statement if the member cannot keep his or her mouth shut?<|endoftext|>

"
What announcements have been made as a part of Budget 2017 about the Government’s investment in defence?;Labour;the Government has announced a significant increase in defence spending, and it has announced a significant increase in defence expenditure, as I said yesterday, to ensure that our defence forces are ready for the operations we are going to, and to ensure that there are adequate resources in our defence forces to reassure New Zealanders. The Government has had a very productive week in terms of the Defence Force. I thank the Foreign Affairs, Defence and Trade Committee for its very good work, particularly in the last few days, which
What announcements have been made as a part of Budget 2017 about the Government’s investment in defence?;National;I am not aware of any announcements that the Government has made. One is that Defence and the New Zealand Defence Force are receiving additional funding, which is a €100 million increase in funding for the Defence Force, and that this will be delivered to the Defence Force to be managed in a more efficient and effective way. It is important to note that the Defence Force is not necessarily the only organisation receiving extra funding. The mentioned organisations include the New Zealand Defence Force, the New Zealand Defence Force Reserve Force,
