question;party;answer
Will the Minister visit Hawke's Bay to review development and job opportunities in that region?;Labour;I have visited that region and I have been impressed with the quality of development that has occurred in the Hawke's Bay region. I have visited the region to see the powerhouses, the hospitals, and the sheer number of young people and strong families who have come to the Hawke's Bay region to enjoy the region’s beauty and its amazing coastline. I have also visited the region’s historic sites in the Hawke's Bay region. I have even visited the local beaches,
Will the Minister visit Hawke's Bay to review development and job opportunities in that region?;National;"I have been informed that the Minister will visit Hawke's Bay today. The industrial development department has been looking at the regional development portfolio area with a view to establishing or strengthening or strengthening a regional development authority, or a regional development industry authority, or a regional development sector authority, or a regional development sector authority. The Government is committed to strengthening regional development across the country and is committed to expanding the regional economy.<|endoftext|>

"
Is there any objection to that course being followed?;Labour;I think that the member is making a contribution, because this legislation is not as simple as she would like it to be. The Minister of Transport is saying that it will be a lot easier for Aucklanders to get home from school and to get work because of the changes to the system. The National Government is saying
Is there any objection to that course being followed?;National;"I think that the member is referring to the corrections and improvement programme.<|endoftext|>

"
What steps has the Labour-Alliance Government put in place to improve the treatment of victims?;Labour;As I have said, the follow-up to the original announcement was announced yesterday, on 2 September, and that was immediately followed by the introduction of the apology package. I have been in contact with the victims, who are very disappointed that the Government has not introduced any apology to them. The Minister of Justice and the Minister of Social Welfare have been very clear that they have been treated with contempt, and they have been made to suffer. The victims have been made to suffer because the Government has not
What steps has the Labour-Alliance Government put in place to improve the treatment of victims?;National;"The Government has made a number of referrals to victims, and a number of them have been met, in the last 12 months the number of victims of domestic violence has increased by 36,000.<|endoftext|>

"
What will be some of the benefits of having a school property publicprivate partnership?;Labour;I will be one of the beneficiaries of that! I will be one of the beneficiaries of that, because I will be able to take advantage of the school’s offer of $25,000 for a 13, old children’s education. That is a great benefit to the country. I hope to be able to take advantage of that as well in the future to make a contribution to the education of this House. It is a very good move, and I will be very pleased to
What will be some of the benefits of having a school property publicprivate partnership?;National;The new premises will make it easier for parents and teachers to bring their children and families to a city where they can go to school or to a theatre or a convention. There will be more flexible scheduling arrangements so that parents can choose to go to a school that fits their needs. I could go on to give examples of the increased funding that will be provided for school buses, electric cars, and other transportation options, but I will not, because that would be too difficult. The new premises will be
How much did the Minister's party go down by?;Labour;The member has been treated to some of the submissions of the Department of Corrections. It is incredible that the Minister of Corrections was not present at that particular hearing, because the Minister is currently in England, where he has been at work. The Minister is not, the member was not, the member was not, the member was not, the member was not. The member was not, the member was not, the member was not, the member was not. The member was not, the member was
How much did the Minister's party go down by?;National;I think the member for Tauranga has just been very hard on the Government. The member for Tauranga has put forward a number of changes. One of them is a great deal of work by the member for Tauranga, a member who has been in the House for some time, as has the member for Tauranga. The member for Tauranga has been a member of this House for some time, and is well known and will continue to be a member. The member
Is there anything in the legislation that proves what the member for Tauranga said?;Labour;"I am not aware of anything in the legislation that proves what the member for Tauranga said. I am quite surprised that a member opposite does not think that is good enough.<|endoftext|>

"
Is there anything in the legislation that proves what the member for Tauranga said?;National;I have seen a letter that states
How does New Zealand’s external balances compare with what the Government inherited in 2008?;Labour;In 2008, the average net foreign exchange transfer from New Zealand to overseas financial markets was $8.57 billion. This figure has been increased to $10.73 billion in 2008, reflecting the strengthening international position of the New Zealand dollar and the strengthening international position of the New Zealand dollar. This figure has increased to $10.97 billion in 2008, reflecting the strengthening international position of the New Zealand dollar. The net external balance has been held at $10.97 billion, and that is a
How does New Zealand’s external balances compare with what the Government inherited in 2008?;National;"The Government’s external balances are worse than they were the previous time, and we have taken more than $1 billion off the Government’s GDP in just the last 3 years. That is a lot of money. I would have thought that the Government's policies would have been better. I would have thought that it would have been better if the Government was more efficient and less wasteful. The Government is not efficient; it is wasteful. It is slowing down the economy. The Government is"
Why was the initial report called for in the first place?;Labour;The initial report was prepared by the Wellington branch of the Tourism Council. It was not an official report. It was prepared by the Tourism Council, which has a history of trying to sabotage the tourism industry, and it did not include the tourism industry as a whole. It was prepared by a council that has had a history of trying to sabotage the tourism industry, and it did not include the tourism industry as a whole. It was made public in the media and was released in the media on the day
Why was the initial report called for in the first place?;National;I am trying to get to the point. The Government's decision to call for the report was made a while ago, and I am pleased to see it in the House, because it is well known that this is a sort of exercise that is not of much use to the Government. One point that has been made in this debate is the link between the cost of this exercise and the fact that the exercise has been carried out by a private company. The exercise is not in the public interest. I
It is a sort of ram it through, take twice as long, What did the member say?;Labour;The member is a crook. The member knows that, because he told the House to take twice as long as the Government was trying so hard to take. The Government is trying to get rid of the crooks. If the Government wants to have a good plan, let it have a good plan. Let the Government have a plan, not to mention a good plan, to get around the crooks. The member is trying to say that the Government is getting rid of the crooks. Because
It is a sort of ram it through, take twice as long, What did the member say?;National;"The member for Selwyn!<|endoftext|>

"
Does the Minister have any preconceived views about the outcome of the review?;Labour;"What I have a view about is that it is a shame we did not do it sooner. I am very pleased that the Minister of Housing and Housing last year made a commitment to replace the national standards on the front page of the front page of the front page of the front page of the front story. I encourage the Minister of Housing and Housing to take that up. It is a shame that we spent $20 million of taxpayers’ money on this exercise.<|endoftext|>
"
Does the Minister have any preconceived views about the outcome of the review?;National;The report states that the review is expected to result in a reduction of 20 percent from the present level of investment undertaken. The report also states that the review will increase the average life of the debt by $35,000 annually, and the impact will be substantial. the review will require significant additional capital investment. The report also states that there has been no consultation with the public, and that the review will require significant capital investment. The report states that there is no doubt that the review will result in
