question;party;answer
What's this got to do with the estimates?;Labour;I am not aware of any of that. That is the point that is being made by the member for Papakura. I have to say that the age of eligibility for the National Party is 17. when one starts at school one has to think again about the age of consent and the age of consent to marry. The age of consent for a legal marriage is 16.5, and the age of consent for a legal relationship is 16. That is not to say that that is not a very wise
What's this got to do with the estimates?;National;"The Government's budgeting statements provide a snapshot of the current state of the economy. The figures are a snapshot of the current state of the economy, they do not provide a snapshot of future activity. The figures are a snapshot of the current state of the economy.<|endoftext|>

"
Is the member then asking for it to be withdrawn and apologised for?;Labour;I would like to know what this is all about. I think it is true that there is no organization of this type in this country. I say to the member that there is a very good reason for that. I think the member is talking about the New Zealand First Party, when the reasons to accept this arrangement have been known for some time. It is the Mr Seymour’s view that this is the only way to keep New Zealand from being subject to a Government vote for the first time
Is the member then asking for it to be withdrawn and apologised for?;National;"The member has not said that.<|endoftext|>

"
The member doesn't really mean that, does she?;Labour;I have no problem with that. But the thing that I do have a problem with is that we have two members who are now in Opposition and who are talking about the same things. I want to take a moment in this debate and talk about the costings. It is interesting to see how long the Government has been in Government. This bill deals with a very simple matter. We know that the costs of the health system in this country are high. We know that the costs of the health system
The member doesn't really mean that, does she?;National;"I have said that there is no suggestion that the Government has any intention of doing anything to improve the efficiency of the New Zealand labour market. That is what is put forward by the member. He should read the report of the Working and Income select committee. It states that the Government's focus is, to improve productivity.<|endoftext|>

"
Is that the Alliance's last word on the matter?;Labour;"I do not think so. I think that the Alliance has made a mistake in saying that it is a Labour Party.<|endoftext|>

"
Is that the Alliance's last word on the matter?;National;"I am pleased to say that the Alliance is dependent on the Alliance Party’s support to have any kind of workable policy.<|endoftext|>

"
Has the member done a covariance analysis of it?;Labour;"Well, it is a very good question. I do not think it is a matter of whether or not we have done it right or wrong. I think it is a matter of the level of detail that is required. I think that the member whose question was put by the Hon Dale Coleman ought to answer it a little more clearly. I think that the member who was asking the question has done a very good job, and I hope he will answer it.<|endoftext|>

"
Has the member done a covariance analysis of it?;National;"In a letter dated 22 September to the New Zealand Herald the member for Tauranga says that the member for Pahiatua, a member of the National Party, bears some responsibility for a situation where there are problems.<|endoftext|>

"
What would be the key objective in consideration of any further split of ECNZ?;Labour;"The key objective in consideration of any further split of ECNZ is to provide an environment that is supportive of the growth of the economy and for the exchange rate to move from a low to a high level.<|endoftext|>

"
What would be the key objective in consideration of any further split of ECNZ?;National;The key objective in consideration of any further split of ECNZ is the growth of the organisation. I think that is one of the most important objectives I can point to. I think that is why the Government has implemented it. It is why it is necessary. I think there is a great deal of concern in the community at the moment about that particular objective, because there is a very clear trend in the amount of money that people are spending. I think that is one of the most important things.
What progress has the Budget made towards meeting the commitments in the coalition agreement?;Labour;We have made progress in the first year. Growth is expected to be around 1 percent this year, compared with a forecast of 2.5 percent in the year before the election. The Government is also committed to growth, as has previously been announced, to spending restraint and budgeting, and to the economy. The Government will continue to invest in our public infrastructure, in our roads and in our transport system. We will continue to build the roads of national significance, and we will continue to invest in
What progress has the Budget made towards meeting the commitments in the coalition agreement?;National;The Budget has made a number of improvements in terms of delivering on its key policies, particularly in the areas of health and education. There is now a focus on long-term performance. The Government is now focusing on delivering to the economy, delivering to families, and delivering to New Zealanders, and it is delivering to the economy in a way that will ensure that the economy continues to grow and that the economy continues to deliver to New Zealanders and to New Zealand families in the future. I would
How could it have more than a minor impact?;Labour;From what I have seen in terms of the impact of the offer, it is a very small one but it will have a very lasting effect. My colleague the member for Tauranga emphasised the importance of the offer. The offer is a very small one. It is the only thing that has been offered by the Labour Party, which is the other Opposition. There is no way that the Labour Party will accept the offer. It will not accept it. The Government has made no commitment to the
How could it have more than a minor impact?;National;The most impact it has had is that it will reduce the number of votes cast for council seats from 12 to 5. This is a minor move, but it is an important one. The public have been waiting for a long time for a council to be in place. The Government should send a message that it will be in place sooner rather than later. I would like to know how many council seats we have had since the Government has been in office. Certainly there are many more than 12. So
What types of savings could this review identify for households and businesses?;Labour;There are significant savings across all sectors. The savings identified are justifiable and consistent with Government policies. Around $56 million worth of savings were identified in the consultation exercise. The biggest savings identified are in the servicing sector, which has seen a 16 percent reduction in the number of people in the service, and in the health sector, where there have been a 29 percent reduction in the number of health workforce, and a 12 percent reduction in the number of paramedics, as well as a 13 percent reduction in
What types of savings could this review identify for households and businesses?;National;I am more interested in the comments of the member for Papatoetoe and his colleague, who are trying to make a bit of political point by saying it is a fair point of comparison, because I am not sure that there is a fair point of comparison. I think we are looking at a fair point of comparison. That is the point at which we have to say that, the changes in the financial system are good, and the changes in the tax system are not so good. We are
How significant is the issue of racecourse safety for the racing industry?;Labour;The issue of racecourse safety is a very important one. I am sure that all members of the House will agree that the issue of racecourse safety is a very important one and that the issue of racecourse safety in New Zealand is a very important one. I am sure that members of the House will agree that it is very helpful to have an issue of racecourse safety, because it is a very important issue. I am sure that members of the House will agree that it is something that can
How significant is the issue of racecourse safety for the racing industry?;National;"That is a very interesting question. I have had some very good advice from the racecourse industry. I have a very clear message from the industry. This bill sets out to provide greater coordination of the racecourse industry, to make sure that we have good governance in the industry, and to make sure that the industry is not underfunded. That is what I have been told. That is what the industry wants, and that is why it is supporting this bill.<|endoftext|>
"
