question;party;answer
Can I seek the House’s indulgence and leave to answer that question?;Labour;"Eligibility for a Senate seat is dependent on the number of members of Parliament elected to the House of Representatives. If a candidate is elected, and he or she is a member of the House, then he or she will be eligible for nomination as a Senator. So I think that shows that the rules are a little more flexible than they are at present.<|endoftext|>

"
Can I seek the House’s indulgence and leave to answer that question?;National;The question is what the date is. It is not a reference to the date of the bill, but I would like to ask the Minister of Finance, to provide a date of the bill. The date of the bill may be when the date on which it was introduced, but I am not sure. I have not heard from the Minister this morning. It is not the date of the bill, but I am sure that the date on which it was introduced would be different. I think that the
What about Rana Waitai, staying in hotels all around the world?;Labour;I am going to give Rana Waitai some advice. We are looking at some of the hotels that are available in New Zealand. I have some information that I would like to give to the member for Invercargill. I have a hotel in New Zealand that is called the Tower Inn. It is a very nice hotel, but I am not sure whether it is a student, or whether it belongs to a hotel chain, but I am sure it is a hotel that will cater to
What about Rana Waitai, staying in hotels all around the world?;National;He is a person who has been to New Zealand to meet pensioners and to meet other beneficiaries. He is an asset, an asset that I believe we can see for a long time to come. I want to give a very special mention to the National Party. This is not the first time that National has been involved in the business of running the country. It has done it well. It has done it well for many, many years, and it is now being made to do it again.
What further plans does the coalition Government have with the Limited Service Volunteers scheme?;Labour;The Government has a number of plans in place to improve the service. The first is to continue to contribute towards the costs of the service. In an election year, the Government is always looking to improve services and make them more effective, and I do not think that the existing system is adequate to do that. I am concerned that the current system is not adequate to meet the demands of the community, and that there is no guarantee that the service will be maintained. The first step is to offer funding
What further plans does the coalition Government have with the Limited Service Volunteers scheme?;National;The Government has been looking at how it can make a positive contribution to the future, and that is what this bill aims to achieve. It is one of many investment schemes to make in the future. We are looking at them in this bill because we are making a positive contribution to the future. We are investing $6 million in the policy in the last 3 years, bringing it up to date with the model we already have. We have seen the reforms in the community and the outcomes of this policy
Are you speaking to the same point of order?;Labour;"I am speaking to the same point of order.<|endoftext|>

"
Are you speaking to the same point of order?;National;"I am speaking to the point of order.<|endoftext|>

"
What's the current account got to do with it?;Labour;"The current account in this country is better off than it was at the last election. The current account will be better off over the next 2 years than it was at the last election.<|endoftext|>

"
What's the current account got to do with it?;National;"The current account is a good one, but the current account is not so good. It is better than when National was in Opposition, and we are now getting a positive

"
Are there any plans to reopen the Mount Roskill station to the public, as it was for many years before it was recently closed?;Labour;There is no plan to reopen the station. The station was closed by the service notice in December 2001. The service notice states that the station is closed because of the closure of the Telford and Coromandel branch of the New Zealand Post Office. The closure of the Telford branch of the New Zealand Post Office at the time of the closure of the Mount Roskill branch of the New Zealand Post Office was due to the closure of this branch by the service notice dated 26 November 2001.<|end
Are there any plans to reopen the Mount Roskill station to the public, as it was for many years before it was recently closed?;National;"There are no plans to reopen the Mount Roskill station to the public, as it was for many years before it was recently closed. I am advised that the station is being built as a replacement for the existing Hyatt Hotel in Auckland.<|endoftext|>

"
Could the Speaker perhaps indicate to us the parameters of the debate?;Labour;"He is not going to talk about it, but I will tell him that I have been watching the proceedings. I have been listening to the debate, and I am happy to be corrected if he should say any more about it.<|endoftext|>

"
Could the Speaker perhaps indicate to us the parameters of the debate?;National;The parameters are
If the Minister is quoting from the official document, might it be tabled please?;Labour;"The Minister might be able to tell the House by which document it is, but I will try to give the House a flavour of the way the document is being misrepresented.<|endoftext|>

"
If the Minister is quoting from the official document, might it be tabled please?;National;The Minister has taken a very good line in his speech. I think it is important that our speakers understand that the bill is not primarily about the public good. The bill is not primarily about the public good as it is currently constructed. It is about the public good as it is proposed by the member for Tarawera, not as it is proposed by the member for Rimutaka. The bill is not about the public good as it is currently constructed. The legislation contains two aspects, one relating
What uniform is being provided for the New Zealand Commonwealth Games team?;Labour;The New Zealand Commonwealth Games are being provided for by the New Zealand Defence Force. The New Zealand Defence Force are the excellent armed forces of the New Zealand Government. They are well trained, well disciplined, and well resourced, with a great number of platoons and battalions of infantry and heavy artillery. The New Zealand Defence Force are not just trained and well resourced. They have a great number of active duty personnel. They also have a great number of reserve personnel. All of this will
What uniform is being provided for the New Zealand Commonwealth Games team?;National;"I am not aware of any specific organisation.<|endoftext|>

"
What are the main points being consulted on?;Labour;We are receiving submissions on this bill, and I will just just give them to the House to understand. The main point here is that the Government has proposed a lot of changes. The first thing the Government has done is look at the new offence of the possession of a knife. If it were not a knife, it would not be being considered as a knife. the Government has proposed a little change here, and it is the one that is in the bill. So the question I am asking is
What are the main points being consulted on?;National;We have been talking to a variety of groups, which are not always on the same page, but they are very keen to get the opportunity to have a look at some of the issues we face. We are looking at how we can make sure that people have access to the services that they need, whether they are in crisis or not. the health system is a key challenge. The alternative health system has to be looked at. We have looked at how we can make sure that we have good quality
