question;party;answer
Would the member please come back to the title of the bill?;Labour;"As the Minister of Social Welfare I will not be moving that much.<|endoftext|>

"
Would the member please come back to the title of the bill?;National;It is one of the first bills that I have introduced, and I think we have got the right one, because it is the first time that the honourable member has introduced a bill that deals with the issue of the High Court sitting vacant. I think in the past it has not been the case that a vacancy exists in the High Court, because there was no vacancy at all. I think that the Hon. Peter Dunne has done a good job of bringing it to the House, and in
What factors are taken into account in considering the minimum wage increase for New Zealand’s lowest paid workers?;Labour;The report makes it clear that the Government is considering increasing the minimum wage by a maximum of $2.50. The report includes a number of recommendations. It is not a complete one. I want to summarize what the report does, to give it a little bit of flavour. It states that there are some suggestions to help workers to increase their wages and conditions, that is pretty discouraging. There are suggestions to increase the minimum wage to $2.50, but it is not entirely clear that that
What factors are taken into account in considering the minimum wage increase for New Zealand’s lowest paid workers?;National;"The minimum wage rate is the minimum wage rate that the Government determines. The Government also takes into account various factors, including a range of factors, including the number of hours an employee worked; the rate of pay; and the number of hours worked per week. The average rate of pay is the wage rate that the Government considers to be adequate to provide a decent standard of living for the employee. The average rate of pay is the wage rate that the employer determines to be adequate to provide a decent standard"
What about this member's contract?;Labour;"I have not seen the report,<|endoftext|>

"
What about this member's contract?;National;He has signed the contract. I think that that member has done a lot of good work with a lot of difficulty in the last year. I think that he has done a good job. I think that he has done a very good job. I think that this bill is a very good bill. I think that we are getting an excellent result from it. I think that it is a very good bill. I think that the Government should look at it again. I think that it should look at
What steps are now being taken by New Zealand agencies as part of this new initiative?;Labour;New Zealand has new initiatives in the field of drug-dealing. One of them is the establishment of the Interdiction Command. This new command is the first of its kind in the world. It will give greater prominence to that very mission, and will focus on the people of New Zealand who have been involved in the illegal drug trade. I also announce a new anti-dealing task force under the new command. It is called the Drug Transfers Task Force, and it will focus
What steps are now being taken by New Zealand agencies as part of this new initiative?;National;"New Zealanders know that the Government's new programme is important. The gazetted figures are that since the programme has been in place for some 10 months, about 487 flights have been cancelled, with about 6,000 flights cancelled and held up. That is about half of the total number of flights cancelled. These cancellations in the past have been a very small number of flights, and the cancellations are still occurring.<|endoftext|>

"
How will partnership schools raise achievement?;Labour;I will get to that later. There is a wonderful report that the Auckland Institute of Technology put out about the partnership schools. It states
How will partnership schools raise achievement?;National;"The partnership model is a model that is being adopted in other countries and is being adopted internationally. It is a model that has been used in the English-speaking world for many years. The model is being adopted in New Zealand, and provide a pathway that will deliver outcomes that are aligned with the needs of children.<|endoftext|>

"
Is the National Party going to sell State assets?;Labour;"That is what the National Party is going to do. That is what it has promised when it was in Opposition. It is not talking about it now, because it has not said anything about it. The National Party is prepared to sell State assets if it gets the savings from it.<|endoftext|>

"
Is the National Party going to sell State assets?;National;The National Party is going to sell State assets. we have not made a decision on that yet. The Government is going to turn State assets into assets, and that will be a good thing for New Zealand. It will create jobs and will create wealth. We have just heard the Minister say that the Government wants to hold assets and assets for the benefit of the state. The State owns assets, and the State is the beneficiary of the State. The State owns everything, and the State owns people.
Why doesn't the member read the Bill?;Labour;I shall read the Bill. It is about the new National Consumer Authority, and it was introduced here during the debate on the Ministerial Responsibility Amendment Bill. I shall come back to that in a minute. I shall say that the member for Otara has missed the point. He is saying that the new authority, which is not a new agency, is a new agency, but it is a new agency, and it is a new agency. That is all the member is saying. He is saying
Why doesn't the member read the Bill?;National;The member will be aware that the Bill will not contain the provisions proposed in the Bill. The Bill will provide for the acquisition of land, the granting of a grant, or the granting of a licence. The Bill will not contain the provisions that were proposed by the last speaker. The member will be aware that the last speaker made some comments about the acquisition of land. I have been told that the acquisition of land is a very good idea, and I have been told that the grant or licence system
What investment is the Government making in Budget 2014 to improve health outcomes for children?;Labour;"The Government is investing $1.1 million for children in health and education.<|endoftext|>

"
What investment is the Government making in Budget 2014 to improve health outcomes for children?;National;"From the $2.2 million that has been announced for the 2014-15 year, $2.2 million will be going into the health programme, which will improve the health of children. This is a great improvement from the Government’s implementation of the National Health Strategy in 2008, when it stated that it wanted to focus on improving child health and well-being. Funds will now be going into the programme to improve the health of children.<|endoftext|>

"
Is the Minister prepared to reveal whether tonight's Budget will include increases in the amount of expenditure on health?;Labour;I will not announce that tonight, but I can tell the House that the Government is going to be investing $250 million in health next year. That is the real extent of the Government’s commitment
Is the Minister prepared to reveal whether tonight's Budget will include increases in the amount of expenditure on health?;National;The Minister's statement about the Government’s fiscal plan for health is quite wrong. I am quite happy to confirm that the Government has spent $17.5 million on health, and that will rise to $31 million by December 2003. That shows just how much the Government thinks it can take from the health sector. The next point I want to make is that the Health Funding Authority website lists the locations of the health and social care services that will be provided in the future. It states that
Where did you pass it-on a lemon tree?;Labour;I first passed it on the trees in my electorate. The member should be pleased that I made that decision, because it is an important one, because, the trees are the largest tree in my electorate. We were not able to offer a reward for the tree, and the tree is a very important and delicate species. it is a tree that is native to Taranaki and is one of the most important trees in Taranaki. It is a tree that was planted in my electorate a long
Where did you pass it-on a lemon tree?;National;So that's the first thing. I was not told the second thing. The third thing is that the National Government says, is that this is a good bill. This is a good bill. The reason for this, is that we are talking about the new law. Let me tell members that this is the third bill I have seen in a single day, and I have not seen it before. The first thing I have seen is the introduction of this bill. The second thing I have seen is
