question;party;answer
What is the value of growers' reserves held by the Wool Board and how does this equate to a value per grower?;Labour;"It is a value per grower. The Wool Board and the growers' reserves are used to support the Government, to support the farmers of New Zealand, to support the farms the farmers of the Taranaki region are trying to support, and to support the farmers in Northland.<|endoftext|>

"
What is the value of growers' reserves held by the Wool Board and how does this equate to a value per grower?;National;The value of growers' reserves held by the Wool Board at the end of last year was nearly $700 million. That is a value per grower of $8.50. I should like to point out another matter that is not being reported, and that is the number of growers who voted for the Government's new export quota policy. The number of growers who voted for this policy as a result of the quota scheme was 54,000-that is, 56,000. It is a total
Is the Minister aware of any proposals for expenditure on new fire engines?;Labour;I am not aware of any proposals for expenditure on new fire engines. In the sixties it was thought that it might be cheaper to have a new fire engine than a new fire truck. We have seen a very small number of new fire engines in the last year, and they are designed to be used only on the roads of national significance within a short period of time. I am not aware of any suggestion, that we should have a new fire engine in the first place. I am not aware
Is the Minister aware of any proposals for expenditure on new fire engines?;National;"There are currently plans to spend $12 million on new fire engines. Those plans are being considered by the Ministry of Transport. There are many other potential uses for the equipment, including roading and roading maintenance. it is a very important part of the communications system in New Zealand.<|endoftext|>

"
How many hours in the day does the school have them?;Labour;Almost every day. It is a quarter of a day. So the total is a little less than half a day. But we are talking about being able to transport students to school in the morning and to transport students to school in the evening, and not just the morning, and that is a very good thing. I congratulate the member for Rodger on having a look at this legislation. I congratulate the Minister for Education on having a look at it. The member for Tamaki is making very good
How many hours in the day does the school have them?;National;Under the Education Amendment Bill, the school has only four full-time teachers. There are a total of six full-time teachers, but only six full-time teachers are in the employ of the school. A reference is made to that in the Auditor-General’s report. I would appreciate the candour of the member who is asking the question. I have indeed a copy of the report, and I have it with me. I would also like to refer to the matter of the
Because many rules don’t stop people doing wrong, do they?;Labour;They stop people doing wrong. People do wrong, and the rules do not stop them. The rules prevent the repetition of horrible crimes, and the penalty is the simple act of stopping the wrong behaviour from occurring. The penalty is exactly the same as the penalty for murder, and it is the same as the penalty for manslaughter. That is what the legislation states. That is what the legislation states. The penalty is exactly the same as the penalty for murder, and it is the same as the penalty for
Because many rules don’t stop people doing wrong, do they?;National;For the most part, it is not. The real problem is that many of the rules that have been introduced over the last 2 years have not caught up with the change in technology. we are seeing the problems that the reformers have had to solve, and they have had to solve them in a very short period of time. The way in which the rules are set up makes it very much easier for people to find out if they have been caught. So much of the new regime is about catching
I am asking the question my way-all right?;Labour;All right. I am asking, because I think we should have put the question in front of the House. As I said in the debate, the member for Maramarua is trying to be as uncontroversial as he can. I think that the member should give us a call and tell us whether he thinks he should have his question answered by the Minister. I think it would be helpful to have a call there. I do not think we should be sitting here, talking about the chairperson of
I am asking the question my way-all right?;National;Of course I am asking the question because the member is not aware of the fact that the previous speaker is a member of the Labour Party. The reason I am asking is that the member has been a member of the Labour Party for the past 4 years, and that he has gone to Parliament twice and actually got the legislation passed. He did not do that because he was in Opposition, as he is a Labour member of Parliament. He did it because he was in Opposition.<|endoftext|
What other jurisdictions have registers of land ownership?;Labour;There are 7,000 more than there were when I was Minister. There is an 83 percent increase. And the number of people who are registered in the capital, with that figure of 7,000, is the same as it was when the Stategazet was set up under the National Government. So we have the same situation. We have new figures. We have a system that is quite different from the system that the National Government set up under Labour, and it is quite different from the
What other jurisdictions have registers of land ownership?;National;"The Register of Land Ownerships has been investigated by the Labour Party, and by the local newspaper. I can assure the House that there is no such thing as a register of land ownership.<|endoftext|>

"
How will the deal increase competition for telecommunications services in rural areas-for example, in Pongaroa and Porangahau?;Labour;I think the deal is a positive step in the right direction but I do not believe that it will prevent the loss of life and limb in any rural areas, as we have seen in the past. It is also a sign of the way that the Government is attempting to manage the telecommunications business. The key objective of the Government’s telecommunications strategy is to achieve the future of the telecommunications business. The Government is focused on delivering the future of the telecommunications business rather than its current business model, which
How will the deal increase competition for telecommunications services in rural areas-for example, in Pongaroa and Porangahau?;National;The deal will increase competition for telecommunications services in rural areas, and will be a net asset for the whole country. The Government has done a good job in this area, and the department will be re-allocated to improve the quality of services in rural areas. The deal will also bring in new technology, and will enable the New Zealand telecommunications industry to move to a state of the art level. It will mean that we can have a competitive telecommunications industry, and it will bring to an end an
Can I speak to the point of order?;Labour;The point of order that has been made is at the heart of the matter. The amendment that has been made to the original answer to the question is important. I accept that the member wants to question the Minister about the word “regulation”. It is at the heart of the matter. But the original question, which was about the Minister’s statement, is about the word “regulation”, not the word “regulation”. I have asked the Minister why
Can I speak to the point of order?;National;"I have taken to the Chair to raise a matter of order in relation to the letter of the day. What I say to that is that the Government is not waiting for the deadline. I think that is a very good answer.<|endoftext|>

"
Does the Minister intend to close prisons as well as to build them?;Labour;I am aware that in the last 1 week the Ministry of Corrections has built a new detention centre at Whangarei, and that the new prison at Whangarei is over 500 square metres. It is an area of great interest. I have a greater interest in Yaldhurst than in a prison. I have an interest in a prison. I have an interest in a work-force. That is not the only one. There are many other people who are interested in a prison.
Does the Minister intend to close prisons as well as to build them?;National;The Government's policy, which has been very much the policy of the National Government, has been that detention, detention, detention. That is the policy that will be pursued in the 
When does the committee intend to resolve to report back to the House the Broadcasting Liquor Advertising) Bill?;Labour;The committee intends to report back the bill to the House as soon as possible. I thank the member who raised the matter of the licensee of a licensee, and I thank the member for Selwyn who has raised it. I thank the House, the House of Representatives, and all members of the committee, for the thoughtful consideration, the careful consideration, and the diligence they show to advance the interests of New Zealand. I thank the member for Dunedin West for his contribution, and for his advice and
When does the committee intend to resolve to report back to the House the Broadcasting Liquor Advertising) Bill?;National;The committee is considering the Bill. The committee is as follows
