question;party;answer
Does the member think the Minister is ignorant?;Labour;"I think he is ignorant. He would be hard-pressed to know that there are two ways of doing it. The first one is to say that the state of the economy is good.<|endoftext|>

"
Does the member think the Minister is ignorant?;National;The member thinks that I am ignorant. Nightline is about as clear as it gets. It is a weekly programme that shows the length of the Government's term in office. I can understand why the member is concerned about the length of the term. I wonder whether he has any idea of what the Government's term of office is. None of it is as simple as that. The member is concerned about the length of the term. I do not know what the length of the term is. I
You didn’t try to call it sleazy, did you?;Labour;I did not try to call it sleazy, I was trying to call it what it was. I was trying to call it something else. I did not try to call it the bill it was, but all I did try to do was say “the bill”. That is not what the bill was called. We have had the honourable member say “the bill” and we have had the honourable member say “here” and we have had the honour
You didn’t try to call it sleazy, did you?;National;Well, that’s the point. The member is entitled to her opinion. If she wants to call it sleazy, that’s her right under the law. I think it’s right that this was a courageous move, because we’re talking about a piece of legislation that was introduced by the previous National Government. The previous Government thought that it had done the right thing. The previous Government thought that it had done the right thing by introducing legislation that was subject to
Has the Minister received any reports on pay movements in the private sector?;Labour;I have been speaking to a number of payers, and there are a number of them. The average estimated wage level for the private sector is $52,000, which includes the salaries of about 200 people, on average. That is about $22,000 a year, and a lot of people earn that amount. There is no doubt that we are facing a problem of turnover. There are people out there who have been waiting for their pay increase, or have their salary increase, and there
Has the Minister received any reports on pay movements in the private sector?;National;The Minister has received reports on pay movement in the private sector. The report contained in the last minute of the debate, which was prepared by a member of the House of New Zealand, shows that the pay structure is not as it is described. The report states
How is the Government dealing with the serious financial pressures facing the health system?;Labour;I have a lot of confidence in the health system and the people who are facing those pressures. I want to talk about two things in the Budget. I want to follow that by asking you the question
How is the Government dealing with the serious financial pressures facing the health system?;National;The Government has made a number of announcements over the last few days, including the announcement of the national health strategy for the year ending March. The announcement of the strategy states
Can I just describe who the letter is signed by and who the letter is from?;Labour;it is from the Department of Conservation, but I am not sure which department, because it does not have a complete list of the signature. But I am going to call it, the department of conservation. The letter is dated 27 November last year. It was addressed to the director-general of the department, the Department of Conservation. I have a copy of the letter. The letter is addressed to the director-general of the department, and it is signed by the head of the department, the
Can I just describe who the letter is signed by and who the letter is from?;National;"It is from the House of Representatives of the United New Zealand Party. It is a very, very nice letter. I am not sure whether it will become the signature of any party in the next election, but I hope it will be a message of hope.<|endoftext|>

"
How has the Minister managed for so long?;Labour;I welcome the opportunity to speak in this debate, because that is because I have been in Parliament for 9 years. I am glad that the member who has just resumed her seat, I am sure that the member who has just resumed her seat, is now a member of Parliament. I think she has a great deal to contribute to this debate, because for some time, the member for St. Albans has been banging on about this Government's handling of this budget, and that has been a recurring
How has the Minister managed for so long?;National;"The Minister is effective in this Parliament and I am not in it. He has been successful in meeting the challenges of the end of the decade. He is not a quitter. He has been successful in putting in place a Government that is focused on delivering for the people of New Zealand. He has delivered consistently for a number of years. He has delivered repeatedly for a number of years. He is not a quitter; he is a Minister whose performance and tenure have been marked by constant improvement."
There’s financial sense in that, isn’t there?;Labour;I’m not quite sure that this Bill is appropriate. I’m not saying that it is the right thing to do, that I think the Opposition should be supporting it, that we should be supporting it in the House, but I do think that it is an appropriate thing to do, and I think it is a good thing to have a very clear indication of the kind of support that if one went through the full debate it would get. I think that we need to have those
There’s financial sense in that, isn’t there?;National;"It is financial sense in the sense that the member for St. Kilda is a member of the National Party, and the member for Papakura is a member of the National Party. The member for Christchurch East is a member of the National Party; the member for Christchurch North is a member of the National Party; and the member for Christchurch Central is a member of the National Party. I am not talking about the member for Christchurch North, but I am talking about the member for"
What about these new foreshore reserves?;Labour;That is right. If that is the case, then I think it would be a good thing if that was the case. We all know, as has been pointed out by the previous speaker, that there are seven new foreshore reserves currently under the jurisdiction of the Crown. Which of those has been adequately managed by the Crown? It is the one that has been adequately managed by the Crown. My question is this
What about these new foreshore reserves?;National;"New foreshore reserves are not included in the annual forestry report. They are available for sale or leasing.<|endoftext|>

"
What about Te Wānanga o Aotearoa, famous for looking after Māori communities?;Labour;I am sure that when I do a speech in the House today about this Bill, I will bring up the issues of the Maori fishers and the issues of the whānau. I will be seeking leave for a select committee inquiry to examine the Maori fishers, to look at the issues of whānau and whānanga. There is no doubt that the Maori fishers are an outstanding resource for our fisheries, and for our economy, and for our fisheries
What about Te Wānanga o Aotearoa, famous for looking after Māori communities?;National;It is a very good sign, I think, that the $2 million that the Government has spent on Te Pākehā Te Reo Maori in the last 3 years has gone a long way to provide a foundation for this bill, and we have just seen what that foundation is. it is a foundation for a new opportunity for the entire people of Te Kēwhā. This is an opportunity that can be a foundation for the future as well. It can be a foundation for
Who prepared the graph-the source of the document?;Labour;The source of the document was provided to me by the editor of the Herald. It has been used in a variety of ways, but only in the best way. The issue of the National Party is not as interesting as the issue of the Labour Party. The Labour Party has taken the Government's advice and taken the National Party's advice. It did not take the Government's advice. So there is a problem. If the Government was to do anything, it has to take the Government's advice on
Who prepared the graph-the source of the document?;National;I am not aware of the source of the graph-it is a copy of one of the reports that I have seen, and I have seen a copy of it. The report includes a single line that states that
