question;party;answer
What steps has the Government recently taken to support the development of water storage and irrigation?;Labour;We have initiated a project of upgrading water storage facilities at the Dunedin City Waterworks Station. The project will not be finished until early 2011. The project will include the installation of water-storage technology and electrification of the land in a cost-efficient, sustainable, and environmentally friendly manner. The project is expected to deliver savings of $1 million per year in cost, and will result in a savings of $600,000 to $1 million per year in the future. The project will be
What steps has the Government recently taken to support the development of water storage and irrigation?;National;The recent announcement that the Government has been consulting with industry on the feasibility of a water storage scheme to provide a buffer for the drought in the South Island has been a very positive step. The Government has also increased the capacity of water storage, which is now accessible to the South Island, through the purchase of 120,000 litres of water from the Government's water storage scheme, which has already been delivered on, and from the purchase of another 40,000 litres of water from the Watercare scheme,
Does the Government support the reintroduction of any commercial whaling?;Labour;I think that commercial whaling is essential to our future. I believe that it is important to have a commercial whaling industry, and I think that it is very important to have a commercial whaling industry in New Zealand. I believe that it is absolutely essential that we have a commercial whaling industry in New Zealand. The commercial whaling industry is essential to our future, and I think it is absolutely essential to have a commercial whaling industry in New Zealand. The Government's announcement today in relation
Does the Government support the reintroduction of any commercial whaling?;National;"Will the Minister confirm that any commercial whaling, if it is carried out, will have to be carried out in New Zealand?<|endoftext|>

"
When did the Associate Minister brief the Minister of Corrections on the details of this proposal?;Labour;It was an interesting one. I have to say that I have not seen anything in the media that makes me believe that this is the final product of the legislation. I think that perhaps the Minister of Corrections should leave the bill in the House so that we can get on to some of the details of it. The Minister of Corrections and the Deputy Prime Minister both said that the bill is not in the House yet. That is quite right, because the bill is not in the House yet. It will
When did the Associate Minister brief the Minister of Corrections on the details of this proposal?;National;In the public interest, by the Hon. Dr Simon Power, for a number of reasons. I first of all want to commend the member for Tarawera for his good work in the House. I want to commend him for the way in which he has been dealing with the Committee stage of the Bill. I commend him for his good work in the Committee stage, in which he has been able to deal with the issues, as he did in the select committee. I want to commend him for
Has the committee completed hearing evidence on the Ministry of Forestry estimates?;Labour;"The committee has completed the examination of the Ministry of Forestry estimates. The committee has also heard testimony on the 2010 election. It will take some time before any progress is made in the discussions.<|endoftext|>

"
Has the committee completed hearing evidence on the Ministry of Forestry estimates?;National;"I do not think that the committee has had a chance to hear all of the evidence on all of the issues. I am pleased to report that it has been a very good exercise in the committee stage, and I commend the committee to its next stage.<|endoftext|>

"
Leave is sought to table that document, Is there any objection to that course of action?;Labour;"I am directed to present the report.<|endoftext|>

"
Leave is sought to table that document, Is there any objection to that course of action?;National;This is the first time that I have seen the document. I understand the Minister is responsible for it, but I think we should be just a little more clear about what it is. The document states that the Government is considering the matter of the South Island. It states that the Minister of Social Welfare has not decided on the South Island because of political considerations. So it is a political document, and it is not an official document. It is a political statement. It goes on to say that the
Are there any other parties in this Chamber that abstain?;Labour;I am not aware of any other parties out there that abstain. I have heard the member for Nelson speak about the relationship between New Zealand and Australia. I am not sure about that, but I certainly am not talking about the relationship between New Zealand and Australia. I am talking about the relationship between New Zealand and the United States. I think that the United States is not doing this. I think the discussion we have heard on some of the alternative policies is that the United States is moving to the
Are there any other parties in this Chamber that abstain?;National;"There are not any. I think that the Minister should set the record straight on that issue. She is the person who said that there were no parties in the House. That is the person who said that there were no parties. She is the person who said that there were no parties. I think she should withdraw that comment.<|endoftext|>

"
What is the outlook for New Zealand without a balanced macroeconomic policy?;Labour;"The only way to track the effect of the Opposition's policy is for it to put up interest rates again, and that is exactly what the National Party has done. It will not do that.<|endoftext|>

"
What is the outlook for New Zealand without a balanced macroeconomic policy?;National;I would like to start by briefly setting up the position of the chairperson of the select committee. I tell the House that I am not the Chairperson of the select committee. I have been told that the chairperson is also a New Zealand citizen. I am very pleased to see that he or she is a New Zealand citizen, because I am sure that we will be hearing a lot from him or her in the select committee process. the status of the chairperson in the select committee is that
Does the Government still intend to be back in surplus in the 2014-15 year?;Labour;As I have said, the Government continues to borrow in an unsustainable way, and that will continue to be the case until the current account deficit is reduced. The fiscal position is unsustainable, and the Government is looking to balance the books by the end of this term. In the short term, it is anticipated that the Government will borrow in excess of $1 billion in the coming year. In the medium term, it is forecast to borrow $1.8 billion. In the long term it is predicted
Does the Government still intend to be back in surplus in the 2014-15 year?;National;The Government has already announced its fiscal position for the coming year. I do not have information about the precise figures that it is talking about. What I can tell the House is that the Government has more money in surplus than it has spent. The Government has $1.2 billion in surplus. The Government has $2.9 billion in surplus, and that is not enough. That is why the Government is spending $1 billion to try to fix that deficit. The Government has been able to spend
How is our improved competitiveness being reflected in our trade performance?;Labour;I am happy to take a call in support of that measure. It has been well received by economists and trade unions, and has been used by the Opposition as an argument about a better trade policy. I think that is one difference. Our trade performance has been better than that of the previous Government, which was in power for 11 years. Our trade performance is now about the same as it was in the last Government's term and before that. The Opposition's trade policy is about the same as the
How is our improved competitiveness being reflected in our trade performance?;National;Our trade performance is reflecting our improved competitiveness. This year we have increased exports by almost 9 percent and we are exporting $6.5 million worth of goods, including machinery. The latest trade figures show that we are exporting a record amount of goods and that we continue to have a very strong position in net exports. We have been able to compete at a level that is a little below that of the previous Government. I will give a little bit more detail on this. Around 1.5 percent of
Is Brian Elwood a puppet of the Government?;Labour;"Yes and no. He is a puppet of the National Government. He will be a puppet of the National Government when he is not a puppet of the National Government.<|endoftext|>

"
Is Brian Elwood a puppet of the Government?;National;I am not a puppet of the Government. I am an independent member of the House. I want to tell the House why I have not taken any part in the debate in this House. I have been in the House for almost 2 years, and I have never been in the House in good faith. I am very disappointed that the Minister of Finance should have been given responsibility for this legislation. I think he made an error in his judgment. I think that the Minister of Finance was compromised because he
