question;party;answer
Why was it considered necessary to undertake the Defence Assessment?;Labour;I agree that it was necessary, and I agree that it is a very good step forward. I agree that the Defence Review Chamber is an excellent place to do that. It provides a good forum for the defence community to be at, and that is why we have done it. The reason that we have done it is to show the defence community, and to show the people of New Zealand, that we are a responsible Government. The Government has a plan, but all of us in this House have
Why was it considered necessary to undertake the Defence Assessment?;National;"I was not aware of that. I will put it down to a very good defence review by the Defence Science and Technology Committee. I was not aware of that. The member who raised the matter asked me to make a contribution. I will put it down to a very good defence review by the Defence Science and Technology Committee.<|endoftext|>

"
What incentives, are being offered to encourage teachers to move to hard, staff schools?;Labour;The incentive for teachers in hard-staffed schools to move to hard-staff schools is the Government's 
What incentives, are being offered to encourage teachers to move to hard, staff schools?;National;"Well, I do not know whether there has been any push to encourage teachers to move to hard schools, but I think there is a good deal of pressure on teachers to move to hard-staffed schools. I think it is a good thing that we have had a review of the school curriculum, to see whether it is an appropriate investment in students' future.<|endoftext|>

"
Which clause is the member looking at?;Labour;I am looking at the last part of the bill, which amends the Housing Act 1986 to provide for the state-owned mortgage scheme. That is the part that the member is talking about. I was not at all involved in the submission process on this legislation, so I did not have any involvement in the select committee process. I thought that the Opposition would not need to do that, because it has been done already, and it is not a very convoluted one. The previous select committee had a
Which clause is the member looking at?;National;"The member is reading the question, so I am not concerned. I am not against the Bill.<|endoftext|>

"
And what’s New Zealand First going to do?;Labour;As I said earlier, I have been a member of the National Party since my first election as an MP in 2011. I have been a strong supporter of the Alliance, the Alliance party at the election. I have been a member of the Alliance for almost a year now and I am delighted with the direction they are taking the party, with the strong performance of the Alliance Party in the last election. They have a lot of issues that we can all agree on. The Leader of the Alliance has said
And what’s New Zealand First going to do?;National;I think there is no question that the National Party is very pleased to have the opportunity to become the Government. I know that the Opposition is disappointed that it will not be able to have a say in the House this term. I know that the National Party is happy to be part of a Government, and I support the initiative that was put forward by the member for South Auckland, who stood in the House today and said that the National Party should have a say in the House.<|endoftext
What plans, does the Government have to charge private health providers for blood transfusion services?;Labour;"The Minister seems to be saying that he intends to charge private health providers for blood transfusion services. If that is what he is saying, then I am sure that he would prefer that that were the case. I am sure that the Defence Force would prefer that that were the case. I am sure that the police would prefer it, because they would prefer that it were the case.<|endoftext|>

"
What plans, does the Government have to charge private health providers for blood transfusion services?;National;That is the first thing I would like to say in response to the question. The second thing is that the health industry has a very good track record in the last few years. This is a very good spot to be in. The National Party is not so concerned with the health of people, but rather with the results of the health industry. I would like to congratulate the health industry on the work it is doing to improve the health of New Zealand. I think the Government is now doing everything it
How do current home mortgage interest rates compare with those of the past 10 years?;Labour;One of the main indicators of the housing market is the interest rate, which is currently at a 50-year low, and many New Zealanders are saying to themselves
How do current home mortgage interest rates compare with those of the past 10 years?;National;The average home interest rate in New Zealand dropped to about 10 percent in May, and dropped to about 7 percent in September 2016. The average rate for all New Zealanders was 8.6 percent in May, and it was 8.6 percent in September. So that is 3.9 percent and 2.3 percent. The figures indicate that there is a lot of work that is being done, and that there is a lot of work being done, but there is no new investment. The Government
What way do you want them stacked up?;Labour;The way they should be stacked up. They should be sorted out. It should be the first people who should be sorted out. It should be the first people who should be sorted out. It should be the first people who should be sorted out. It should be the first people who should be sorted out. It should be the first people who should be sorted out. It should be the first people who should be sorted out. The first people who should be sorted out would be the first people who
What way do you want them stacked up?;National;"I think the House should allow the member to continue his speech.<|endoftext|>

"
Why doesn't the member's budget show that in the costs?;Labour;because I am not sure that the cost of the member's budget is enough to show that it is appropriate. The member is talking about $8.9 million when he says that the cost of a member’s budget is $8.9 million. that is exactly what we have got in this House and it is exactly what I have got in my electorate. We have got some good politicians in this House, and I have to say that the last 8 years have been the best 8 years
Why doesn't the member's budget show that in the costs?;National;"It doesn’t.<|endoftext|>

"
Could the Minister state why in fact gambling is an issue of fundamental importance for consumers?;Labour;I say to the Hon. I say to the Hon. I appeal to him to listen to the Committee stage. He has not listened to the Committee stage, and that is because he is not listening to the Committee stage. The Hon. Ricky Gattie has been listening to the Committee stage. He can do so because he is in the chair. He is the Minister of Health. He is the Minister of Finance. He has sat in the chair tonight, and he has been listening to the
Could the Minister state why in fact gambling is an issue of fundamental importance for consumers?;National;I would challenge the member for St. Kilda to tell us what his policies are on that. It is clear that the Government has been keen to have the issue of gambling taken up and that the issue has been raised in the House. There is no doubt that now that the issue has been raised, that the Government will have to consider the question, and that it will have to consider it with some vigour. The question is of great importance as well as being of great hardship to the public
Will the member read paragraph 14 of the report?;Labour;That is a good question. I will look at it tonight when I return from the select committee. I knew that there was a draft report coming out. I thought it might be the final report. I thought I had to look closely at it. I thought it might be the final report. What does it say in relation to the community-wise? It says
Will the member read paragraph 14 of the report?;National;"I think that that is a good question to ask, and I hope that the member will take the time to answer it.<|endoftext|>

"
