question;party;answer
Are gangs such as the Mongrel Mob able to establish and run Government-funded early childhood centres?;Labour;They are certainly able to establish and run Government-funded early childhood centres. The last school that has done so is in the capital, in the inner north of the country. The last school that had a comprehensive plan was that school, and it was the wrong school. It was a school with old, decrepit buildings that were absolutely unfit for purpose. the school was completely overlooked and neglected by the Government, and the Government chose not to use the assets that the school had. The Government used a
Are gangs such as the Mongrel Mob able to establish and run Government-funded early childhood centres?;National;that is a very good question. I am happy to take a call in support of the bill, so I will just give the Minister a call. The purpose of the bill is to provide an increasing focus in early childhood on the social development and protection of children. The Government has committed to providing greater focus on children in New Zealand, and that is why we have made a commitment to provide, in the first year of a new term, $14 million, we have committed to give $11 million
Does the member want the rabbit population to stay up?;Labour;The member will be pleased to know that the rabbit population has been dropped from a population of about 3,000 to a population of less than 2,000. That is a very, very good thing. I am thinking of the great Karel Sroubek character, who was obviously very disappointed that he did not get to see the news this morning, that an agreement was being reached between the Government and the Labour Party. That is good news. The member for Otara will be pleased to know
Does the member want the rabbit population to stay up?;National;I would like it to stay up, because I know that that is what will happen when this legislation is passed. The rabbit population will be up by a matter of weeks. It will be up by a matter of weeks. I am not even sure whether we are talking about the rabbit population of Canterbury. It is only the population of New Zealand that is going up by the rabbit population, not the population of the country. The rabbit population is probably the most important feature of New Zealand. The rabbit
Why will this Government not reintroduce subsidies for agriculture?;Labour;I can tell the member that the Government has seen the report on the agricultural sector and has given it a view. There is no question that the sector is in good shape. The industry is now producing about $1 billion worth of product and is continuing to do so. On the other hand the Government's decision to introduce a farm subsidy scheme, which is a completely different thing, does not make any difference to the way that the industry is going. Farmers are trying to maintain their level of production and
Why will this Government not reintroduce subsidies for agriculture?;National;The first thing I say is that I will do that within the Budget, and not rely on the fact that this Government cannot get its act together. The second thing I say is that we are in the middle of the winter break, and I can see the Government going into the winter break with a very positive outlook. I think that that is the first thing that this Government should be focusing on, and the second thing that New Zealand should be focusing on is that the Government is in the middle of
Would you like me to sit while you say something else?;Labour;He certainly would like me to sit while he does his speech in the meantime. The member will hear it from the member for Auckland Central. He said that this is a little bit like the National Party’s tax cuts. We have heard National Party members say that National members are good at nothing. We have heard National Party members say things like that National members are not the party of the middle. That is a good one, National members are good at nothing. National members are good at nothing
Would you like me to sit while you say something else?;National;"I can tell that speaker that I will do that; I would like to. The Bill is about the same as it was in the Committee stage. I do not think that the Government is overly concerned about the Bill. I think it is necessary to have some discussion about how it will affect the local authority authorities. I do not think that the member should make any more speeches, because she is not the only member of the House who thinks that it is necessary to have some discussion about the Bill."
What measures are Midland district health boards taking to perform more angiograms?;Labour;"The district health boards are practising more angiograms. There is a requirement to perform angiograms in every ambulance. There is a requirement to administer angiograms to all personnel. There is a requirement to provide angiograms to all patients, and a requirement to provide angiograms to all staff.<|endoftext|>

"
What measures are Midland district health boards taking to perform more angiograms?;National;"We are currently conducting a nationwide and focused programme of angiography, and our primary purpose is to improve the quality of care. We have local and regional centres in our area of responsibility who have already started to provide that service, and a nationwide programme is being developed on a national basis.<|endoftext|>

"
What role has Parliament in the reclassification of methamphetamine?;Labour;It has a role in the reclassification of methamphetamine, as we will see. In the past, it was used to deal with the problem of methamphetamine, and in the past, it was used to deal with other drugs, but that does not justify the abuse and the use of it in this case. It is important that the Minister is fully aware of the harms of the drug, and what it does to people and the harm it causes to families. The Minister is not correct in his assertion
What role has Parliament in the reclassification of methamphetamine?;National;The role of Parliament is to look after the interests of the people. The reclassification of methamphetamine, which is a very serious offence, is about the interests of the public. The reclassification of methamphetamine is a very serious offence. I say to the member for Selwyn that I believe that in the context of the rest of the legislation, it was a very serious offence, and that the public interest in that offence, in that offence, is very much on top of the interests of the
Has the Minister seen the legal cases surrounding the 26 March hearing which described the former Attorney, existent?;Labour;"The Attorney-General is not here today to defend that. It is not necessary for him to do so.<|endoftext|>

"
Has the Minister seen the legal cases surrounding the 26 March hearing which described the former Attorney, existent?;National;There have been many legal cases, I am sure, around the country, relating to the issue of the former Attorney-General. I am sure that the Hon. Judith Collins is aware of them, as I am aware of them. There is a large number of them, and the Minister of Justice has mentioned them in the House, and the Hon. Chris Carter and other members of the House have been involved. I am not seeking to be prejudged in any way, but I would like to
Why are you allowing the Prime Minister to behave like that?;Labour;I thought it was a very good speech. I think it would have been an absolute disgrace if the Prime Minister had been allowed to speak. I think it would have been an absolute disgrace if the Prime Minister had not been allowed to speak. I think that that would have been a very, very good speech. The member for Christchurch North has quite rightly pointed out that we have had a very good speech. He made it clear that the Government has a very good idea. He said that it was
Why are you allowing the Prime Minister to behave like that?;National;I think we all recognise that the Prime Minister's letter was the equivalent of the Prime Minister’s statement. She was trying to make a statement about the Prime Minister that contradicted the Prime Minister’s statement. The Prime Minister, when she is not speaking, apologises. People have been made to think that we are in the middle of the day, and that we are dealing with the Prime Minister’s statement in the House. I think it is worth a little bit of discussion
Has the Minister received any further reports about Opposition members not complying with user charges?;Labour;I know of reports of that sort, and I want to acknowledge the work of the office staff. In particular, I would say that I have received one report of that sort that states that the staff of Public Service have not been paid on time, and that is the one that I have received. I would say that the staff of the office are not being paid on time. I have received a report stating that the staff have received no pay on time. That is the report that I have received
Has the Minister received any further reports about Opposition members not complying with user charges?;National;"A number of reports have come through to me, and it is with some disappointment that I have to tell the House that I have received no complaints, particular from the Labour Party.<|endoftext|>

"
Who is the member going to attack this time?;Labour;"Will the member want to take a call? I believe that the member has more than 1 minute.<|endoftext|>

"
Who is the member going to attack this time?;National;The member is going to attack this time on the Opposition side of the House. Is that the point of order? The member has had a chance to speak already, and I think that we have had enough time. So I think that the member is going to attack this time on the opposition side of the House. I think that we have had enough time to say that we do not agree with the member for Papakura. I think that we have had enough time to say that it is not good
