question;party;answer
What is the link between the About Time report and the Government's sentencing and parole reforms?;Labour;It is the Government's sentencing and parole reforms. They are not the same thing as the report on the statistics about the statistics. The statistics, as the member for New Plymouth said, are the statistics. What the report on the statistics says is that the Government is moving from conviction to rehabilitation, and that is the report that a select committee has now heard. The statistics in the report are roughly in line with the statistics about the statistics that the Government is moving from conviction to rehabilitation. The statistics show
What is the link between the About Time report and the Government's sentencing and parole reforms?;National;I think the link is that the Government's sentencing and parole reforms have had a huge impact on the situation. I think that in the last 3 years that I have been in Parliament, fewer than 20 of the 22,000 people who have been sentenced to prison have been handed down for life. That is fewer than 20 of the total people who have been sentenced to prison. I think that is a very good result. I think that is why the time spent on commutation has been so short.
What is the problem with this debate?;Labour;I think it is very, very important that the balance of the debate is between what is in your mind, and what the member is thinking. We want to help the people in the West Coast of New Zealand and in the East Coast of New Zealand to get a better life for themselves, to develop their skills, to develop their values, and to develop their social capital. We want to help them to move to Auckland or wherever they like to call it. We want to help them to get a
What is the problem with this debate?;National;"The problem with this debate is that the people of New Zealand are not in the dark ages, they are back in the dark ages. It is a time when politics was the only issue, and it is a time when everything that is important to New Zealand is thought of in terms of whether it is a good thing or a bad thing. Will the Government spend more money on the welfare of the people of New Zealand; will it spend it wisely; or will it just simply defer it until the next"
Has New Zealand had overseas traders?;Labour;"The New Zealand Herald reported in 1999, that New Zealand was a major centre for trading in commodity markets.<|endoftext|>

"
Has New Zealand had overseas traders?;National;"Yes, the member has heard a lot about that.<|endoftext|>

"
Why don't those members promote a bill?;Labour;"I do not think that one will be able to promote a bill that is as satisfactory as the one that was put forward by the member for Bay of Islands.<|endoftext|>

"
Why don't those members promote a bill?;National;I suggest that we stick with a couple of the points that I made, and that is the difference between the two bills. the first bill was a commercial enterprise bill. It was introduced by the previous Labour Government, and the current National Government is trying to revive it. It went through all the privatisation processes and all the rest of it, and it got the message across to the private sector industry that it was time that it had a bill that was to be introduced, and that was the commercial
Can I check whether that letter was published in the Southland Times?;Labour;"The Minister’s reply to that question is that it is not a matter for the Southland Times. It is a matter for the Ministry of Social Development. That is all,<|endoftext|>

"
Can I check whether that letter was published in the Southland Times?;National;"I am not aware of the newspaper's existence. I have it in front of me.<|endoftext|>

"
What recent progress has the Government made towards its goal of settling all historic Treaty claims by 2014?;Labour;"New Zealand has a number of historical Treaty claims, including the claims of all the Maori and Pacific Island peoples, Treaty of Waitangi claims, and Treaty settlements. The Government is aiming to settle all of the Maori and Pacific Island claims by 2014, and the Government is enthusiastic about this. The Government is committed to moving fully and steadily towards the settlement of all historic Treaty claims by 2014.<|endoftext|>

"
What recent progress has the Government made towards its goal of settling all historic Treaty claims by 2014?;National;The Government has a number of successful schemes in place to settle Treaty claims. The Government has launched the Settlement Trustee, which is focused on settlement of historic Treaty claims and is a collaborative effort between the Crown, the Department of Conservation, the Department of Social Welfare, and the Ministry of Social Development. The government has also launched the Settlement Trustee, which is focused on settlement of historic Treaty claims, and is a collaborative effort between the Crown, the Department of Conservation, the Ministry of Social Development and
What were the main achievements that New Zealand would have received from the recent OECD agricultural ministerial meeting?;Labour;"National raised it at the start of this question. Under the previous Government, the New Zealand export sector experienced the lowest rate of growth in the OECD since the 1970s. It has already begun to recover from that record. New Zealand could have achieved that level of recovery by reducing the export deficit.<|endoftext|>

"
What were the main achievements that New Zealand would have received from the recent OECD agricultural ministerial meeting?;National;I would have had the honourable member on my feet. But I can assure her that the report that has just been published would have been substantially improved by the fact that the global productivity index had been revised up to about 60 percent, not 65 percent, but, that the headline figures were dropped down. I am pleased that the member has been able to look forward to the next meeting of the OECD. I congratulate her on her work and her willingness to give the world a framework that will allow it
and offered them a better travel package than was offered to other journalists?;Labour;That is entirely proper. The way in which the Government has operated, the way in which it has been able to take the sport forward, has been absolutely extraordinary. I just thought of that matter, because of the way in which people have been treated as a whole in New Zealand. Not only has the media been treated unfairly, as a whole, but the media seems to take a little bit of the news away from the public at large. I want to end by referring to the recent report of
and offered them a better travel package than was offered to other journalists?;National;"That's right. I've been away from New Zealand for five weeks, and I've not been in New Zealand for a week long.<|endoftext|>

"
What do Federated Farmers think of this?;Labour;the Opposition put in a submission that said* that the measures put in place would make it easier for farmers to have a go at the Government. The Opposition is standing up and saying that that is what it wants to see happen, and that is what it thinks the Government should be doing. I think that the Opposition is the Government's enemy. I think that it is the Government's problem, and I think that it is time it became its ally, or at least its friend. I think that
What do Federated Farmers think of this?;National;this bill is a typical example of how the Minister of Health would see it. He would say, ``Look, let's roll it up, and get it through the select committee. Let's go through the whole process again. All the time I am thinking, on the day when the Government is supposed to be looking forward to the general election, and it talks of a great future, of a Government that will be leading this country forward, and of a Government that will be standing up for New
What about your Epsom poll and the garden voucher?;Labour;The Epsom poll was the only one that was immediately available. The garden voucher was so small as to be something of a joke, and the fact that it was a basic fact of life was that it was really a matter of means to an ordinary family, not a matter of principle. But the members opposite have been saying that in the last few days. They are telling us that it was the only thing that mattered. I say only that it matters to the ordinary ordinary family, and that is
What about your Epsom poll and the garden voucher?;National;"The previous speaker is not aware of any objection to the wording in the Bill. I have said that I think the wording in the Bill is quite good. I say to this House that I look forward to the debate on the Bill.<|endoftext|>

"
