question;party;answer
What implications could the business tax review have for personal income tax rates?;Labour;The Government has put up the personal tax rate by only 1c to 1c, which is a 2c increase. If the Government does not like it, it can just raise it by another 1c. The ordinary New Zealand family will be paying more for its food, clothing, and accommodation. The family will be paying more in the stores, as well as for the transport allowance, which is something that I think the Government will have to consider. The families of over 200 people will be spending
What implications could the business tax review have for personal income tax rates?;National;It could be a significant positive step in the review process. It is also important that people understand that the Government is reviewing the tax system, and that there are changes that will bring them into line with their personal circumstances. That will be a positive step, particularly in relation to changes to the personal tax rates. I have said to the House this afternoon that that is why I am standing here today. I want to thank the Minister for the way in which she has conducted the business tax review review process
How many New Zealanders have applied for a passport online since the launch of the Online Passport Renewal Service?;Labour;"There have been 1,693 applications since the program was launched.<|endoftext|>

"
How many New Zealanders have applied for a passport online since the launch of the Online Passport Renewal Service?;National;The total is 10,000. The website is open to all New Zealanders. There are some 900,000 people who have applied for an online passport. I have a briefing to the Minister of Transport, who is responsible for the website, about the rollout plans. The website is fully online. The rollout will be completed by the end of June. I am not prepared to do that now, because my colleague the Minister of Transport will be in the chair, and I have the highest regard for
Did the member shut up for long enough to listen to anyone else?;Labour;I just wanted to thank the member for Selwyn for his contribution to this debate, because he was able to give a brief contribution on this bill. I think that the member is making the point that the number of people who have been waiting in the queue for almost 10 years as a result of this bill is a disgrace. I want to congratulate the member for Waikato on taking the time to put me in touch with the public relations department to see how they are processing the various aspects of this
Did the member shut up for long enough to listen to anyone else?;National;"The member will not be listening to me, because he did not finish the question.<|endoftext|>

"
How does that question relate to the primary question, which was about school property?;Labour;I would like to join with the member for Selwyn and ask you to take a call in response to her question. It is an important one. It is a very important one. It is a very important question. I would like to draw to the attention of members of the House both of you to the fact that there is a different logic in the primary question. I ask you to take a call to explain why you think that the primary question is a valid question. I ask you to clarify
How does that question relate to the primary question, which was about school property?;National;"I wish to take a call in response to the question that the member has asked. I think he has asked it in a churlish, mumbling way.<|endoftext|>

"
Was there systemic abuse in State care?;Labour;"I certainly did not hear of that when I was in State care. What I heard was that in many of the cases that people were lying in bed in hospital waiting for a call. I saw people sleeping on mattresses in the corner of their rooms in the hospital hospitals.<|endoftext|>

"
Was there systemic abuse in State care?;National;There was systemic abuse in a number of State-supervised settings, including in the social welfare system, in the mental health system, in the justice system, in the police, in the health system, in the prison system, and in the mental health system. The purpose of the new legislation is to ensure that the circumstances of the most serious cases of abuse and neglect are properly considered when making the decision to prescribe a course of treatment. The Bill also removes from the Act authority to require a person
Could I check whether that is a non-debatable motion?;Labour;"I think that is a question, because it is not debatable. I think it is a question of whether the amendment is a matter of principle.<|endoftext|>

"
Could I check whether that is a non-debatable motion?;National;"I am unable to give that advice to the House. That is very, very simple.<|endoftext|>

"
Just to be clear, can you tell us who the amendments are in the name of?;Labour;The amendments are in the name of the Hon Polly Trott, who we know well. I am pleased the Hon. Phil Goff is here to represent the National Party, and I am pleased to see that the Hon. Simon Power, who I know well, is here to represent the Alliance. I am pleased to see that the Hon. Clive Russel-well, he is a National Party member, but I note that the Hon. Deborah Morris will be here next week. I am pleased to
Just to be clear, can you tell us who the amendments are in the name of?;National;"My apologies, I am speaking in this debate from the Opposition benches and not as the deputy leader of the Labour Party. I just want to make some comments in response to the question. I congratulate Dr Lockwood Smith on his exemplary performance as leader of the Labour Party. I think he has done a very good job in relation to the economic policy of this Government, and I commend him to the House.<|endoftext|>

"
Just as a point of clarification, will you confirm that new Part 3A is embraced in this Part 1, or is it separate?;Labour;"The new part 3A that is introduced in this Part 1 is known as the ``Agriculture Amendment Bill'' or the ``Agriculture Amendment Bill at the present time'', and we are not sure whether that has been updated. I am not sure whether that has been updated.<|endoftext|>

"
Just as a point of clarification, will you confirm that new Part 3A is embraced in this Part 1, or is it separate?;National;"There are many questions that we have to go through, Dr Cullen, and I am happy to have your support on any of those. I am sure the member will be happy to support this amendment, as well as any other bills, that will be introduced in the House tonight. I think it is important that we do this when we deal with a welfare amendment.<|endoftext|>

"
What other differences are there in the approaches of New Zealand and Australia to this issue?;Labour;"As the member for St. Kilda, I am aware that the Government does not have a similar situation.<|endoftext|>

"
What other differences are there in the approaches of New Zealand and Australia to this issue?;National;"The differences in the approaches have been largely in the areas of education and research. The difference between the New Zealand and Australian approaches is that in New Zealand there is no requirement for teacher training; in Australia there is. The difference between the New Zealand and Australian approaches is that there is no requirement for teachers to train; in New Zealand there is. That is the difference between New Zealand and Australia. The difference between New Zealand and Australia is that there is no requirement for teachers to train; in New Zealand"
What progress has the Government made on the mixed ownership model programme?;Labour;The National Government has made a significant contribution to this programme, and I applaud the work of the Department of Conservation staff in implementing the programme. The department recently announced the rehabilitation of the new conservation education centre at Tarawera, which will be dealt with by the Department of Conservation staff from July. In the past two years the department has reoffended, lost money, and lost services, and the department has been beset with major problems. The department has had to postpone removing a number of fish
What progress has the Government made on the mixed ownership model programme?;National;The Government has set the date on which to commence the trial of the mixed ownership model in the Mangere electorate. When the trial is completed, the move will be to establish a mixed ownership system. It is expected that it will result in the establishment of a mixed ownership system in the area of fishing and forestry, which will connect to the mixed ownership model in other areas of the economy. The first phase of the trial will be a trial of using fully mixed ownership models for the commercial fishers
