question;party;answer
Is the funding to be permanent or for a trial period?;Labour;"The funding is permanent and for a trial period. The primary objective of educational services is not to provide low-income children with zero exposure to the education system; that is not the primary objective of the education system; the primary objective is to provide the best possible education experience for all students.<|endoftext|>

"
Is the funding to be permanent or for a trial period?;National;The funding is permanent. There is no cost to the taxpayer of the legislation. The intention is that the funding will be used to help establish the business of the ``elderly'', and to develop the business of the ``younger'', rather than it being used to support a particular employer. The intention is that the funding will be used to encourage the employment of a particular employer. I believe that the purpose of the legislation is to ensure that the work of the ``elderly''
Is the member seeking a point of order?;Labour;"I am seeking a very specific example of the Ministry of Education. I am not talking of the Department of Social Welfare. I am talking about the Ministry of Education.<|endoftext|>

"
Is the member seeking a point of order?;National;The member was not. the member for Selwyn, who was pleading with the Minister of Finance during the hearings, was not. If the member wants a point of order, I recommend that he ask the member for Selwyn about the other face-palm that he has been given. He was not given one. The member for Auckland Central did not give one. The member for Auckland Central is the housekeeper in the House, and I want him to put his face on the other face-
Has Pacific Health been funded sufficiently to provide nurses at Tauranga Hospital with a 5 percent pay rise?;Labour;"That is a question that I was not able to answer. I apologise for the delay, and I thank the member for St. Kilda.<|endoftext|>

"
Has Pacific Health been funded sufficiently to provide nurses at Tauranga Hospital with a 5 percent pay rise?;National;The projections for Pacific Health indicate that the New Zealand health system will be funded to $100 million by 2020, which is a 25 percent increase over the current level of funding. A very good sign of the future of the health system is that Pacific Health is expanding its rural operation, and the new rural health unit is expected to provide better services to the rural population than the current unit of health, which is run by the Ministry of Health. Pacific Health is leading the industry in its targets, and is
What support is the Government currently giving to support out, school care and other such programmes?;Labour;"There is a special support for out, school care and other such programmes, which is the focus for the Minister. There are programs that are not in the public eye or in the headlines, and they are going to be made available to parents.<|endoftext|>

"
What support is the Government currently giving to support out, school care and other such programmes?;National;The Government is providing support for supportive programmes through the Work and Income New Zealand programme to help people achieve in education. The Government is also supporting other programmes such as the Linked Assessment programme, the New Zealand Skills Strategy and the project on early childhood education. New Zealand has been very successful in providing a low-cost, quality child, young, and family care for our children and our young people. This is not just about providing care. We also provide a wide range of support for people and families
Let us get the Hansard, shall we?;Labour;I thought you were about to listen to the member for Selwyn. How is he going to explain that to the public? It seems to me that he is going to assume that they will be able to continue to take their usual course of action when the Corporation decides to run an advertisement for the sale of State assets. Many of the assets that we have under the National Government are of State, -in the form of the police and the schools. Our schools are going through a big struggle, but
Let us get the Hansard, shall we?;National;I think it is important that the House hear the evidence that this bill will save New Zealand. The Government has said that this is a great bill, and the Committee of the whole House has said that it is a great bill. It may be that there is some evidence that it will save New Zealand some way of life. I want to introduce another aspect that the Committee of the whole House was thinking of, and I think that it is a great idea. A major aspect of this bill is the
Is the Treasurer aware of any other policies relating to the sale of the Forestry Corporation?;Labour;"I am aware, and I am happy to answer.<|endoftext|>

"
Is the Treasurer aware of any other policies relating to the sale of the Forestry Corporation?;National;"The Government is offering to sell the forestry corporation for interest at a discount if the owner of the forestry corporation is willing to sell. The Government is offering to sell the forestry corporation for interest at a discount if the owner is willing to sell. I have also heard the Minister of Conservation say that the sale of the forestry corporation was not being undertaken as a result of any action taken by the last Government.<|endoftext|>

"
Are we voting on clause 9D, new section 41A, on Supplementary Order Paper 43?;Labour;"I am voting on clause 9D, new section 41A, on Supplementary Order Paper 43. I am speaking on a figure of $5 million. I am sure that those disadvantaged members would have been aware that there is $5 million in the latest Budget. I am not saying that $5 million is too much; I am saying that it is a problem that the Labour Opposition is attempting to deal with. It is a problem that has been dealt with by the Labour Party. I say that it"
Are we voting on clause 9D, new section 41A, on Supplementary Order Paper 43?;National;"I am not voting on that part of the Bill. I am voting on clauses 9D and 9E, and on Supplementary Order Paper 43.<|endoftext|>

"
What about fire blight in Australia?;Labour;I do not think that fire blight in Australia is as bad as what is happening in New Zealand. The fire blight, which is a very common fire blight, can be found in the western part of New Zealand, and it is not as bad as the fire blight in New Zealand. The fire blight in New Zealand was found in the western part of New Zealand. It is usually spread by fly poison or by the insecticide |fly poison|. It is not as bad as the fire blight in
What about fire blight in Australia?;National;I believe that fire blight in Australia is caused by the insect, fire borer. There is an interesting report about the blackened eye of fire borer. In the Australian report from The Guardian a committee of fire blight experts said that it was a bug that was introduced in Australia. The New Zealand report states that the insect is a new insect that has spread via transmission from animal to animal. It was introduced in the United States. When there is an insect that spreads the infection, one wonders how
Is the Reserve Bank of New zealand Amendment Bill “populist garbage”?;Labour;the Reserve Bank of New Zealand is a Government agency. It has a very specific objective. I have to say that in the 7 years I have been in Parliament, I have to say that I have not seen a single proposal come out of the Government’s mouth. The Government is not debating this Bill. It is doing its best to create a climate of political distraction. There is no way that any member of this House, or any Government, will be able to come out of this debate
Is the Reserve Bank of New zealand Amendment Bill “populist garbage”?;National;The Reserve Bank of New Zealand Act requires oversight of the Governor of the Reserve Bank to ensure that it is well managed. The other important thing about the Bill is that the Minister of Finance will be the chairperson. the Minister of Finance has been on the board since 1983 and he has a pretty unique record of how he has operated in the context of economic policy. He is a national hero. He is a national hero. He is a national hero who has led that country to the point where it
What will be the effect of the company's expansion following the assistance it has received from Industry New Zealand?;Labour;Dr Smith and I have spent a considerable amount of time working with Industry New Zealand to ensure that they have a business plan. They have developed a business plan that demonstrates the Government’s commitment to the sector, and the industry as a whole. As a result of that assistance, New Zealanders will be very pleased to have a company that has an attractive future. The expansion of the company will strengthen that confidence and will give businesses confidence that they can get on with their business, and it will
What will be the effect of the company's expansion following the assistance it has received from Industry New Zealand?;National;I am not sure of that, but it will certainly be positive. It will mean increased activity in the tertiary sector and likely increased activity in the tertiary sector in the future. I have a number of other questions that need to be queried by the Minister or the Minister of Health. I have a short question that I ask of the Minister of Health because the Minister of Health has been asked to attend a function in Auckland. It is a bit early in the year so I take the opportunity
