question;party;answer
Will the Minister give the House a cast-iron guarantee that Housing New Zealand will not be sold under a National Government?;Labour;It will not be sold under a National Government. It is not a Government-it is a Government in crisis. It is a Government that is losing. It is a Government that is facing serious structural problems, and the only answer is to sell it off. The only answer is to sell it off. I am talking about the National Government. I am talking about the National Government who wants to sell Housing New Zealand. I am talking about the National Government who is prepared to sell Housing New Zealand.
Will the Minister give the House a cast-iron guarantee that Housing New Zealand will not be sold under a National Government?;National;"That is what the Government said yesterday. I ask the member to tell me whether she will get assurances from the Government that Housing New Zealand will not be sold under a National Government. I want assurances that Housing New Zealand will not be sold under a National Government.<|endoftext|>

"
can I ask that the question be repeated?;Labour;"It is not quite a question. I know that the member is going to ask it again.<|endoftext|>

"
can I ask that the question be repeated?;National;It is a matter of some urgency. It is a matter of importance. Members on this side of the House are very concerned about this matter, the Hon. former Prime Minister John Key has been trying to get the Minister to take a call, but he has not been able to. I will not give him another opportunity to make a contribution, but I want him to take a call. I think it is very important that the Hon. Ruth Dyson has a say. I think it is a
What's this got to do with the Senate Bill?;Labour;I am not sure. I am best able to say that it is an attempt to do a bit of something. I do not think that there is any disagreement about the main thrust of the Bill. The Bill will allow the Judicial Conduct Act to be amended to be more effectively administered by the Judicial Conduct Commission. I have already indicated that the Committee stage of that Bill will be a very brief one, and that the first reading debate will occur on the second Wednesday of March. It is hoped that this
What's this got to do with the Senate Bill?;National;"What’s this got to do with it?<|endoftext|>

"
Did the Prime Minister vote against that?;Labour;"There is a very real risk that the member for Nelson will have to sit for a few hours to show her stomach in that Chamber, and that will be a very, very bad thing.<|endoftext|>

"
Did the Prime Minister vote against that?;National;The Prime Minister voted against that. She voted against the Bill. She voted against the Employment Relations Amendment bill. She voted against the Bill. She voted against the Employment Relations Amendment bill. She voted against the Employment Relations Amendment bill. She voted against the Employment Relations Amendment bill. She voted against the Employment Relations Amendment bill. She voted against the Employment Relations Amendment bill. She voted against the Employment Relations Amendment bill. She voted against the Employment Relations Amendment bill. She voted against the Employment Relations Amendment bill.
What support does the public infrastructure package give to our tax administration system, which is now over 25 years old?;Labour;This Government is committed to providing infrastructure to improve the delivery of services to the people of New Zealand. I am pleased to report that $7.1 billion worth of infrastructure projects have been announced. This is a record amount of expenditure, with $5 billion being spent on new roading in the capital. This is $5 billion worth of roading being built over the next 4 years. That is an enormous investment in our roading system, which is of great importance to our economy, and a
What support does the public infrastructure package give to our tax administration system, which is now over 25 years old?;National;"The Government’s new response to the economic crisis is a more effective and flexible tax administration system to support businesses and Government departments. This more efficient administration system will enable businesses and Government departments to carry out their business more effectively.<|endoftext|>

"
Nobody counts on the polls, but would you rather be where we are or where you are?;Labour;"What I would rather be doing, is saying that this bill is about the wrong things and that we should be doing something else. But the other thing I would rather be doing is saying that this bill is about the wrong things, and that we should be doing something else.<|endoftext|>

"
Nobody counts on the polls, but would you rather be where we are or where you are?;National;"I would rather be where the Government is than where we are.<|endoftext|>

"
What recent progress has been made on the western ring route in Auckland?;Labour;The western ring route is progressing well. The new route is being built, and it is expected to be completed by Christmas. I have to say that the new route is a lot more expensive than the original route, and the cost of the existing route is an absolute bargain. I say to the incumbent member that the new route needs to be built in order to be able to handle the traffic flow to and from Wellington. There is a lot of gain to be made in that regard. We are talking
What recent progress has been made on the western ring route in Auckland?;National;There is progress on the western ring route in Auckland, which is the first time since the late 1960s that a single road has been constructed for that route. It is being completed with a total of $1.2 million in the first year of construction, and to date the cost of the western ring road has been estimated at $20 million, which is $6 million more than is being built. Two new local roads, the Waurunga and the Taumarunui route, are
What effect will the reduction of New Zealand Post's standard-letter stamp price have on the profitability of the company?;Labour;"The elimination of the standard-letter stamp price will have a considerable effect on the profitability of New Zealand Post. The Government has made it clear that it will be considering the business case for the new business model in the short term. As the business case for the new business model is being considered, New Zealand Post will be able to review its business practices from time to time to make sure that the new business model delivers for New Zealanders.<|endoftext|>

"
What effect will the reduction of New Zealand Post's standard-letter stamp price have on the profitability of the company?;National;"What effect will the reduction of the stamp price have on the profitability of the company?<|endoftext|>

"
Are you still going on about her?;Labour;"I still have to write to you.<|endoftext|>

"
Are you still going on about her?;National;"The fact that that is the best approach Ms Jones put to the Minister of Social Welfare is just the best example of how bad the Government’s approach to social welfare is.<|endoftext|>

"
In releasing its latest forecasts, what key assumptions did the Reserve Bank make about the economy over the next few years?;Labour;"The Reserve Bank is forecasting gross domestic product growth of 3.3 percent in the next 3 years. I am pleased by that, because it is negative and it is negative in the same way that the previous Government was negative. It is positive in that it is positive in the same way that the previous Government was positive.<|endoftext|>

"
In releasing its latest forecasts, what key assumptions did the Reserve Bank make about the economy over the next few years?;National;The Reserve Bank's forecasts are quite gloomy. One of the key assumptions the Reserve Bank made was that the economy would grow at a sustainable rate. That is very close to the reality. The Reserve Bank is forecasting a deficit of about $300 million over the next 4 years, and that is far from the reality. Because of the economy's current weak position, and the Government's tough economic policies that have been followed, the household debt is forecast to rise to about $1.7 billion by the
