question;party;answer
Didn’t you pick up the Newtown electorate?;Labour;I have picked up the Newtown electorate, because I know that that is where we have had so many shootings over the last week. I know that the Newtown area is the place where people go to, where people go to to. But the Newtown area is a very rural area. That is why we are talking about the Newtown area. I am going back to the fact that when we talk about the Newtown area, we should concentrate on the Newtown area and not talk about other areas. When we talk
Didn’t you pick up the Newtown electorate?;National;I do not know about that, but I will say this
Why not have Stop sex prevention programmes at the same time, to deal with the problem both in New Zealand and overseas?;Labour;I have been to a number of countries where a high-risk group of girls is found, which is where I think we need to be thinking of getting the message out there about how we can tackle the problem. I will give an example. A group of girls from the local community came to my office in Milford Haven to share their story and to show how they had been prevented from having sex. I think that is absolutely right, and I think it is absolutely appropriate that the Government should know
Why not have Stop sex prevention programmes at the same time, to deal with the problem both in New Zealand and overseas?;National;I think that the main point of difference in this Bill is that it deals with the issue of sex, rather than with the issue of sex. That was not the case when the Bill came before the select committee, and it is not the case now. The Bill is about reducing the level of sexual harassment, rather than about bringing in various laws, with an eye to the problem of sexual harassment, or about introducing legislation. There is no point in having legislation that deals with the issue of sexual harassment
Does the Minister have confidence in the robustness of the report and the panel members?;Labour;"The panel members are well respected in the community. They are generally very good. The National members think that they are good and they are prepared to support the report.<|endoftext|>

"
Does the Minister have confidence in the robustness of the report and the panel members?;National;I have confidence in the panel members who have been on the panel. We have listened very carefully to the submissions from the companies, and I believe that feedback from the companies will come back to the Minister. The panel members have had a very good hearing. I think that, when the full report is out, we will see that the panel members did a very good job of putting together a report that will be endorsed by the companies. I think the report is a very good one, and I am
So what is the Minister doing about it?;Labour;As I said in the debate, I am a strong advocate of going forward with the health reforms, and I will be setting out to take part in the select committee process next week to see whether we can get some clarity on that, as the member for North Shore. I think the members of the select committee should be able to see that there is a consensus. I am not suggesting that we have to wait until the end of the year for the select committee process to be fully considered by the Government
So what is the Minister doing about it?;National;I am aware of the seriousness of the situation, and the chair of the select committee, Mr Nick Smith, asked me to have a look at it. I did have a look at it, and the Health and Safety in Employment Committee has recommended that the Bill be passed. I am pleased that a Labour-led Government has the ability to achieve the result it wants. It is good news for the nation. If we get more workers, the average wage rises by about $2 a week in the
As I said at the beginning, these are clauses, not parts-OK?;Labour;I must say it is a pleasure to be on the Commerce Committee. I have always been an active member of the Commerce Committee. I have been a member of the Commerce Committee at different times during my career over the last 6 years, and I will take the opportunity to speak to one or two other points of order on this bill, which will take the first part of my speech to an end. I thank my colleague the member for Selwyn for his very good contribution to the bill and to the
As I said at the beginning, these are clauses, not parts-OK?;National;It is a minor matter, and we will vote on it. The reason we are debating it is that we know that the previous speaker is a constitutionalist. I am sure that members opposite will be listening to me discuss the Constitution Act, the first reading of the Bill, and some other such matters, to find out whether that is the case. I have to say that I am not sure whether it is the case, because I do not think that the member who is the current speaker is a
What service changes are proposed for Northland?;Labour;The Government is now considering a number of new initiatives to help improve the security situation in the North Island. The Government has set its sights on securing the basic competency of all New Zealanders, and will soon be announcing the first of these initiatives. The Government has an interest in ensuring that New Zealanders are able to make informed decisions about how they wish to spend their time and their money, and we are pleased to announce that this investment is part of the Government’s focus on a secured
What service changes are proposed for Northland?;National;I would have to look at the reports of the Minister of Transport, and then I would have to wait and see whether or not they are the right ones. I do not think that the bill will improve the lives of our young people. I think that the Bill will make the lives of our young people more difficult. The Bill will make it more difficult for young people who want to leave school and get on a job, and it will make it harder for young people who want to stay in school
What did Peter Fraser tell the member?;Labour;Peter Fraser said that there is a lot of information that is not available to the public. What Peter Fraser said is right. The member should go and talk to the department, to the staff, and to the people who are affected by the changes. That is the reality of the new system. The only thing that has changed is that the department will now have to put out a press statement, which is something that we have been doing for ages, and every time we have had this legislation coming to
What did Peter Fraser tell the member?;National;I know that Peter Fraser is looking forward to coming back to the House and saying
Will access agreements on conservation land be possible for existing mining permits in the future, as is currently the case?;Labour;"The Government may be able to extend access agreements to existing mining permits if it decides to do so. As we move today to hear the reports on the implementation of the new policy, we are considering the possibility of extending access agreements to existing mining permits.<|endoftext|>

"
Will access agreements on conservation land be possible for existing mining permits in the future, as is currently the case?;National;"The access agreements currently in place will provide for the establishment of the mining industry on the reserve, but they are not commonly used. They are used to build up the resources where there are production challenges.<|endoftext|>

"
Will the Minister commit more funding?;Labour;"The Minister is committed to $3.5 million. That is about $3.5 million more than is being committed to the charter school sector in New Zealand. Is that the kind of approach?<|endoftext|>

"
Will the Minister commit more funding?;National;The Government cannot afford to lose services like the one that this Government has cut. One can only imagine what will happen if the Government loses an election. I have had to put on the line of the Welfare Benefit Reviewer to get information on the future of the New Zealand State-owned broadcasting system. It is a shame that it is not available in State hands, and that the Minister of Broadcasting is prepared to throw it out now whenever he can. I have to say that the Government's attitude to
And is it a shop-front police kiosk or is it a station?;Labour;I am not sure, but it is a shop-front. It is not a kiosk. It is a kiosk, but it is not a shop-front. That is a problem that I think we need to think about. I think we need to think about that and have a look at the signage. I know that the police have had a tough time with the kiosk. I think it is a no-brainer, to have a simple sign saying that it is a kiosk
And is it a shop-front police kiosk or is it a station?;National;"I think it is a shop-front. The kiosk is a station.<|endoftext|>

"
