question;party;answer
Can the Treasurer enlighten us as to Mr Oliver's views on tax evasion?;Labour;"I am advised that the Opposition will support the Government's legislation as it stands. As a former professor of taxation, I know that the Government's approach will be successful. The Opposition will support the bills as they stand.<|endoftext|>

"
Can the Treasurer enlighten us as to Mr Oliver's views on tax evasion?;National;Mr Oliver has been better informed of his views than I have, and I suggest he be informed in the House today of the view of the member for Auckland Central, who has been very clear in his assessment of the position. He has indicated that the Government will take a positive approach to tax evasion, and he has made the assertion, that if the Government were to go back and start prosecuting the people who are committing tax evasion, it would cost a fortune. I have been talking very positively about the
Why isn't the Minister working with the organisation?;Labour;"The member is correct that the organisation is in the process of being taken over by the New Zealand Institute of Economic Research. The organisation has been in existence for about 3 years, and is now the New Zealand Institute of Economic Research. That is why the Minister of Commerce has come to the Government’s attention, to the current Minister of Transport, and to the current Minister for State-owned enterprises. The organisation is not run by the Government; it is run for the Government. The organisation is"
Why isn't the Minister working with the organisation?;National;"She’s not here. She’s not working with, the organisation.<|endoftext|>

"
What are the implications of the Vancouver outcome for New Zealand's task in chairing the APEC leaders' meeting in 1999?;Labour;The implications of the Vancouver outcome are quite different. The implications for the APEC agenda are quite different. I am not going to have a look at the text of the report. I have got to the point where I am talking to the member for Selwyn, and I want to finish by saying that I think the report is a very good one. It is very important for the APEC agenda, for the APEC agenda and for New Zealand. It is a very good report, and I
What are the implications of the Vancouver outcome for New Zealand's task in chairing the APEC leaders' meeting in 1999?;National;"The APEC leaders' meeting in 1999 has been held under very tight times, and the APEC summit will be held in the summer of 2000.<|endoftext|>

"
Was the member quoting from the member's personal explanation?;Labour;"The member has been very good at pleading ignorance for the last 2 hours, so I have to say that he has not been as forthcoming as he should have been. I meant to say that he had received a copy of the report. The member has not seen the report.<|endoftext|>

"
Was the member quoting from the member's personal explanation?;National;He is quoting from the member’s explanation. I am not a member of the committee. I cannot confirm that that member has been briefed. I do want to say that this bill, in its current form, is one which should be referred to the select committee. Under the current standing of this select committee, we are talking about quite severe reform of the legislation. I would like to ask the select committee to come back to its original view and to think about the amendments that are necessary to
Is there any objection to that course of action being followed?;Labour;I do not think that we would be seeing the end of the matter if it were not for the Government’s action. in the last 3 years the Government has had to bring in a whole range of controversial measures. In the last 3 years the Government has had to put in place a system of mass surveillance, which has been well received by privacy advocates. I do not think that the public of New Zealand has seen the end of the policy of the Government in these matters.<|endof
Is there any objection to that course of action being followed?;National;I would say that it is a matter of judgment in terms of whether or not the Government's view is the State sector, so that there is a balance between the interests of the State and the interests of the people, not just one of the State's interests. I come back to the issue of providing a fair and effective welfare system. I think it is obvious that the reform that is needed to provide a fair and effective welfare system is not being provided by the Government. The National Party’
Is there any objection to that course of action being taken?;Labour;"If the member wants to talk of a course of action, I am happy to oblige and tell him what we think of it.<|endoftext|>

"
Is there any objection to that course of action being taken?;National;The first part of that question is an objection to what the Government has been doing in respect of the trust. That is exactly what it has been doing in respect of this trust. It has been a very good campaign. I have to say that what is done in respect of this trust is very good. It is quite simple. National Party members have been quite concerned about this trust and have been quite concerned about that trust having the ability to compete against the National Party. It is not the only trust
What forms of gambling have been introduced in recent years, and when, so that we can see what has caused this increase?;Labour;The amount of money that is being spent on betting has been growing faster than the average wage, and in recent years it has been in the range of $100,000 to $200,000. It is a very interesting statistic that the average wage, which when adjusted for the number of hours worked, can be found to be $200,000 or $300,000. that means that a substantial percentage of the wage as a result of the gambling, will be decided by the amount of money
What forms of gambling have been introduced in recent years, and when, so that we can see what has caused this increase?;National;There are the options that were introduced last year. the option for the first time in New Zealand was to have the first person to win a bet of a significant amount of money. The amount was $100,000, or $200,000, or $300,000 or $400,000. The amount was $100,000, or $200,000, or $300,000, or $400,000, or $500,000. The amount was $100,000
How many people have taken up the child-care subsidy?;Labour;The number of residents who have taken up the child-care subsidy has been reduced from 1,000 to 700, and this period of reduced participation has been achieved by working with the local community and, by working with the Department of Social Welfare. The Government's commitment to reducing the number of children being enrolled in early childhood education has been made by the Government's action plan, which was announced in March 1994, and has been followed by the Government's action plan. The Government has reported back to the
How many people have taken up the child-care subsidy?;National;It is a very small number. I would say it is at the very bottom end of the scale. We have to be careful about that, because there are people who are really in need who have lived in that area and who are not in those areas. So that is why the issue is being raised in this House today, and that is why I am asking about that. the Government is not going to allow that. I would say that this is the most important issue we have had in this
Which of the 13 elements in the agreement with the Māori Party will be included in legislation to be introduced next week?;Labour;"The agreement with the Māori Party will be included in legislation. There is a multilateral agreement that we have on the northern front, and it comes into force on 1 July.<|endoftext|>

"
Which of the 13 elements in the agreement with the Māori Party will be included in legislation to be introduced next week?;National;"As I said earlier, the 13 elements are sound policy and practical proposals, in which the Minister is very confident. This is the first time that I have heard a Minister of Maori Affairs speak on the subject.<|endoftext|>

"
What is the member talking about?;Labour;The member’s comment about the Minister of Communications and his office has just been utterly ridiculous. The member is entitled to his opinion. He is entitled to his opinion about what he sees and believes. He is entitled to his opinion about what he is getting out of it, and he is entitled to his opinion about what he is getting out of the Labour Party, which has always been pretty good at it. I am equally entitled to my opinion about the Maritime and Defence Force. I will give
What is the member talking about?;National;I am trying to find out whether the member wants a tax increase. I am sure we have been saying that. I am sure that we have been saying that for some time. Some time ago I was asked whether I would increase the GST. I would not. I have been saying for some time that I would not increase the GST. I would not increase taxation. I would not increase income tax. I would not increase employment tax rates. My answer is
