question;party;answer
What do recent trends show about the number of jobs in manufacturing?;Labour;"Manufacturing was the mainstay in the economy over the past 5 years, and it has continued to grow strongly in the future. Manufacturing is expected to grow by 23,000 jobs over the next 5 years, to a total of 23,000 jobs by 2024.<|endoftext|>

"
What do recent trends show about the number of jobs in manufacturing?;National;The manufacturing sector is experiencing growth, and the result is that it is surging to a record level of employment. That figure is not a result of people being employed, but a result of the skills available through industry training programmes, such as the recent introduction of the National Certificate of Secondary Education, which got students into the real job market. The industry is expected to grow by more than 20,000 jobs this year, and it is projected to grow by another 20,000 jobs in the next 3 years
I know I have the Supplementary Order Paper, which amendments are you calling a vote on?;Labour;"I am calling a vote on my Supplementary Order Paper. That is my word.<|endoftext|>

"
I know I have the Supplementary Order Paper, which amendments are you calling a vote on?;National;The Opposition has no objection to the passage of this bill, but the Government does have concerns about the way that the Government has decided to manage the tax system, which is not good for the economy. The Opposition supports the bill because it provides a better way of dealing with the tax system. It is a simpler system for the serious purposes of this House. The Taxation Bill is a significant step forward in terms of the way that tax is paid, and it provides a simpler system for that purpose than
Do you want me to go and get the Hansard of every time you said that?;Labour;"I want you to go and get the Hansard of every time you said that. Do you want me to do that?<|endoftext|>

"
Do you want me to go and get the Hansard of every time you said that?;National;"that is not the question.<|endoftext|>

"
For how long do the agreements continue?;Labour;we have a number of agreements in place, and we are continuing to work with a number of partners. It is important to acknowledge that there are many issues that need to be addressed. A number of measures are being undertaken to address the issues, including new initiatives to address issues around social housing, such as the recent announcement of a new home-army in Northland, and the Auckland community-based programme, which is being introduced this December. The Government will continue to address these issues. I
For how long do the agreements continue?;National;to 28 June 2011, because of the operational changes that have been brought in by the previous Government. This includes the introduction of a new policy that has been developed almost entirely by the previous Government. The policy seeks to ensure a more effective and efficient use of the money that is available to people in remote areas. The change is in response to the current inability of some remote people to provide services or other services. This has led the previous Government to introduce a new policy of providing services at a competitive level
What role does local government have in spreading this message?;Labour;The theme is to redirect the conversation away from the popular culture. The theme also is to send a message to people who think they are going to be victims and to send a message to those who think they are going to be protected. I think that this is a very, very good idea, and I suspect that it will have the biggest effect on those not in the know. But my point is that we are talking about a very, very important part of the community, and I think that we
What role does local government have in spreading this message?;National;I say to the member for Eastern Bay of Islands that I think it is appropriate that this part of the scheme should come to a close, and that we should be satisfied that the Government is investing. I think that the Government is making progress and that we should be satisfied that we have a good plan for the future. The Government has said that there will be a fair share of funding, and I think that is a good thing for the future. We are going to have a fair share of money
Are you sure you have allowed for all the points of order?;Labour;"I think that is absolutely correct. There are two points. Mr Key made the point that if one looks at the ministerial statement of the previous speaker, one sees that it is quite clear that she was not in the House.<|endoftext|>

"
Are you sure you have allowed for all the points of order?;National;"I have allowed for all the points of order, so that we can comply with what the House is calling a supplementary order paper.<|endoftext|>

"
Who said that that would be a good idea?;Labour;"That is what the question asked, to see whether the Minister’s response would be better if she had not said that this would be a good idea. We will not have her saying that it is a good idea. It is the Opposition’s idea.<|endoftext|>

"
Who said that that would be a good idea?;National;"The member should read the report. Dr Cullen said that it would be a good idea. He said that it would make a lot of money. and he was talking about the amount that would be made. That is what he said. I say to the member that a lot of money is made. The member is not prepared to believe that that is the amount that is made. He should read the report.<|endoftext|>

"
What other initiatives could impact the cash flow of small businesses?;Labour;In the last year, there were more than 5,000 small businesses that would benefit from these savings initiatives. Those are just the small businesses, but there are many more small businesses than that. The Government will be looking at a range of initiatives to continue to increase the cash flow of small businesses. I commend the Government’s announcement on the Budget yesterday on extending the family support payment to all beneficiaries. This is a great thing. It will help more than just one family per annum,
What other initiatives could impact the cash flow of small businesses?;National;The other initiatives that might be worth sharing with the House include new shops, more staff and more young people, new home insulation, and an end to red tape. I believe that a low-cost housing policy will give New Zealanders a decent life. The other important thing is the Government's extraordinary commitment to help small business. It has done a lot of good things in the past, but we need to give them more money to do that. The major issue facing a business is the cost of
What effect does it have on children’s confidence as learners to be labelled from age 6 as below standard?;Labour;"The Government’s policy is to make it easier for parents to raise their children to be in the top 10 percent of income earners. This will allow more families to stay in the top 10 percent of income earners.<|endoftext|>

"
What effect does it have on children’s confidence as learners to be labelled from age 6 as below standard?;National;The results of the recent report on the implications of the introduction of the new system were discussed in the House a number of times over the last few days. The report did not call for any changes to the way that the allocation of education slots is managed. I refer to the fact that it does not make any difference to the education sector. At the end of the day it is not the Government's responsibility to provide the services to which the children need. What is the point of having a system that
Which groups are to be represented on the wholesale electricity market development group?;Labour;The wholesale electricity market development group will represent the interests of the electricity industry, and will be comprised of industry, industry, and industry groups. The members of the group will be appointed by the Minister of Energy and the Minister of Consumer Affairs. The group will be chaired by Mr Glenn Duffy. Its chairperson will be Ms Rina Fishel, an associate professor of economics at the University of Auckland. It will consist of representatives from the electricity industry, the electricity industry, industry groups, and industry
Which groups are to be represented on the wholesale electricity market development group?;National;The largest group of the wholesale electricity market development group is the New Zealand Association of Power Producers, representing major New Zealand power producers, including the best-performing power producers in the Western Hemisphere. In late January the Government announced that the group was to be split into the New Zealand electricity market groups, one for the rural sector, one for the business sector, and one for the transmission group. The Government has yet to conclude the design and structure of the new group. The Government has made it clear
