question;party;answer
Is the 33-page unpublished coalition document located in any ministerial device or hard drive?;Labour;"As I have already explained, it is in a ministerial device in an unknown location. The document is not available to the public, and I have no previous knowledge of its contents.<|endoftext|>

"
Is the 33-page unpublished coalition document located in any ministerial device or hard drive?;National;"The Government Opposition did not have it, and I did not have it, but I think I did have it from the New Zealand Herald.<|endoftext|>

"
How many years does the member want me to go back?;Labour;"In my view the member should ask that question later. It is a matter for the member.<|endoftext|>

"
How many years does the member want me to go back?;National;"I am a little bit worried about the fact that I would have to be in the House and talking about the issue.<|endoftext|>

"
Has the Minister received any reports from landowners in the IkaroaRāwhiti region to support the ture whenua reforms?;Labour;I have been advised that the ture whenua plans have been released, and they include many of the reforms that were originally proposed by the then Minister of Transport. I want to refer to one particular element of the draft by a member of the Committee. Its title is
Has the Minister received any reports from landowners in the IkaroaRāwhiti region to support the ture whenua reforms?;National;That is a matter that the Minister and I have discussed in the House today. What I have heard from the Ikaroa Rāwhiti landowners is that the change to the Taumarunui Government’s legislation is an important one and that they are ready to support it. I think the important thing is that the important Te Reo te Tuhopu House, which will be demolished in the near future, is not demolished to build a new house for the Government’s
Will it slash extra funding for the elder-care sector?;Labour;It is a great pleasure to speak on the Social assistance Amendment Bill, and to speak on this bill, the first of its kind in New Zealand. I have talked about the social welfare system as it is today for almost the whole course of my speeches. I think that is a good thing. I think that because of the changes that have been made, and the way in which they seem to have been achieved, the social welfare system now has to be able to serve our people well. If we
Will it slash extra funding for the elder-care sector?;National;"A number of early childhood education programmes are being expanded under the current programme. The programme is providing extra support for low, cost families.<|endoftext|>

"
Can I have an answer to the question?;Labour;"I would be glad to assist.<|endoftext|>

"
Can I have an answer to the question?;National;"I am very happy to answer that question, and I also want to thank the Minister for the comments he has made about the restructuring of the department. I have heard some of the good comments about the restructuring of the department, and I have been told that there are some good things in the department.<|endoftext|>

"
What other support is the Government providing to those affected by the earthquake?;Labour;The Government is providing a number of support services, including food and water supplies, and the assistance of the New Zealand Red Cross. If you need assistance, you can go to the New Zealand Red Cross website at www.newzealandredcross.org.nz. There will be people from all over the country, including, in my area, in Hamilton, and in Rotorua, who are affected by the earthquake. The New Zealand First spokesperson on local government said that the earthquake was
What other support is the Government providing to those affected by the earthquake?;National;"The Government is providing financial support to those affected by the earthquake.<|endoftext|>

"
Are you ruling that a Minister in the chair can rebut the second reading and first reading debate during the Committee stage?;Labour;"The member for St. Kilda will not be able to rebut the second reading debate, but she will have to go back to the first reading.<|endoftext|>

"
Are you ruling that a Minister in the chair can rebut the second reading and first reading debate during the Committee stage?;National;I believe that the next point in the debate is the issue of the TPP. That has been the subject of debate in the House. I am advised that the Government is considering the introduction of the bill. The Government has not made a decision on the matter, but it is very concerned about the impact that the TPP will make on New Zealand’s trade policies. It is a global issue, and its introduction will probably take some time. We have already seen a number of discussions on the issue
Can I be clear what the member is seeking?;Labour;"The member is seeking to give me the impression that the member is up in the Chamber, and that he is a member of the select committee. That is not my figure.<|endoftext|>

"
Can I be clear what the member is seeking?;National;The member is asking me whether one can continue with the principle that the Minister of Health has always been seeking to retain. The question is the one that the member should ask the Minister of Health. The Minister has been seeking to retain the principle of an ICU in a hospital. The Minister has not been losing the principle of an ICU. An ICU in a hospital is a model of care. The Government has supported the principle of an ICU in a hospital, by providing more in hospital
Has the Department of Conservation considered myxomatosis as a control option?;Labour;"The Department of Conservation has been advised that there is no suggestion that there is a need to provide a control option in relation to myxomatosis. The department is not in a position to pursue the issue of myxomatosis as a control option. The House adjourned at 3 p.m.<|endoftext|>

"
Has the Department of Conservation considered myxomatosis as a control option?;National;We are currently assessing the conservation options for the Otamataha District Council. There are two options for the council to consider for the Otamataha area. The council is considering placing a site-specific-targeted system in place to ensure a sustainable and sustainable management of myxomatosis, and there is a conservation option that means that the council will have more control and the threat of myxomatosis would be reduced, and we are not looking at that option.<|
Who’s your young man sitting next to you?;Labour;In the last few weeks, I have had a number of young men from the South Island come to me with their stories of imprisonment, abuse, and late-childhood neglect. I realised that this was a very serious problem, and I had to look at the issues of education, crime, and poverty. I also saw that there was no solution until we looked at the issues of youth violence. I was thinking that it is so much easier to say that we don’t have any problems
Who’s your young man sitting next to you?;National;"I have a big family, and I have a young family. I understand that the Minister of Local Government is travelling in Australia, and I am welcome to fly with him in the next couple of days so he can get back to New Zealand. He will be in Auckland on Friday.<|endoftext|>

"
