question;party;answer
What providers, other than general practitioners, provide health services to children?;Labour;"I do not know that I have one, but I know that the health sector in New Zealand is renowned for providing a wide range of services, including health education and health care.<|endoftext|>

"
What providers, other than general practitioners, provide health services to children?;National;I would like to refer to the Waitangi Tribunal. The Waitangi Tribunal is a very good forum, and I would like to have a chance to talk to you about the process that was followed there, because you are very busy. I also want to make mention of the education portfolio in relation to the Learning Challenge, because the Minister has been very busy. I am sure that she likes to get up and ask questions about the education portfolio, and I would like to give her a bit
What housing rallies is the member talking about?;Labour;What housing rallies are there for? The situation in New Zealand is much better now than it was in the 1990s. But there is more to be done. People need to be prepared to have the opportunity to dream, to stand quietly in the street, and to get out their day packs and make their way up to the city. People need to be prepared to get out and make their way up to the city. People need to have the opportunity to dream, to stand quietly in the street,
What housing rallies is the member talking about?;National;"The member is referring to the upcoming Housing Workshops this weekend-or perhaps the Government’s recent housing developments.<|endoftext|>

"
Where is the much, announced housing policy?;Labour;The Government has announced a housing policy yesterday. The policy is to build a new 60,000 houses over the next 3 years, approximately in the same proportion as we did in the 1990s. This figure is a result of the Government’s Housing and Housing-related Developments policy. The HomeBuilds programme has been well received internationally. It is expected to deliver between 1,000 and 1,500 more houses over the next 2 years. The new policy will provide better security and housing
Where is the much, announced housing policy?;National;We are looking at a housing policy that is aligned with the Government's commitment to achieve Kiwi families by 2020. That is why we are investing in KiwiSaver and KiwiSaverBack, which is a significant lever that will enable households to save up to $100 a week. Last year, we saved $1 billion on housing, and this year, we have more than doubled that figure. We are moving to a $10 billion programme for housing. we are not only investing in
has the Minister, or indeed other Ministers, taken to avert the industrial action?;Labour;We have taken to avoid that. The Government has kept the industrial action going. That has not helped the farmers, or the industry. The Government has been trying to make its case. It is trying to make up for the fact that the industry is overpaid. It is trying to make up for the fact that the industry is overpaid. It is trying to make up for the fact that the industry is overpaid. The Government has been unable to make up for that. It has been unable
has the Minister, or indeed other Ministers, taken to avert the industrial action?;National;"I have taken to avert the industrial action.<|endoftext|>

"
What's this got to do with clause 5?;Labour;He thought that was the best. I think that he has to come in here to the select committee and answer something, because that is what he has to answer. I think he has to come in here and answer a question that he was not prepared to answer in the House. I think he has to come in here and answer a question that he was not prepared to answer in the House, and that is why I say that it is not good enough. It is not good enough for the Minister
What's this got to do with clause 5?;National;The member is asking the wrong question. I am not aware of any particular clause in the bill, except that the first part of clause 5 relates to the compensation scheme for staff who are affected by a termination of employment, and the second part of clause 5 relates to the redundancy scheme. The members are being told that that is to be a transitional provision. That is not the case at all. the member is asking a matter of this nature, which is in the best interests of the employees affected,
What information will be available to assist the public in making submissions?;Labour;I am pleased to announce that the public will be able to make submissions to the select committee when it has completed its work. I congratulate the select committee on its work and I welcome the opportunity to give its time to work on the bill. I also acknowledge the work of the committee, because I think we have done a good job of it. I acknowledge that some of the things in the bill, including the sponsorship of the bill, will require the cooperation of the House and the select committee. I
What information will be available to assist the public in making submissions?;National;The select committee will be able to provide such information in the course of its deliberations. This is particularly so in relation to the proposed new cabinet departments. There is a need for us to consider some of the wider implications of the elected executive. I will come to that later. A number of people who have been involved in the New Zealand First campaign received a briefing on the proposed new cabinet departments on Thursday. I want to ask the Minister about the proposed new departments. If he had given that briefing to
When did you last take your wife?;Labour;I was just told that I will be in my electorate office today. I have a lot of work to do. I want to thank the staff who have worked hard to keep the office running, so that we can have the services that we need. It is a real pleasure to see the community coming out for the annual community festival. Last year we had a fabulous festival, which was organised by the Otaki District Council and the Wellington City Council. We are used to seeing the community coming out,
When did you last take your wife?;National;I am sitting on a select committee waiting to see which submissions will be heard. I am not going to give any further details. I am not sure whether you are in the House or not and I will be happy to give you a brief, if you wish, about the select committee process that is being run in this House. But I have been told that there are only two or three submissions that are under consideration, and that six were heard already. I am not sure whether that is true,
Leave is sought to table-sorry, the source of that document was?;Labour;"I have it in front of me. I am not prepared to give it to the member.<|endoftext|>

"
Leave is sought to table-sorry, the source of that document was?;National;"Until the New Zealand Herald publishes the paper.<|endoftext|>

"
What impact will the bill have on the numbers of families and the numbers of children whom the bill seeks to protect?;Labour;I would say that if it was a substantial change, it would not be in the interests of the Government to make it a minor one. It is a very significant change, and it is something that Labour members should give serious consideration to consider and give us an opportunity to talk to the select committee about it. I think it is important that we discuss it with the select committee, because I think it is important that we have a discussion about it, and because I think it is important that we get
What impact will the bill have on the numbers of families and the numbers of children whom the bill seeks to protect?;National;We will be looking at the issue of protection of the family in terms of the number of children we are trying to protect. The number of children we are trying to protect is the number of children who need protection because they are at risk of being neglected or abused. It is the number of children who are at risk of being neglected or abused because of the traumatic effects of sexual abuse or neglect, or because of the stress of being deprived of food, clothing, or shelter as a result of that abuse
What is the source of the document?;Labour;"The original document was produced by the Labor-led Government in 2001. I should like to indicate that the document is in the shape of a book of the National Government, and that is why I allow the member to continue to make unsubstantiated allegations.<|endoftext|>

"
What is the source of the document?;National;"The source of the report is the New Zealand Herald.<|endoftext|>

"
