question;party;answer
How is the work of the commissioner generated?;Labour;The commissioner has generated a good deal of work, thanks to my office and to my staff. It is mainly from the inquiries and the reports that I have received so far, but it is an exciting job. I have received a lot of information and I am looking forward to getting more information. I can only say that I will continue to work with the commissioner day by day. I have received some reports that are of particular interest to the member for Papakura, who has just begun to examine this
How is the work of the commissioner generated?;National;The number of successful prosecutions is very good. I can see a future with more success. If we want to attempt to compare the statistics, that is what is happening. The work of the commissioner has been done very effectively by managing the staff. The chief of prosecutions, who is considered to be the most important person in the department, is very good at his role and has done a very good job of that role. He has been a very professional and professional person. The staff are well trained.
How will modernising the New Zealand Customs Service workforce improve customs effectiveness at the border?;Labour;"The New Zealand Customs Service workforce is 18,000 strong. It has an amazing range of skills, and it will be an enormous challenge for New Zealand to keep up with the modernisation programme. the New Zealand Customs Service is a great organisation, and it will be vital to New Zealand’s prosperity. The Customs Service is a force multiplier in New Zealand.<|endoftext|>

"
How will modernising the New Zealand Customs Service workforce improve customs effectiveness at the border?;National;The New Zealand Customs and Excise Service workforce will improve the efficiency of the New Zealand Customs and Excise Service by up to 20 percent. This will be achieved through the establishment of an enhanced personnel management system and the use of computer systems to support the staff’s work. This will also include the establishment of a new information centre in Whangarei, a new knowledge base in the region, and a new top-level information centre in Tarawera-a significant improvement in the efficiency
Has the Government any policy to preclude the sale of the Rural Bank or its financial assets to foreign buyers?;Labour;The Government has no policy to exclude the purchase of the Rural Bank or its assets to foreign buyers. It would be naive for the Minister of Finance to think that the Government has any policy to exclude the purchase of the Rural Bank or its assets to foreign buyers. The Government has no policy to exclude the purchase of the Rural Bank or its assets to foreign buyers. The Government has a policy to encourage the sale of the Rural Bank to foreign buyers. It has a policy to encourage the sale of the Rural
Has the Government any policy to preclude the sale of the Rural Bank or its financial assets to foreign buyers?;National;"I am not aware of any policy to limit the sale of the Rural Bank or its financial assets to foreign buyers.<|endoftext|>

"
What action is the Government taking to protect New Zealanders against harmful substances?;Labour;The Government is taking a number of actions to protect New Zealanders against harmful substances. In particular, the Ministry of Health, which is responsible for the health of our people, has been looking at the use of agents, which are known as controlled substances, and is considering some of them with a view to a commercial market. It also has the potential to be able to reduce the level of exposure to harmful substances in New Zealand by means of the use of agents that are not used by any other country
What action is the Government taking to protect New Zealanders against harmful substances?;National;"The Government is taking an active role in ensuring that New Zealanders are protected against harmful substances and is working, with the tobacco industry and other stakeholders, to promote harm reduction. The Government is also making New Zealand's tobacco industry more competitive and promoting its use in less harmful forms.<|endoftext|>

"
What growth has there been in industry training organisation placements in recent months?;Labour;The number of industry training organisations has increased by 19,000 in the current year. More than 2,500 new industry training organisations have been established. Many of these organisations are small, such as the Small Business Council and the Trade and Science Council, which has been on the Government’s agenda for some time, and the New Zealand Institute of Economic Research, which has very high growth. The number of industry training organisations has increased by a total of 8,000 in the last 3 years.
What growth has there been in industry training organisation placements in recent months?;National;I am not able to confirm that. I can confirm that in the second quarter of this year there were a total of 3,000 new full-time equivalent positions in industry training. This is a significant increase from the previous year, when there were only 2,000 full-time equivalent positions. I am aware that the New Zealand Technical and Technological Council, the New Zealand Council of Trade Unions and the New Zealand Institute of Engineering and Technology are working towards opening up their roles to industry training
Has the member ever sat on the Commerce Committee?;Labour;"I have sat on the Commerce Committee.<|endoftext|>

"
Has the member ever sat on the Commerce Committee?;National;"I have sat on the Commerce Committee. I am interested in the report of the Commerce and Marketing Committee that was presented at the Commerce and Marketing Committee in December 1992. I have been a member of the Commerce Committee since that report was presented.<|endoftext|>

"
What effect is the new classification system intended to have on children's access to violence in films?;Labour;The new classification system will result in a much more accurate and more effective record of incidents of violence in films, as a result of the fact that the system will be much more accurate. The new system will also enable film-makers to make sure they have a record of incidents of violence, and ensure that the record of incidents of violence is available to the public. The Department of Social Welfare estimates that, the system will cost about $3 million to implement. Given that the department is looking at $
What effect is the new classification system intended to have on children's access to violence in films?;National;"As the deputy chairperson of the committee, I am delighted to say this time that I thought it was the Government's intention that some of the new ""violence"" tests would not apply to children under the age of 12. This is not the case. The committee received a lot of submissions and from what I gathered the majority of them were positive, which I think is the case. I was not able to tell whether that was a good thing or a bad thing as it was not quite clear to"
Lynne Pillay hasn’t been on any taxpayer-funded trips, has she?;Labour;"I’ve been on a lot of taxpayer-funded travel, but I’ve not been on any taxpayer-funded trips. That’s not what I said. I’m saying that the other day that if she ever gets to the next election, then she’s got to make it work.<|endoftext|>

"
Lynne Pillay hasn’t been on any taxpayer-funded trips, has she?;National;"I have been on public transport.<|endoftext|>

"
What factors have contributed to the strong growth in exports to northern Asia?;Labour;I am not going to give the answer to that question, but I can say that the strong growth in exports is a consequence of the strong economic performance of New Zealand. many New Zealanders are seeing their real incomes go up because of the Government’s policies. The Government is ensuring that New Zealanders are benefiting from that growth. Since the start of the decade, the manufacturing sector has increased by about 17 percent, and the export sector has increased by about 15 percent. The Government is making
What factors have contributed to the strong growth in exports to northern Asia?;National;I think the key factor is that we are doing very well in terms of our export performance, which is very different from that of many other countries, and that we are not in recession. So the other important factor, I think, is that the Government has had a very good year, and the growth in exports has been lower than it has been for years. We are doing very well and I think that we are doing very well, and I think that the Opposition can look forward to more of
What impact will the tax package have on New Zealand’s competitiveness with Australia?;Labour;"the price of living in New Zealand has gone up more than that of any country in the world. There is no doubt that the tax package will reduce New Zealand’s exports and will make New Zealand less competitive compared with Australia.<|endoftext|>

"
What impact will the tax package have on New Zealand’s competitiveness with Australia?;National;The New Zealand economy is predicted to grow by 1.6 percent in the year to June, compared with growth of 1.9 percent in the first quarter of this year. The impact on New Zealand’s competitiveness is expected to be positive, as New Zealand has a strong export base from an export perspective, which has benefited New Zealand’s export sector. The impact on New Zealand’s competitiveness is expected to be positive, as New Zealand has a strong export base from an export
