question;party;answer
Has the Minister sought further information about the Plunket hotline from that society?;Labour;"It has been reported that, Plunket is investigating its own hotline. I have asked Plunket to send me the details, which to date it has not done.<|endoftext|>

"
Has the Minister sought further information about the Plunket hotline from that society?;National;"I have sought further information on the Plunket hotline, to ensure that its effectiveness is secure.<|endoftext|>

"
Can the Minister table a report stating in these terms that the Labour Party plans to increase the public debt?;Labour;I think that would be in order. I think the Labour Party is now ready to take a decision on how it will proceed on the issue of debt. It has now said that it will not have debt as a result of the Labour Party's policy, which is that it will reduce the public debt. The Labour Party is now saying it will not do that, and it is saying that it will have debt as a result of the Labour Party's policy that is to reduce the public debt. That
Can the Minister table a report stating in these terms that the Labour Party plans to increase the public debt?;National;"That is what I have presented, and it is exactly what the Labour members want to do; they want to increase the public debt. We have a Government that is taking responsibility for our nation's future. Labour members sit there, pretending that this is a Budget that will make any difference, while they have a debt of $20 billion, and that they know it. They are always trying to pretend that they know, when they know that they do not know, and there is nothing in this Budget"
Can I call down the Prime Minister to apologise for the member?;Labour;Will make the member aware that the Minister of Defence, who has been called in by the media today to explain the issue, would like to speak to his colleague from Te Tai Tokerau, Mr Turei Whare. I shall ask the member why he does not just do so in the record, because he knows the answer. He knows that the member for Whangarohe is the Prime Minister's top legislative priority, and that he and the member for Selwyn are the top legislative
Can I call down the Prime Minister to apologise for the member?;National;The member will know how to apologise. I hold the Prime Minister to account, and I say to the member that I am sorry for her, for the Government, and for the member for Selwyn, for the member for St. Kilda, and for the National Opposition, for the member for Mangere, and for the member for Auckland Central, for the member for Selwyn, and for the member for Auckland West, for the member for Wellington, for the member for Auckland North
Will you allow the last answer from the Minister to stand, and can we take a lead from that answer in the asking of questions?;Labour;I think it is important that the last answer is clearly the one that has been given. The last answer was given by the Minister of Finance. I accept that the last answer is the one that I gave her. I think it is important that it is the one that has been given. I think it is important that the Minister of Finance is required to tell the House whether she is prepared to take the Government's assurance and to accept that it is the one that is being given by the National Party
Will you allow the last answer from the Minister to stand, and can we take a lead from that answer in the asking of questions?;National;"I have been very busy in the Committee.<|endoftext|>

"
How many nominations were received?;Labour;The correct number is 1,177, but the member keeps saying that 1,177, and she should listen very carefully to the words around the word ``select''. I am sure that the member wants to focus on those 1,177 submissions, because there are a lot of them. But the member for Dunedin West is saying
How many nominations were received?;National;Of the 19,000 people who were asked to fill in the form on the questionnaire, there were 17,000 people who did not respond, but there were 17,000 who were asked to fill in the form. The total number of people who did not complete the forms was 27,000. It is the first time that that has happened in the history of the House. I am sure that was not the case at any other time in this Parliament. The other thing I am sure of is
What options is the Minister considering to better assist those most in need?;Labour;The Minister can now draw on a range of resources, including the Community Service Trustee, his Ministers of Education, and the Science and Innovation Committee, to examine the feasibility of developing a grant for the Outstanding Student Achievement award. At present there is a pool of $6 million of funding for awards of $5,000 to $10,000. This amount is a relatively small pool of funding for awards of $10,000 to $10,000. A number of smaller awards are currently
What options is the Minister considering to better assist those most in need?;National;"The Minister knows that the most vulnerable in this country are the young. The Government has issued a directive to the Department of Social Welfare that it will introduce a new work and income support scheme within 2 years. It provides that people who are at risk of losing their jobs will get their money back if they make a contribution to their employment. There is no way the Government can get rid of the young without putting them at risk.<|endoftext|>

"
What other initiatives are helping support young people into work?;Labour;"The Employment Contracts Act provides employment opportunities for young people through the job opportunities initiative. That initiative includes a series of training programmes, including a programme of 20,000 young people aged 16 to 18, who are now receiving training from a range of organisations.<|endoftext|>

"
What other initiatives are helping support young people into work?;National;I am pleased to report that I am pleased to report that, in the period of 1 July to 31 July last year, there were 19,000 new enrolments, which is an increase of 14,000 in 9 months, on a national basis from 28,000 to 47,000. I commend the Ministry of Business, Innovation and Employment, which in this respect is the most comprehensive programme that has been developed by the Government. It has been successful in providing the youth workforce with the skills needed
Who established the Waitangi Tribunal?;Labour;The Waitangi Tribunal established by the Government in 1976 to investigate the circumstances surrounding the death of a Native American man on whakapapa land. The Waitangi Tribunal has been a key feature of the work of the Waitangi Tribunal. Through the Tribunal, the Waitangi people have gained knowledge and strength. During the hearings of the Waitangi Tribunal, the Tribunal has had to rely on submissions from the local people who have been affected by the tribally-led movement. The
Who established the Waitangi Tribunal?;National;The Waitangi Tribunal has been established. It is the first appointment to the Waitangi Tribunal, on the basis of merit. There have been two appointments to the Waitangi Tribunal on merit, and that is what we are trying to achieve, and that is what we want to achieve. The Waitangi Tribunal is a very good idea. It is the idea that we need to have a tribunal that is impartial. It is a very good idea, and it has been a very good
What impact has the Health and Safety in Employment Act had?;Labour;The Health and Safety in Employment Act has had a very good performance. We have been able to reduce the number of accidents in New Zealand and we have been able to recover almost all the costs associated with accidents, which have been a very good result. We have also been able to improve the way in which the health care system works in New Zealand. In the past, accident rates were often very low and we had not been able to recover them. We have been able to recover that situation because of
What impact has the Health and Safety in Employment Act had?;National;The Health and Safety in Employment Act was passed under the Labour Government, and in its implementation, it made a real change to the legislation that we have now. It is interesting to note that in the last year the number of accidents involving serious injuries or death or serious injury to persons or property has decreased by 84.3 percent. That is a very significant reduction in the number of accidents involving serious injuries or death or serious injury to persons or property. The Government has been working hard to encourage health and
How many practical and common-sense New Zealanders have responded to the code so far?;Labour;That is too bad. The code will be an enormous improvement on the current system, which is poorly managed, underfunded, and understaffed, and it will save taxpayers more than $600 million. It will also provide a database that I think will be useful to organisation, and I am sure it will be a very useful tool for management. I am not going to put my money on it. I believe that the current system is not the best for New Zealand. I think it will be
How many practical and common-sense New Zealanders have responded to the code so far?;National;I am happy to answer that question, but it is a matter of some detail. The New Zealand Council of Trade Unions has reported that the number of New Zealanders in the workforce has increased by 20,000 in the past 2 years, from 1,250 to 1,900. The total number of people in the workforce is now more than 3 million, with the number of full-time jobs, including agricultural workers, in the workforce in the period to September 1991, the number of apprentice
