question;party;answer
What follow-up action has there been?;Labour;I would say that there is a lot of action. There is a whole lot of work that has been done and is being done at the moment. I would like to take one more question from the member who is on the other side of the House. What we are doing is making sure that there are not the kind of consequences in terms of the amount of money that was taken. But the member is not able to tell us what that amount is. What I have been able to do is to
What follow-up action has there been?;National;"The follow-up action is that there is a greater emphasis on the duty to act in the best interests of the child in the New Zealand system. There is a greater focus on the immediate needs of the child in terms of the welfare of others.<|endoftext|>

"
What programmes are financially supported by the Government for children who are gifted students?;Labour;The Government's programme for gifted students is aimed at ensuring that children who are gifted have the opportunities to develop their talents and skills, to earn their education, and to make a positive contribution to society. The Government's programme for gifted students is aimed at ensuring that gifted students are not relying primarily on their parents' support only. A programme for gifted students is also aimed at ensuring that the most gifted students can continue to receive an education in a safe, nurturing environment. The Government's programme for gifted students
What programmes are financially supported by the Government for children who are gifted students?;National;There are many programmes in schools that are funded by the Government. I will just pick up on a point that was made a little earlier by the member for Whangarei. She wanted to indicate to the House how much she thinks the Lotto scheme is worth. I do not have a precise figure for that, but I am sure it is more than $400 million. I am not thinking of what would be put in the hands of the Government to buy a few dollars of Lotto,
On what basis were Budget 2009 policy options accepted or rejected?;Labour;I believe that the terms of reference of the select committee were accepted, and we feel that it would have been preferable to have a look at some of them. I suggest that the member is completely wrong in the way he spoke of. I think that the Government has made a number of policy decisions, and has been prepared to accept them. I think that the member might have said that the Government accepted those policies, but that he will not know if they have been accepted. The reality is that the
On what basis were Budget 2009 policy options accepted or rejected?;National;"It is clear that the cost of the Government's policies was not considered, but that decision was made under the National Government.<|endoftext|>

"
Could you tell us exactly which one it is, so that we can follow it?;Labour;I am very pleased to say that the member for Pahiatua has a very, very good understanding of the role of the member for New Zealand First. She has a very good understanding of the role of the member for New Zealand First. The member for New Zealand First has a very good understanding of the role of the member for New Zealand First because she knows what it is, and because she has a very good understanding of the role of the member for New Zealand First.<|endoftext
Could you tell us exactly which one it is, so that we can follow it?;National;It is the one that says
Is it correct that the next call is a Green call for the general debate?;Labour;Yes, it is a Green call for the general debate. I shall comment on a matter that has been raised in the debate so far. It is the amendment of the member for Selwyn that has been adopted by the Committee. I shall also comment on the issue raised by the member for Selwyn, which is the introduction of the Bill. I shall get to the point of the debate a little later, and I shall say that the third reading of the Bill is the important one. I shall
Is it correct that the next call is a Green call for the general debate?;National;I would like to remind the member that the ACT party has a member in the House who is a member of the ACT Party. I think it is a very important issue and the member for New Plymouth is well aware of that. One of the reasons that the Government is not able to get the ACT Party to vote with the Government on this bill is that the member for New Plymouth is a member of the Alliance. The member for New Plymouth has been a member of the Alliance for quite a long time
Why are we rushing this legislation through the House now?;Labour;This is the usual thing. I say to those who have been calling me on this issue
Why are we rushing this legislation through the House now?;National;"I have been advised that the Bill will be read into the House before the end of this week. I will be pushing on to the select committee to get this legislation through.<|endoftext|>

"
How many of these 400 percent increases were there?;Labour;The figures were the same as the number we had in the year before. The figure was 150 percent. So the Government is actually saying to the country
How many of these 400 percent increases were there?;National;"The figures are actually the same as the figures reported in the Budget. They are at the same level as they were in the Budget. So it is not at the same level as what it was.<|endoftext|>

"
Would the Committee allow me to put clause 1 so that we might move on to a wide-ranging debate?;Labour;"The Committee on the Environment has full authority to approve that question.<|endoftext|>

"
Would the Committee allow me to put clause 1 so that we might move on to a wide-ranging debate?;National;I am glad to hear that. I think that we should put the question further into the range of things we are talking about. I want to make a couple of points. I think the member who has just resumed her seat, the member for Papakura, is the most talented member of this Parliament, but you cannot have it both ways. The member for Papakura is the person who has to be congratulated on her achievements, and I think it is a very good thing that she has been elected
Given the high level of consensus in the multiparty memorandum of understanding, why has the process taken so long?;Labour;The process is relatively simple. When I joined Parliament in 1988 I was the leader of the National Party and I held a ministerial portfolio. That portfolio has since been filled by the Hon. Pita Sharples. I have been the MP for Mangere in the House for the last 3 1/2 years. I was a member of the previous coalition Government. The 2005 coalition was a very good one. I have been involved in the Orangatau electorate since 1987. I am a member
Given the high level of consensus in the multiparty memorandum of understanding, why has the process taken so long?;National;The process has taken so long because of the nature of the two issues. One of the major issues was the ``Qantas Bill'', which is similar to the one that has been dealt with in the House today. It was introduced by the previous National Government. The member for Tauranga, the member who is below the threshold for the first ballot, is now the Government's Minister of State Services. He has been in office for only a few months. He was a member of the
So that is the maximum trial period one?;Labour;"The maximum trial period is 2 years. That is the maximum trial period that can be taken, because it is an offence for a person who is not charged with a crime to be sentenced to a lower term of imprisonment. I do not have to say that every single person who commits the offence of murder, rape, or manslaughter is a failure; I say that every single person who commits murder, rape, or manslaughter is a failure. This guy does not do anything. He is in jail for 2"
So that is the maximum trial period one?;National;That is the maximum trial period one. The ACT party cites this as an example of why it is important that our programme of benefit cuts be stopped. The ACT party is clear that this is a significant step in the eradication of poverty. What we cannot support is the fiscal programs that the ACT party is proposing that will not help. The ACT party is proposing to run a very destabilising budget, and that will not help. Labour has designed its budget to reduce the cost of living. Labour has
