question;party;answer
Are we carrying on the debate before I actually move my motion?;Labour;I think that the member is trying to wrap up by saying the previous speaker was one of the members on the select committee. He is not the only member. I think the member is trying to wrap up by saying I am the next speaker, and I know what we are talking about. I think he is trying to wrap up by saying that he is one of the members of the select committee, and I am not, and I think he is wasting his time if he is trying to talk about
Are we carrying on the debate before I actually move my motion?;National;If the member is saying that as he is now, I am certainly not saying that. It is a very unfortunate piece of legislation. It is not something that has to be passed at any time. The member for Tamaki is saying that it is time to go to select committee, because, as he has indicated, it is not such a bad piece of legislation. He will not bring forward a piece of legislation that does not deserve to be passed. He will not bring forward a piece of legislation
Does the member have a point of order?;Labour;I would like to ask the member to withdraw and ask for an explanation. I think that that is a very good move, and I think it will help the House to have the debate. I think I would like to thank the member for Tamaki for his great work on the original Bill. I think that the member is mistaken in saying that she thought he was wrong. I would like to say that I think he was right to be cautious about the wording of the Bill. I would like to
Does the member have a point of order?;National;I think that that was very good. The member can say as much about that. It is not a matter of whether he agrees with that statement, but rather a matter of whether he wants to take offence. And in this House there is such a big difference between that statement and that one. I think the member was being a little bit generous. He was trying to do a bit of a traditional debate with a member of the National Party who is a member of the Green Party. It is a
The Minister does not think it was offensive?;Labour;"I think it was inappropriate.<|endoftext|>

"
The Minister does not think it was offensive?;National;That led to the Bill being referred to the select committee. I believe it was a very good bill. I do not think it is the most appropriate way to give it a go, but I will try to get it to the select committee in a more practical fashion. I do not think it is as bad as it might be, but I think it is a good way to start. It is a good way to go. I think that we should give it a go. I think it would
How have elective productivity programmes improved services at the Bay of Plenty District Health Board?;Labour;"What has the Minister done to improve services at the Bay of Plenty?<|endoftext|>

"
How have elective productivity programmes improved services at the Bay of Plenty District Health Board?;National;"The Bay of Plenty District Health Board has more than doubled its number of doctors and nurses, and the number of surgeries, emergency departments, and emergency services is up by about 50 percent. The work done by the district health board enables us to turn to the future, and that is to be proud of the work that we are doing.<|endoftext|>

"
Have we heard any defence from those members opposite?;Labour;The Leader of the House has been in the House quite a lot over the last few hours. I would like to congratulate him on a couple of things. The first thing is, the Hon. Simon Power made a comment about a tax reduction that was quite a bit different from the tax reduction that I think he should be referring to. What we have to see is whether that was the case in relation to the Government’s tax Bill. I think it was a bit of a new principle that
Have we heard any defence from those members opposite?;National;I have heard nothing. I think we are now talking about a continuation of the Government’s work with the Maori Affairs Committee, which we are very pleased to support, as well as with the Taupapa Trust that is currently in the process of establishing a trust for Maori people. I have heard nothing from the Government’s spokesperson on Maori Affairs, the Hon Ruth Dyson, about what the Maori Affairs Committee has done. What we know is that it has been
What about the $16 million spent on the wine-box inquiry?;Labour;It's a trivial inquiry. In the meantime the Government is spending $16 million on that inquiry. That is normal and appropriate, so I expect that the Minister in charge of the Bill does not think too highly of the Commerce Committee. I say that the Commerce Committee is a disgrace. It is a committee dominated by the Laila Harre. I am sure that the member for Tauranga will find it difficult to get on with the business of the Bill. I say to the member for To
What about the $16 million spent on the wine-box inquiry?;National;The wine-box inquiry is a huge waste of time. As a result of that, we have not got the money that we need to improve the consumer experience. The other problem we have is that we have an unelected Minister of Social Welfare who is doing nothing about the problems we face. I believe that the activities of that member are wholly inappropriate. We need to have a Minister who is responsible for the performance of the department, not one who is doing nothing. I am not concerned with where
Will the principal legislation still take effect by 1 April?;Labour;The principal legislation, which will have to be inserted in House, will take effect 1 April. that Parliament is now dealing with a matter of concern to the Maori Affairs Committee, and the committee is no longer required to report on the matter until 1 April. I realize that the Maori Affairs Committee is now dealing with a Bill that is now in the hands of the Committee of the whole House. The Maori Affairs Committee has been working on the subject, and if I am to be believed,
Will the principal legislation still take effect by 1 April?;National;"The principal legislation, the legislation that the member is referring to, is the legislation that provides for the introduction of the bill. My personal view is that I think this is a very good bill. I think it is a good, solid bill, and I think it is a good way to start to introduce a bill that is going to be very well received and that will be very successful.<|endoftext|>

"
Could the Minister advise the House what specific actions the Government has taken to encourage local job creation?;Labour;The Government is working to raise employment opportunities and skills. We are promoting technology and innovation. We are taking steps to get our young people out of poverty and into education. We are providing more funding for early childhood education. We are investing more in primary health care, and the number of people in the workforce is growing. We are giving more to local communities, and we are focusing on making our communities stronger. we are strengthening the community through the £1 billion we are spending on a strong frontline health
Could the Minister advise the House what specific actions the Government has taken to encourage local job creation?;National;"The Government has taken a number of actions to encourage job creation in our region.<|endoftext|>

"
What actions has the Minister taken, consistent with the carbon-neutral goal?;Labour;"I have been working with the Climate Change Authority to ensure that carbon dioxide emissions are reduced by 2050. I have also been working with the Municipalities Association to identify the best ways to reduce carbon dioxide emissions through the New Zealand economy. I have been working with the Minister of Transport to get action on climate change, including the global warming targets set under the Kyoto Protocol, and I will continue to be so.<|endoftext|>

"
What actions has the Minister taken, consistent with the carbon-neutral goal?;National;The carbon-neutral policy is a policy that has been developed by the previous National Government. It has been developed under the guidance of the previous National Government and by the previous National Government in response to the recommendations of the Carbon Pollution Reduction Working Group, which was chaired by the respected Professor Glenn Burgess. That group determined that the carbon-neutral policy should be introduced and implemented in the legislative process. It recommended that the carbon-neutral policy should be introduced during the select committee process. In terms of the
What are the Government's expenditure priorities for the 1997 Budget?;Labour;The Government's expenditure priorities for the 1997 Budget are as follows
What are the Government's expenditure priorities for the 1997 Budget?;National;The Government's expenditure priorities for the 1997 Budget are as follows
