question;party;answer
What has been the average growth in labour productivity over the past 5 years, and how does that compare with our OECD peers?;Labour;"That is a very good question,<|endoftext|>

"
What has been the average growth in labour productivity over the past 5 years, and how does that compare with our OECD peers?;National;The average increase in labour productivity over the last 5 years is 0.6 percent, and that compares with 0.3 percent for the OECD average. I would also like to take a call on some of the other areas in which we see productivity growth. This is a very good presentation, and I have to say I am very pleased to see that the Minister of Transport is here, as is the Minister of Finance. I think it is a very good presentation, and I look forward to seeing how
What is the purpose of investigating the relationships between the Japanese company and the interrelated New Zealand companies?;Labour;The purpose of that inquiry is to determine whether the Japanese company's activities are inconsistent with New Zealand’s business interests. Our inquiries will look at whether the Japanese company has been operating in the same capacity for the last two years or whether it is in fact affiliated with a New Zealand company. It is possible that the Japanese company is operating in a manner that has not been consistent with the capability of the company, where it is not as capable as it was in the previous year. If that is
What is the purpose of investigating the relationships between the Japanese company and the interrelated New Zealand companies?;National;"I am not sure about that, but I say that it is very important that the Public Service is able to maintain a good relationship with the company. I think we have an obligation to provide that kind of information to the public.<|endoftext|>

"
I wonder what else comes in those cars?;Labour;They are coming in a very good variety of flavours. They are Japanese imported, they are produced in New Zealand, they are imported in the United States, and they are exported to the rest of the world. These two imports are not a problem. The main problem is that this post office is just not able to deliver through the post office, and I am talking about the most important thing here, which is that my office has been opened. I will just get through for the sake of the benefit
I wonder what else comes in those cars?;National;I want to use a bit of a different analogy, because as we were going through this debate, one of the things that the member for Dunedin West, who has been in the House a number of times, said, repeatedly, and frequently, was the difference between the Opposition and the Alliance. This is a very different Opposition. It is a party that has no idea what is coming across its speakership, what its policies are, and what its policy is going to be. The only difference
What did your leader say about older people during the campaign?;Labour;I do not recall that any of my senior staff said anything about the elderly. The Leader of the House said that the elderly should be allowed to stay in their homes, and that the elderly should be allowed to get their day in court. I say to my colleagues that that is not acceptable. They will not be allowed to get their day in court. I can hear the Leader of the House saying that that is the ideal way of doing things. but I say to my colleagues that it is not
What did your leader say about older people during the campaign?;National;The National Party leader is absolutely correct when he says that the National Party is the party of older people, and that includes the Prime Minister, who thinks that the best thing about her is that she is 67 years of age. That is what she likes to think of her, and that is what she likes to think of her National Party mates. They are people who believe that their party has over the years been ageing. They are people who believe that they are the party of the older generation, and
Are any boys allowed to run a campaign up there?;Labour;A campaign is not allowed to run up there. I will tell the member that I do not think that is the case. But I do want to tell the member why I think we are doing it. I think that National has decided that it wants to give some good young boys a good old run up at the moment. I think that is very good. I think that National has decided that it wants to give the good boys a good run up at the moment. I am sure that the member
Are any boys allowed to run a campaign up there?;National;"I have seen a report that says that there are no boys permitted to run a campaign. I have seen reports that say that they are not allowed to run a campaign on a Sunday afternoon. that is the only word that is in the report.<|endoftext|>

"
What progress has been made on New Zealand’s First World War Centenary commemorations?;Labour;I can comment on that. The National Party will be supporting the commemorations. We have made it clear that we will honour the centenary of the war. The first commemorations will take place on 10 June, and there will be further commemorations on the last week of June, and on the anniversary of the first battle of the First World War. There is an opportunity to celebrate the centenary on the first anniversary of the First World War. We will also have a memorial ceremony to mark the
What progress has been made on New Zealand’s First World War Centenary commemorations?;National;The First World War Centenary commemorations, which were a result of a long process of inquiry, the process that was initiated by the Hon Dr Michael Cullen, and the process that began under the previous National Government, have shown that a centenary of the First World War is an important event in New Zealand’s history. A centenary of the First World War has demonstrated that New Zealand was a very cohesive nation, led by the leader of the Labour Party, who was elected in 1945.
Does the Minister believe in the principle?;Labour;I believe that the principle is that this is a new and innovative tax. It is no longer a surcharge, but it is now a capital gains tax. I still believe that the capital gains tax is unfair and unfair in its implementation. I think that it is a product of the Government's incompetence quite apart from anything else. The Minister of Finance has certainly been saying things like that, and I think that it is time that a review of the tax regime was taking place. Could the Minister of
Does the Minister believe in the principle?;National;"I think this is a very important matter, and one that I want to make clear in the House. The Minister is correct. I think I have heard various people say that this legislation is actually a good thing. My colleague the member for Eastern Maori has said that it is a very good thing. I think that it is a very good thing that we are making a decision on this issue. I think this is a very good thing.<|endoftext|>

"
And why do our gifted children need this support?;Labour;They need it in my view because of the work of the GP and the people who are concerned. They need it because we have a number of good, skilled people who are doing a good job. I think that this Government has realised that. I think that it is a shame that it has not done something about it. It has taken a long time to create jobs for our young people, and it is not good news that we have had such good news for them. The bad news is that
And why do our gifted children need this support?;National;The recent report of the Educational Review Office states
What were the members doing all that time?;Labour;"The member is asking the question from a position of frustration, and I think that is the appropriate way to conduct it. I have made it clear that that was not the case in the first instance. I think that Mr Goff has been helpful in clarifying that, and I am sure that he will continue to be helpful as we move forward.<|endoftext|>

"
What were the members doing all that time?;National;"The member for Bay of Islands is the member of the select committee that introduced the Bill. The member for Maramarua and the member for Papakura have been members of the select committee. Other members of the committee have been members of the committee, as have the members for Whangarei.<|endoftext|>

"
Who-no, who made that interjection?;Labour;The member for Eastern Bay of Plenty has been on the Government benches for some time, and the member for Kaimai has never really been on the benches. He is a bit too reserved for the Opposition benches to be here. I say that the member for North Shore is not on the benches. Let me tell him about the great honourable member for Tamaki. She is a member of the National Party and a member of the Alliance. I know that members opposite want to take away the honour
Who-no, who made that interjection?;National;"I am talking about whether or not it was appropriate for a member of the House to use that pejorative term.<|endoftext|>

"
