question;party;answer
So why has it got a reserve designation?;Labour;"I am not going to comment on that, the member is correct that the reserve designation is a very good thing for the Nats.<|endoftext|>

"
So why has it got a reserve designation?;National;The reserve designation is a legal construct to allow the use of land that is in the hands of the Crown. The management of the reserve must be authorised by the district council, and land must be available for the use of the reserve. This is how it works. The reserve is not a legal construct. The reserve is in the hands of the district council, and it is not available for the use of the reserve. The reserve has been set down by the council as a legal construct to allow the
Are you ruling that there was no housing scandal?;Labour;"I am ruling that there was a housing scandal. the member should not have said that there were no housing scandals.<|endoftext|>

"
Are you ruling that there was no housing scandal?;National;"I certainly have not ruled that there was no housing scandal. I do believe that there was a housing scandal, but I don’t believe there was a housing scandal.<|endoftext|>

"
I would like to ask whether you intend applying Standing Order 210 to this debate, at what stage?;Labour;"I would like to ask whether you intend to apply Standing Order 210 to this debate, at what stage. the Minister of Social Welfare asked a question, and he did not answer it, so I said that the Minister of Social Welfare was trying to mislead the House. I will be more specific, so I ask whether you intend to apply Standing Order 210 to this debate, at what stage.<|endoftext|>

"
I would like to ask whether you intend applying Standing Order 210 to this debate, at what stage?;National;I certainly intend applying it to the question. That is what I have done. I hope the Government will allow me to continue with that. I would like to thank the member for Tauranga for pointing out some irregularities in the estimates. I agree that it is a good time to point out those irregularities. I would like to thank the member for Tauranga for the very helpful way she has acted in correcting some minor issues that have been brought to my notice. I would like to thank the
Has the member considered an amendment to alter the bill’s title to the “Consumption of Dead Rodents Bill”?;Labour;"I have considered that, as I would have done had I known that the title was such. I still have a few words to say. I have heard that the Minister is trying to let off some of the bad publicity that this bill is setting in place. I think that is a good way to start a debate. I think the question of the title once again is not one that the Minister should get up and continue to be involved in.<|endoftext|>

"
Has the member considered an amendment to alter the bill’s title to the “Consumption of Dead Rodents Bill”?;National;"I have read the bill. It describes the importation of dead animals. A consignee is required to give the animal to the consignor, who will then transport it to New Zealand. The importation of dead animals from overseas is not prohibited under the legislation.<|endoftext|>

"
How does raising the 33c tax rate by 18 percent to 39c affect tax planning?;Labour;The tax rate last year was 18c. The rate is now considerably lower. One has to look at the figures to see what the impact of raising the tax rate by 18 percent to 39c is. It says that the tax rate is down by 39c. The implication is that the Government has made the world a better place for small businesses by lowering the tax rate by 18 percent. The Government is saying that small businesses are better off by 18 percent. That suggests that small businesses are better off
How does raising the 33c tax rate by 18 percent to 39c affect tax planning?;National;the Government's policy is to have a policy of linking people towards the tax rate under the National Party program. It will be a very expensive policy to implement. It will affect the development of the economy for a long time, it will cause many changes in the way we invest in this country, and it will discourage investment in other industries. The information is that the reduction in GST is just one of the policies announced by the National Government. The Government's policy as announced is that it will reduce the
What has been the cost of publicity, consultation, and administration of earlier documents issued by the Ministry of Education?;Labour;"The cost of publicity, consultation, and administration of earlier documents issued by the Ministry of Education was a large amount of money.<|endoftext|>

"
What has been the cost of publicity, consultation, and administration of earlier documents issued by the Ministry of Education?;National;As a result of the publicity, consultation, and administration of the draft document, there has been considerable cost-recovery for the Ministry of Education. As a result of the publicity, consultation, and administration of the document, there has been considerable cost-recovery for the ministry. I am pleased that the Minister of Education, in a succinct and articulate manner, has said that this is an important document. I am pleased that the Minister of Education has said that it was necessary, that
But did we take the leave of the House to waive a Committee stage?;Labour;"How can you take the leave of the House to waive the Committee stage when the Government has a whole bill before the House at this stage, and it is a whole Bill, if it is not being considered. If the Minister of Health has not been told that he has to sit through the second reading of the bill, that is the only action you can take.<|endoftext|>

"
But did we take the leave of the House to waive a Committee stage?;National;Under the new system, the member for Maramarua also voted against the amendment. I would like to congratulate the member for Maramarua on his good work, as the Minister defined it, in his previous role of the member for Maramarua. A number of amendments were agreed to, none of which made it into the final version of the Bill. There were some amendments that were changed to make the Bill better, but the main changes were those in the name of the member for Whangan
And this is a fresh point of order?;Labour;"I am not suggesting that. I am merely asking why you are not prepared to provide the details of the costings that you have produced.<|endoftext|>

"
And this is a fresh point of order?;National;It is a fresh point of order, because the common law is so well known that it was well known that the Government had to tell the House what it was going to do under the legislation. The Government is trying to make itself look good by declaring that it will introduce the legislation, and the Opposition is saying that the legislation is not going to be introduced. I seriously hope that the Government can get a couple of members of the Opposition to concede that it will introduce the legislation before the next sitting Parliament
What are the alternative ways that transport can be funded, and what is the regional development impact of each alternative?;Labour;The alternative ways that transport can be funded are the use of regional development funding and the design and funding of the regional transport strategy, which was announced by the previous National Government last week. There are several ways in which a local transport strategy can be funded. One of the most simple ways is through a regional transport strategy, which has been identified by the previous National Government as a good way of funding. I think that the previous Government’s regional transport strategy was quite good. It basically required councils
What are the alternative ways that transport can be funded, and what is the regional development impact of each alternative?;National;The alternative ways that transport can be funded include extending funding through the national highway network, the Auckland Transport Agency, the Auckland Regional Transport Group, the Auckland City Council, and the local authority sectors. The Auckland Council and Auckland Transport Group are funding the Auckland Transport Agency, the Auckland Regional Transport Group is funding the Auckland Transport Agency, and the local authority sectors are funding the Auckland Transport Agency. The Auckland Council is funding the Auckland Transport Agency, and the Auckland City Council is funding Auckland Transport Agency. I also
Is the member for Matamata promising to slash the guaranteed retirement income?;Labour;"That is the most absurd promise, but I have to say it is the most typical one. He is saying that there is a target on the bottom of the ladder, the middle of nowhere, to be cut. That is what he is saying.<|endoftext|>

"
Is the member for Matamata promising to slash the guaranteed retirement income?;National;A member who has just resumed his seat says that we will cut the guaranteed retirement income. That is a wholly unrealistic proposition. The member for Whangarei, who is the senior Government Whip, cannot stand the prospect that he or she will be cut off from the benefits. he or she is an elected representative of the people who are struggling to put together a decent life for themselves. The member for Kaimai is an elected member of Parliament. He or she is a former member of Parliament
