question;party;answer
Has the Minister received any other recent requests for information from the Labour Party?;Labour;"The Minister has not received any additional requests for information from the Labour Party since the Prime Minister's statement today.<|endoftext|>

"
Has the Minister received any other recent requests for information from the Labour Party?;National;"The Government has received a number of requests from the Labour Party, including one relating to the Māori Affairs Select Committee. The Labour Party has in its possession a small number of documents, not a large number of documents, and the Government has been told to wait until the next election to get the full extent of what they contained.<|endoftext|>

"
What sanctions are available if a person or persons breach the Land transfer Amendment Bill?;Labour;"The most immediate sanctions are a fine of up to $5,000 and 6 months imprisonment, up to a maximum fine of $20,000 and 6 months imprisonment, up to a maximum fine of $50,000 and 6 months imprisonment.<|endoftext|>

"
What sanctions are available if a person or persons breach the Land transfer Amendment Bill?;National;"There are sanctions available against those who are found to be engaged in illegal land transfer. Any person found to be engaged in unlawful land transfer is subject to a fine of up to $1,000 and up to 3 years imprisonment. Any person found to be engaged in unlawful land transfer is subject to a fine of up to $20,000 and up to 4 years imprisonment.<|endoftext|>

"
What progress has been made on the charter schools policy?;Labour;"The programme for the charter schools programme for 1995-96 is now complete.<|endoftext|>

"
What progress has been made on the charter schools policy?;National;The charter schools policy is a key priority of the Government, and it has been facilitated by the Department of Education. The policy is now under the scrutiny of the Department of Education, which has made a commitment in 2005 to ensure that every school in New Zealand is equipped to meet the needs of their children, and that every school is prepared to take the initiative to reduce the number of children in poverty. This is achieved through the principal curriculum review, which is taking place at present to ensure that every school
What trends in net Crown debt were highlighted in the Government’s latest annual accounts?;Labour;The Government’s latest annual accounts highlight the extraordinary difficulties facing the Crown as it tries to balance its books. That is what has been highlighted in the latest estimates. There is a huge shortfall in the public debt. The public debt has grown by 8 percent in the last 5 years. That is a huge problem. The Government is focusing on the next Government, and its future fiscal and economic plans are a major concern. The Government is also facing increasing debt, and the debt is expected to increase
What trends in net Crown debt were highlighted in the Government’s latest annual accounts?;National;"The Government's net Crown debt under the current Government is $59 billion, which is $1.8 billion lower than it was in the previous year. Government debt as a percentage of gross domestic product is 6.6 percent lower than it was in the previous year. The Government will have to borrow more if it is to achieve the targets set in the Budget.<|endoftext|>

"
Does the Electoral Law Committee yet exist?;Labour;The Electoral Law Committee has not yet been established, and I have no idea whether it will be the second standing committee to be established as a result of the select committee process. I do not have any questions, and I encourage my colleague to come to the House and tell me the status of the committee. I would like to congratulate my colleague on his performance in this House today. He took umbrage with the Government’s statement that the select committee process was not sufficient, and he said
Does the Electoral Law Committee yet exist?;National;The Electoral Law Committee, which is not a body that is a particular body, was set up by the previous National Government in 1986 as a body to look at electoral matters. That body has not had a substantial role in the past, and it should now be used to look at electoral matters. The Electoral Law Committee has a very significant role in the future, and I am only too pleased that it has been given a substantial role in the present. I know that members of the committee would have had
In a nutshell, what outcomes has the Minister sought from the Whānau Ora commissioning agencies?;Labour;The report states
In a nutshell, what outcomes has the Minister sought from the Whānau Ora commissioning agencies?;National;"The minister has asked the Whānau Ora commissioning agencies to do a range of things. Some of which I can confirm are that the Whānau Ora commissioning agencies are liaising with Ministry of Health staff to make sure that they are prepared to provide better services for the community; they are engaged in a variety of activities to improve the service; the Whānau Ora commissioning agencies are working to ensure that the services they provide are better. They have also"
Can I just clarify something for a moment? Are we dealing with Part 2 and schedules 1 and 2,;Labour;I am not at all. I am talking about Part 3, which deals with enforcement of the Misuse of Drugs Act, and Part 4, which deals with the Road User Charges Act. So that is the question, what is the Minister going to do? I would not expect him to take any illegal action, because he is the Minister of Police. The Prime Minister is the Minister of Finance. The Minister of Justice is the Minister of Transport. The Minister of Transport is the Minister of Social Welfare
Can I just clarify something for a moment? Are we dealing with Part 2 and schedules 1 and 2,;National;I am just going to point out something that was raised in the first reading speech. The Minister of Transport said that the points in Part 2 and schedules 1 and 2 were not well understood. I want to make a brief comment to that minister about the summary of Part 2 and schedules 1 and 2. I want to take the opportunity to thank the member for Rangiora for his speech, because it was a very well-received speech. I think that I have to say to the member for
What effect would multiple rates of fringebenefit tax have on businesses?;Labour;The tax rate would be reduced in the mode that has been chosen by the Government, because it is simpler and faster to run the business, to pay the debt, to pay the interest, and to pay the debt. The Government and the Minister have been very careful to steer clear of the word ``dependency'' in the Bill, and to avoid talking about the cost of the business. The wording of the Bill is very clear. It states that businesses will pay their debts in a way that is
What effect would multiple rates of fringebenefit tax have on businesses?;National;I know that some of the comments that were made by the member for St. Kilda were an offence to the people of New Zealand. The Government has decided to replace them with a single rate of tax. It is a distortion of the tax system that has been a long time in the making. It is a distortion of the tax system that has been a long time in the making. The Government is going to put in place a system that will be good for the business environment in New Zealand.
Are you raising that as a point of order?;Labour;"I am not raising that as a point of order, with any particular urgency. I am raising this with the Minister. He has said that I am also raising it with him, and I have said that I am raising it with the Minister.<|endoftext|>

"
Are you raising that as a point of order?;National;"I simply say that the member for Papakura is not in any way to be referred to as a question in this House. He has done nothing wrong in the House, and he is not a question in this House. I say to the member for Papakura that we are talking about two different places, and there is no question in this House that it is the member for Papakura who is asking the question. That is what the member is asking.<|endoftext|>

"
Why did the Minister sign the letter?;Labour;He signed it because the Opposition wants him to sign it. The Opposition wants him to sign it. The Opposition wants the Minister to sign it. The Opposition wants the Minister to sign it. The Opposition wants the Minister to sign it. The Opposition wants the Minister to sign it. The Opposition wants the Minister to sign it. The Opposition wants the Minister to sign it. The Opposition wants the Minister to sign it. The Opposition wants the Minister to sign it. The Opposition wants the Minister to sign it
Why did the Minister sign the letter?;National;"I have signed it. It is a very good one.<|endoftext|>

"
