question;party;answer
Can I ask the member to refer to the particular Standing Order or Speaker’s ruling she’s asking me to uphold or change?;Labour;"I have to clarify that, because I am standing here today to defend the honourable member. I want to do that because I want to make sure that the honourable member is aware that I am here to defend the honourable member, and because I want the honourable member to know that I am here to defend the honourable member.<|endoftext|>

"
Can I ask the member to refer to the particular Standing Order or Speaker’s ruling she’s asking me to uphold or change?;National;"The member is correct in saying that. It is a very important issue, and I will not be voting on it. I continue to believe that it should go to a select committee, and I will not be voting on it.<|endoftext|>

"
How is Budget 2014, as part of the Government’s wider economic programme, helping New Zealanders to get ahead?;Labour;"The Budget is helping to build on our strong economic programme. We are not just investing in infrastructure, we are investing in jobs, and we are investing in more people. We have a great economy, and we are seeing the positive effects of it. The good news is that there is still a lot of work to do, and it is not as bad as we think it was. It is as good as it has been for a long time.<|endoftext|>

"
How is Budget 2014, as part of the Government’s wider economic programme, helping New Zealanders to get ahead?;National;Budget 2014 is helping New Zealanders to get ahead by providing more certainty for business and households to receive more certainty from government. New Zealanders are more confident in their future and most of them are now expecting that the economy will grow by more than 2 percent this year. we are expecting that the economy will grow by more than 2 percent this year, and we are expecting that we will have a strong economy for some time. We are expecting that our company growth will be strong enough to support growth in
To be asked by the member himself?;Labour;The member is probably right. The member should be happy to assist the member with that. I was not here in the Chamber when the member spoke, so I cannot confirm that he was quite right, but I can confirm that he was probably correct. So it is the eight words, and that is the most important thing. But then the member who has just resumed his seat said
To be asked by the member himself?;National;"I did not say that. I spoke about the change to the Welfare Reform Bill, which was introduced by my colleague the member for Yaldhurst. I repeat that I did not say that. I said that the member for Yaldhurst had acted outside the Standing Orders. He acted outside the Standing Orders in introducing the Bill.<|endoftext|>

"
Will the Treasurer welcome submissions from other political parties?;Labour;The member's party is the party of the New Zealand First leader. They are not the party of New Zealand First. They are the party of the Leader of the Opposition and the Leader of the Labour Party. They are the party of the National Party. They are the party of the Alliance. They are the party of the Alliance. They are the party of the Alliance. They are the party of No. The party of the Alliance is the party of the Alliance party. That is what the legislation
Will the Treasurer welcome submissions from other political parties?;National;I welcome submissions from other political parties. The member should go and see the remainder of the discussion on the Bill. The parties that have not yet been mentioned are the Alliance, New Zealand First, and New Zealand First. The member should go to them and ask them about it. I am sure they will be very interested in it. One of the most exciting things that the member should be looking at is the impact of the New Zealand First position in the heads of many of our young people. The
How about chasing up some of the pakeha developments that have gone broke?;Labour;"I am sure that the member for Eastern Maori would have to have some faith in the Government's plans to be interested in that sort of thing. It is important that the Government is putting in place the necessary measures to ensure that New Zealanders get their fair share of the revenue that they generate.<|endoftext|>

"
How about chasing up some of the pakeha developments that have gone broke?;National;The Secretary-General has already indicated that he intends to make a further report on pakeha in January this year. The Government is continuing to hold its fiscal position in good shape, and that is a major achievement. While the Government is in the minority, there is a real sense of optimism about the future, and that is the reason for the Government’s strong economic performance. The Government is delighted to be in a minority. I will come to that topic in a moment. let us
What independent assessments of the need for further investigation has the Minister seen?;Labour;I have seen them. The first was that of the National Party, which said we had to see what was going on. The second was that of the Green Party, which said that the number of deaths in New Zealand should be taken seriously, but that we should wait. The third was that of the New Zealand Council of Trade Unions, which said that we should look at the number of suicides, but that we should wait. The fourth was that of the New Zealand Chiefs of Defence Force,
What independent assessments of the need for further investigation has the Minister seen?;National;I have seen an independent assessment that states
Why can't the Minister set up an inquiry?;Labour;It is open to suggestion. Just as a personal example, I am a farmer. I have a family of four and I would like to have some input into the way in which an inquiry is being conducted. I would like to know how the Under-Secretary of Agriculture does it. I would like to know whether the Minister is involved in the process. I would like to know how the Chief of Public Service is involved in that process. I would like to know whether the Minister has any concerns about
Why can't the Minister set up an inquiry?;National;I am not going to sit here and say why that is the case. I am going to come to the main point, which is that the whole of the legislation is actually quite flawed. The committee has asked the question, as I said in my previous answer, to put forward a report that shows there is a problem in this legislation. It is no different from the question that I asked in the House last Thursday, when the Hon Nick Smith asked the Minister of Transport why it was a problem.
Is the wholesale guarantee scheme altered by yesterday’s announcement?;Labour;The wholesale guarantee scheme is not altered by yesterday’s announcement. There are two separate reports that describe how the scheme will operate. The first is the “Policy Statement on the Scheme”, which was released this afternoon, and the second is the “Policy Statement on the Life Support Scheme”, which was released this afternoon. The first is a summary of the scheme, which is a joint venture between the Ministry of Social Development and the Ministry of Social Development, and the Minister
Is the wholesale guarantee scheme altered by yesterday’s announcement?;National;The wholesale guarantee scheme will be the same as the scheme that was operating prior to the announcement of the changes. The scheme used to refer to a scheme that was in operation for a period when the Minister of Finance was the Minister and there was a Minister of Finance and an assistant minister. The scheme was in operation for a period when the Minister was the Minister, and there was a Deputy Minister. The scheme is now to be changed to the scheme that was being operated prior to the announcement of the changes
How many corporate boxes have you been in?;Labour;It is fewer than 1,000. I do not know whether that is right. I have been in office for about the last 3 years and I have not been in office for nearly 2 years. I am not going to talk about how long I have been in office, because those are not my words. I ask Mr Hide, how many corporate boxes have he been in office. What, no wonder he would not want to be in politics. I ask Mr Hide about the new-found 2008
How many corporate boxes have you been in?;National;The actual number is, in paragraph 6 of the bill, there are currently 1,000 boxes on the premises. I do not know whether that is correct, but it is in the bill. So that is the number of boxes that have been on the premises. It is not a specific number, but it is a figure of 1,000 boxes that are currently on the premises. So one thousand boxes. One hundred boxes. So that is the number of boxes that are currently on the premises.
What was the reoffending rate of participants involved in the Government’s boot camp concept trials completed in 2009 and 2010?;Labour;"It was destroyed.<|endoftext|>

"
What was the reoffending rate of participants involved in the Government’s boot camp concept trials completed in 2009 and 2010?;National;The reoffending rates in the boot camp concept trials completed in 2009 and 2010 were 3.1 percent and 1.9 percent. The reoffending rate was not known, and it was not known what proportion of participants were reoffending. So I think that provides some context for how we pay for the concept trials. I think the target of 1,000 people was a good one
