question;party;answer
Is the member seriously asking the House to grant leave to table some food items?;Labour;What I say to the member is that I congratulate him on his innovative bill, because it is a good measure to deal with the problem of food shortages in the country. It was brought to the Government's attention in the last year by the Department of the Environment, and it was not until this year that we had the opportunity to bring it to the attention of the Government. I have been very pleased to see the bill pass through the select committee, because it has been a very good exercise. I
Is the member seriously asking the House to grant leave to table some food items?;National;"I am not aware of any such legislation. The member is asking the House to grant the Government's request.<|endoftext|>

"
What’s that got to do with the bill?;Labour;The fact is that the bill is a first-of-its-kind act of Government legislation. Although it has been previously reported in the New Zealand Herald, it is a first for New Zealand. I think it is important to put through a first-of-its-kind act of Government legislation. I think it is very important to put through legislation that has the support of the House, because it is the first thing that this Government has done in this House. It is important when National Party
What’s that got to do with the bill?;National;I am not going to comment on that. I am very concerned about that, because it is a small change. It is based on the standard practice. In the past the standard practice for suspension of a member of Parliament was to suspend them for 3 months. The member for Papatoetoe lasted 2 years, and police said he had left the House. What a difference to see him back in the House, and he went to jail. I have a feeling that is the reason that the members
What initiatives, has the Southern Regional Health Authority taken in providing mental health services?;Labour;We have been very clear in our plan that we need to improve mental health services in this region. We have had an increase in the number of beds in our mental health unit. We have had a reduction in the number of staff in our mental health unit. We have had a reduction in the number of mental health beds in the region. We have had a reduction in the number of mental health beds in the region. We have had a reduction in the number of mental health beds in the region.
What initiatives, has the Southern Regional Health Authority taken in providing mental health services?;National;The primary area for the Southern Regional Health Authority is mental health. The service is available in all areas, including all of the South Island and in Auckland and Christchurch. The regional health authority has four mental health nurses. The number of mental health nurses is currently highly constrained, and a further reduction is needed. This is why the services are being provided by the Southern Regional Health Authority. The service includes support for mental health patients, which is available throughout New Zealand, and is funded in an effective and
Would the effect of privatising maternity services as suggested in the question result in less cost to the taxpayer?;Labour;"It is the effect of privatisation that is the real issue. The Government has offered to offer maternity services in the period that the National Government has been in office. It is the Government's policy that no one will be put through the process of privatisation that will result in fewer costs and fewer expenses for the taxpayers.<|endoftext|>

"
Would the effect of privatising maternity services as suggested in the question result in less cost to the taxpayer?;National;"I am not aware of any savings on that matter. The question was about the stability of the maternity service, and the member answered that the stability of the maternity service would be reduced by privatisation. Some savings have been made as a result of privatisation, but these were not the real savings, in the Government's view, because they were a combination of privatisation and some other savings.<|endoftext|>

"
Are there any specific measures in the report aimed at teenagers?;Labour;The report is not on and-the question is whether there are any specific measures in the report aimed at teenagers. That is the first question of the whole report. I will give an example. The report states that the Minister of Education has been notified that the SME agenda is not working for most pupils. The report states that the SME agenda is not working for most pupils. that is the second question. I think that it is absolutely absurd to attempt to tell the House that there are specific
Are there any specific measures in the report aimed at teenagers?;National;There are suggestions in the report. I cannot confirm that there are any specific measures in the report, but this is the part of the report that deals with the way in which young people will be dealt with by the State. This is where the issues need to be addressed. That is where the problems need to be addressed, not where the Government is trying to make up for. This National Party-led Government is talking about eradicating the need for youth in this country. This is the Government that
Why is the Government working on measuring success differently?;Labour;"The Government has developed a new approach to measuring success, and it is based on the concept of participation. Participation is measured not only by how many people participate but also by how many people are actively engaged in participation. Participation is measured not only by how many people participate but also by how many are active participants. It is important to note that participation is defined as a result of participation, not as a result of participation merely as a result of participation. Participation is not simply a result of participation; participation"
Why is the Government working on measuring success differently?;National;An enormous amount of work is being done to improve the way in which we measure success. The first step is to make it easier for teachers and schools to record it. Another important thing is to make it easier for independent assessment of success. the Government believes that good teaching is more than just a job. The Government has taken over the management of the National Assessment Programme and has set the goals of the programme in a way that will make it easier to measure success. The current system provides easy access to
How is the House to know that the member asking the question was speaking about the Rt Hon Winston Peters?;Labour;As I have just said, I was talking about the Rt Hon Winston Peters. I want to say that it is a pleasure to take a call on the third reading of the Social Services Amendment Bill. I want to thank the Minister of Social Welfare for her contribution, because I think it is very important to talk about this bill. I want to talk about the amendment to the Social Security Act 1992 and the main components of the Bill. The issue of the time-limit for the entitlement to a
How is the House to know that the member asking the question was speaking about the Rt Hon Winston Peters?;National;"She was speaking about the Hon. I was speaking about the Hon. He was not there. I have been here for only 1 year, and I am in no way aware of any consideration of the member for St. Kilda.<|endoftext|>

"
How much will global emissions reduce as a result of those decisions by Cabinet and Ms Woods?;Labour;"The amount of global emissions reduction will be 50 percent lower as a result of these decisions by Cabinet and Ms Woods.<|endoftext|>

"
How much will global emissions reduce as a result of those decisions by Cabinet and Ms Woods?;National;The total cost of that decision is now $9 billion, which is about $1 billion. That is $1 billion of investment in our economy. That is an excellent investment, and that is what this Parliament should be focused on. This parliament should be focused on. It is a good investment, and that is why we will be focussing on it. We will be focussing on it, because we will be focussing on it. This bill has shown that this Parliament is
-that the only people who benefit from a prohibitionist approach to drugs are the criminal underground?;Labour;I do not think that that is the case. I think the Minister may want to take a call on this, because the Minister has been a very good Minister, and I do not think it would be appropriate for the Minister to make a statement that there are no criminal underground drugs in New Zealand. The Minister might think that was a very good idea, but he would not want to go down that road. The Minister should focus only on the criminal underground drug trade, and on what he thinks the
-that the only people who benefit from a prohibitionist approach to drugs are the criminal underground?;National;The only people who benefit from a prohibitionist approach to drugs are the criminal underground. I will not discuss the matter further. The member should be prepared to stop his speech. The bill has been referred to the select committee. I do not know why the member has been asked to stop and has to go on his record. The member has had the opportunity to make his point and to talk about the telephones, and not about the bill itself. When we are debating the bill, one has only
How does the Resource Management Act impact on investment?;Labour;The resource management Act enables the department to ask for further information from the Ministry of the Environment, which is quite a small department. That led to a select committee that chose to hold a discussion on the resource management Act on 14 October. That was a lot of work, because both the resource management Act and the resource management policy are separate. There was no consensus on the resource management policy, and there were issues around whether the resource management Act should be incorporated into the resource management policy. The select committee
How does the Resource Management Act impact on investment?;National;The resource management legislation is an important tool in ensuring that sustainable resource management is achieved in New Zealand. The Resource Management Act enables the inclusion of a Resource Management Plan in the Environmental Impact Statement. This enables institutions to be more soundly managed, more accountable, and more accountable to the public, and to promote sustainability. The Government has also introduced its Sustainable Sustainable Management plan. This will help to reassure investors that their investment will be backed by a sustainable system. This is something that will serve to reassure them
