question;party;answer
Did you hear what the member just said?;Labour;I can confirm that the member's remarks were not as his. He was not under any illusions. He was on to the big idea. He was on to the idea that there was a problem with the business environment in New Zealand. He was on to the idea that the business environment in New Zealand was going to get better. He was soon to be on to the idea that the business environment in New Zealand was going to get worse. He was under the belief that the business environment in New Zealand
Did you hear what the member just said?;National;I heard it, and I have spoken to her. I did not hear her say that. I have spoken to her, she has made it clear that the circumstances are the same. She said that she did not actually have any money in her possession, and that she did not know about it. I have taken her word for it, which is that she would not have had it if she had not been so concerned about it. She said that she was a victim of a crime, and she
Are you going to accept that as addressing the question?;Labour;"I am not going to accept that.<|endoftext|>

"
Are you going to accept that as addressing the question?;National;"I am going to accept that it is an answer that has been given to it. The Opposition has not received the report, and the member who put it to the House, I am told, is not aware of it. I am going to ask the member to tell us whether that member is the Minister of Finance or the Minister of Transport.<|endoftext|>

"
May I interrupt and ask what that was?;Labour;There is a lot of confusion about the purpose of the legislation, and I commend it to the House. I look forward to the submissions. I think that the committee has dealt with the most important of all the questions, which was whether the decision to sell the Island of Christ should be made at the same time as the decision to raise the Christchurch City Council’s rates or the Christchurch City Council’s rates. I think that is a very important point. I think this is
May I interrupt and ask what that was?;National;That was a totally irrelevant question. I think we have got a little bit ahead of ourselves in terms of the issue of the way in which we talk about the health of our young people. The Minister of Health has been talking about a very simple thing, and I think that it is an important one. I think that we should have dealt with it earlier, and we should not have put it into the debate at the last minute, or in the last minute, or the minute before the minute.
Has the Minister any details of the number of community services cards issued to date?;Labour;Last year I issued a community service card, which was issued to a number of people, including a group of elderly people, for the cost of their own food and clothing. There is a very nice letter from the Department of Social Welfare staff, which I think is generally accepted in the community, thanking the community for the work that they are doing. I am not speaking to the number of cards, but I am asking the Minister to give me some details. I think that the member for Bay of
Has the Minister any details of the number of community services cards issued to date?;National;I am aware that between 1 April and 31 June the number of community service cards issued is about 235. So we are looking at about 230 community service cards. So we have had a very good number of cards issued this year, and there are probably some more to be issued in the future, but we have had a very good number of cards issued so far this year. So it is a good start. I have to say that we must watch out in the near future, because I think it
At what stage is the process that is investigating the introduction of rabbit calicivirus to South Island high-country farms?;Labour;That is an issue that requires further investigation. As the member for Tarawera will know, the ministry is working closely with the farmer, and there is no doubt that the risk of infection to this country is substantial. The ministry has conducted an effective vaccination campaign with a veterinarian. The Ministry of Health has conducted a similar vaccination campaign with a private company. The Department of Conservation has been involved with a proactive vaccination programme with a company that provides a range of vaccines for livestock, and the Ministry of Health
At what stage is the process that is investigating the introduction of rabbit calicivirus to South Island high-country farms?;National;"The process is still under way, and there is no indication that that is the case at this time. The next stage is to arrange up a rabbit calicivirus vaccination programme, to ensure that that will be a successful programme in South Island high-country farming. The next stage is to develop a vaccination programme and to ensure that the programme is successful.<|endoftext|>

"
Is such a result consistent with the constant predictions that Opposition members have made in the House?;Labour;The constant predictions that Opposition members have made in the House about the impact of the levy were made in the course of the previous sitting day when the Leader of the Opposition was in the House, and it was not until the evening of the next sitting day. Opposition members are constantly predicting the impact of the levy and the effect of the Government's announced impact. Opposition members will not be in the House then, because the Government has announced that the levy will be increased, and it is a Government announcement.
Is such a result consistent with the constant predictions that Opposition members have made in the House?;National;The Prime Minister has made it quite clear that she has a Government. She has a plan. She has a plan for the country. The Leader of the Opposition has made it quite clear. He has a plan for the country. He has a plan for the country. The Leader of the Opposition has broken the election promise, which he made last year, to implement the Government’s plan, and to implement the Government’s plan, which we have in front of us now. He
-the duration of the extended leave is covered in this part, Am I not correct?;Labour;The extended leave is covered in this part. It covers the period between the commencement of the civil service and the commencement of the term of employment of a person, and it covers the period from the commencement of the civil service to the commencement of the term of employment of a person, so that an employee who has been on a civil service scheme for three years and has been on the scheme for three months, and who is entitled to extended leave, will also be entitled to extended leave.<|endof
-the duration of the extended leave is covered in this part, Am I not correct?;National;That is the correct answer. I want to express my gratitude to the members of the select committee for their constructive and constructive comments. I acknowledge the fact that this matter was referred to two hearings, one in February 2000, and one in May 2000. This is one of the 1413 issues contained in the Bill. I give some credit to the select committee for the work that it did on this matter. I think that that is the most effective way of dealing with this legislation. The committee came to
How will the strategy be developed?;Labour;The strategy will be developed by the Waitangi Tribunal and will be made available to the Government. The strategy will be available to the Government once the Government's consultations with the Waitangi Tribunal are complete. The strategy will be available to the Government once it has been concluded that the Waitangi Tribunal has been disposed of, and that the Tribunal has been disposed of. The strategy will be available once the Government has decided that the Tribunal has been disposed of, and that the Treaty of Wait
How will the strategy be developed?;National;It will be based on a number of key areas. The initiative will be focused on the most pressing issues facing the people of New Zealand. The strategy will be developed as a result of the high level of engagement with the community. This will build confidence in the strategy, as well as its ability to deliver its objectives. It will be a strategy that will be supported by the community, by the Government, and by the business community, which is the key constituency. The strategy will be supported by a
When is it expected that health-care plans will be set up?;Labour;The Health and Disability Commissioner is expected to have a report on that by the end of the year. I do not think that is the case. I am sure that the spokesman for the National Party, the member for Horowhenua, who has a large number of memberships in this House, will be able to answer that question. The spokesman for the Labour Party, the member for Hawke's Bay, who is not in the House, will be able to answer that question. The member
When is it expected that health-care plans will be set up?;National;I think that the big thing with health-care plans is that every department will have a plan. I think that is very, very important. I think it is important that people are able to do their own research. I think that is a very good thing to be able to do. I think that is what the key message of the bill is. That is why I think it is so important. I think that is why the opposition members in the House want to make it a point of order
-distinct and significant power rebates when it comes to fruition later this year?;Labour;"The Government has decided that we will be spending $135,000 on the island of Australia so it can come up with an idea to put that money into the electricity scheme, which will help to offset the huge cost of the $3.2 million that we put into the island of New Zealand.<|endoftext|>

"
-distinct and significant power rebates when it comes to fruition later this year?;National;The current scheme is not a power rebate, but it is an extension of the conventional power rebates and plans. This extension is aimed at expanding the benefits of the existing scheme, the possibilities of the programme, and the power rebates that are already available. I expect tariff changes this year to be much more substantial than the current scheme is. I think that the member will be surprised to hear that, as the Government has not introduced any major changes in the power rebates already. A big
