question;party;answer
How has the Government’s investment in tourism promotion helped grow the sector?;Labour;Tourism promotion is a great success story. I think it is absolutely fantastic that we are seeing that there is a huge amount of young talent coming from overseas, but that there are so many young people out there who are just going to sit here and wait for the next job. Tourism promotion is a great success story. I think it is absolutely fantastic that we are seeing that there are such great numbers of young people coming back and spending money. I think the first thing that I would suggest to anybody who
How has the Government’s investment in tourism promotion helped grow the sector?;National;We know that many New Zealanders are linked to tourism and that the tourism industry is a well-established, organised and adequately funded industry, and we know that it is recognised as such by the tourism industry. we know that it contributes to tourism, and in particular to the tourism industry in New Zealand. The tourism industry has already resulted in the construction of a new airport in Christchurch, and to have that airport on the top of the national list of tourist destination in New Zealand would have been an
Would the Minister accept a brief interjection?;Labour;Some treasured member of New Zealand, so I say to the member for New Zealand First. He is the laughing stock of the Parliament. To come to the House and to speak in this debate, I am pretty sure that he is a funny man, but I have to say that I am not laughing. I am a little shocked, a little disappointed, and a little shocked, to see this Government introducing legislation that does not yet have the support of the opposition parties. That is the worst past
Would the Minister accept a brief interjection?;National;"I would take the opportunity, to apologise for the interruption that has occurred.<|endoftext|>

"
What is the level of support for the 1993-94 tourism exchange?;Labour;"The level of support for the 1993-94 tourism exchange is based on the level of activity of the tourism industry. The levels of support are in line with the level of activity of the industry.<|endoftext|>

"
What is the level of support for the 1993-94 tourism exchange?;National;The level of support for the 1993-94 tourism exchange is $9.8 million, and that is a pretty good number. The only thing that I would like to comment on is that the wonderful thing is that the tourism industry is having a bit of a go at the Government, and that they are saying that this is a terrible issue. In fact, the tourism industry is saying that it wants to have their support. That is the only thing that the Government should be thinking about. This is
Has the Minister had a frustrating weekend?;Labour;I think the member is right to draw a very difficult analogy. I am not sure whether or not that was the place of the member for Tauranga, because that was where I was at the weekend, but it was certainly a very difficult state of affairs. The member for Dunedin West must have been in the House during the whole time I was in the House. I think that was the most difficult thing I have had to contend with, and that is what it was like for everyone in
Has the Minister had a frustrating weekend?;National;I do not think that I have had a frustrating weekend. I think I have had my best Sunday. I had a great time, I was in the House today, and the work that the member for St. Kilda has done is quite commendable. I think he is demonstrating how to improve that legislation, not only in that he has taken out the Bill but also in that he has introduced legislation that seems to me to be quite spurious. I am not sure how to explain that to the
Am I permitted to finish my answer?;Labour;"This question has been raised in the House before, and I seek leave to finish my answer.<|endoftext|>

"
Am I permitted to finish my answer?;National;"As my colleague has said, the member is not permitted to finish his answer; he is not allowed to finish it. I think that is a very good example of how to do it and how to learn it.<|endoftext|>

"
Did the Prime Minister have any involvement in the preparation of current energy savings advertisements that run on television?;Labour;"The Prime Minister has no involvement in the preparation of current energy savings advertisements.<|endoftext|>

"
Did the Prime Minister have any involvement in the preparation of current energy savings advertisements that run on television?;National;"The Prime Minister has made it clear to me that the Government is taking any business opportunity that offers to reduce energy costs and that has ever been the case.<|endoftext|>

"
Do you want me to repeat the question?;Labour;"I do not want to repeat the question. I just want to say that the member for Whangarei was confused about the question.<|endoftext|>

"
Do you want me to repeat the question?;National;I have already said that it is a very sad day that a member of this Parliament has to sit in this House tonight and do this job that was intended to be done by the Hon. Dennis Jensen. Mr Jensen is not only a very good and very deserving member of this Parliament. He is also a great member of this Parliament. He deserves to be in this House, because the Hon. Dennis Jensen is not up there with Mr Duncan Neeley. But Dennis Jensen is far better than Duncan
What progress has been made towards implementing free after, sixes?;Labour;The Government’s offer is still on the table, although it is not for a long time yet. The majority of people who are eligible for free after, sixes receive it. This is a very positive move. It is the first time that the Government has introduced a universal 50-point program. The Government believes that this is a positive move, and has indicated to the community that it is committed to achieving the target by the end of the year, and will continue to progress it by
What progress has been made towards implementing free after, sixes?;National;I have just been talking about progress and progress. There is a pretty impressive figure. It is $3.69, which is up and down the country, and this is the result of a very good work and work programme. It is $3.69 a week. That is progress. That is a lot better than the average wage of $5.37, so we have a lot of progress, and I think that is a good thing. I do want to point out what we have
Is the Nelson one taking over Marlborough?;Labour;"The Nelson unit is now the Nelson unit. It is a very good unit. It is the same unit that was used for the Christchurch unit, and it has gone through a very good run, and we are looking forward to it going through another good run in the future.<|endoftext|>

"
Is the Nelson one taking over Marlborough?;National;"I am advised that the Nelson) one is being further re-run as a separate organisation. There is no money left to go to the Nelson branch of the Children, Their Families Service.<|endoftext|>

"
What progress is the Government making with strengthening the performance of our tertiary education system?;Labour;I have been pleased to note that the Government continues to improve the performance of our tertiary education system. I have been pleased to note that since we have been in Government, the number of students enrolled at tertiary level has increased by 20,000, and that the number of students enrolled in tertiary education courses has increased by hundreds of thousands. The number of students enrolled in tertiary degree training courses has increased by thousands, and that trend continues. There is now a very good correlation between the
What progress is the Government making with strengthening the performance of our tertiary education system?;National;To answer the first question, I say that we are pleased to see a steady decline in student numbers, and it is a drop in student numbers that is leading to a drop in enrolment. There is no doubt that the number of students in tertiary education has gone down in really serious numbers in the absence of any alternative education to which we would like to associate ourselves. We are seeing that decline in student numbers, and that many people are not getting enrolled. I say to the Minister of Education
