question;party;answer
Are you aware that at the same time as Mr Carter rose, Dr Smith also rose?;Labour;"I am aware. He did not rise.<|endoftext|>

"
Are you aware that at the same time as Mr Carter rose, Dr Smith also rose?;National;The member's question makes it quite clear that I am aware of the fact that the Chairperson has been in the chair, and that the Chairperson has been the subject of high-level discussions with other members of the Government Administration Committee. That is no small thing, given that the issue of collective bargaining is a highly sensitive issue. I do not think that anybody, including the member for Selwyn, is in a position to feel confident that the Chairperson is prepared to get into the Chamber tonight
As a point of clarification, were you accusing me of communicating with somebody outside the Chamber?;Labour;"It is a little bit of a clarification as to the precise way in which the question is being asked. The question is about the Legislative Assembly, and it is about the New Zealand Superannuation Fund. The question was asked in the House. This is not the same as the fact that you have asked the question.<|endoftext|>

"
As a point of clarification, were you accusing me of communicating with somebody outside the Chamber?;National;"I was referring to the Speaker of the House and not to you.<|endoftext|>

"
What steps has this Government taken to improve Government finances?;Labour;We have taken a number of steps to improve Government finances. In addition to the $830 million that the Government has set aside for the next financial year, it has increased the New Zealand Superannuation Fund from $19 billion to $73 billion. It has increased the New Zealand Crown Housing Corporation by $152 million in the next financial year. It has increased the rate of child support benefit payments by $21 million, and there is a $20 million surplus. We have reduced the number of people
What steps has this Government taken to improve Government finances?;National;One of the key measures has been to raise taxes, to reduce expenditure, and to cut tax revenues. This measure is an important step because it helps to reduce debt and to provide an additional amount of money for the Government. Government members have not always taken the view that this measure is a good thing, because it is not a perfect measure of Government performance. It is not the best measure of Government performance, and it is not the best measure of fiscal policy, but it is a more positive one
Could it be assumed that any matter relating to any of the motions may be discussed while we are discussing this one motion?;Labour;"I am not able to make that statement.<|endoftext|>

"
Could it be assumed that any matter relating to any of the motions may be discussed while we are discussing this one motion?;National;"When the debate resumes, we will have the opportunity to discuss the issue with the member of Parliament for Waikato. I assume that the member will have a good talk with the member for Auckland Central, particularly at this stage, and I do hope that the members of this Parliament will be able to come to an agreement on whatever it is.<|endoftext|>

"
What actions has this Government taken to make the student loan scheme more affordable?;Labour;"The Government is currently investigating the feasibility of increasing the number of students enrolled in the scheme and considering the proposals. The Government is working closely with the student associations to ensure that the student loan scheme is available to all students.<|endoftext|>

"
What actions has this Government taken to make the student loan scheme more affordable?;National;"The Government has taken action to ensure that those who are in receipt of student loan scheme assistance are better off and better off than they were when they received assistance. The Government has set aside $100 million for some of the most disadvantaged students. It is expected that this will help them to meet their costs. The Government has also set aside $10 million for the next stage of student loan and student placement aid, which will reach out to more of those in need.<|endoftext|>
"
What other steps were taken in Budget 2015 to advance the Government’s focus on delivering Better Public Services?;Labour;The Government’s focus on delivering Better Public Services has been focused on delivering better public services. The Government's focus on delivering better public services has been focused on delivering better public services. The Government’s focus on delivering better public services has been focused on delivering better public services. The Government’s focus on delivering better public services has been focused on delivering better public services. The Government’s focus on delivering better public services has been focused on delivering better public services. The Government
What other steps were taken in Budget 2015 to advance the Government’s focus on delivering Better Public Services?;National;"The Hon. Simon Power has already referred to a number of steps in Budget 2015. I will take a brief call to give you a flavour of the way in which some of those measures were put in place.<|endoftext|>

"
What is the potential value of New Zealand’s petroleum basins?;Labour;The value of New Zealand’s petroleum basins could be the equivalent to that of the oil of the world, to the oil of the United States, to the oil of Australia, to the oil of Turkey, to the oil of the United Kingdom, to the oil of Norway, to the oil of Japan, to the oil of Sweden, to the oil of France, to the oil of Germany, to the oil of Japan, to the oil of Belgium, to the oil of the Netherlands
What is the potential value of New Zealand’s petroleum basins?;National;"New Zealand is well aware of the importance of the oil and gas resource. The Government’s policies and actions will ensure that New Zealand can continue to rely on the oil and gas sector for jobs, defence, and export revenues.<|endoftext|>

"
How does the proposed new fire officer position fit in with the overall modernisation of the Fire Service?;Labour;The proposed new fire officer position, which is supported by the new fire engine, is a new position. The position will help to enhance the effectiveness of the Fire Service, to increase its ability to cope with fire incidents, and to improve the effectiveness of the Fire Service as an organisation. The position will also allow the Fire Service to meet the needs of the fire service community. I commend the new position to the chief executive of the Fire Service. I look forward to working closely with the new Chief Executive
How does the proposed new fire officer position fit in with the overall modernisation of the Fire Service?;National;"The proposed new fire officer position will be for a person who has experience of fire service training.<|endoftext|>

"
Is the Government considering the sale of the TVNZ subsidiary Broadcasting Communications Ltd?;Labour;"The Government has not completed the reviews in Broadcasting Communications Ltd. The Government has not decided whether the sale should go ahead.<|endoftext|>

"
Is the Government considering the sale of the TVNZ subsidiary Broadcasting Communications Ltd?;National;"No, the Government is considering the sale of Broadcasting Communications Ltd. It is important to note that the current position of Broadcasting Communications Ltd is the most successful television broadcasting operation in New Zealand, achieved by a very good team of people. It is a successful organisation that has worked very hard to provide a quality service for New Zealanders. I congratulate the staff and their managers on the success of the operation.<|endoftext|>

"
What is the intention of the Land transfer Amendment Bill?;Labour;The intention of the bill is to provide for the establishment of the New Zealand Aviation Authority, which is a new body within the Land Transport Act, to provide for the establishment of the New Zealand Transport Agency, which is a new body within the Land Transport Act, and to create a new body within the Land Transport Act, the New Zealand Tourism Council, which is a new body within the Land Transport Act, to provide for the establishment of the New Zealand Export Council, which is a new body within the
What is the intention of the Land transfer Amendment Bill?;National;The intention of the Bill is to provide for the Government to transfer the properties and assets of the Crown entities in which the Government has a vested interest. The Bill also provides for the Government to transfer the property of the Crown entities to a trustee, to hold the land in trust, to sell the land to any person or person's agent, and to sell the land to temporary owners. The Government has a vested interest in the land, which it has managed since the 1950s. the Government has no
