question;party;answer
When does the new regulatory regime come into effect?;Labour;The new regulatory regime takes effect on 1 October 2009. The new scheme will empower New Zealanders to make informed choices about their financial future. It is a system that was developed in the 1980s, and many New Zealanders are familiar with it. It is not just in relation to the amount or the type of money they have, but also in relation to the quality of the money they are saving. It will make it easier for New Zealanders to make informed choices about their financial future, while
When does the new regulatory regime come into effect?;National;The new regime will come into effect on 1 July 2008. The new regime will introduce a new approach to managing the risks of the new system. The changes will have an impact on the management framework, the role of the New Zealand regulator, and the role of the New Zealand Commissioner of Inland Revenue and the new New Zealand Superannuitant Commissioner. The new regime will increase the management and governance capabilities of the New Zealand regulator, which will be required to manage the risks of the new system.
In light of that answer, can the Prime Minister tell the House who leaked the Kitteridge report?;Labour;"I have received a copy of the report.<|endoftext|>

"
In light of that answer, can the Prime Minister tell the House who leaked the Kitteridge report?;National;"I do not think that it is appropriate for the Prime Minister to answer questions on that sort of subject.<|endoftext|>

"
Have the procedures for approving medical misadventure cases changed under the new accident compensation arrangements?;Labour;"The procedures have not. I have to say that the advice that I have received so far has been that there is, no indication that there is any real need for any particular form of compensation. I have to say to the member that I say to him that if there is a need for a particular form of compensation, it is that one, which one? The member has clearly had a training session in cremation.<|endoftext|>

"
Have the procedures for approving medical misadventure cases changed under the new accident compensation arrangements?;National;The procedures for approving medical misadventure cases have been changed. In the past, the procedures for approving medical misadventure cases were not the same as those for approvals of alternative forms of injury, but they were the same as those for applications for medical services. This amendment was made by the previous speaker because of the changes in the accident compensation arrangements. The new route of operation for appeals is found at the bottom of the page of the accident compensation booklet. The new route of operation for appeals is
Is this the new National Party policy?;Labour;we are proud of it. We support it. We support it because we believe in it. We support it because we will put a greater emphasis on it. We support it because we believe in it, we believe in it, we believe in it, and we believe that this is the best way of engaging in this National Government’s economic plan. That is why we have got it. That is why we are going to put the emphasis on it. We would not want to see this
Is this the new National Party policy?;National;It is the new National Party policy. Mr Key said there was no change. The new National Party policy states that Mr Key would be the first to introduce a legislative bill after the election if he was the Government. He now says he would introduce a bill after the election if he were the Government. He is continuing that policy today. He meant to say
Does the Minister know of any treaties organised and negotiated by the OECD that New Zealand has not signed?;Labour;"The OECD is very good at it, and New Zealand is showing the same thing. The OECD has the capacity to look at New Zealand and determine the best way forward for New Zealand, and that is the New Zealand Bill of Rights Act. It is a great change.<|endoftext|>

"
Does the Minister know of any treaties organised and negotiated by the OECD that New Zealand has not signed?;National;I am aware that the New Zealand Government and the OECD have agreed on a number of treaties. There are many treaties that New Zealand has signed, including the Treaty of Waitangi, the Treaty of Waitangi, the Treaty of Waitangi, the Treaty of Waitangi, the Treaty of Waitangi, the Treaty of Waitangi, the Treaty of Waitangi, the Treaty of Waitangi, the Treaty of Waitangi, the Treaty of Waitangi,
What changes to the vaccines and immunisations are highlighted in the new handbook?;Labour;The new handbook includes a new section, the Health Bulletin, that outlines the vaccine schedule and immunisation methods, and it allows the public to record information as a result of health and safety alerts. The Health Bulletin also provides the National Immunisation Programme with more information, which may include sample form letter notifications, to ensure the programme is able to respond to the demand for the new immunisation schedule. The new handbook also includes a new section, the Health Bulletin, that provides a new handbook
What changes to the vaccines and immunisations are highlighted in the new handbook?;National;"The new handbook is the result of the consultation process undertaken by the health and social services committee. It is reviewed regularly, and reassessment will occur when necessary.<|endoftext|>

"
May I finish my point of order now?;Labour;I want to finish by saying that, as the member for Rangiora, I was very concerned that the Minister had not put it forward to the select committee. I want to know how she will proceed. It is not good enough that the Minister of Transport does not get up and explain to the House why we are debating this Bill, and why we are debating it in this Parliament. It is very interesting that the Minister has not put it forward to a select committee. It is a very
May I finish my point of order now?;National;As the member for Whangarei said, the Minister of Transport and the member for Otaki, they are well known around the country for their self-restraint. I want to thank the member for Tauranga for the way she has conducted the debate. I want to thank the member for Western Maori for his good work in the House, and for the way he has conducted it. I want to thank the member for St. Kilda for the way he has conducted it.
What is the total tonnage of kina that has been taken out of the Fiordland area under the kina programme?;Labour;The total tonnage of kina has been taken out of the area and is being spent on the development of the kina-technology programme. That is exactly what happened. The Minister of Kōrero, who has been visiting the area, is a former Minister of Education who has been a passionate advocate of education. He has worked tirelessly for the education of our children, and has consistently led the way in education in the country. He has been a strong supporter of education and has supported education
What is the total tonnage of kina that has been taken out of the Fiordland area under the kina programme?;National;"The total tonnage of kina taken out of the Fiordland area has been about the same as was taken out of the Auckland area under an earlier programme. There has been, a reduction in the number of kina hapū in the area compared with the number taken out of the Auckland area.<|endoftext|>

"
Does the member withdraw that vote?;Labour;"It is an answer to a question.<|endoftext|>

"
Does the member withdraw that vote?;National;"The member should think again before he writes another part of the question. The member should think again before he writes another part of the question. The member is entitled to his opinion, but I suggest that he withdraw completely.<|endoftext|>

"
How many letters to people so identified have been sent out?;Labour;"I am not at liberty to give a figure, but it is certainly a substantial number.<|endoftext|>

"
How many letters to people so identified have been sent out?;National;The total number of letters sent out so identified is not known, but the total number of people so identified is not known. The number of people so identified is much higher than that. The number of people so identified is in the thousands. It is not known how many people are so identified. I understand that the number of people so identified is 5,000, and I think it is probably not the number that the Government is taking the lowest estimate of at all. So we have to ask the
