question;party;answer
What about the people who take the water further downstream and you’ve put your hands in it?;Labour;I've done that. I have not put my hands in it, but I shall come back to that later. I'm not going to say that the Bill is good or bad. I think it is a sensible one. I am deeply concerned that the member who has just resumed his seat, and the member for Auckland Central, should be asking precisely that question. He is the main Opposition spokesperson on water. He is a real problem. He has never had the honourable life of the member for
What about the people who take the water further downstream and you’ve put your hands in it?;National;So it is about as far out as the Tasman. There is some fresh water, and it is not as pristine as what we see in the village of Nauru, which has water that is more than 10 times the amount that is available in the village of Whangarei, which has water that is about 18 times. There is no question that the water supplies in the Urito-Tainui area are not pristine but it is a good thing that the water supply is there and
Are you seeking a call, Mr Simcock?;Labour;I am seeking a call. I am prepared to join with my colleagues, and my colleagues on the other side of the House, to discuss the legislation. The member opposite needs to understand that the select committee process will determine whether it is a good thing, or a bad thing, or what result that legislation will achieve. This legislation will create an uncertainty about the status of the Government’s legislative programme, and I challenge the member to consider whether, as the bill states, he or she would
Are you seeking a call, Mr Simcock?;National;"I am seeking a call, and I am waiting.<|endoftext|>

"
Michael Cullen said it was temporary, What's the answer today?;Labour;"The answer today is that it had been in place since the member for Auckland Central had been the Chairman of the Transport and Environment Committee. I think that is a pretty good answer. I have two other points to make in response to the question. I have heard that the Government has been asking questions about the business case, or the business plan, of the Minister, and I am interested in that.<|endoftext|>

"
Michael Cullen said it was temporary, What's the answer today?;National;The answer to that is the same as what we had answered earlier. The Administrative Appeals Tribunal has ruled that the Minister’s statement that the Tribunal had reviewed its decision was not correct. I shall come to that later. The existing system is now in the form of a notification form, and is now being reviewed. The Minister’s statement that the Tribunal had reviewed its decision was incorrect and the Administrative Appeals Tribunal has ruled that it is. I want to say just one thing. I want
What else is the Government doing to protect consumers and promote competition?;Labour;I have just told the House the number of New Zealanders who have lost their jobs, the number of New Zealanders who have had to do a round of layoff notices, and the number of New Zealanders who have had to do a round of layoff notices. I have just told the House that in the last 3 years, the number of layoff notices has increased by 4.4 percent. The number of layoff notices has increased by 4.5 percent. That is a real
What else is the Government doing to protect consumers and promote competition?;National;"This measure will ensure that the retail industry maintains its status as a leader in the industry of the retail industry. It will also ensure that the retail industry is competitive, maintains its reputation as a leader in the industry of the retail industry, and achieves the balance between being impactful and maintaining the status of the retail industry.<|endoftext|>

"
Is it available on the internet and easily obtained?;Labour;That is not available on the internet, and it is not readily available. it is certainly not available on television or electronic media. It is available in print as a paper, and it is available in electronic formats in the form of newspaper and magazine articles. It is also available in electronic formats in the form of radio programmes such as television broadcasting of radio programmes on public radio stations, and it is available in electronic formats in the form of newspapers and magazines. It is available in print, television, electronic
Is it available on the internet and easily obtained?;National;"The Department of Corrections does not have a site where people can go to and obtain information. I do not think that is a very good idea.<|endoftext|>

"
Was the Minister correct to dismiss as “political game-playing” accusations last week of prisoner violence in Mt Eden prison?;Labour;"I am not aware of violence in Mt Eden Prison. I have simply not heard of it.<|endoftext|>

"
Was the Minister correct to dismiss as “political game-playing” accusations last week of prisoner violence in Mt Eden prison?;National;The National Party is not supporting the Government’s release of the Corrections Act. The Bill sets out the guidelines for the management of the prison. It makes it clear that the management of the prison will be based on the needs of the prison, the need to secure the prisoners’ safety, security, and rehabilitation needs, and the best interests of the prisoners. The Bill provides for a statutory review of the management of the prison. The Bill sets out a review panel to be established to advise
What are the key risks the IMF identifies for the New Zealand economy, and what are the options for managing those risks?;Labour;"I am advised that there are a number of risks that New Zealand faces. In the year ended June 1991 the number of New Zealanders who were unemployed was up by 42,000. The number of New Zealanders who were unemployed was down by 37,000. The number of New Zealanders who were unemployed was up by 14,000; the number of New Zealanders who were unemployed was down by 43,000. The number of people who have been out of work for 9 months or more"
What are the key risks the IMF identifies for the New Zealand economy, and what are the options for managing those risks?;National;"The risks identified by the IMF include low growth, high unemployment, and rising debt, and will not be addressed by a Government that is prepared to take the initiative and put forward a different programme.<|endoftext|>

"
What is the value of New Zealand’s “clean, green” brand to our tourism economy?;Labour;We are proud to be part of the Clean, Green brand, which will be rolled out internationally in 2011. We are also proud to be part of the Clean, Green partnership, which will be rolled out globally in 2012. Those are just a few examples of the commitment that the Government is making to ensure our culturally-speaking New Zealand is well-informed and well-resourced. The Government is committed to ensuring our Kiwi experience is well-informed and well-resourced. We are committed
What is the value of New Zealand’s “clean, green” brand to our tourism economy?;National;The value of the brand is that it will be a valuable tool in New Zealand’s tourism campaign, and we are hopeful that it will be used to promote environmentally friendly activities and initiatives.” It is important to note that the Government clearly has confidence in the brand, which is why it is so keen to have it around in New Zealand. The Government has confidence in the brand, and it is the one that is up there in the world. I also want to make a couple of
Will the Treasurer welcome submissions from other political parties?;Labour;I am not too sure that that is the best way to go. I think that there is a greater need for the public to come to the select committee to hear the submissions. I think we need to have discussion, as this House, and I think we need to have a debate on this legislation rather than the haste that we have got going with the hearings and the submissions. I think that we need to have a debate. I think that if there is a consensus about this legislation, it is
Will the Treasurer welcome submissions from other political parties?;National;It would be very helpful if the Opposition were prepared to come up with some submissions, because the Opposition has its own issues as to what it will do. The Opposition has its own issues. It is really making a play for the next election, which will be a long time away, and the Opposition wants to get on with it. The Opposition is in the middle of its election campaign, and it is proposing a good deal of what it really wants to do. It is not ready for the debate
When did the Minister first approve a district annual plan?;Labour;"I can confirm that the plan was tabled in the House on 5 February 1998. The plan was tabled in the House on 5 February 1998, and it was reported back to the House on 4 February 1998.<|endoftext|>

"
When did the Minister first approve a district annual plan?;National;"The plan originally went for a 1 monthsly meeting. I actually have not heard any submissions about that. I have not received any quibbles from councillors about how they would like to see that plan developed. It is a very simple plan. It is not a huge plan. But it is a very short plan. It is not a plan that is going to be developed at the rate that the Government wants, when it wants it to be developed.<|endoftext|>

"
