question;party;answer
What does the IMF say are the benefits of the planned reduction in the Budget deficit?;Labour;"The IMF says that it will cut the deficit by $700 million. The New Zealand Herald says that it will cut the deficit by $400 million.<|endoftext|>

"
What does the IMF say are the benefits of the planned reduction in the Budget deficit?;National;The IMF says that the reduction in the deficit is inevitable. The IMF says that when the Government cuts spending on education and health, the losses of about $20 billion will be too much to overcome the deficit. The IMF says that the Government will run a deficit in the future. The IMF says that the Government will lose $2 billion in revenue because of this programme, so it will not be able to borrow in the future. The IMF says that the Government will lose $2 billion because it will
What further consultation has been planned with the people of Oamaru with regard to the accord?;Labour;"I have met with a number of people in Oamaru. The accord has been an issue that has been raised by people in the community, and I have been in contact with people in Wellington, and I have also been in contact with those on the other side of the debate. The accord will be rolled out over the next 2 years. It is a very important one, because it will involve more than just a few people.<|endoftext|>

"
What further consultation has been planned with the people of Oamaru with regard to the accord?;National;I have to say that we will be the first Government in the world to sign a treaty in order to go to war, and the first Government in the world to sign a treaty in order to go to war. The people of New Zealand will now have some idea of what it means. They will know that it is going to be a very significant event. They are going to be very concerned, and they are going to be very concerned that we are going to bring that change to New Zealand.
I could not quite hear-was that the bell or was it an alarm clock going off?;Labour;"It was an alarm clock going off. I am not sure who the alarm clock was going off to, but it was going off for me. I thought I might have been running out of time.<|endoftext|>

"
I could not quite hear-was that the bell or was it an alarm clock going off?;National;As I am sure I am not in the habit of saying, the alarm clock is not in the Managerial Responsibility and Performance). There are still some issues that need to be addressed. I think that the right thing to do is to put aside the comments that the member for Birkenhead made in relation to the children in the family. I think it is time for us to do more to ensure that the children in the family are well cared for and cared for by their parents and the community,
What evidence is there that a lunch programme, in addition to breakfast, is needed in low-decile schools?;Labour;There is no evidence that a lunch programme is needed in low-decile schools. The early years of children are not well cared for, and the quality of their early education is not high. One of the problems in areas like this is that it is very difficult to find evidence of the effectiveness of the lunch programme. We have seen evidence that it has the beneficial effect of reducing the number of children who are not in school and of the reduction in absenteeism and attendance problems. This is a much
What evidence is there that a lunch programme, in addition to breakfast, is needed in low-decile schools?;National;"There is a need there, both nationally and internationally. I certainly have a number of schools that are desperate for an improvement in their performance, and I think that the Government is very keen to support the lunch programme in those schools. The Government will be working with the school to ensure that the lunch programme is successful.<|endoftext|>

"
What is the purpose and what are the themes of the conference?;Labour;The purpose of the conference is to demonstrate the importance of the New Zealand Employment Service to the development of the economy. The theme is ``Rebuilding the economy'', which is the theme of the conference. It is an important theme because it is the one that the New Zealand Government is focused on. The theme is one of growth and job creation, and it is one whose introduction this year has been a little delayed. The theme is that of jobs and job growth. It is a theme that has
What is the purpose and what are the themes of the conference?;National;"The purpose and themes of the conference are to develop the profession of anaesthesiologist, to prepare the profession for future growth, and to assess the current state of the profession. The conference will focus on the current profession and on the future growth prospects of the profession.<|endoftext|>

"
Will the Minister look into a study to rejoin the Wairoa to Gisborne rail link, providing vital infrastructure to the region?;Labour;"I just want to note that the Government has taken a lot of time, and I think it is important to note, that the previous National Government, in its first Budget, brought in a number of infrastructure projects, including the Kaitara link, that have taken some time to be completed. One has to look a little for the figures.<|endoftext|>

"
Will the Minister look into a study to rejoin the Wairoa to Gisborne rail link, providing vital infrastructure to the region?;National;I am aware of that, and we are doing that study. I am also aware that the member for Whangarei has been engaged in that project, which is a matter of great interest to many of us in the region. There is an important element of regional transport that does not receive the attention that either the member for Kaikohe or my colleague Dr Nick Smith has focussed on, and that is the provision of transport services to the villages of Wairoa and Gisborne.
When is it likely that the backlog of deferred maintenance will be cleared?;Labour;"My colleague and I are working to get it cleared. The backlog is expected to be cleared by April 2008. At the moment I am talking about the backlog of deferred maintenance. We will be getting a new system for deferring maintenance. The backlog is continuing to grow in the backlog area, and we are looking to clear it up. We expect that backlog will be cleared by February this year.<|endoftext|>

"
When is it likely that the backlog of deferred maintenance will be cleared?;National;"The backlog of deferred maintenance is expected to be cleared by September 1992. The backlog of deferred maintenance is expected to be cleared by September 1993.<|endoftext|>

"
What are the Government’s infrastructure spending plans for the next 5 years?;Labour;"The Government’s plan for the next 5 years is to spend an extra $1 billion on roads.<|endoftext|>

"
What are the Government’s infrastructure spending plans for the next 5 years?;National;The Government has given this country a plan. The Government has given New Zealand a plan. We have a plan. We have a plan for the future. We have a plan for the economy. We have a plan for the environment. We have a plan for health. We have a plan for education and infrastructure. We have a plan for the economy. We have a plan for the environment. We have a plan for health. We have a plan for education. We have a plan for the economy
-as “useless”, and “a tragedy for New Zealand”?;Labour;He is a Labour member of Parliament, and I was not surprised, that he was not in Parliament when the legislation was introduced. He is a Labour member of Parliament. I was surprised when I heard the member for Selwyn, the member for Maramarua, the member for Papakura, and the member for Papakura, and I was surprised when I heard that the member for Selwyn was not in Parliament when the legislation was introduced. The member for Papakura was not in Parliament when the
-as “useless”, and “a tragedy for New Zealand”?;National;I have to say that the National Party’s stance on this is uppity. It is the National Party's position that “useless” will be a tragedy for New Zealand. The National Party's position is that, as a result of the introduction of the bill, and as a result of the discussion around the bill as introduced, the days of Tom Hills may be numbered. It is the National Party’s position that Tom Hills will not be a tragedy for New
Can I clarify that it is also a multiple-call debate?;Labour;I think you are asking the question that is being asked here today. You have asked the question, and I have answered it. The member wants to know whether that means that the Government is prepared to make a decision whether it will stand by its word and not even provide a choice, the member has asked that question, and I have answered it. The Government has a simple answer today. It is to give a choice. the Government should not be the only party in Parliament, which it is now
Can I clarify that it is also a multiple-call debate?;National;"That is correct. It is not a multi-call debate.<|endoftext|>

"
