question;party;answer
Does the member ever get sick of talking New Zealand down?;Labour;"I can get sick of it, but I am not sick. I am happy to go on the front bench and take the calls.<|endoftext|>

"
Does the member ever get sick of talking New Zealand down?;National;"I’ve got a great deal of respect for the member, but I’m not quite sure what it is. I think he should be back in Tauranga.<|endoftext|>

"
Does the member have a further supplementary?;Labour;"I have a supplementary, because I think it is important that the member actually reads the bill. I am sure the member is deliberately trying to mislead the House and the public. I think that is very important. I have a supplementary on the table to assist the member.<|endoftext|>

"
Does the member have a further supplementary?;National;I have a supplementary, but I want to say that I think it is important that we keep in mind that this bill is a necessary piece of legislation. We have listened to this Bill for some time. I consider it to be a timely piece of legislation. It is one of the two pieces of legislation that we are debating tonight, and I think it is important that we keep in mind that this is a necessary piece of legislation. I think it is absolutely essential that we make sure that we hear
How will the Government ensure New Zealand retains its strong fiscal position?;Labour;I am delighted to report that the Government's fiscal position is sound. I am glad to see the Government spending more on public services. We are doing a good job, and the Minister of Finance is doing a good job. The Government's confidence in the economy is absolutely fantastic. People have confidence in the Government. They have confidence that the next Government will make better decisions in the future. They have confidence that we have a Government that will give them certainty and will give New Zealanders certainty. I
How will the Government ensure New Zealand retains its strong fiscal position?;National;"The Government will be committed to supporting the Reserve Bank's policy of supporting moderate growth in the economy.<|endoftext|>

"
Is the proposal to amend the 43-metre rule likely to affect the sustainability of New Zealand's fishery?;Labour;"The proposal does not have any impact on the sustainability of New Zealand's fishery.<|endoftext|>

"
Is the proposal to amend the 43-metre rule likely to affect the sustainability of New Zealand's fishery?;National;"The proposal to amend the 43-metre rule from 2 March of this year is expected to significantly reduce the fishery's sustainability.<|endoftext|>

"
The member is not challenging my ruling, is he?;Labour;"On behalf of the member, I would like to say that I am not challenging the fact that the member for St. Kilda did not raise a grievance. It was raised in the House, and I have here the details of the letter.<|endoftext|>

"
The member is not challenging my ruling, is he?;National;It is not a challenge to my ruling, and I want to give him some credit for taking the call on this legislation. I have to say that I am not really sure that we are in a position to report this legislation, because it is not a major piece of legislation. It is a very small piece of legislation, and I think it is a really good one. I think that it is a really important piece of legislation. I think that it is very timely to introduce it, as we
Will those frequencies continue to be available to Aotearoa Radio?;Labour;"The traffic monitoring system will continue to be available to Aotearoa Radio to enable the public to be kept informed of the movement of aircraft in the Wellington area. I offer the member for Napier a detailed explanation of the traffic monitoring system.<|endoftext|>

"
Will those frequencies continue to be available to Aotearoa Radio?;National;"The frequencies are not available to Aotearoa Radio. The Government has asked Aotearoa Radio to look at a new approach to its business. It has asked it to consider a number of options, and it is one of many options that may be available to the company. I have made it clear to Aotearoa Radio that it will be required to consider a number of options, if it is to continue operating as it is presently doing.<|endoftext|>

"
With potential to provide jobs for New Zealanders?;Labour;The Government has said that by the end of this year. We have said that by the end of this year. I have been saying that we will have more than 300,000 new jobs in the next year. Again, that is what the Government is saying. The Government has said that it wants to have a low, cost, export economy. It has said that it wants to have a low-cost, export economy, but the facts tell us that that is not the case. We have
With potential to provide jobs for New Zealanders?;National;As the member for Papatoetoe, the member who has just resumed his seat, I congratulate you very much, I congratulate the member for Papatoetoe, and I congratulate the member for Auckland Central. The member for Auckland Central is a man of principle and policy, and has done a great deal of work. He was a member of the National Government in the 1980s, and is now a member of the Labour Party. He has been a member of the National Government for some time
Does that mean that when there is a changeover of Speakers, one cannot have that right?;Labour;I am not sure that that is the case. The Bill does not give the right to second, third, and fourth speakers. It gives it to members who are not senior speakers. It gives it to members who are not senior speakers who are sitting on the Standing Orders Committee. I have the honourable member for Eastern Bay of Islands saying
Does that mean that when there is a changeover of Speakers, one cannot have that right?;National;That is what it means. It would be very difficult to have any other right. That covers the right of the member for Papatoetoe to speak in the House. It covers the right of the member for Napier to speak in the House. It covers the right of the member for Papatoetoe to speak in the House. I have none of the rights that members of the House have. I do not have any rights. I do not have any of the rights that members of
What are the chief executives supposed to do at the public meetings?;Labour;The chief executives are the people who are in charge of the operations of the ministry. They are in charge of the communications, the branding, and the procurement of goods, so that they can be re-evaluated. They are the people who hold the portfolio. They are the people who actually run the ministry. They can be replaced by the Government, and they cannot be replaced by the Opposition. We have a major problem, because the Government is saying to the public
What are the chief executives supposed to do at the public meetings?;National;The chiefs of the Department of Conservation are making a difference to the quality of life for our beautiful country. The department's staff are doing something that has not been done before, and that is to be able to report on the health status of our people. We have received a report on the health status of our people, and it states that we are doing very, very well. I commend the Department of Conservation to be a good department which is sending a clear message to the National Party that we are
Why didn't the member see the Minister on Monday before the tenders closed today?;Labour;"The member is not aware of the tenders. The Government is putting off the consideration of the matter until after the election. It is important that we do this work, because otherwise it might not happen.<|endoftext|>

"
Why didn't the member see the Minister on Monday before the tenders closed today?;National;"It was a very interesting question. I think the member has just been to the Minister’s office. I think you are in for an interesting briefing.<|endoftext|>

"
