question;party;answer
Is the Minister required to table the whole document as well?;Labour;"I have it in front of me. The Minister is required to table the entire document.<|endoftext|>

"
Is the Minister required to table the whole document as well?;National;"I am not aware of that.<|endoftext|>

"
What the hell is the member talking about?;Labour;He is talking about the Opposition's policy. I will be the first to say that I do not believe that the Opposition's policy is a better policy than the National Government’s policy. The members are simply saying that the National Government's policy is a better policy. That is their position. I cannot see any other difference between the National Government’s policy and the Opposition’s policy. The Leader of the Opposition has said that the Opposition is for health, that the National Government
What the hell is the member talking about?;National;I am speaking from the perspective of the member for Tarawera and not as a member of the House. I have got some questions to answer. I want to talk briefly about the issue of the marine environment. The member for Maramarua asked the question of the member for West Coast, how the Minister could say the legislation was the best that had ever been done. That is absolutely untrue. The Minister is not here, but he was busy saying that the legislation was the best legislation that had
They’ve sent the C-team down tonight, haven’t they?;Labour;They’ve sent the C-team down to look at the vulnerability of the community of this country. I’m not going to comment on that because I am not a member of the select committee, but I am going to say that I think we have got a couple of areas of concern here. One is that we have got some people who have been affected by the recent earthquakes in the North Island who are still coping with the aftermath, but unfortunately, they are not the majority of
They’ve sent the C-team down tonight, haven’t they?;National;"I’m talking to the representative for the North Island electorate.<|endoftext|>

"
Will the proposed Auckland Area Health Board include the south Auckland area?;Labour;"I am advised that the proposed Auckland Area Health Board will include the south Auckland area. That is a huge improvement on the current system.<|endoftext|>

"
Will the proposed Auckland Area Health Board include the south Auckland area?;National;"The council will be of a much larger size than the South Auckland area, which I am sure it will be. We are not talking about the same area. The South Auckland area will have a much larger community of patients, and I think that will help make the system more attractive to attract patients. The rural coverage will be much bigger than the rural coverage in the south Auckland area. The new system will be based on the health system.<|endoftext|>

"
At the moment I think we are still limited to the four 5-minute calls, we took the limit off the number of calls, did we not?;Labour;I say to the member for Palmerston North that I think it is a simple matter of how many minutes the member for New Zealand First will have. I think that is the simplest way to do it. If the member thinks he or she is on to something, he or she cannot possibly get it off the back of the envelope. I think it is a really simple matter. I think it is the same as the member for Auckland Central. We have had a number of questions on this subject.
At the moment I think we are still limited to the four 5-minute calls, we took the limit off the number of calls, did we not?;National;I am not sure whether that is the case with that provision, but we have not had any difficulty with that. It was a practical necessity, and it is something that has been taken into consideration by a number of people who have provided input into the process. I think we have been able to achieve a very good result. The Opposition is again saying that there is not enough time for a debate, if one is talking about the reduction of the number of calls. I think that is a practical necessity
What is the Government doing to encourage health professionals to work in rural areas?;Labour;I am pleased to say that the Government is working very hard in rural areas to ensure that health professionals are well trained, that they are able to support the health needs of their communities, and that they are in the hands of experienced and caring staff who can gain expertise in their areas of expertise. The Government is facilitating the recruitment of health professionals by funding the Department of Labour where it is needed most. It is also providing more and more training opportunities for health professionals. The Government is providing more and more
What is the Government doing to encourage health professionals to work in rural areas?;National;As I said earlier, I think that it is a great shame that the Government is not providing that incentive. I cannot understand why it is not giving it. If the Government is going to put in a subsidy, which I think is a very good idea, what better way to do it than to give it to the people who have the most to gain by going into rural areas? When I was out in the West Coast I saw the best sign that there is a rural sector in New Zealand,
I am not sure that was a question, but does the right honourable Prime Minister wish to comment?;Labour;"I do not know that I have the right honourable Prime Minister to comment.<|endoftext|>

"
I am not sure that was a question, but does the right honourable Prime Minister wish to comment?;National;"I think the right honourable Prime Minister wishes to comment.<|endoftext|>

"
The member would like me to find the figure?;Labour;Don't worry about it, I will find it. I will find it. I hear the member for Maramarua talking about the figures. I hear him talk about the figures. I wonder what that figure is, because I am sure it is not good enough, I wonder what that figure is, because the member for Tamaki has it in front of him. He has it at the front of his mind. I am sure it is not good enough, because the numbers are not good enough
The member would like me to find the figure?;National;I have just been told the figure. It is $88,000. I have met three or four people who are from Limerick, who have a qualification in a trade. They have been employed in these industries, and they are paid a wage and salary rate. They are the people who have been successful and who have been successful in their industry, and who have managed their finances a little better than the average wage earner. I have been told that the average wage earner in that industry
What is the source of the debate pack?;Labour;As the member for Ohariu, who said that we should have had a package of taxes that was not particularly different from what we have had this year, it is interesting that the member who was speaking claimed that the Government was introducing an economic package that had been well received nationally. The facts show that it was well received. One of the most remarkable features of the session was the discussion on the GST Bill. The discussion was as follows
What is the source of the debate pack?;National;"The comment that has been made in the debate is that the Government is undertaking a review of the Department of Conservation. I do not know whether that is correct, but I am sure that the present Minister has the questions laid out for him.<|endoftext|>

"
How many times are you going to interrupt my speech?;Labour;"I have just resumed my seat after sitting for 12 months.<|endoftext|>

"
How many times are you going to interrupt my speech?;National;I shall just give you an example. The member for Whangarei asked just how many times she had waited for a member of the House to finish his speech. I have asked you how many times she has waited. I have asked you how many times she has waited. If you are going to interrupt me, I suggest that you go to a local party conference or a national party conference, where a member or a member of the National Party is sitting there. I have a question that is
