question;party;answer
Will either the purchase or construction of KiwiBuild houses be subsidised?;Labour;I would have thought that it would be a very good idea to have been able to get a guarantee from the Minister that the houses are not to be privatised. It is an interesting point. I should say that the Government, as is the case in other areas of development, is investing in good faith. It is considering the area of civil engineering, and it is considering the area of urban development. It is considering the area of land from which the Government wants to build, and the amount of
Will either the purchase or construction of KiwiBuild houses be subsidised?;National;"This is a very good question. One of the things we have done here is not actually subsidise construction. That is because we have saved that money. It is because the Government has put in place a regime that will schedule some of the construction of KiwiBuild houses after the end of the financial year. It will give a little bit of some extra cash to KiwiBuild.<|endoftext|>

"
Does the Government maintain the view that emergency legislation to facilitate the pipeline construction is still necessary?;Labour;"I have to say that it has been quite clear that if one looks at the history of this subject, it is not too late.<|endoftext|>

"
Does the Government maintain the view that emergency legislation to facilitate the pipeline construction is still necessary?;National;"The Government is maintaining the view that the pipeline should be built. The Minister has indicated that he is not interested in going to the select committee on the issue of the pipeline. As I have already indicated, the Minister cannot be trusted. He has said that the National party supports the pipeline. I am expected to support the pipeline.<|endoftext|>

"
Have heads of mission been called back to New Zealand to a meeting in Wellington on 2 April, what is the cost of doing that?;Labour;The head of mission has been called back to New Zealand to assist with the meeting. I think that shows that the Prime Minister could be making a big fuss about some of the issues. The Prime Minister has indicated to the people of New Zealand that he will be looking at some of the issues before the House next week. It is good to see that the Prime Minister is interested in the issues that are important to New Zealand. I hope that the Prime Minister and the Prime Minister will talk to the people
Have heads of mission been called back to New Zealand to a meeting in Wellington on 2 April, what is the cost of doing that?;National;"Our delegation has been called back to Wellington to meet with Union leaders to discuss our concerns around the health of our people. I have been in Wellington today to meet with our regional health authorities and liaise with the union, with the various unions in the region. We will be meeting with our health officials in Wellington on 2 April. This information will be given to the health authorities by the office of the Health Minister and the union leaders.<|endoftext|>

"
In its report on New Zealand, what did the OECD say about its views on the tax system in this country?;Labour;"The OECD says that the tax system is not as aggressive and as austere as the National Government would have us believe. It says that the Government's tax policy is better than that of the National Government.<|endoftext|>

"
In its report on New Zealand, what did the OECD say about its views on the tax system in this country?;National;They say it is not fair that New Zealand is facing the tax burden of a developing country. At the end of the day New Zealand is a developing country. The OECD says that New Zealand must not penalise people who are already better off. The OECD says that New Zealand is not facing the tax burden of a developing country. That is not fair. New Zealand faces the tax burden of a developing country, as the OECD said. New Zealand faces it because it is a developing country. New Zealand
What moves are being made to address the backlog of outstanding deferred maintenance in New Zealand schools?;Labour;That is a good question. One of the key initiatives under the National Government is to close the gap between the average age of first-year students at the beginning of this term and between the average age of first-year students at the beginning of this term and the peak of enrolment. The measure provides a reduction of 15,000 students over the course of this term and beyond. We are also encouraging families to enrol. That will be achieved by the closing of the gaps between younger and older students
What moves are being made to address the backlog of outstanding deferred maintenance in New Zealand schools?;National;"We are working hard to ensure that the backlog of deferred maintenance in those schools is addressed.<|endoftext|>

"
How does the Prime Minister think the Minister of Police feels being called a petal by a toadstool?;Labour;"He is asking me to come along and do his bidding. I shall come along and do his bidding.<|endoftext|>

"
How does the Prime Minister think the Minister of Police feels being called a petal by a toadstool?;National;"I think it is a bit like that. I think it is a bit like that, and it is typical of the way that the Opposition gets on with its policy, which is to find a point of order in order to find some use for it.<|endoftext|>

"
Would the Minister sympathise with a negative mind, that it is, nearly twice that, at $111,334,000,000?;Labour;"I think it would be quite surprising to hear the Minister of Finance say that his fellow National Party members are so much better off than the people of New Zealand. The Minister of Finance knows that. He knows that the people of New Zealand are in good hands and he has done a great job in such a short time as to avoid the angry reaction that the National Party was whingeing about.<|endoftext|>

"
Would the Minister sympathise with a negative mind, that it is, nearly twice that, at $111,334,000,000?;National;We will not have to wait for the next election! The next election will be held in 1999. That is when the New Zealand public will have to decide whether they will continue to support the National Party or whether they will reject the Labour Party. As I said to the Labour members, who are the losers, I think that the New Zealand public will have to decide by 5 December whether they will continue to support the Labour Party or whether they will reject the National Party. I think that the Labour Party
I am sorry-is this a fresh point of order?;Labour;Well, that is more than just a new point of order. For the benefit of the member, I remind the Minister of the position she has taken in relation to the decision to cut funding from the Department of Social Welfare. She, was quoted in the New Zealand Herald of 28 July 1997 as saying
I am sorry-is this a fresh point of order?;National;"It is a fresh point of order. I am not sure that the member is trying to say that that is not a fresh point of order. It is not a fresh point of order. It is a point of order that I have to be aware of. I am not aware of that. If the member wants to take that point of order, she can say that I am not aware that it is a fresh point of order.<|endoftext|>

"
Is it to be the second reading for the Banking and Insolvency Bill?;Labour;It is the second reading for the Banking and Insolvency Bill. It is an important part of the work of the select committee. The bill provides for a statutory regime for the depositaries and (bankers) of the New Zealand Banking Act. It provides for the depositary and the chief executive of the New Zealand Banking Corporation. it provides for the depositary and chief executive of the New Zealand Banking Corporation, and it provides for the depositary and the chief executive of the New Zealand Banking
Is it to be the second reading for the Banking and Insolvency Bill?;National;The Banking and Insolvency Bill was referred to the Commerce Committee, and it was reported back in May 2016. The Commerce Committee met on a Saturday morning, and the committee did not meet for 6 1/2 weeks, and the select committee did not meet for 4 1/2 weeks. I hope that the Commerce Committee will be able to report back the bill on time. It is recommended by the committee that the Banking and Insolvency Bill be amended to the Banking and Insol
Is there any objection to that course being followed?;Labour;I want to make a couple of remarks in relation to this bill. I think there is a little bit of a thing called the Windmillers Amendment Bill, but I think it is probably better to call it the Windmillers Amendment Bill. The other thing that I do want to do is to put to rest the question of whether the National Party supports this bill. I think that is the most important thing that we have to say in this debate. I think it is very important that we say
Is there any objection to that course being followed?;National;"I do not think it is a matter of objection to the course being followed; the Government is moving to close the gap between the rich and the poor. It is moving to close the gap between the wealthy and the poor. I am delighted with that course, I can see it is one of the best outcomes we can get from our economy. I can see that we are moving from a recession to a recovery. We are moving from a recession to a recovery. We are moving from a recession to"
