question;party;answer
What progress has been made on the procurement of new electric trains for Auckland’s commuter rail system?;Labour;The new trains will be able to carry more passengers at a lower cost than the current fleet. A new more efficient train network will increase the amount of time available for commuting on the rail network, and will highlight the success of regional transport in Auckland. The new trains will significantly reduce the number of trains that need to be built, and will significantly reduce the number of trains that need to be replaced, as well as reduce the number of train accidents in the Auckland area.<|endoftext|>
What progress has been made on the procurement of new electric trains for Auckland’s commuter rail system?;National;it is important, because there is no doubt that the new electric trains will bring significant improvements to the passenger experience. The number of passenger trains that can be easily transported on the new electric trains will be approximately the same as the number of passenger trains that can be easily transported on the current electric trains. The new trains will allow approximately one-third of the travelling time, or 1,200 kilometres, to be taken on the existing trains. The number of passengers that will be able to travel on the
Does the Government support a top marginal rate of 49 percent?;Labour;I am sure that it would be good to hear the National Party members who think it is a good idea. I think it is the best thing that has happened to the education of this country in the last 30 years. I think that this Government’s experience of economic management has been to set the level of rates, to set the number of days children leave school, and to set the number of hours in a year. That is good governance. I believe that those are the key lessons that
Does the Government support a top marginal rate of 49 percent?;National;Let me give you an example of what is happening. In Wellington, the charge on superannuation has gone up by more than 40 percent in the last 10 years. In Auckland, where I am based, the rate of superannuation is up by $3.38 a week. So that is a 60 percent increase in the last 10 years. That is the rate of superannuation, and that is what is happening in New Zealand. How can we be in New Zealand for the good
What investment has the Government made over the last 7 years in school property?;Labour;"The Government has invested $4.7 million in social housing in the past 6 months, in the last 5 years, and in the past 4 years. The Government has also invested in the future in the form of strong local government, which has grown from a small Government to a small Government of about 1,000, and it continues to grow.<|endoftext|>

"
What investment has the Government made over the last 7 years in school property?;National;"The Government has invested $1.8 million in resale properties. That investment is for $1 million. That is a good investment for the community, as it allows us to provide more affordable housing for those families who have been identified by the previous speaker as being in need.<|endoftext|>

"
Is there anything that you didn’t invent?;Labour;"I have invented nothing. I do not believe that the member should be addressing the question, deliberately misrepresenting it.<|endoftext|>

"
Is there anything that you didn’t invent?;National;"I don’t invent anything. I simply write it down so it can be used in the House. It is a normal thing to do, and so I’m not going to argue that it was a new invention. I do not think it is a new invention, but I think that it has been around since the 1970s.<|endoftext|>

"
Has the amendment to clause 9, which was approved, been put?;Labour;That amendment was rejected by the select committee. We are not seeing the benefit of that amendment. I would like to continue with a very short but important reminder of the importance of the legislation. The member has referred to the 10-year strategy. No doubt the Minister of Transport will give us a report by the end of the year. If that report is going to be made available to the select committee, then the select committee will have a very interesting report on it. I have a suggestion for the
Has the amendment to clause 9, which was approved, been put?;National;"The amendment was first reported back to the committee on 29 October.<|endoftext|>

"
What has that got to do with salary increases?;Labour;What has that got to do with salary increases? I think some of the most significant changes in the last 20 or 30 years have been in terms of the way that the Government has set salaries and the way that the Government has set up the work-force, and this has been a very good year. The Government has a very good body of work. I think it has been very good in the last 2 years. The only thing that has been quite odd for me has been the lack of emphasis
What has that got to do with salary increases?;National;The Government has been exempted from the Budget freeze. I am sure that this bill will deal with that, but I do not think that this will be as well received as it was, because we are talking about a Government that does not think it can deliver the reforms that this Government is proposing, because of the fact that National has taken control of the Government. It has not been able to deliver on its promises, and it has not been able to deliver on its promises in a way that will actually
When will the committee resolve to report back the Maori Affairs Bill to the House?;Labour;it is a matter of some urgency. I know that the member for Yaldhurst is concerned about the Maori Affairs Bill, but I do not think that he will be able to take that for granted for very long. I think that the House should put its mind on something else, but the member for Yaldhurst will not be able to say that that is not the purpose of the Bill. He will not be able to say that the Bill is not the Bill because the Government has taken
When will the committee resolve to report back the Maori Affairs Bill to the House?;National;"I have indicated that I will take that report to the House on or before 21 March. I intend to do so because I believe that until that time the committee has no choice but to report on the Maori Affairs Bill.<|endoftext|>

"
What is the Government doing to support young people in youth development programmes?;Labour;"We are currently taking a number of initiatives to support young people in their development. We are supporting the Gifted and Travelling programme. As part of the Gifted and Travelling programme, we are looking at the most vulnerable and at the most disadvantaged youth in our community. We are going to be working with them to make sure that these young people are able to meet their potential.<|endoftext|>

"
What is the Government doing to support young people in youth development programmes?;National;"I am happy to provide the details of that programme if the member wants them to be made available to the agency.<|endoftext|>

"
Has Mana Motuhake left the Alliance?;Labour;"The member is asking a question.<|endoftext|>

"
Has Mana Motuhake left the Alliance?;National;It is about time he left the Alliance, because he is going to be the next Opposition speaker here. Was he not speaking during the debate this afternoon? Was he not speaking because he wants to be the next Opposition speaker? He has shown no leadership, no depth, no vigour, and no imagination. He stands there as a depository of sound and wisdom, and he is trying to be a figurehead, sort of. He is a figurehead, sort of. He is the most
Has the Minister received any submissions from the Plunket Society about the use of baby-walkers?;Labour;"I have received one submission, from a family who had a baby with a walking stick. They were threatened by the baby's baby, who was not a walking stick, and the mother was not physically injured. That is a clear case of a baby with a walking stick and how it was handled.<|endoftext|>

"
Has the Minister received any submissions from the Plunket Society about the use of baby-walkers?;National;The Plunket Society is currently looking at the use of baby walkers. This is quite a simple piece of legislation. In the context of what we have had in the House today, the use of baby walkers is very simple. It is to remove a minor inconvenience to a mother who may not want to have her baby walked. It is very straightforward, it is quite simple, and it is quite effective in reducing the number of births that occur in New Zealand in the last few weeks.
