question;party;answer
What are you going to do about it?;Labour;"I have got a plan. It is to give a tax cut to the fortunate ones in this country, and the others who are hard-working and deserving, and it will save money by increasing the number of people in the workforce.<|endoftext|>

"
What are you going to do about it?;National;The member should read the report that was tabled in the House last week. It confirmed that there was a significant backlog of about $200 million, which is about 18,000 new cases. I would like to look at the backlog of cases that have come to courtrooms, and to see whether I can make the Government take action. I think we should be focussing on the backlog rather than the thousands of new cases. I think it would be prudent to have a small number of new
You are not putting the leave that I sought?;Labour;I seek leave of the House to move that the question be put that the question be put that the question be put that the question be put that the question be put that the question be put that the question be put that the question be put that the question be put that the question be put that the question be put that the question be put that the question be put that the question be put that the question be put that the question be put that the question be put that the question be put that the
You are not putting the leave that I sought?;National;I am not putting the leave that the member wants, because he is concerned about the proposed tax rates. He is speaking from experience. He is speaking from the experience of the member for Tauranga, because the member has come out and said what he sounds like. I have spoken to the member for Tauranga, and I have talked to him, and he has told me that members of his party are worried about the tax rate increases, because they are worried about the rates. I say
What are the penalties for the misuse of replica firearms?;Labour;The penalties are twofold. it is an offence under the new MMP system to transfer a replica firearm to another person. It is an offence to knowingly transfer a replica firearm to another person. It is a serious offence for that to be done in the course of an organised crime. It is an offence to transport a replica firearm to another person or to transport a replica firearm to anyone else. It is an offence to transfer a replica firearm to any other person or to transport a replica firearm to anyone
What are the penalties for the misuse of replica firearms?;National;The penalties for misuse of replica firearms are a range of penalties, ranging from one to eight years imprisonment and a fine of up to $10,000. This is not the same as the penalties for manufacture of replica firearms. How can the Minister possibly say that the penalties are the same when the Government is in the majority and all of the penalties are the same? The penalties for replica firearms are just as severe as the penalties for manufacture of replica firearms. The penalties for misuse of replica firearms are a
Would you like to stand and apologise please, Mr Carter?;Labour;I am sure that over the next 2 years the Minister of Social Welfare will be required to join the Labour Party. I am sure that he will want to join the Labour Party, because he will be in Government for 3 years before he can stand and say that he is for a National Government. I do not think that is a good thing. I think that is a bad thing. I think it is a bad thing to have a Government that is continually changing Government, it is a bad thing to
Would you like to stand and apologise please, Mr Carter?;National;I would like to say that I do not think that the member has ever had to apologise for her statement that she would like to cut red tape in New Zealand. I think that statements like that are used by members of the Opposition as a tool to create doubt and to create the impression that there is too much overspending. I do not think that that is necessary. We know that there is a surplus of $84 million over the year to be spent on roading, $300 million over
But surely this Bill would make it easier for them to go to cinemas?;Labour;"I am talking about the issues. I am not talking about the legislation.<|endoftext|>

"
But surely this Bill would make it easier for them to go to cinemas?;National;"The Bill will make it easier for them to go to cinemas, as I said before. The other point I should like to make is that the Minister of Transport should get off his back-benches and ask Parliament for its support.<|endoftext|>

"
What about the 37 people in John Key’s office?;Labour;"I think that we should be careful about the way in which we talk about people who are in the profession.<|endoftext|>

"
What about the 37 people in John Key’s office?;National;"The 37 people in John Key’s office are still not in his office. We are not going to hear what this member says. He was not there.<|endoftext|>

"
What has been the gain to the Road Safety Trust from the sale of personalised and investment licence plates?;Labour;The increase in the number of road safety officers since the sale of the plates is a huge gain for the trust, and we are sure that the member will be very pleased by it as well. The price of the plates is still very much below the cost of the Government's main road network, and that is a result of the Government's policy to buy back the plates. The price of the plates is still below the cost of the main road network, and that is a result of the Government's
What has been the gain to the Road Safety Trust from the sale of personalised and investment licence plates?;National;"The sale of those licence plates is a very good result. It is a wonderful thing that a member of Parliament should be able to own the road-kill. It makes a tremendous difference to the safety and welfare of our community. I am always amazed at how many of our roads are in such bad shape; how many are in such disrepair, how many are in need of improvement as a result of the sale of the plate. The road-kill has been a very good result. It is"
Is the Minister worried about the compliance rate?;Labour;"The Chief of Defence Force has told me that the rate of compliance is the same as it was in 1982. I am sure that if the member is to slip up on that issue, the Minister would be pleased to accept a report from her colleague that the rate of compliance is exactly the same as it was in 1982.<|endoftext|>

"
Is the Minister worried about the compliance rate?;National;If the Minister is worried about compliance, I am really concerned about the rate of compliance and whether it will be enough. I was the Minister responsible for the implementation of the tax legislation. I was asked to come in and explain how the system works, and I did not. I was asked to come in and explain whether it worked. I was not asked to explain the outcomes of the policy. I was not asked to explain the targets. I was asked to explain the expectations that were put in place
What steps is the Government taking to allow New Zealanders to choose our future flag?;Labour;The Government is not seeking to change our flag. I seek leave to table a letter from the New Zealand Herald dated 21 August that states
What steps is the Government taking to allow New Zealanders to choose our future flag?;National;The Government has indicated that it is looking at the issue of the flags and the colours. It is a long time since we have seen a flag that was so fully and symbolically associated with our flag, A songbird, with the words ``Don't look like a madbird!'', with the words ``Don't look like a madbird!'' with the words ``Don't look like a madbird!'', and with the words ``Don't look like a madbird!''. I
Can I just clarify that the member is not in any way disputing a ruling I have just made?;Labour;"That was not the question.<|endoftext|>

"
Can I just clarify that the member is not in any way disputing a ruling I have just made?;National;The member is not interrupting the question, so I will just go through the question in terms of the amendment to the Standing Orders. I am not justifying the decision made by the select committee. I am simply saying that there is a conflict of interest, and I think that the member can see that. I think that the Minister and the Minister of Transport have broken the Standing Orders. He may have done so inadvertently, but he was heard to say that the select committee had not studied the matter.
