question;party;answer
What will be the purpose of a national language policy?;Labour;The purpose of a national language policy is to provide greater opportunities to promote the development of New Zealand’s cultural identity as a result of language and culture. The policy is targeted to all New Zealanders, and will include a number of initiatives that promote language and culture. The two key initiatives will be the celebration of the New Zealander’s language, and the development of the New Zealand language and culture curriculum. The curriculum will include a selection of language activities and activities that are in keeping
What will be the purpose of a national language policy?;National;We will be very keen to ensure that the language used and the language used by the members that we have here today is the language of the hon. Dr Michael Cullen. the hon. Paul Coates was the chairman of the select committee that considered the Bill. I would like to congratulate the Hon. David Cunliffe on his efforts, and to thank the committee for the work that it has done. I would like to thank the select committee for the work that it has done. I would
I assume you are considering whether or not you will act on that point of order?;Labour;I would like to take a call to speak in support of the second reading of the legislation. That is the first question, so I am delighted that the member who started the debate on the other side of the House was able to interject. The second question is the question of whether there is a need for a second reading. I seek leave for the first reading of the legislation to be reported back by the House by the end of March, at which time I would like to move that the Government
I assume you are considering whether or not you will act on that point of order?;National;"I wonder whether you will inform the House whether, at the end of the day, you will take it to a select committee, or whether you will put it back into the House, with the amendment that was put by me earlier.<|endoftext|>

"
What work is being done to ensure that weight-labelling requirements for packaged goods are internationally consistent?;Labour;"The objective of the market research activities was to promote awareness of the quality and quantity of the products sold in the community, and to have a sharpening focus on market research. The Government has undertaken a review of market research activities, including the development of the new business model. The Government also intends to award a nationwide marketing award for complete market research.<|endoftext|>

"
What work is being done to ensure that weight-labelling requirements for packaged goods are internationally consistent?;National;There are a couple of things about this bill that I would like to note. It does not have a lot of teeth, and it does not have any teeth. We know that weight-labelling requirements are internationally consistent and we would like to see them international. I would like to note that the legislation, and the legislation that is currently before the House, will not address the issue of the source of the products that are used to manufacture them. The legislation has a number of technical and technical amendments
Is the document freely available already to members on the website?;Labour;In the meantime, I have it in hand, and I would like to invite members of the public who might be interested in getting a copy of it to give me a warm welcome. It is an interesting document. I believe that the Bill is very important, but I think it has got some serious issues around it. I believe that we have got it right and that it might be one of the most important amendments ever done in New Zealand. I am very pleased that we are supporting it. I
Is the document freely available already to members on the website?;National;"It is already freely available. The document is available for download on the website.<|endoftext|>

"
Would the Minister expect any State sector agencies to ask employees for a 90-day trial period?;Labour;"The Minister has no idea what people would do in 90 days.<|endoftext|>

"
Would the Minister expect any State sector agencies to ask employees for a 90-day trial period?;National;The amendment to the Bill amends the current provision that employees are required to sign two contracts when they are sent to work. It is a minor matter that has been set aside. It should be set aside. It is in the interests of fairness. I do not know whether it is in the interests of fairness, but I am not aware of any Government's proposals for a trial period. if one has a senior colleague, who is not a trained lawyer, one could say that it is in the
yes-oh, is that the only one you can quote?;Labour;"that's just the only one you can quote.<|endoftext|>

"
yes-oh, is that the only one you can quote?;National;"I am quoting from the Education Review Office report, because that is the only one that applies to you. No matter what you say.<|endoftext|>

"
How did New Zealand’s economy grow in 2011 compared with the growth in other countries?;Labour;The rate of growth in our economy was particularly strong, and it was as strong as it has been in other countries in the past. This was the fastest rate of growth in the OECD since the late 1970s. in the period from 1993 to 2002, the rate of growth in our economy increased by 4.5 percent-4.5 percent. In the period from 2001 to 2002, our economy increased by 5.4 percent. Since then, we have increased by 3.1 percent. That
How did New Zealand’s economy grow in 2011 compared with the growth in other countries?;National;"In New Zealand’s economy we have had a lot of growth, with the OECD average in 2011 at a 19.9 percent increase over the number of full-time equivalent jobs. New Zealand and other countries are doing well. The latest survey shows that New Zealand is now stronger than at any time in our history.<|endoftext|>

"
Why did you vote for Max Bradford’s bill?;Labour;I voted for the bill because the Minister of Tourism said that a decision had to be made. I think it is a big mistake for the Minister of Tourism to say that a decision has to be made. I think that the Government is so comfortable with what it is doing that it will not call a select committee. The select committee has given a decision to the Government. The Government is saying to the select committee that it wants to have the bill passed. That is what the select committee is saying.
Why did you vote for Max Bradford’s bill?;National;His bill is an interesting one. It deals with the legislation that was passed by the previous Labour Government. I do not know whether I would have voted for that legislation, but I certainly would not have voted against it. It deals with the legislation that was passed by the previous Labour Government. I do not know whether I would have voted for that legislation, but I certainly would not have voted against it. He said it was stupid. I must say I am shocked that he would say that. I
What are the economic development effects of potential Government decisions on genetic engineering?;Labour;We have heard the recommendations of the Royal Society of New Zealand, which states that, a prospective Government decision to allow genetic modification of any organisms to be produced by genetic modification could result in the introduction of genetic mutation in New Zealand and the introduction of genetic mutation in many of our species. The committee also noted in its report that the genetic modification of a species with a genetic mutation could create an environment in which genetic mutation could occur in a manner that could have significant effects on the gene pool and on the
What are the economic development effects of potential Government decisions on genetic engineering?;National;They are significant. They include the introduction of a new class of hybrid technology in New Zealand. Genetic technology is under intense scrutiny with the introduction of a new class of hybrid technology in New Zealand. It is estimated that by 2030, the cost of genetic technology will be enough to cover the shortfall in the population of New Zealand, or the population of New Zealand, by 2050. This will be equivalent to the cost of the New Zealand Land Transport Fund, to the total amount of Government expenditure of about $
If I cannot do that, would you take four bad ones?;Labour;I can do them, but you cannot do them. It would be much more efficient to make sure that that was done in the first instance, rather than sending them through the Telecommunications Corporation or the Ministry of Communications. It is a very significant matter. It is a very significant matter, The Opposition is not opposed to the Bill, but we welcome the opportunity to have a debate on it. The Opposition supports it as a reform of the Telecommunications Corporation, as one of the most successful in the world.
If I cannot do that, would you take four bad ones?;National;I cannot. I think you should be told to do it later. That is what my political opponents have told us. They say that there are too many bad ones. We have announced a reduction in the number of hospitals under a Labour-led Government. The National Opposition says that there are too many bad ones. We have announced a cut in the number of schools under a Labour-led Government. We have announced that the number of schools under a Labour-led Government is the same as under a
