question;party;answer
Is the member about to dispute my ruling?;Labour;"I have a question for her about what she said. She said that this is not necessary. I have just asked her about why she said that this is not necessary. She is now unfamiliar with the Bill. She is unfamiliar with it. She has not been briefed on it. It is not a question about what the member said.<|endoftext|>

"
Is the member about to dispute my ruling?;National;"I am an expert in that matter. We have a parliamentary committee. It is chaired by the Hon Peter Dunne. He will confirm that the member is not correct to refer to the member’s statement that the committee has a ministerial function. We have a ministerial function, which is the committee. We are all members of the committee. We are all members of the select committee.<|endoftext|>

"
What were the production costs of New Zealand Post's 1992 annual report?;Labour;I am unable to give the precise figures. I can tell the House that the production costs were around $500 million. The annual report quotes
What were the production costs of New Zealand Post's 1992 annual report?;National;New Zealand Post's annual report indicates that the cost of the New Zealand Post Corporation's 1992 annual report was $5.1 million, which is $16.5 million in 1993. This includes the cost of the New Zealand Post Corporation's marketing team, its marketing staff, and all costs for the marketing team, including its business staff, are $10 million. This is $10 million worth of expenditure, but the post office is also employing that same number of staff.<|endoftext|
What information has the Minister received on New Zealanders' attitude towards wind power?;Labour;The Government's latest report on wind power for the 2009-10 period, which was released today, states that approximately 87 percent of the electricity generated in New Zealand is currently generated by wind, and that there are projected to be 11.8 gigawatts of capacity by 2010. That is an increase of 11.8 gigawatts, on a great scale. Clearly, New Zealanders are still a long way from being able to generate electricity from wind power, and the Government is determined to continue to share
What information has the Minister received on New Zealanders' attitude towards wind power?;National;I have received a number of reports from the Wind Energy Association. These include a survey conducted in November last year that indicated that there had been much concern about wind power in New Zealand. A survey conducted earlier this year indicated that a majority of New Zealanders believed that wind power was a credible option for electricity generation. Wind energy is a very promising energy, but it does not offer the same level of operation as is offered by the electricity industry. Wind energy is not subject to the same kind of price
Are NIWA reports available to members readily?;Labour;"Both of them.<|endoftext|>

"
Are NIWA reports available to members readily?;National;"Of course I have them available. I am not surprised that, Mr Peachey, the member should have the audacity to say that I would be happy to see them. I am not surprised that the member should say that I would be happy to see them. I am surprised that he should refer to the report of the New Zealand Council of Trade Unions in his speech.<|endoftext|>

"
How many people voted for the member?;Labour;"The member of Tauranga is not on the list of people who voted for this legislation, because he did not vote for that legislation. The member himself did not vote for that legislation, because this legislation would not allow a person who was homeless to be given a home. I want to take the member some time to explain why that is the case. There is no new legislation in this legislation; it is the same as the ones that have been introduced before. The member of Tauranga was"
How many people voted for the member?;National;The member will have to wait until next year, when the House adjourns and the Government will have a smaller number of members, to get her answer a little clearer. The member asks about the number of members the Government has. I am informed that the number of members has been reduced from two to three, and that the total number of seats has been reduced from nine to eight. I have a few more questions. The member asked whether there were any additional votes on the Government side of the House
Can the Minister indicate whether any surveys of workplace safety and health systems have been undertaken?;Labour;"There are surveys. As I said in the beginning of my answer, the National Party asked workers in the Whakatau factory to fill out a questionnaire. The question was the basic question of how they were being treated. The question asked where the compensation was being paid for having to take a leave of absence in a workplace; the question about whether a worker had been on the job for a period of less than 9 months; whether a worker had been on the job for less than 6 months;"
Can the Minister indicate whether any surveys of workplace safety and health systems have been undertaken?;National;"In the first instance, we are still not sure whether the surveys of workplace safety and health systems have been undertaken. The survey was carried out by the Safety and Healthcare Commission, and it indicated that there were some problems with the safety of some public employees. The commission was concerned that some of the problems could be eliminated by the improvements in the safety of the public; it recommended that the Minister take the matter up with the Safety and Healthcare Commission and put it to the board of trustees. The Minister did"
What will the Reserve Bank of New zealand Amendment Bill enable the Reserve Bank to do to address the overvalued dollar?;Labour;The announcement by the Reserve Bank of the Bank of New Zealand's intention to guide the dollar to a lower level, as announced by the Prime Minister in his own statement, will reduce the dollar's exchange rate to about 17c. The move will enable the Reserve Bank to enable New Zealanders to benefit from lower rates rather than the current address of about 17c. It is the first time in the history of the dollar that a lower dollar has been able to be addressed by the Reserve Bank.<|
What will the Reserve Bank of New zealand Amendment Bill enable the Reserve Bank to do to address the overvalued dollar?;National;"The plan is to increase the target interest rate to 60 percent by the end of this year. That will enable us to inject some cash into the economy to support business confidence.<|endoftext|>

"
Can I take from your ruling that these resignations are an ongoing matter?;Labour;"I have been advised that the resignations have not been undertaken on a regular basis. I entertain no intention to resign, and I intend to continue to have an active role in this House.<|endoftext|>

"
Can I take from your ruling that these resignations are an ongoing matter?;National;"I shall not answer that question, I merely ask you to give me the explanation.<|endoftext|>

"
How have those initiatives contributed to the growth in exports of agricultural products?;Labour;The growth in exports has been encouraging. The export sector is the core of our operations, the main engine of our exports, and we have been quite pleased with the results so far, and with the export sector, the member for Island Bay asked about the effect of the Renewable Energy Initiative, which has had significant support from the member for Tarawera, who has helped that member get to his feet and make himself heard. The Renewable Energy Initiative is a very good opportunity for New Zealand,
How have those initiatives contributed to the growth in exports of agricultural products?;National;The initiatives that have been undertaken in the past, and that are expected to be carried through in the future, are particularly encouraging for export crops. They have included a large increase in the number of export seed companies, which include seed companies that are often based in China, because of the increase in seed companies and the increased number of seed companies that have been established in Taiwan, the United States, France, and other countries. There is a significant increase in seed companies from our own agricultural industry, and
What does Treasury’s 2018 Investment Statement say about the condition of the public health estate?;Labour;"I am grateful to the member for Selwyn for the opportunity to speak about the status of the public health estate, and also to discuss the state of the public health enterprise, as well as the status of the public health enterprise in respect of the problems that face it.<|endoftext|>

"
What does Treasury’s 2018 Investment Statement say about the condition of the public health estate?;National;"I think it would be a good idea if Mr Makaurau spoke to the Minister. But the Minister would tell him what the prices are.<|endoftext|>

"
