question;party;answer
What was the unemployment rate for young people aged 15 to 19 years in September 1990 compared with September 1992?;Labour;"The unemployment rate for young people aged 15 to 19 years in September 1990 compared with September 1992 is 4.3 percent, compared with 4.3 percent in September 1992. In September 1990, there was a slight decrease in the unemployment rate, to 4.3 percent. In September 1992 there was a slight increase, to 5.1 percent.<|endoftext|>

"
What was the unemployment rate for young people aged 15 to 19 years in September 1990 compared with September 1992?;National;The unemployment rate for young people aged 15 to 19 years in September 1990 compared with September 1992 was 6.5 percent. That is the unemployment rate for young people aged 15 to 19 years of 15 to 19, olds. That figure is down from the number of young people aged 15 to 19 years who were unemployed in September 1992. That is an improvement. The unemployment rate for young people aged 15 to 19 was at 5.8 percent in September 1990, and it was at 5.9 percent in
Can I finish off my point of order?;Labour;The member for Ohariu has been wasting his time. That was a very, very short contribution, but I have to say that it is particularly sad that he has not been able to finish it. I must say that I am pleased to see that he is not here. I am not quite sure where he is going to be, and I think that he should be here, because today he was doing a bit of making-up with the National Party members. He was trying to show how
Can I finish off my point of order?;National;"unless the member can give me the information I need, and if there is any difference between this bill and the other one, I would say that it is the one that is now before the House.<|endoftext|>

"
How much of the total revenue of the Southern Regional Health Authority is now used to contract with private providers?;Labour;I say to the member that there is a great deal of borrowing made by the Southern Regional Health Authority. The average annual turnover of staff in the service is $1,100. The Southern Regional Health Authority has recently had a tender for a contract with private providers. That has resulted in some of the lowest turnover figures in the health service as a whole. This is a business in the north, and not a business in the south. The turnover figures are abysmal, and this is a business
How much of the total revenue of the Southern Regional Health Authority is now used to contract with private providers?;National;"The total income from the Southern Regional Health Authority is now used to contract with private providers. That is the kind of policy that has been achieved by the last Government; it is based on the principle"
The Prime Minister’s saying this?;Labour;In the vote of confidence of New Zealand in the current Government, in the membership of the House, and in the confidence of Parliament, I suggest that the Prime Minister’s statement is not quite correct. Her statement was that the Government is delivering better results. I think that is quite a different thing from the Government’s record. It is delivering better results. There is a Minister of the Prime Minister, who is now saying that the Government is delivering better results, and we know that
The Prime Minister’s saying this?;National;The Prime Minister is asking you to go back and get a fresh perspective on the issues. If you are looking for some facts, where there have been some problems in New Zealand, I am sure that your question is the perfect place to start. The Prime Minister is saying that the New Zealand Post is being sold off. What does that indicate? What it tells me is that the Government is not concerned about the future of the New Zealand Post Corporation. The Government is not focused on the future of the
Did Nanaia Mahuta vote for this bill?;Labour;The member is directing you to a different answer, and I shall take one from that. I was in the Chamber when the member for Manurewa spoke and I was concerned that there was not a lot of inquiry into the way in which the bill was contained in the select committee. I think that was a good thing that the select committee heard the submissions. I think that the select committee in particular did a good job in that respect. I think that it is just right that the select committee heard
Did Nanaia Mahuta vote for this bill?;National;"I voted for the bill, but I did not vote for the bill.<|endoftext|>

"
is the corporation taking to reduce the number of fraudulent accident compensation claims?;Labour;The corporation is taking to reduce the number of fraudulent accident compensation claims, as the member for Tarawera mentioned, I shall talk about that today. The corporation has tried to keep the number of fraudulent accident compensation claims under control by employing new management, and I shall talk about that. The corporation has been taking to keep the number of fraudulent accident compensation claims under control by employing new management, and I will talk about that today. The corporation has been taking to keep the number of fraudulent accident compensation claims
is the corporation taking to reduce the number of fraudulent accident compensation claims?;National;"if it takes to reduce the number of fraudulent accident compensation claims, then it is doing the right thing.<|endoftext|>

"
What about if you’re Chinese, Winston?;Labour;"I did not say that. I said that the Minister of Finance is a good person and that he ought to be pleased that the issue is now in front of the House. I do believe that the Bill is a good move; I believe that it is a step forward, but it is not a step from where we were at the beginning of the year. The major change is in clause 6, which makes it clear that, in the interests of national security and of public health, the Minister must"
What about if you’re Chinese, Winston?;National;I’ve got a very good explanation for that. “The most important thing people can do in New Zealand is to be productive and to grow their businesses.” That is the most important thing for people to do, to grow their businesses. That is what I’m talking about when I’m talking about the most important thing, and it is the most important thing for New Zealand to grow their businesses. I’m going to pick up on the previous question
How many households don’t have Sky?;Labour;Another 1,300 homes will be under the current system in the area of Sky. In the fall of this year, I think Sky will be delivered. That is the Government’s policy. It will be delivered by the time we get to the election. That is our policy. It is not the Government’s policy. It is not the Government’s policy. It is not the Government’s policy. It is not the Government’s policy. It is
How many households don’t have Sky?;National;Skyboxes are nothing more than the landscape of New Zealand. I do not believe that any of us can walk through the landscape of New Zealand without seeing the rolling hills and the rolling valleys of our country. Some of our best scenery is in the air, and that is the only country in the world that is known for its landscape
Is there any provision for our duck pond?;Labour;I cannot say that that is a good idea. I suggest that the Government should send it to a good lake or a good lake of the same name. The whole matter is a bit of a mystery to me. I am not sure that it is a good idea, when we consider that as a means of funding, we have to look at other ways of funding our water supply, and we have to look at our overall funding levels. There are some very important issues. We have got a genuine
Is there any provision for our duck pond?;National;Is there any provision for our duck pond? The Government has no plans to proceed with this legislation. it is not a priority. This is not an issue that the National Party has had time to explain to the people of the electorates. It has been a very contentious time for the Opposition. The Opposition has been trying to explain to the people of the electorates why it did not have this kind of legislation before the election. The Opposition has had no time to explain why it would not have had
Why did the Minister consider it necessary to develop a National Medicines Strategy for New Zealand?;Labour;I think that is a very good question. The National Government is putting on the road more medication than it has done in a generation. The National Government is providing more for the elderly than the average of the last 40 years. The National Government is providing more for the sick than the average of the last 40 years. The National Government is providing more for the young than the average of the last 40 years. The National Government is providing more for the poorest 20 percent than the average of the last 40 years
Why did the Minister consider it necessary to develop a National Medicines Strategy for New Zealand?;National;Only a couple of weeks ago I talked about the new initiatives in the Pharmaceuticals and Health Products Regulatory Reform Bill, the joint initiative of the Labour and National parties. That bill provides for a new pathway for New Zealand's pharmaceutical industry, which is currently facing a major problem, the shortage of medicines in New Zealand. It also creates a new system for our pharmaceutical industry to deal with the shortage of medicines, and it provides a new monitoring regime to detect and prevent drug shortages of medicines. We also have
