question;party;answer
What is your ruling on this point of order?;Labour;"The member is asking whether the Minister has been informed of this announcement. I have been informed of it, and I have written to the Minister of Health.<|endoftext|>

"
What is your ruling on this point of order?;National;I am not qualified to make a ruling on that point of order, but I am happy to confirm to the member that, as the matter relates to an individual case, the club is entitled to the benefit of the council's advice. The council is entitled to the benefit of the council’s advice, and that is why the club is entitled to the benefit of the council’s advice. The council is not entitled to the benefit of the council’s advice in the way in
Is the Minister saying there is no advantage to international carriers?;Labour;"The Minister is saying that it is a disadvantage, and that passengers who travel on international carriers have to pay extra for their travel, which is unfair.<|endoftext|>

"
Is the Minister saying there is no advantage to international carriers?;National;The Minister is saying there is no advantage to international carriers. I think we are in a very good position. I think we are very fortunate that the member for Papakura is not in the House today. I think he is obviously very interested in transport matters. I think that I support the Bill. I think it is a very good measure. I think it will help to promote the transport system. I think that the member for Auckland Central is very interested in transport matters, and I think that I
Did the member see me writing it down?;Labour;"That member did not see it, and I am sure that he would have been stunned, given that the member is raising a matter that is not in the public interest.<|endoftext|>

"
Did the member see me writing it down?;National;"I thought it was important,<|endoftext|>

"
Is it in order to quote from a newspaper report on a matter before the House?;Labour;"This is a very good piece of work from the Labour Government. I am not always sure whether the member is a ``Mutt'' or a ``Kiwi'' or what, but I certainly am not a ``Mutt'', I am a ``Kiwi'', and I am a ``Mutt''. I am a ``Mutt'' and I am a ``Kiwi', and I am a ``Mutt''.<|endoftext|>

"
Is it in order to quote from a newspaper report on a matter before the House?;National;Thanks. There is a very good article in the Dominion that is entitled ``The Government's hand is slipping, and the hand of the people is slipping with it under the National Party. The National Party is in trouble. It is in trouble and the people are in trouble. I draw the attention of the House to the report that was written by the Leader of the House, after listening to the television news. He has been studying the television news, and he knows what will come from the people.
I raise a further point of order, Do we have some new hand signals being used in the parliamentary debating chamber now?;Labour;The new hand signals that are being used in the chamber are very similar to those that have been in place for a number of years in the House, and they are being used to indicate that the member has been in the House for some time. The member for Kapiti has had them since before the last election. They are very similar to those that were used in the practice areas of the House at the end of last year, and they have been used since the start of the year. They are
I raise a further point of order, Do we have some new hand signals being used in the parliamentary debating chamber now?;National;"The new hand signals are being used, and they are very easy to use. I have one point of order.<|endoftext|>

"
Might it assist the House if I were to put the second part of that leave motion again separately for the House’s consideration?;Labour;"That is the only way of putting it. You are asking me to entertain such a question, and if I had answered it yesterday, you would know that. I have put the question in a way that gives it a very short time to go to the select committee to see whether the Minister can get to his feet to explain how he made his decision. I remind you of some of the points that you raise in your brief question.<|endoftext|>

"
Might it assist the House if I were to put the second part of that leave motion again separately for the House’s consideration?;National;I would like to reiterate that the legislation will not be debated in the House until 1 October 2008, although it is up for discussion in the House today. I accept the concern that was expressed by the Opposition about the lack of consultation. An amendment to the legislation will be submitted to the select committee by 11 December, which will be heard at the select committee on 25 December. The wording of the agreement with New Zealand First is as follows
How can you say you’ve got a bias?;Labour;I cannot say that. that was in reference to the member for Bay of Islands, who is a very good member of the House. Why can't he have one? Why can’t he say he has a bias, when that is what he says he has a bias? He knows that the member for Dunedin West is a good member of the House, and he wants his colleague there. He knows that the member for Rotorua is a good member of the House, but he
How can you say you’ve got a bias?;National;"That’s not possible. This is the first time I’ve been a member of the National Party and I’ve come into this House to represent a Labour party that was wiped out by National. I want to congratulate the National caucus on that. I wanted to congratulate the National caucus on the way they performed.<|endoftext|>

"
Are the jobs being created in New Zealand predominantly full time or part time, and how does this compare with Australia?;Labour;The programme of employment and training is more than 70,000 short of full-time and less than 70,000 in part-time employment. The Government is spending $12 million this year on train and transport. That is up from $4 million a year ago, and it is $12 million over the next 2 years. That is a pretty good sign, when one sees what is going on in Australia, where the Government is spending $20 million in train and transport. A Government that spends
Are the jobs being created in New Zealand predominantly full time or part time, and how does this compare with Australia?;National;The figures from the Department of Labour show that there are more full-time jobs in New Zealand than there are part-time jobs. Not only are there more full-time jobs, but we have more part-time jobs today and many more part-time jobs in New Zealand than we did when Labour took office in 1994. I would say that the statistics are absolutely encouraging in New Zealand, and they are showing that the Government's policies in the 1990s are starting to do a great job.
Will the member answer a question?;Labour;"I would have thought that was a question of no particular relevance, but I was not the only one to ask it. The member who has just resumed his seat, Mr Donald, asked about the Bill, as I do. I think he did not ask the question that he was asked. It was not a question of this House.<|endoftext|>

"
Will the member answer a question?;National;"If the member will let me answer a question I beg his support.<|endoftext|>

"
I am sorry to interrupt the Minister's speech, but would Opposition members be able to have a copy of that report?;Labour;"She is entitled to an explanation. She is entitled to an explanation.<|endoftext|>

"
I am sorry to interrupt the Minister's speech, but would Opposition members be able to have a copy of that report?;National;"It would be very difficult to get that to the House.<|endoftext|>

"
