question;party;answer
Does this member oppose consultation, discussion, and the kind of consensus that we are now going through?;Labour;I am not a member of the select committee. I have gone through the submissions. I am not a member of it, but I am happy that there is a good deal of good progress. The select committee is still debating the Bill. If the chairperson wants to try to make it easier for him or her, I will be happy to help with that matter. The Prudential Rating Amendment Bill is the only of the Bill introduced to date that is being considered as urgent. I am sorry
Does this member oppose consultation, discussion, and the kind of consensus that we are now going through?;National;"I claim that the member is, trying to mislead. She has told us tonight that the Government is going to propose that this bill be passed in the House tonight. We are not passing this legislation; we are passing it at the same time as the Opposition is passing it. It is their agreement on the Bill. The member should come down here and see that that is what is going on. I also want to address what we all know about the previous shortsighted measures of the Labour Government. Let"
What steps is the Government taking to address the fiscal outlook outlined in the most recent Budget Policy Statement?;Labour;The Government has taken several steps to address the fiscal outlook outlined in the most recent Budget Policy Statement. The Government has announced strong economic growth, and it has committed to maintaining a surplus in future years. It has announced strong consumer confidence, and it has reported a positive real estate market in the last few weeks. The Government has announced strong manufacturing activity, and it has reported that it is performing very well, given the outlook. The Government has announced strong domestic consumption, and it has reported that it is
What steps is the Government taking to address the fiscal outlook outlined in the most recent Budget Policy Statement?;National;The Government is looking to address the fiscal outlook outlined in the Budget Policy Statement. We are also looking to improve our fiscal position, which is underpinned by a strong economy, balanced Budget, and strong Government spending. This is why we are investing $48 billion over the next 4 years to ensure that we continue to deliver on the Government’s Budget target. This includes an extra $3.5 billion in our business capital spending to ensure that businesses can grow, contribute to our economy, and
Does the Minister expect to see substantial reform of the Resource Management Act passed in this term?;Labour;"I expect that I will see significant reform, but that is not a guarantee. It is a question of what we will see of the Resource Management Act as a result of the Resource Management Act 2013.<|endoftext|>

"
Does the Minister expect to see substantial reform of the Resource Management Act passed in this term?;National;that is exactly what we have been talking about for the last 2 years. The Department of Conservation has been sitting around telling us that it is going to pass a review of the Resource Management Act. it is just not true, it is all right, it is going to be done. It is not going to be done. It will not be done. It will not be done. It will not be done. It will not be done. It will not be done. There is no point in
How long does the Treasurer propose to stay around after the delivery of the Budget, before going to Hong Kong?;Labour;"The Government is not going to stay in this House for that long.<|endoftext|>

"
How long does the Treasurer propose to stay around after the delivery of the Budget, before going to Hong Kong?;National;The Treasurer is currently talking to the people of New Zealand, and he is therefore far removed from the implementation of the Budget. I think it is fair to say that the Opposition will be looking at the main programme of the Budget as well with great keenness. It is a programme of spending cuts, which is something that will be a useful consideration for the Government. One thing that I think the Opposition will be interested in is the consultation that will be had with the people of New Zealand, in terms
What steps have been taken to ensure that the corrections system has better access to world-class innovation and expertise?;Labour;I am pleased to say that, the Government has been able to make significant improvements. In a year or so at least, we will be able to see a trend of greater access to the services that are necessary, and I am very pleased that at a time when there is so much uncertainty about the future of the health and education of our children, we have been able to see that we have been able to increase the size of the rewards. The Minister has also pointed out that the National Party has
What steps have been taken to ensure that the corrections system has better access to world-class innovation and expertise?;National;A number of steps have been taken to ensure that the system is more easily accessible and that it is more responsive to the needs of businesses and industry. The Ministry for the Environment has been working with industry to develop a business case for its support for the system, and is also working with the Ministry for the Environment. The Ministry for the Environment has been assessing the system to be sure it has the right mix of technology and expertise needed for New Zealand businesses. The Ministry for the Environment has also been working
Do you think 12, olds should be able to do it?;Labour;I fully support the Bill. I think that it is important that the Minister of Education says why he supports it. I think that there are some good things in it. There are a few things that I just need to comment on. These are not my additions to the Bill. I say this to the member for Tauranga, who is the member who is leading the debate in the chair, and who is trying to come to terms with this matter. He is trying to come to terms with
Do you think 12, olds should be able to do it?;National;That is the position that I took on the National Party platform. It is one of the things I was going to tell the country, because I think it is an interesting issue. At the end of the day, I think it is an issue that we will have to wrestle with. I think it is not a matter that we will be able to untangle after the election. I think that this is an issue that will be around for a long time, and I think it is an issue that
How will the proposals of the Fire Service Commission result in an improvement in the standards of fire cover?;Labour;I think that the Commission will be better for the work it will undertake than the current fire cover arrangements. The Fire Service Commission will be able to conduct its work in a more effective and productive way. I think that changes to the existing scheme will result in a better level of quality of service to the community that will include a reduction in numbers of fire fighters. It will also result in a more consistent standard of firefighting services. The changes will mean fewer incidents and, therefore the number of fire fighters
How will the proposals of the Fire Service Commission result in an improvement in the standards of fire cover?;National;I know that it might be useful to take a call and tell the people of New Zealand how the proposals will see fire coverage in New Zealand. I am not a fire-fighter, but I know that it may be useful to have a look at the Government’s recent announcement that it has been able to put in place a system that will allow us to store our fire hoses and coats in the back of the National Party bus. I know that the Government could use that as an example
How has the electricity market improved under this Government?;Labour;What I can say is that the electricity market has improved and I think it is a very good example of why we should be investing in this nation-not only in our infrastructure but in our future health and housing needs. There is a lot of positive that we can say and a lot of things to do, as the Minister of Transport has mentioned in this debate. I think there is a lot of positive that can be said about the electricity market, but I can only say that the fact that it
How has the electricity market improved under this Government?;National;The electricity market is in good supply and I expect the power market to improve further as a result of the new system and the new pricing model. There is a lot of competition in the market, and we expect prices to be higher as a result of these new pricing models. There is a lot of competition in the market, we expect prices to be higher. The only thing that is good about the current system is the quality of electricity. There is a commitment from the previous National Government that we would
The Minister said in a letter to me in May last year, What's the question?;Labour;I want to tell the House the story that has been raised by your colleague, Phil Goff, and is quite relevant to the question you asked about the Minister’s email. The Minister has also been a practitioner of the profession of chiropractic, and has been involved in the chiropractic practice for quite a while. He is the head of chiropractic in Waikato, and he has been involved in that practice for quite a long time. I am happy to take the opportunity
The Minister said in a letter to me in May last year, What's the question?;National;"Will the Minister give an assurance that the police will be taking the matter of the alleged murder of Mrs Caroline Smith seriously if she decides to tell the truth, as she did?<|endoftext|>

"
What are some of the milestones highlighted in the action plan?;Labour;The plan I am talking about, which is the real headline, involves the introduction of the New Zealand Superannuation Fund, the introduction of a supplementary order paper, and the introduction of the new superannuation scheme. I want to talk about some of the progress in the previous speakers' areas, which is to do with the introduction of the KiwiSaver scheme. The New Zealand Superannuation Fund is a very simple concept. The KiwiSaver scheme is the first step towards the
What are some of the milestones highlighted in the action plan?;National;"The new target of 95 percent of new-home purchases being affordable is a dramatic improvement on the previous target of 95 percent of new-home sales being affordable. This is a very positive start for New Zealand as it moves towards a better place and towards a lower cost of living. The new target is also a much better way of achieving the goal of reducing the number of low-income families who are paying their rent in New Zealand.<|endoftext|>

"
