question;party;answer
What do the briefing papers state about making assistance easier for business to access?;Labour;There are two key messages that the Government is trying to convey to businesses. One is that they will be able to access more of what they need. The Government wants to make it easier for businesses to access the services in their own communities. The other message is that they will be able to access more of their full range of services. There are also some pretty important things that the Government has to say about what it sees as the main challenges to business. One of them relates to the way in which
What do the briefing papers state about making assistance easier for business to access?;National;"The briefing paper states that there will be no time-limit on the time when a person who is on the benefit or a benefit dependent on the support of a spouse or partner will be able to access the assistance that is available to those on the benefit. It states that the assistance will be available for people on the benefit who, if they were on the benefit, have a dependent spouse or partner with whom they have a relationship.<|endoftext|>

"
When is New Zealand First paying back the taxpayers’ money?;Labour;The taxpayer’s money, the taxpayer’s money, the taxpayer’s money, the taxpayer’s money, the taxpayer’s money, the taxpayer’s money, the taxpayer’s money, the taxpayer’s money, the taxpayer’s money, the taxpayer’s money, the taxpayer’s money, the taxpayer’s money, the taxpayer’s money, the taxpayer’s money, the taxpayer
When is New Zealand First paying back the taxpayers’ money?;National;"I am not looking for any particular timeframe. I am sure that there is something waiting for the next Budget.<|endoftext|>

"
What is the philosophy of the police in dealing with crime?;Labour;I have to say to that member that one of the reasons I am here is to make sure that we continue to provide the police with the tools to be able to provide the services that we need in this country. I encourage that member to look at the report of the Department of Corrections, which came out just last week. It found that much of the crime in this country is committed by young people and young offenders, and I think that issues like this one are really important. So I urge that
What is the philosophy of the police in dealing with crime?;National;"I am a bit surprised that this one has not been the subject of an inquiry by the select committee. I am sure that it is a good way of dealing with crime in New Zealand.<|endoftext|>

"
I am going to call-how about Jan Logie?;Labour;It is a pleasure to take a call in this debate. It is the third reading of the Health and Disability Commissioner Amendment Bill, and I want to acknowledge the work that has gone into the bill, including the submissions from the Disability Law Reform Group and the Disability Law Reform Coalition. I think it was the work of the Law and Order Committee that brought the bill to the House, and I think it is the work of the committee to bring it to the House. I want to point out to the
I am going to call-how about Jan Logie?;National;I am going to call this a short call. I think that if you could take a minute to listen to what the member for Otaki is saying, it is quite interesting, given the very frank nature of that speech, that the Government is a party of the status quo. I think that that is a very interesting speech, and I think it is a very good speech. But I think that it is not necessary for me to repeat it. I think it is a very good speech. But
Has the Government given its approval for the overall restructuring of Devonport naval base?;Labour;"I have given my approval for the restructuring of the naval base, which will be completed in November 1992. I have given my approval for the relocation of the area processing base to the new base at Dunedin, which will be completed in November 1992.<|endoftext|>

"
Has the Government given its approval for the overall restructuring of Devonport naval base?;National;The Government has given its approval for the reorganisation of Devonport naval base, which will be a significant facility for the Navy. The reorganisation will be a major enhancement to the naval facility, which is currently located at Parabola and will increase the effectiveness of the operation of the base. Devonport naval base has a number of benefits and, there is no doubt that the Naval Base at Devonport is a key facility for the Fleet. It is an important facility for the Naval Base at Devon
Is it in order during question time to answer a question with a question?;Labour;"I’ve got a question, and I’m trying to get to that. I’m trying to get to the answer.<|endoftext|>

"
Is it in order during question time to answer a question with a question?;National;It is not bad in the Chamber today, but I would just like to take this opportunity of answering a question with a question. The last question I made was a very proper one that asked what the Government is doing to prevent abuse of the Children, Youth and Family Support Act, and the Minister did not answer. I thought that was very appropriate, and I think it has made a big difference in terms of the way that the Minister is answering questions. I have to say that I have been impressed
Does the Prime Minister judge it not in the public interest because it may hamper some police inquiry?;Labour;I have a statement for the Hon. Ruth Dyson, who has been in the chair so far, because I think that is a very useful question for her to ask
Does the Prime Minister judge it not in the public interest because it may hamper some police inquiry?;National;"The Government is taking the matter seriously.<|endoftext|>

"
Can the member clarify it so that I know what the date is on that letter?;Labour;"I am not able to.<|endoftext|>

"
Can the member clarify it so that I know what the date is on that letter?;National;The date is 28 February. It has been an enormous amount of time since the member for Auckland Central has spoken. I want to be fair to the member, because the member for Papakura was in the House on 1 February. It is a very short time between the time he is here, and the time he is talking. He has been here for a lot longer than I have been here, so I think it is fair that I give him a little bit of credit. He is quite right
Does the member want me to take a call?;Labour;"You are not allowed to, which is why I have to take a call. I think that there is a little bit more to do. I think that in a debate about the second reading of this legislation, we need to get over the fact that it is a very, very, very, very long time since the Bill was introduced, and I think that the fact that we are debating this legislation now puts the issue to rest.<|endoftext|>

"
Does the member want me to take a call?;National;That is the advice that the member asked me to provide. I would suggest discussing this matter with the member for St. Kilda, who has clearly been very interested in the matter. As I have said before, there is no doubt that the member for St. Kilda is very interested in this legislation and has been interested in it for some time. The member for Rangiora has been very interested in this legislation, and I suggest that the member for North Shore should come along and talk
How do people apply for the accommodation supplement?;Labour;They apply for it through the New Zealand Council of Trade Unions. The benefit is a long-term payment that is paid to the families of the people in the accommodation supplement scheme because of the work that they do in the accommodation industry. The benefit covers the money that the scheme earns through the administration of the scheme. The scheme is paid out to the families, and the scheme has a long-term view of the scheme. The scheme is paid out to a number of families, and it is
How do people apply for the accommodation supplement?;National;"If you are a single person with a child, you can apply online. If you are a couple, you can apply online, or if you are a couple with a child, you can contact the local housing authority. If you are a single person with a family, you can apply online.<|endoftext|>

"
