question;party;answer
Why did the Minister not fund the Stop programme?;Labour;There is no such programme. I think it is just as well there is no programme. I shall sit down and tell the House what is really going on in the boat trade. I have been in the fishing industry for a number of years and have seen the people of New Zealand in a very hard-fought battle. I have seen the people of New Zealand in a very tough battle that has ended in the defeat of Labour. I have seen the people of New Zealand in a very tough battle
Why did the Minister not fund the Stop programme?;National;I could not fund it. I did not fund it, and I will not fund it. It was never fully funded. It was an extension of the Stop-The-Drugs programme, which was going to be privatised, and it was going to be a national programme, and yet that has not happened. The first thing I would like to talk about is the issue of the classification of alcohol. I think there are some very good points to be made in the debate. The classification is
What other investments has the Government made in regional health services?;Labour;The Budget announced a further $3 million in funding to ensure that our region can continue to meet its health needs. There are $5 million extra enrolments for the region of $18 million over eight years. That figure is one of the fastest growth in the country in the health sector. The first stage of the regional health initiative includes a series of trials, which are already underway. We are the first in the country to take part in the trials. We have a small team of health professionals working
What other investments has the Government made in regional health services?;National;"We have announced a regional health network, which will link major centres with the best of them. We have a regional health network, which will cover Auckland, and I will be announcing a regional health network in Hamilton-Wanganui. I have already announced a regional health network in Wellington. We have the most comprehensive regional health network in New Zealand.<|endoftext|>

"
Where in the Standing Orders is there reference to the fact that one can have access to the Budget on a pay basis?;Labour;"In the present legislation the Minister can make deductions from the Budget on a pay basis, and that is clearly the difference between the current system and the one used in the 1995-96 financial year. that is the first difference.<|endoftext|>

"
Where in the Standing Orders is there reference to the fact that one can have access to the Budget on a pay basis?;National;"The member is referring to the fact that there is no schedule C of the Social Security Act. That is a matter of some confusion in the House, and I suggest that the member should then take it back to the select committee. His comments are a little patronising.<|endoftext|>

"
What is the long-term prospect for New Zealand's economy given the continuing Asian situation?;Labour;"I agree that there is a very long-term prospect of the economy out of recession, and I look forward to the next election.<|endoftext|>

"
What is the long-term prospect for New Zealand's economy given the continuing Asian situation?;National;"The New Zealand economy is growing at a rate that is attractive to investors. The economy is showing some stability, and interest rates are low, and the Government is able to focus on the important policy areas. It is estimated that the real rate of interest will be about 2 percent lower by the end of the year than it is at present, and that is the best news for New Zealand since the end of the Asian economic crisis.<|endoftext|>

"
What factors contributed to the record level of exports for the year ended February 1992?;Labour;The record level of exports for the year ended February 1992 was achieved by the exports to New Zealand of goods and services produced by New Zealand companies in the previous 12 months. This was achieved by the export of the goods and services produced by New Zealand companies to New Zealand. This was achieved by exports to New Zealand. This was achieved by exports to New Zealand from the export of goods and services produced by New Zealand companies. This was achieved by exports to New Zealand from exports to New Zealand from exports to
What factors contributed to the record level of exports for the year ended February 1992?;National;"The Government's export policy is based on the fundamentals of the global economy. The aim of the Government's policy is to encourage export growth. The Government's policy is to encourage export investment and export activity. The Government's policy is to encourage export investment and export activity.<|endoftext|>

"
Has the member ever made a mistake?;Labour;"I have made a mistake.<|endoftext|>

"
Has the member ever made a mistake?;National;I have made a mistake in this House. I am talking about what I say. I am not saying that I am going to make a mistake of any kind today. I am going to talk about what I think it is worth. I think it is worth a go for all the good things, but I think it is worth a go for the bad things. If you are going to talk about the good things, then it might be worth a go for a while longer. I am talking about
That might be a fair comment, but what about compulsory unionism?;Labour;"The member is right; the member is quite right. He said there might not be compulsory unionism in the future.<|endoftext|>

"
That might be a fair comment, but what about compulsory unionism?;National;I think that would be a good idea. I want to say that National is not opposed to compulsory unionism, I do not think that we should have compulsory unionism. I think it would be a very good idea that we had compulsory unionism. I think you all need to consider that. It is very interesting that this issue is being raised in this House, with the word ``union'' in front of it. I would like to have a look at the Bill. It states
What financial commitments have been made concerning Government Property Services?;Labour;From its inception in the 1970s, the first financial commitments have been made to the New Zealand Superannuation Fund. The last financial commitment was made in June of this year. The overall financial commitments are generally in line with the Government’s programme in relation to the New Zealand Superannuation Fund. This includes the National Party's commitment to add $100 million in the amount of $1.5 million that the National Party promised during the election campaign. The National Party has now moved away
What financial commitments have been made concerning Government Property Services?;National;"We are well aware of the recent announcement by the Government of a property programme that will involve the sale of Government Property Services. The new programme will include a similar programme, which will involve the sale of all State houses, as well as the sale of State houses in Auckland, Canterbury, and Canterbury Bay, and the sale of houses in Christchurch, north Auckland, and south Auckland.<|endoftext|>

"
What kinds of infrastructure projects have received funding?;Labour;The Government’s infrastructure programme has received funding in the last 12 months. This is an example of how the Government is investing in the future to meet its target of meeting New Zealand’s transport needs. The Government has been successful in delivering its target of meeting New Zealand’s transport needs over the last 12 months. This is an example of how the Government is investing in the future to meet its target of meeting New Zealand’s transport needs.<|endoftext|>
What kinds of infrastructure projects have received funding?;National;There have been many, many. The main one is the $1.25 million for the National Primary School project. This is a project that has been in the works for some time and is now coming close to completion at the moment. It is to have a preliminary school, and it is one where the principal is there, so it is a very good project in terms of its location and in terms of its workforce. It also has to do with the performance of the principal, for the same
Given that, why is the Vote Police road safety programme not listed as a fiscal risk in the Budget?;Labour;The Budget is the Government's response to the June issue. This issue has been used as an opportunity to get the best bang for the buck. It is not a matter for the Government, it is a matter for the public. The Government is investing $3 million in the road safety programme. It is money that will be better spent in the public interest. I believe that is a very good thing. I believe that it will be spent wisely, but I also believe that it will be spent in
Given that, why is the Vote Police road safety programme not listed as a fiscal risk in the Budget?;National;"The current National Government has identified the potential for Government spending cuts or restructuring, as well as the potential for increased taxation, if the Government were to take the course of action outlined in the Budget. The Government has a responsibility to make sure that those who are most vulnerable to further cuts or restructuring are all properly informed of those potential cuts or restructuring.<|endoftext|>

"
