question;party;answer
Trevor Mallard and Lianne Dalziel have done nothing for an hour but, Am I allowed to have what I say heard in silence?;Labour;That is the suggestion that the member seeks to agree with. I think that the member will agree that, although it is not as though we could go home at 4.30 p.m. and not have to come back to this House, we will not be able to get something done. I think we will have to come back to the House, because there is no point, in this House, in having a sitting Government. But I think if we look at the last speaker, and that
Trevor Mallard and Lianne Dalziel have done nothing for an hour but, Am I allowed to have what I say heard in silence?;National;The member for Selwyn is not permitted to say anything that is recorded. I do not think that that is strictly correct. I think he is allowed to say what he says, to say what he likes, to say what he likes to say. I say to him that there is a lot of noise in the House, and I think that he should be trying to make some noise. I think that he should be saying what he likes. I think that he should be saying what he likes.
Is there any objection to that course being followed?;Labour;The Government introduced the Bill this week. The Government is paying for it. The Opposition says that all members of the House should stand up and take a call in order to make a contribution, and that is acceptable to the Government. I agree with the member for Dunedin West. I think that we should not forget about the fact that the Opposition has a huge problem. The Opposition has a huge problem. The Opposition has a huge problem. It is the first problem. I think that the issue has
Is there any objection to that course being followed?;National;I have a couple of issues with it. I think that the member should look at the idea that the number of people involved in this debate, as we have gone through this afternoon, is in the hundreds, rather than the hundreds, which is the person who is leading this debate, the member for Selwyn. It is a very worthwhile exercise, and I think the member should be involved in it, and I am sure that he will be. I think that the member for Bluff has been
What other steps are being taken to manage New Zealand’s prison population?;Labour;"The Government is working with the Correctional Service to fulfil the needs of New Zealand's prisoners to ensure that the New Zealand prison population can be managed to meet the needs of the prison system. The Government is committed to the prison system as it is today and to providing an appropriate range of services to manage the prison population.<|endoftext|>

"
What other steps are being taken to manage New Zealand’s prison population?;National;"Developing the National Probation Strategy shows how the Government’s vision for reducing juvenile delinquency will transform our prison system over the next 3 years. The strategy will further enhance the quality of our juvenile offenders, and will keep our prison population at a manageable level.<|endoftext|>

"
Can the Minister give any indication of exports of electrical and industrial machinery?;Labour;"The export figures are good and the export figures are growing. The export of electrical and industrial equipment is up by over 800 percent since the new Government took office. That is good news, and we are pleased to see that there is a positive trend in exports.<|endoftext|>

"
Can the Minister give any indication of exports of electrical and industrial machinery?;National;"I can confirm that there is no export data available at the moment.<|endoftext|>

"
Why is the Government focused on improving New Zealand’s infrastructure?;Labour;The Government’s infrastructure strategy is focused on improving road and rail infrastructure by investing in long-term environmental sustainability, and on building infrastructure for sustainable agriculture. The Government is focused on improving the performance of regional roads by building more than 10,000 kilometres of roads, and on regional roads by building more than 1,800 kilometres of roads. This is an extraordinary work rate by the National Government, which has been focused on infrastructure since the 1980s. That is the focus of the National Government,
Why is the Government focused on improving New Zealand’s infrastructure?;National;I have to say the massive investment in infrastructure is the key priority, with the Government’s $2.4 billion investment in the capital-goods sector, $640 million for export projects in this country, and the $8.4 billion of investment in transport and health in this country. This is a commitment that will create better roads, more roads, and more jobs, and it will also make New Zealand more competitive globally. This is something that the country will be able to stand
Was that the same date as the previous one?;Labour;"It was in the middle of the afternoon, and I am sure that the member is out of time.<|endoftext|>

"
Was that the same date as the previous one?;National;"It was the first one, if one was a member of this House.<|endoftext|>

"
Who appoints members of the Nursing Council, and is the Government proposing changes?;Labour;The current council is appointed by the New Zealand Nursing and Accident Commission. The council is a council of the New Zealand Medical Association, a body that represents physicians as practitioners and as experts in health and health services. The council has a membership of eight, with appointments to the council having been made since the medical profession was established in 1854. The council is the largest association of the profession in New Zealand. Its members are appointed by the association, and the council has a membership of over 100,
Who appoints members of the Nursing Council, and is the Government proposing changes?;National;that question is rhetorical. The main issue is that there are now more than 500 members of the council. That is nearly four times as many as there were when the council was set up in 1989. That is why the council is now being reconfigured to make it more efficient and to have a more effective role in relation to the health of the community. The council has been reconfigured so that more members can be appointed. Members can now see the council as a whole and its membership. That is
Would the Minister be likely to pursue a parallel sort of an agreement to the open skies agreement in trans-Tasman shipping?;Labour;"The Minister will be pursuing that approach.<|endoftext|>

"
Would the Minister be likely to pursue a parallel sort of an agreement to the open skies agreement in trans-Tasman shipping?;National;"As I have said to the question that was brought to my attention by the member for Sydenham, when the member for Tamaki, who did not realise the passing of the legislation, asked whether New Zealand would be able to renew the agreement with the United States, I said absolutely that New Zealand would be able to renew the agreement with the United States, even though it was not the Government's policy to do so.<|endoftext|>

"
What about the offer from Apple Fields in Christchurch?;Labour;It is an excellent example of the Māori issues. It is a view that has been the subject of much debate in the House, and the master of the issue was the Hon. Lianne Dalziel, who has spoken in this House today, and I am sure that it does not surprise anyone that this issue is such a sensitive one for Māori and New Zealand. It is absolutely ridiculous that the Hon. Tim Macindoe, who has done so much to bring this
What about the offer from Apple Fields in Christchurch?;National;"The offer is the same as the one that has been made by the company that operates the supply centre in Christchurch, and that is the offer that the media have presented to the public.<|endoftext|>

"
What did the “Mood of the Boardroom” survey conclude about alternative approaches to economic benefits?;Labour;The report of the Mood of the Boardroom survey was a very positive survey. It was conducted by PRIVATE. It detected that there were major challenges in the employment of people. These were the concerns that should be addressed, because the employment situation is supporting the Government’s economic strategy and the Government’s policies to support growth. The report also made recommendations for changes to the employment market. These include reducing the employment rates for young people, increasing the number of jobs available for young
What did the “Mood of the Boardroom” survey conclude about alternative approaches to economic benefits?;National;"The report indicates that there are a number of alternative approaches to the Government’s economic policy over the coming year and beyond that may be more successful than the current approach, which is an overly dependent on spending on Government spending, and an overly dependent on Government spending.<|endoftext|>

"
