question;party;answer
Why don’t you import some from China?;Labour;"I do not have that capacity. I cannot export to China the New Zealand bill. I would be very concerned if I had that capability. I think there would be a serious risk of a large number of New Zealanders being damaged if we were to import the New Zealand bill.<|endoftext|>

"
Why don’t you import some from China?;National;I would like to suggest that I was making a very good point, which was that we went to the last election to introduce this legislation. The member has not read the bill. We were there to introduce it in the last election. I am not going to sit here and blame the member for Auckland Central for the fact that it is in the name of the National Party. I would like to do a little bit of research on the House to see whether it is in the name of the National Party
What type of task will this vessel undertake?;Labour;"For the short term, it will be focused on duty-free purchases of water from the Government supply, as the Government intends to operate the vessel.<|endoftext|>

"
What type of task will this vessel undertake?;National;"The vessel will be a tanker of about 15,000 litres of gas, and will be available to carry on shore and on the seafront as is standard practice. The vessel will be fitted with electronic communication equipment, and the vessel will be able to handle a wide range of cargo and crew, including fishing vessels and private vessels.<|endoftext|>

"
From the Parliamentary Library- specifically for you?;Labour;I have had a number of enquiries from a number of people on this issue. Some of them are from the local branch of the New Zealand Herald. I have received many letters from people in this area who are saying that they want land to be reacquainted with the land that they have lost. That is what they want. that is what they want, and they want it to be returned to them. One last point of note is that the New Zealand Herald says that the Prime Minister has
From the Parliamentary Library- specifically for you?;National;It is from the library, but it is from the Department of Conservation. I am talking not, the Department of Conservation but the Department of Conservation. It is from the Department of Conservation, and it is from the Department of Conservation, and it is from the department that I am talking about, who is not mentioned in any of the answers I have given. I would have thought that you would be familiar with those words. It does not matter. I can say that the House is dealing with a
Will you deduct time for that interruption?;Labour;The question that the member raised was about the payment to the Department of Corrections of a $40,000 grant to enable the department to pay a family of five of its costs, and it is not a very large sum of money. It is not $100,000, but it is $400,000. the department is paying $400,000 to a family of five of a very small dollar amount. I would not expect that the department should exceed that in any way.<|endof
Will you deduct time for that interruption?;National;"I will deduct time for that interruption, which is now almost 5 years since I was first appointed as a member of the Health and Disability Commissioner. I think that is a great achievement. I am very proud of the record that this Government has set. It has achieved that record with the appointment of the Commissioner of the Accident Compensation Corporation. I am pleased that we have achieved that achievement; it is very difficult to achieve. The record has been achieved, and I am proud of it. The record"
What Standing Order is the member raising?;Labour;"The member raises an issue that I have raised with regard to a separate matter. I have a suggestion for the member.<|endoftext|>

"
What Standing Order is the member raising?;National;I want to take a call in this debate, and I want to make it very clear, when I say that the party has been shunned, that the fact that they have been shunned is not an indication that the party is now unable to cope with the challenge that lies ahead. It is a positive step forward. The fact that the Greens have been shunned by the National Party is in stark contrast to the fact that the ACT party received very large numbers of votes in the last election,
Did the Minister receive any advice or information directly from the Chief of General Staff or the Army on the F16s deal?;Labour;"The minister did not receive any advice or information directly from the Chief of General Staff or the Army on the deal with the F16s. The deal with the F16s was concluded before the Minister of Defence had any direct word of the deal being signed. The Minister was in a position to advise the Minister.<|endoftext|>

"
Did the Minister receive any advice or information directly from the Chief of General Staff or the Army on the F16s deal?;National;"I received a letter from the Chief of General Staff that was signed by the minister of Defence, and I believe that it is the first communication made by a Crown employee to the Ministry about the F16s. I have been asked to find out whether the Ministry has received a letter from the Ministry.<|endoftext|>

"
Will the Minister acknowledge that all is not well in the Children and Young Persons Service?;Labour;"I am happy to. The Minister referred to about a quarter of a million children, and I know that the very first one, was probably William P. Williams. He was a little boy who had been at home for a period of time as a result of foster care, and he was a very good boy. He was a very, very good boy, and he had a very good disposition; he had a very good disposition. He was a very good boy, and he was very, very"
Will the Minister acknowledge that all is not well in the Children and Young Persons Service?;National;"That is exactly right. I think that the fact that the Minister has just said that there is a huge gap between what he says and what he actually does, and that there is a huge gap between what he says and what he actually does, is absolutely pathetic.<|endoftext|>

"
How did the previous National Government undermine DOC’s role as nature’s primary defender?;Labour;The Labour Party supported the select committee’s recommendation, and the previous National Government did it by dragging its feet. But the Labour Government did it by not allowing the select committee to report to the House, so that it could slip the best evidence to the people of New Zealand. It was a very regrettable decision. That is why we are supporting the select committee’s recommendations. The select committee’s recommendations give the people of New Zealand the best information they have had for some
How did the previous National Government undermine DOC’s role as nature’s primary defender?;National;With the previous National Government, rather than having a strategy to ensure sustainable funding, the previous National Government put in place a structure that would deprive the Department of Conservation of its funding. After the previous National Government took office, it reduced the Department of Conservation’s funding by $500 million, which is a very small amount of money. I think that is a very bad, very unfortunate situation. I think it was a very bad idea to put in place a structure that would deprive the Department of
Eugenie Sage, you are not going to debate what I have just said, are you?;Labour;That is a matter for the Minister of Finance, and I think that is the best way of putting it. I want to say that I think it is a very interesting way of looking at this country. I think it is about time we had a debate on this bill. I think we should put it in the Committee stage, because it is really interesting. I think that we seem to have a lot of mistakes, and I think we need to have this debate. To get through the whole debate
Eugenie Sage, you are not going to debate what I have just said, are you?;National;"I am not going to debate what I have just said. I would appreciate it if you did take a call and give me the detail of your statement.<|endoftext|>

"
Is there justification for any temporary release from the prisons?;Labour;It is nothing to do with the amount of the penalty. It is more to do with the fact that the offences are so serious that they are going to be dealt with by the courts. Some of the offences that have been dealt with by the courts are many of the offences that are being dealt with by the courts. the courts are dealing with them, and the courts are putting them under the microscope, and that is why they are being released from prison. Some of the offences that have been dealt
Is there justification for any temporary release from the prisons?;National;"I wish to reiterate that the number of prisoners released by the Ministry of Corrections is before the House. The number released is before the House.<|endoftext|>

"
