question;party;answer
What's your view on the pornographic movies that are coming into this country?;Labour;"We support the Bill.<|endoftext|>

"
What's your view on the pornographic movies that are coming into this country?;National;We have seen the unfortunate result of the legislation that the member for Auckland Central brought forward last week. On a number of occasions people on the street, or in the community, have been assaulted by people who are using pornographic movies. No doubt the member for Auckland Central was aware of that. I do not know whether the member for Auckland Central has had a look at the pornographic movies coming into this country. It is important that we get to the bottom of how many people are getting into trouble for using
Has the Minister commissioned any research into a pest eradication strategy for the coalition's ``wobbly Minister virus''?;Labour;I have been talking to the Department of Conservation. I was told that there are legal documents that suggest that the department has a strategy in place that could be used to deal with the management of the pest. The department has a plan in place for dealing with the pest, and has requested advice from a group that includes the consultant, the research organisation, and the Ministry of Conservation. The ministry has not received any advice on the pest eradication strategy that the department recommends. The ministry is not aware of
Has the Minister commissioned any research into a pest eradication strategy for the coalition's ``wobbly Minister virus''?;National;There are no negative studies of this nature being done. The Disease Control and Prevention Centres Programme that was linked to by the member is a very successful programme. The Government is not to be trusted with such a programme. It is a failure. It is expensive, it is not effective, and it is not practical. The reason for that is that the Government is not prepared to fund it. It does not have the resources, and it is not ready to roll out. The National Party is supporting
What are some examples of regions that are needing urgent attention?;Labour;I am talking about the South Island. I will give an example of two regions that have been working very hard. They are the North Island and the South Island. The North Island has had a drought in recent years, which has affected the population of the North Island. The member for Pukekohe is in the North Island, and his electorate is also in the North Island, so it is an issue for him. The South Island is a really important part of this country and has had a
What are some examples of regions that are needing urgent attention?;National;"I think it might be in the central West Coast, where we have had four reports of cases of abnormally high numbers of cases of tuberculosis in the last few months. It is completely unacceptable to me that the outbreak has not been confined to the West Coast.<|endoftext|>

"
Can the Minister give good reasons that the bus service is being withdrawn?;Labour;As the member from Tauranga says, we are looking at the future, not at the present. We are looking at the future, not at the present. The future is not the present, the present is the future. It is a very good thing that the main rail link to the North Island is being replaced by a vehicle that will be very much cheaper to operate. But there are many other things that can be done with the funding, and the Minister can tell us which of those things
Can the Minister give good reasons that the bus service is being withdrawn?;National;I do not have good reasons. It is something that has been tried and tested at different times. It was tried and tested in the case of a bus service of our kind, and it was tried and tested in the case of a bus service that was not connected to the network. The Government has decided that it no longer has to try those four things, and now it has to try the bus service that was always connected to the network. When the Minister first suggested to the people of south Auckland
Is it the Government’s intention to asset test grandparents and whānau carers?;Labour;"It is our intention to implement that policy, but it is not yet clear what it means to be a carer. Those are the sorts of concerns that I have been focusing on.<|endoftext|>

"
Is it the Government’s intention to asset test grandparents and whānau carers?;National;"The intention of the Government is to move from the status of carers to that of guardians, and the Government will continue to fund the operation of a national carer service. The Government is committed to ensuring that every single family is covered by the national carers service, and to ensuring that every family has as many experienced carers as possible.<|endoftext|>

"
Has the Minister received any reports about the regional economic impact of any particular branch deposits?;Labour;The Minister has not had any reports on that. He is very pleased with what has been accomplished in the region. The Minister is pleased that the Local Government Amendment Bill was finally passed. It was passed in the Committee stage in March this year. That is just about the time when the Minister has received any reports on the economic impact of a particular branch of the New Zealand Reserve Bank. The Minister is pleased that the Reserve Bank has been able to report to him, and he is pleased that the bill
Has the Minister received any reports about the regional economic impact of any particular branch deposits?;National;I have received reports about the regional economic impact of various deposits in the Public Service. What is included in the figures is the total deposit holders, which include the holders of the Treasury deposit-holding accounts, the holders of the Government deposit-holding accounts, and the holders of the Reserve Bank of New Zealand deposit-holding accounts. The figures show that the Government's policy has been successful in reducing the interest rate, and the Government's policy has been successful in reducing the cost of living for the average
Why don’t you answer your own question?;Labour;I think it is good to see a member of the National Party, who is up there, in Opposition at the moment. On the other side of the House we have not seen the likes of that for some time. From this point of view, it is good to see that there is no challenger to the Prime Minister in this election. That is why I think that the Prime Minister is in a good position to take some responsibility for the position that she has taken. It is the first time in
Why don’t you answer your own question?;National;"The Minister is a very good counsellor, and I thank her for the advice and for the completeness of her answers. My question to her is why did you not use it when you were given the question by the member for Rangiora. I was given the question by the member for Rangiora, who asked the question when I was given the question.<|endoftext|>

"
Has the number of people in professional occupations who leave the country permanently, increased in recent years?;Labour;The number of people in professional occupations who leave the country permanently, increased in recent years. Our workforce is growing, and the number of new entrants into the workforce is steadily increasing. The number of new graduates is steadily increasing. We have an ageing population and will continue to see a steady increase in the number of retirees. The number of extra teachers is increasing as we survey the results of the National Certificate of Educational achievement. The number of extra teachers is now on the rise and is projected to increase to
Has the number of people in professional occupations who leave the country permanently, increased in recent years?;National;"The number of people who leave New Zealand permanently, up to about 50,000, is an indication of what has happened to the population of New Zealand. One of the worrying statistics I have heard recently is the figure that the number of people who have left New Zealand for Australia or Australia, and who are now living in Australia or Australia, is approaching the number that left New Zealand for New Zealand.<|endoftext|>

"
Is the Minister therefore acknowledging that it was not the quality of the advice but the quantity that was the issue?;Labour;"I’m not prepared to take it upon myself to address that question.<|endoftext|>

"
Is the Minister therefore acknowledging that it was not the quality of the advice but the quantity that was the issue?;National;I just think that the Government, has taken a general approach to the legislation to ensure that we can get the best outcome. I think that the Minister is absolutely right in saying that the legislation is a good one. it is not perfect. I have heard a number of submissions on the legislation from different groups. The consultation process and the way in which the legislation has been worded are a very positive development. I think that it is good to see the legislation in place, that it is effective,
What were the key findings of the Ministry of Youth Affairs' recent public consultation on the minimum youth wage?;Labour;The key findings of the ministry's recent public consultation on the minimum youth wage are that the number of youth employed in the youth industry is expected to rise from about 2,000 to 10,000 by 2023! That is a huge increase in the number of youth employed. That is a huge figure. The research indicates that there is potential employment growth in the youth industry. The ministry is working with the industry to identify the sectors, to identify the skills, and to identify the social capital. There
What were the key findings of the Ministry of Youth Affairs' recent public consultation on the minimum youth wage?;National;The key findings of the ministry's recent surveys of youth employment involve the fact that, the number of youth workers employed has increased from 7,000 in 2007 to 12,500 in 2008. The number of youth employed has increased from 15,000 in 2007 to 19,000 in 2008. The number of youth employed has increased from 12,000 in 2007 to 33,000 in 2008. That is a dramatic increase. Those who are most concerned about youth employment are young men and young women. Almost
