question;party;answer
May I seek from the member who denied that leave, an explanation as to why?;Labour;I asked that question during the Committee stage of the bill, and it was that the member for Tauranga was trying to be factual. I want to repeat that question because it raises a very important point in the light of this Bill. I am sure that the member for Tauranga would like to have a look at the Bill. I will come to it in a minute. The member for Tarawera will be aware that the Chairman of the select committee, and I believe that the member
May I seek from the member who denied that leave, an explanation as to why?;National;"I am not aware of that.<|endoftext|>

"
Is this a supplementary question?;Labour;"The member may want to take a call in this regard, because if she does she should get up and explain it to us, and I have been told that this is a supplementary question. It is a matter that will be referred to the select committee.<|endoftext|>

"
Is this a supplementary question?;National;I write to you to say that I have a supplementary question. The member for Otaki has already raised some questions of the kind, and I do not think that she should be asking them again. I am sure that she would be better off with the people who have been on equal footing with her. She may be a little disappointed that she is not being asked a supplementary question. It is a little bit hard to explain the situation to her. It is not as if she is slipping from one
Does the member want my speaking notes?;Labour;I am sure that the member understands that I do not want my speaking notes, and that the member is getting all the speeches. I do not want to be distracted by the fact that this is a Labour-led Government, and that this is a bill that, as the member for Waitaki has pointed out, we have had to wait over a year for that to happen. This is a National-led Government. This is a bill that, as the member for Waitaki mentioned, is a
Does the member want my speaking notes?;National;I should like to speak to the supplementary order paper, which I have been working on over the past few weeks. The supplementary order paper deals with the provision of a financial deal on behalf of the Government. The member for Tauranga asked whether the Government had a deal in place. I shall give the member the answer. We have a deal in place. In the month of October the Government has made arrangements for the New Zealand Herald to become a State-owned newspaper. We have also established a
What procedures are in place for members of Parliament who make representations with regard to prisoners?;Labour;The discipline of the New Zealand First member is well known. He has had to sit and apologise when he said that the member for Tauranga was making an obscene gesture when she made her speech in the House. The member for Maramarua has had to sit and apologise when he made his remarks. The latest issue that is affecting the party’s fortunes is the loss of the poll advantage that it has held in the last 3 weeks. It is a massive fiasco. It is a disaster
What procedures are in place for members of Parliament who make representations with regard to prisoners?;National;"I do not have any formal procedures in place for that.<|endoftext|>

"
Leave is sought for an urgent debate, is there any objection?;Labour;I am not sure whether there is any objection to the urgent debate. There is a debate that has been well canvassed in the House. The member for Western Maori asks a very good question, and I will tell him that it is very hard to achieve anything in the House. The member for New Zealand First says that he will do anything in order to get his point across, and I will tell him that it is outrageous that he should have any confidence in the Government. I will tell him
Leave is sought for an urgent debate, is there any objection?;National;I have a few questions. I ask you to take them up with the Minister of Health, as he might have some answers to them, and, I ask you to give him some time, in which to talk to his colleagues. The other matter I would like to ask is whether it is appropriate to send the legislation to a select committee for that purpose. The Hon Ruth Dyson has written that it is inappropriate to send the legislation to a select committee for that purpose. I ask the Minister of
What is the reason for cuts in funding for access courses funded through the Education and Training Support Agency?;Labour;The cuts to access courses funding are being made because of the cost of running the organisation. The Agency is doing a great job, but the Government needs to make savings and make it more competitive. One of the reasons the Government is spending $180,000 per year on the organisation is to make it more competitive and to make it more efficient. The Government has made a commitment to keep access courses funded, and I am very concerned that the organisation is not being properly maintained. It is being cut because
What is the reason for cuts in funding for access courses funded through the Education and Training Support Agency?;National;There are now fewer than 20,000 people going into tertiary education. We have the potential of a massive increase in graduation rates, though the Government is admitting that there is a catch-up in the number of people going into tertiary education, 30,000 fewer people going into tertiary education. In a year the Government has put more than $1 million extra into tertiary education. That is a huge number of extra teacher salaries. It is a huge number of extra teacher salaries. It
How many members has New Zealand First got?;Labour;We have got a total of eight. It is a good start. New Zealand First is now in the third place in the National Party, and it has gone from strength to strength. The second thing we do is get on the hustings. It has got a new slogan, and it has got a new name. It is “No renationalisation, just act New Zealand First”. It is really the third party. I want to talk about the third party. I think it
How many members has New Zealand First got?;National;"I did not mean those members. I had a copy of the Leader of the House’s letter to National Party supporters, who did not know that that was the only letter that was ever sent.<|endoftext|>

"
Who can stop a member from reading a speech?;Labour;"I can. I can stop New Zealand First from reading a speech.<|endoftext|>

"
Who can stop a member from reading a speech?;National;"I would say that if I were in the House, I would be shocked if the member for Waipareira read a speech. I think that is the reason we are here, to give him a briefing on the Party's policy on a particular issue.<|endoftext|>

"
I shall be arguing against the Bill, so shall I give the call to a member who will argue for it?;Labour;The member for Otara is belittling the Bill in the House tonight as if it were something of which he should have been aware. I give him the call on the second reading of the Bill. As I have said in the House, the Opposition is opposing the Bill. It has put forward a number of amendments, and I shall give the member a few examples of those amendments. The Opposition is opposed to the Bill because it is not coherent. The Opposition wants a Bill that is not coherent
I shall be arguing against the Bill, so shall I give the call to a member who will argue for it?;National;There are some great arguments. The minister of health, has just said that the Government is trying to get to the bottom of the pressures that the public has to be given to be able to nurse. I will give the member a little bit of political scuttlebutt. I will tell him that that is the case. He will say
Will there be any tahr left in New Zealand, once “Tahrmaggedon” is over?;Labour;"There will be tahr left in New Zealand, but we have to do something about the housing crisis.<|endoftext|>

"
Will there be any tahr left in New Zealand, once “Tahrmaggedon” is over?;National;"We haven’t even got a printout of it. But it’s not a huge leap from putting in a big tax increase, to having a large tax cut.<|endoftext|>

"
