question;party;answer
What proportion of the grants has gone to Maori or Pacific Island groups?;Labour;"The majority of Maori and Pacific Island grants went to Maori and Pacific Island groups.<|endoftext|>

"
What proportion of the grants has gone to Maori or Pacific Island groups?;National;Maori recipients have received an average of $34 a week since the grants were announced, up to $52.51 a week, which is an increase of $6.65 a week. Pacific Island recipients have received an average of $22 a week. The grants to Maori are actually more than 16 times more than to Pacific Island recipients. That is more than twice the average of $1 a week, compared with the average of $0. There are the issues of the Bill.<|
What progress has been made as a result of this extra funding?;Labour;It is very encouraging. In my own electorate, the number of new jobs has increased by more than 12,000. The number of people who have seen an increase in their wages from $8,000 to $10,000 has increased by 26,000. With the additional funding, which is timely because of the ongoing labour market downturn, there are more people now who are in the workforce. We are looking forward to a period of relatively stable employment for a period of 4 to 6 years.
What progress has been made as a result of this extra funding?;National;There has been a substantial improvement in the performance of the police services, particularly in terms of the number of excesses-one of which is in relation to the growth in the number of police. The police have had a further degree of improvement in the performance of the service in the last 2 years. The difference between the performance of the police in 2010 and 2011 has been that the number of excesses has almost halved. That is an improvement. The police have had a further improvement in the performance
The Hon Gerry Brownlee, are you speaking to the point of order?;Labour;I am speaking to the point of order, and I am speaking to the question. I am a member of the Alliance. As I said earlier, there is a case that falls under Determination of matters of substance, and not to mention the scheduling of the Bill. I am not referring to the decision that the member for Hauraki made. That decision was made at the time of the debate. I am not a member of the Alliance, but I am one of the party. I am
The Hon Gerry Brownlee, are you speaking to the point of order?;National;"I am speaking to the point of order. I ask you to consider whether you are allowed to speak on the Bill. The Bill as I understand it is an amendment to the Racketeer Influenced Activities Amendment Act, and I can see that your ruling is that it is not an amendment to the Racketeer Influenced Activities Act, and it is not necessary to move the point of order.<|endoftext|>

"
What increase, has been recorded in the number of visitors coming to New Zealand?;Labour;The number of visitors to New Zealand is up by 723,000, and that is a very good result! All the rest of the country is doing much better. Then the National Party got up and claimed that this was a Government policy. Its policy is to leave the basic guarantee package. The National Government does not want to leave the basic guarantee package. it wants to keep it. It is a very good result indeed. does not it make one want to go back to the centre? Does
What increase, has been recorded in the number of visitors coming to New Zealand?;National;The number of visitors coming to New Zealand has increased by about 14 percent since the introduction of the immigration legislation. This is a positive part of the bill. It is a positive step in the development of our immigration system. The Immigration Service has been able to reduce the number of non-permanent residents coming to New Zealand, and this legislation has helped reduce the number of visitors coming to New Zealand from overseas. The legislation also provides for the extension of the status of New Zealand residency to include permanent residents
Is there an alternative leader for the Labour Party?;Labour;There is a different leader for the Labour Party. I would say to that member that the relationship of the National Party to the National Party is as one of the partner, and it is as one of the two partners, and it is as one of the partners, and it is as one of the partners, and it is as one of the partners, and it is as one of the partners, and it is as one of the partners, and it is as one of the partners, and it
Is there an alternative leader for the Labour Party?;National;I think there is a disagreement between the Leader of the Opposition and the Leader of the Labour Party. They overlap in that some of the members have a greater view, some of the members have a greater view on the issues, and some of the members have a greater view on the organisational structure of the Labour Party. It is not as if that is a matter of a little bit of difference or of a little bit of disagreement, not that it is that. I think we should start to listen
Why is it necessary to broaden the primary functions of the Reserve Bank of New Zealand Act 1989 as this bill proposes?;Labour;It is necessary in order to provide a more comprehensive framework for the Reserve Bank’s activities to enable those activities to be fully monitored, and it is consistent with our core policy objectives as a bank. In Part 3 the Reserve Bank has been charged with a diverse range of functions and responsibilities, including the ability to manage monetary policy and the sustainable management of monetary policy, which includes the ability to close, and promote financial stability and the objective of a sound economy. Today we are able to say that
Why is it necessary to broaden the primary functions of the Reserve Bank of New Zealand Act 1989 as this bill proposes?;National;The primary functions of the Reserve Bank of New Zealand Act 1989 are to provide for the exercise of the functions of the Board of Governors and to provide for the business of the Board of Governors. I thank the member for Dunedin West for the contribution he made to this bill. People are asking me why a group of people has been selected for that, because the members of that select committee are the same people who are being selected for that group. But I think that the select committee process is not the
Why does the member not actually read the bill?;Labour;He could do that at his leisure. He could just look at the schedule for the Education Amendment Bill, which says that if a teacher has not taught in the last 10 years he or she is a layperson. That is what the statistics say. There is no doubt that a layperson is the percentage of the population that says that they are a layperson. I think that is wrong. I think that is a very good thing. I think that is, a very good thing. We think
Why does the member not actually read the bill?;National;The member for Auckland Central does not even have a clue. I will give him a clue. He has not read the bill. He has no idea what it is about. He does not even know what the bill is about. He has not even read the explanatory note. He has not even read the explanatory note. He has no idea what the bill is about. It is a bit like the Department of Conservation, who does not have its explanatory note on its website. It is the same department
What early reaction has there been to the Hospital Services Plan announced yesterday?;Labour;I am very pleased to say that the health of New Zealand is topping the charts in both health and public confidence. I am very pleased to see that it is now getting under way. The population growth of about 4 percent is the highest since 1984. That is remarkable, and I want to congratulate my colleague Corey O’Regan on his performance. He has been a brilliant member of this House. He has got across many of the issues that need to be addressed in order to make New Zealand
What early reaction has there been to the Hospital Services Plan announced yesterday?;National;The Minister of Health is pleased to announce that the department has received a $3 million increase of $1.5 million in the funding and that the overall health budget is up to $9.7 million. The new funding will allow the department to continue to improve the care and quality of care for our most vulnerable patients. That is why we have taken this action. Last year we spent $4.8 million, which was about $1 million each year, but the department has increased its budget
What specifically were the operating objectives of the Foreign Direct Investment Advisory Group when it was set up?;Labour;In the period from 1999 to 2000, the Foreign Direct Investment Advisory Group was directed to advise the Government of New Zealand of the foreign direct investment situation in New Zealand, the foreign investment policy, and any other matters relating to foreign investment. This was done by the Foreign Affairs, Trade and Development Committee, chaired by the Hon. Jim Anderton, who was assisted by the Hon. John Tamihere and the Hon. Peter Dunne, who had a number of involvement with the group, including
What specifically were the operating objectives of the Foreign Direct Investment Advisory Group when it was set up?;National;The Foreign Direct Investment Advisory Group was set up to advise on a ban, and to advise on the management of the ban. The letter was sent to the Minister of Foreign Affairs and Trade, the Minister of Finance, and the Minister of Investment, and to advise the Government of New Zealand of the Government's intention to close the loophole in the Act that had allowed people to invest in New Zealand without being subject to the foreign investment laws. The Government's intention to close that loophole was put before the Foreign
Does the member support loopholes?;Labour;The member for Auckland Central supports loopholes. He supports them. He supports them in their entirety. It is absolutely absolutely clear that the Bill is an attack on the small business community of New Zealand. It is an attack on New Zealanders who cannot compete with the economy, who have been able to compete with New Zealanders. I believe that the Bill is a wholly unjustifiable attack on New Zealanders who are unable to compete with the economy. The Bill does not make business sense. It does not
Does the member support loopholes?;National;I support loopholes. I oppose them because the National Party platform states
