question;party;answer
What steps are being taken by the Government to improve New Zealand's environment and conservation security?;Labour;The Government has made a number of announcements since the last election, including the cancellation of the Land Information Act, the massive introduction of the Wilderness Act, the introduction of the Maori Conservation Act, the introduction of a new National Kean Conservation Agreement for Maori, and the introduction of a new Maori Land Information Act. The Government is committed to that process, and we have made it clear that it is not finalised, as the member who asked the question said earlier. The Government intends to
What steps are being taken by the Government to improve New Zealand's environment and conservation security?;National;"We are investing $3 million in improving our environmental and conservation security. This will include a further $150 million in capital funding, and ensuring that a new $20 million for this programme comes from the current $10 million fund. We are focusing the programme on sustainable development, not just on the usual tourist targets or the usual fishing quotas.<|endoftext|>

"
So what you are asking for is that on Iain Lees, is that what you are asking?;Labour;He is asking for a bit of a bargain. He has been there too long to recognise the value of the good old days. I think it is hard to talk about a bargain that is not a bargain, to argue that you cannot get a bargain. I do not think we can get a bargain from a Government that is trying to be fair. I think that the good old days are important, and the great thing about this Government’s Government is the way in which we are able to
So what you are asking for is that on Iain Lees, is that what you are asking?;National;"It is not what is being asked; it is what a Labour Government would have done. Labour would not have had a Minister of Transport in place for that, and now the Minister knows that the public want a Minister of Transport. It is not what the public want; it is what the public want. The public want a Minister of Transport in place. the public want a Minister of Transport to be in charge of the transport portfolio. That is what most New Zealanders want, and that is not"
What effect would the Bail Bill and proposed amendments have on the prison population?;Labour;"What would the Bill and proposed amendments have on the prison population? I say to the National Party that the Bail Bill and proposed amendments to it will not address the problem of the overcrowding of prisons. I also say to the National Party that when it comes to the next election it will not be able to go along with its economic policies, but it will be able to go along with its policy.<|endoftext|>

"
What effect would the Bail Bill and proposed amendments have on the prison population?;National;The Bail Bill will assist to reduce the prison population by encouraging the appropriate number of bailiffs to go into the community. The number of bailiffs will be reduced by 100. The number of bailiffs will be reduced by 100. The number of bailiffs will be reduced by 100. The number of bailiffs will be reduced by 100. The number of bailiffs will be reduced by 100. The number of bailiffs will be reduced by 100. The number of bailiffs will be reduced by
Is the member for or against the bill?;Labour;It is not for the member for Tamaki. I am telling the member that I am not interested in hearing such a discussion, because I have to think that the member for Tamaki has been on the wrong side of the House for many years, and that all that he has been able to do in this House to get his point across is to stand up and tell the truth, and then he will be able to tell a different story and persuade the public of New Zealand that the Government is trying
Is the member for or against the bill?;National;"I am against the bill.<|endoftext|>

"
How can a school not operate with 1500 to 1800 pupils?;Labour;It is a school that is growing, but it is not as if there are not a few extra students. The problem is that the other day the principal of the school told the media that there were two hundred extra pupils. That is quite accurate, but there are not a few extra students, and this is why we have to consider the size of the school. Some people think that if they are in a school, one should get a high-school diploma. If one has a secondary education,
How can a school not operate with 1500 to 1800 pupils?;National;"It is not a school.<|endoftext|>

"
Did the report make clear that the alleged victim, the claimant, received a bruise?;Labour;"I am not sure whether the reports have given the claimant an indication of the amount of the bruise. I am not sure whether the reports will show that the claimant received a bruise or if it was a form of bruising.<|endoftext|>

"
Did the report make clear that the alleged victim, the claimant, received a bruise?;National;It did not say that. It said that the alleged victim received a bruise. It was a bruise. It was a bruise. It was a bruise. It was a bruise. it was a bruise. It was a bruise. It was a bruise. It was a bruise. It was a bruise. It was a bruise. It was a bruise. It was a bruise. It was a bruise. It was a bruise
Is this a publicly available document?;Labour;"The comment I would like to make is that I would also like to ask the member for New Zealand First whether she has received any reports on the impact of the new ""chief of defence staff"" position that she is about to take on. It is not my experience that she has. She has not received any reports on the impact of that position. I will give her the most direct evidence that she has received one or two reports on that matter. I know that the National Party wants the job."
Is this a publicly available document?;National;"It is a publicly available document. I am sure that many people are aware of the nature of that document so that they would be pleased to have it in their hands.<|endoftext|>

"
Does the member recommend Gilbert Myles join the Christian Party?;Labour;He is not a member of the Christian Party. The member who was to be one of the most influential members of the National Government’s caucus, was to be represented by a member of the National Party, and yet we are now talking about the National Party’s own agenda taking top place. This is a Government that has been caught up in the political mud, and is now in a very serious state, considering that it is too late to save the country from the recession.<|
Does the member recommend Gilbert Myles join the Christian Party?;National;"It is not recommended. I think he is a very good fellow. He is a decent fellow, and I am sure that he will be able to give some good advice to his colleague on the other side.<|endoftext|>

"
What's the point of it being electronic if that's the case?;Labour;The point is
What's the point of it being electronic if that's the case?;National;I am sure that the New Zealand First member will be watching as the House proceeds. That was a very good speech and I hope, after reading the reports, that the House will take it one step further. I shall come back to the second point. The member who has just resumed his seat made a very good speech. I shall pick it up and give him some credit. He had a very good speech. If one reads it out, one can see that it was a very good speech.
Did the lawyer concerned use the four-letter word that the member used?;Labour;"I should like the member to give me some explanation of that word or the words that the member used, as I think that now the word ``no'', when it is not ``no', it is ``no''. I do not think that the word ``no'' is to be used in this legislation.<|endoftext|>

"
Did the lawyer concerned use the four-letter word that the member used?;National;She did use it. I need to say that we had a very good session of the committee today. We had some very good submissions, and I think we are going to make a decision tomorrow. I am not sure whether the member for Mangere would like to join us on the front bench, but we will probably agree that we should meet in New Zealand at the end of next week and we should get back to the East Coast, where we have been going for the week.<|end
