question;party;answer
What effect have the so-called improved trade figures had on the employment of New Zealanders?;Labour;Although the figures from a recent report, including the one I referred to earlier, may have suggested that the action was aimed at locking in the financial position, that is not the case. The Treasury report, which is not yet available to the public, shows that the Government is not trying to lock in the position of New Zealand's economy. The current statistics show that the economy is in good shape and is emerging from a recession. The Government is trying to lock in the position of the economy by reducing
What effect have the so-called improved trade figures had on the employment of New Zealanders?;National;The trade figures are a very positive sign of the progress that New Zealand is making. There is a very positive message in this report that states that New Zealand is moving forward with a degree of momentum and that New Zealand is now moving down the track of achieving a strong economy. This is a very positive report in respect of the progress that New Zealand is making. It also states that, as a result of the Government’s policies, New Zealand’s exports are growing at an annual rate
Would the member please withdraw and apologise?;Labour;It is a pleasure to take a call in support of the National Government’s legislation. I would like to take the opportunity to acknowledge the hard work done by the previous speaker. I just want to acknowledge the hard work that the previous speaker, and the Leader of the House, have done in the House tonight. I thank the member for Palmerston North, who is doing a lovely job. The previous speaker said that the members have had a good night’s work-up, and
Would the member please withdraw and apologise?;National;I would be surprised if that member did not want to hear that. We have had, some very good speeches in the last few minutes from someone who has never been in Parliament. I think that is what we need to hear from our young members of Parliament. It is good to see the young back in the House. We have had a good show. I have to say to Mr Kiely, it was very good to see that young member here today. He was a little bit of a
Has the Fire Service been advised of a ``state of crisis'' in the Auckland area in regard to fleet maintenance?;Labour;"It will be noted that the Government has been working closely with the Fire Service to keep the service operating to the highest standards. The Government has been working closely with the Fire Service to maintain the service's operational and financial well-being. The Government is committed to ensuring the service is maintained in a manner that meets the needs of the community. The Government is committed to the service's future and its assets.<|endoftext|>

"
Has the Fire Service been advised of a ``state of crisis'' in the Auckland area in regard to fleet maintenance?;National;"I have received information that indicates that a number of fire engines are in need of minor repairs.<|endoftext|>

"
Is there any objection to that course being followed?;Labour;As I indicated to the member, I have not had any such concern. I am concerned about the introduction of this bill, as the member for Tamaki has pointed out. It has been mentioned in the House before, but I am happy to take the opportunity to put it to one side. I want to make a couple of points. I want to make the point that the Department of Labour is the industry that has the most financial problems. There are signs, and I want to make a suggestion
Is there any objection to that course being followed?;National;"I am not aware of any objection to that course being followed. I am not aware of any objection to that course being followed. I am not aware of any objection to that course being followed. I am not aware of any objection to that course being followed. I am not aware of any objection to that course being followed.<|endoftext|>

"
What action are the police taking to reduce the number of unsafe loads on New Zealand roads?;Labour;"The Transport and Environment Committee has heard from the industry of the home-care sector the picture of unsafe load levels in New Zealand. The Minister has made it clear that the Government is taking steps to make sure that homes can be assured that their services are up to date. The Government has also announced a range of measures to reduce the number of unsafe loads on our roads.<|endoftext|>

"
What action are the police taking to reduce the number of unsafe loads on New Zealand roads?;National;These are questions of concern to me. I know that some of the problems that I have identified are typical of what happens when a traffic officer or a driver is in his or her car, slips in ice, slips in ice, slips in ice, slips in ice, slips out ice, slips out ice, slips out ice, slips out ice, slips in ice, slips out ice, slips out ice, slips out ice, slips out ice, slips out ice, slips in ice, slips out
Why have the venue, duration, and substance of this meeting not previously been disclosed?;Labour;The information that is available to the public is that this meeting took place last Thursday afternoon, and that it was held in Auckland. The information that is being released is that of course it was a very long winding, but very close one, and that it was held in Auckland. So it is a very fascinating meeting on the tarmac of Auckland, and I would like to thank the member for Auckland Central for pointing out that. I cannot recall whether it was the member for Auckland Central or the member
Why have the venue, duration, and substance of this meeting not previously been disclosed?;National;"The meeting is not for the purpose of any commercial purpose. The meeting is for the purpose of addressing the issues raised by the member for Tauranga, and is not for the purpose of any commercial purpose. The meeting is for the purpose of holding the House's attention to the private lives of other members.<|endoftext|>

"
Can the Minister talk about the possibility of integrating them back into the crews?;Labour;I would like to have some more discussion about that. There is a lot of talk about the nature of the education system in New Zealand and the education framework. We know that we are dealing with the quality of the quality of education in New Zealand. We know that we are dealing with the quality of the quality of tertiary education in New Zealand. We know that we are dealing with quality of education in New Zealand. We know that we have got quality of education in New Zealand. It is important
Can the Minister talk about the possibility of integrating them back into the crews?;National;That is a matter for which I will be more than happy to take a call in the Committee stage, as the member for Maramarua has done so well recently. I think it is fair to say that the pilots will not be flying as much as they have been flying for some time. In the past they have been very interested in aviation and have been involved in aerobatics, as I have done in my area. So to think that they would fly less than they have. There is
Is this a separate point of order?;Labour;"A separate point of order.<|endoftext|>

"
Is this a separate point of order?;National;"I think this is a separate point of order.<|endoftext|>

"
does the member take offence at that comment?;Labour;I do not take offence at that comment. I take offence at the statement that when he said
does the member take offence at that comment?;National;I take offence at that comment. I am not sure what the member is talking about. I am not sure that the member is talking about what he thinks the comment is about. I am sure that the member has made a couple of comments, but I do not think that the member knows anything about what it means. I would like to ask the member a couple of questions in response to a couple of questions that I have received from the media. The first one relates to the fact that the member
Have you decided not to rule on the issue I have just raised with you, and just simply to ignore it?;Labour;I have decided to ignore it. I think it is a good example of the kind of legislation that could be introduced at the moment that would help us with something that we are trying to do. I agree with Mr John Kamb that we should be moving on from the very, very unfortunate situation that we had when the Minister of Justice was the Deputy President of the National Party. He was a very good member of the National Party. He was very smart, and he was clever. But Mr John
Have you decided not to rule on the issue I have just raised with you, and just simply to ignore it?;National;It is not a surprise to me that the member, who is not a member of the Labour Party, is asking me that question. I cannot confirm that the member is a Labour member, but I am sure that he will find that to be the case. I am sure he will find that it is not a surprise that he is a member of the National Party, although he may not be a member of it. He may be something else again. He may be an independent. I think we
