question;party;answer
What is the current rate of voluntary wearing of safety helmets?;Labour;"The number of wearings of safety helmets has been fairly stable over the past 5 years, so that’s roughly where it is now.<|endoftext|>

"
What is the current rate of voluntary wearing of safety helmets?;National;The current rate of voluntary wearing of a safety helmet is about one-third of the current rate of wear. It is a very good fact that many of our children are being taught the importance of wearing a safety helmet. The National Party is also very pleased to have the figure of $3,000. I am sure that that is a very good figure, and I believe that it will have helped to encourage a good number of children to wear a safety helmet. A lot of good work is done
How is the strong retail trade growth in the year ended September 1993 reflected in the production-based GDP series?;Labour;"The strong retail trade growth in the year ended September 1993 reflects the significant impact of the strong export performance in the first quarter of 1993. The strong exports in the first quarter of 1993 reflect the expectations of the Government that the export sector will continue to provide significant growth. The exports in the first quarter of 1993 reflect the expectation that the export sector will continue to provide substantial growth in the future.<|endoftext|>

"
How is the strong retail trade growth in the year ended September 1993 reflected in the production-based GDP series?;National;Productivity growth in the sector as a whole, as measured by the staff survey, is up by 13 percent, and that is a very good result. It is not the greatest result. But it is very good, and it is a result that is being achieved through the hard work of the staff of the department. The Government has a commitment to ensure that the department continues to provide a strong base for the plan statement. The ministry is still at the forefront of the plan statement development process, and
Is the Government categorically ruling out the non-payment of benefits to the parents of truants?;Labour;"That is a very good question, and I would like to address it again. It might be helpful to the House to hear a little of the answer. The answer states that the Minister is not able to give that information, but it should be read out.<|endoftext|>

"
Is the Government categorically ruling out the non-payment of benefits to the parents of truants?;National;The Government is categorically ruling out the non-payment of children's social welfare benefit. The Government also considers the families of young children as the most vulnerable group of children. The Government is committed to ensuring that the number of children who are suffering in poverty is reduced and that the resources needed to help these young people are available. I commend the Government for its work in re-engaging with the families of children with their parents. I commend the Minister of Social Welfare for her commitment to children and
What progress, has been made to date towards bringing in the new employment strategy?;Labour;The new employment strategy is a good start. It is in line with the Government’s commitment to comprehensive employment, and it will help the economy grow. The strategy focuses on the four main areas of the employment sector
What progress, has been made to date towards bringing in the new employment strategy?;National;As a result of the report of the Employment Relations Committee on the new employment strategy, as part of its wider review of the employment system, the Government has made significant progress in the areas of providing people with the skills necessary to meet the challenges of today and tomorrow. The committee found, that the previous Government, deregulated much of the economy. The committee was told that the previous National Government did not provide skills to match the skills of the workforce, and that was making it difficult for employers to meet
Why did you call Mr Prebble last time?;Labour;"The member is asking me what I said.<|endoftext|>

"
Why did you call Mr Prebble last time?;National;"I spoke to him yesterday, and he was asking you about the work we are doing. I am pleased to follow Mr Prebble. He consulted with the members of the select committee on the Bill. I am sorry that you have to go back and think about what you were trying to do.<|endoftext|>

"
What services, will women participating in the nationwide cervical-screening programme have to pay for?;Labour;"The health workforce will have access to a range of services, including obstetrics, gynecology, neonatology, and obstetrics, and the range of clinics will also include obstetrics, neonatology, and obstetrics. Of the many services that will be available, the programme will include a range of specialist and diagnostic services.<|endoftext|>

"
What services, will women participating in the nationwide cervical-screening programme have to pay for?;National;"The service will have to pay the full cost of the programme, including maintenance, for a period of up to 6 years, after which it will be rolled into the national programme.<|endoftext|>

"
How much has been spent by the Government on the Social Bonds Programme to date?;Labour;"The Social Bonds programme has been a very successful programme. the number of employees it has employed was higher than expected, and it is now being extended to cover more than 100,000 people.<|endoftext|>

"
How much has been spent by the Government on the Social Bonds Programme to date?;National;It has been spent on the Social Bonds programme to date. The Government has invested more than $2 million in that programme. The total amount spent is about $5 million. That is a very good start. I think it is an indication of how good the programme is in terms of its quality, and how well it is being supported by the Government. The programme has been supported by the Government because of the good reviews of the programme by the Government and by the Ministry of Economic Development. The Government
May I answer the Minister’s question?;Labour;I would like to answer the Minister’s question, because I do think that the member is asking a very good question. The Minister has not had a chance to speak so I am just trying to make that clear. I appreciate the fact that the Government is being very quick to respond to the Minister’s question. I want to refer to a point that I think he may have missed in his answer. The member for Selwyn, who asked the question, said that in the first
May I answer the Minister’s question?;National;Of course I can, because we have been investigating that question on behalf of the Labour Party and have been getting some very good advice from the New Zealand Herald. I do want to make a fair comment. I want to make a comment about your question. It is very important to the cause that is being pursued by the New Zealand First Party. I think that is a good thing, as it has kept the Government from being back to its old ways. I want to give them a little bit of
What about the recommendation for section 6 and the charter?;Labour;The charter is a very good piece of legislation, and I have had a number of discussions with him. It has a very good balance of powers, and I have done a number of deeds. I have now had to call the Department of Corrections to discuss the matter, because it is a very good idea. The charter is a very good proposal. It is a new concept, and I think it is a very good idea. The power would be transferred to the Department of Corrections. The charter is
What about the recommendation for section 6 and the charter?;National;The issue of the charter will be addressed in the new legislation. We have had a very good discussion on the matter of charter provision, and I can say that the Government will be supporting the charter provision. I can also say that the Education and Science Committee, which is employed in the Wellington area by the member for Northern Maori, is considering the charter issue. It is clear that the charter will be quite useful in some areas, and I am sure it will raise some difficulties for the Government.<
Which of these gains are being made at the expense of the health and safety of the workers at that port?;Labour;The health of the workers at Tangaroa and at Yalu is very good. It is a very large port and it is in a very good state of health. There is an increase in work-force participation and it is showing very good performance. It is showing very good performance overall, for the health of the workers, but we do need to do a better job in the area of quality of work-force participation than we have done so far. I also note that the increase in
Which of these gains are being made at the expense of the health and safety of the workers at that port?;National;That is a very good question, The minister is quite right that the number of accidents at the port of Auckland has declined in the last few years. But there are a lot of accidents. The key indicator is that the number of shipboard accidents has increased by 6.5 percent, from 42,961 to 67,692 last year. So that is a very good indicator of the progress made by the Ministry of Transport in terms of our safety, our injury and our mishap statistics.<|
