question;party;answer
Has the committee scheduled hearings on submissions on the New Zealand Public Radio Charter Bill?;Labour;I am not sure, but I will leave it as an option. I can tell my colleague that I have been reaching out to the public for some suggestions that the Minister has been making in the House today. I have been interested in the fact that the State Services Committee has been sitting in session for a year, and we have been seeing a lot of submissions. I think that the public would like a different situation. I think that it is time that the public had a say on the Bill,
Has the committee scheduled hearings on submissions on the New Zealand Public Radio Charter Bill?;National;"I have not heard on what basis. I have heard that there are a number of submissions on the Bill. I have heard that the Bill will create a new framework of broadcasting standards; it will remove the standards currently used in New Zealand; and it will introduce new ones that will not require any changes. I have heard that the Bill will remove the New Zealand Media Trust from the licensing regime; that it will be made more transparent to the Government; and that it will bring the balance between commercial and"
Is there any objection to that course of action?;Labour;I draw to the House's attention the fact that the Minister of Transport is not taking part in this debate and that we have no idea of the value of the selection process that has been undertaken by the member for Selwyn. He tried to play it down the competition that the Government has been pursuing for the seat of the future. It is a very important one, and I think it raises the issue of some confusion. I think that the member for New Plymouth should have taken part in this debate.
Is there any objection to that course of action?;National;I am not aware of any objection to it, but I ask you to look carefully at the amendment put forward by the member for Papakura. I believe that the member for Papakura has made a mistake in giving an amendment to this bill, and that the member for Auckland Central has made a mistake in giving an amendment to the Bill. I do not think that that amendment is an offence, or that it has caused a loss of time. the member for Auckland Central has been waiting 10 months for
why did the member set up a caravan?;Labour;"I set up a caravan,<|endoftext|>

"
why did the member set up a caravan?;National;"I was able to go to the New Zealand Herald and see what Mark Peck had told the media. That member is about to be voted into office, and he wants to be here. That is the kind of Government that will do things the Government will do.<|endoftext|>

"
Am I not big enough to catch your eye?;Labour;"The member will be aware that the Minister of Health has told the House that this Bill is not a party bill. He has not announced whether it will be in Party 1 or Party 4, and the Government is now moving to have a party bill before the House.<|endoftext|>

"
Am I not big enough to catch your eye?;National;"I am not big enough to catch your eye so that you can ask the question. It is certainly not the case that you can put it in your mind that you have to be bigger to catch the eye of a member of the public. The member is asking a very good question. I am sure that it is a very good one.<|endoftext|>

"
What specific measures has the Government put in place to assist vulnerable groups, should that become necessary?;Labour;"I have not, and I have not received any reports on that.<|endoftext|>

"
What specific measures has the Government put in place to assist vulnerable groups, should that become necessary?;National;National’s work in this area depends on the level of involvement of the local communities in these matters. There is a wide range of work in the area, ranging from the localities themselves in their consultation process to their own community, in their own neighbourhoods, and in their own local supermarkets. National has worked with some local authorities to encourage them to adopt a range of products around the country that are at the forefront of their communities. We have been focussing on the problem of youth suicide
How will the additional staff be utilised to influence the policing priorities?;Labour;The additional staff will be used to focus on the most intense crime. The number of police officers currently employed in the Wellington area has remained steady, with the number at 392. The number of offences committed last year for which a criminal conviction was obtained in Wellington was 2,743. This figure includes offenses committed in other parts of the city. The figures reflect the small number of offences committed for which a criminal conviction was obtained in the Wellington region, which is where the majority of the offence was
How will the additional staff be utilised to influence the policing priorities?;National;I think that if we look at the funding, and I am not aware whether there will be an increase, but I think that there is a need to be thinking about the priorities. This is a huge opportunity. I think it is a huge opportunity to have the opportunity to work with the police, to provide the police with another set of tools to assist them in terms of policing, and to give them a further set of tools to eradicate crime. I think that that is a huge opportunity to give
When does the Minister expect the booking system to be in place?;Labour;"The booking system is currently in the planning stages. I can assure the member that the main focus of the booking system is to improve the efficiency of the system. I think it will be a very good system. I can assure the member that the booking system will not affect the effectiveness of the system; the booking system will improve efficiency. I think the booking system will improve efficiency. Another point that I would like to make is around the issues of price point, or a good, in which the booking"
When does the Minister expect the booking system to be in place?;National;"I do not expect that to happen in the foreseeable future. The Government is now trying to do something about the issue. It is trying to get some advice from the industry. The Minister did not have that advice when he was making the announcement yesterday, and that is why it was not available to the industry. The industry will be happy to provide it if the Minister can get some advice from it.<|endoftext|>

"
When did you lead the march on Parliament to call for greater regulation of the finance sector?;Labour;I have been travelling around New Zealand, talking to people about what they think of the financial markets, and I have heard that most New Zealanders think that the financial markets are wonderful. They think that they will be able to easily manage their money in those markets, and that the markets will be overvalued. I have been talking to people that have been in the financial markets for many years, and I have heard the people of New Zealand talk about how they think the markets are overvalued. It
When did you lead the march on Parliament to call for greater regulation of the finance sector?;National;I was not even aware that that was happening until the member for Waitaki raised it during the debate. I am sure she was not aware of it, but it is a point of order that I think we have spent too much time on. The member for Maramarua is asking about the criteria for the Government’s new superannuation policy. I have to say that I think that the criteria are too much. I think that it is justifiable for the Government to ask the question
How are smartphones and tablets being used to prevent crime?;Labour;"They are being used to prevent crime. The problem of crime on the street is not as bad as it used to be, but it is not as bad as it used to be.<|endoftext|>

"
How are smartphones and tablets being used to prevent crime?;National;There has been a significant increase in the number of reported burglaries in the country, almost doubling in the last 4 years. The majority of burglaries were committed by repeat offenders, but the number of reported burglaries has been greatly reduced. That should not come as a surprise to the families of New Zealand who have been subject to burglary and violence. The number of reported burglaries in the past 4 years has been reduced by nearly 50 percent. There have been no reported burglaries in the last 4
What role is Te Puni Kōkiri playing in developing policy under this Government?;Labour;"Te Puni Kōkiri is the Te Tai Tokerau Trade Mission Centre. Te Tai Tokerau is an international organisation working to promote Te Reo Maori, a Maori name that relates to the people of Te Tai Tokerau at present.

"
What role is Te Puni Kōkiri playing in developing policy under this Government?;National;Dick Parsons is very pleased with the fact that there has been an increase in the number of people enrolled in tertiary education in the past year. The level of enrolment of students in tertiary education in the past year was about 2,000, and the number of students enrolled in tertiary education in the past year was about 6,000. That would suggest that a little over a thousand students have been enrolled in tertiary education over the past year. The Government plans to increase enrolment by
