question;party;answer
Can the Minister assure the House of the Government’s commitment to protecting core benefits?;Labour;"For a start off the Government said it would not be spending money on the broad changes to the benefits system that New Zealand needs. That is what it said.<|endoftext|>

"
Can the Minister assure the House of the Government’s commitment to protecting core benefits?;National;"The Government’s commitment to protecting core benefits is a key part of the Government’s strategy to provide a better life for all New Zealanders. The Government’s commitment to protecting core benefits is in line with our Government’s own work to achieve a more unified welfare system.<|endoftext|>

"
What is the Government's policy for paid parental leave, and when will it be implemented?;Labour;The Government has announced its policy to implement the Family and Community Support Amendment bill, which will ensure that parents can take up to 12 weeks off from work for children under the age of 14. It will also extend the benefits, to 12 weeks from 5 September. The bill will also extend the benefits to up to 10, and will extend the benefits to up to 9, year olds under the age of 14. It is a family policy that is already in place, and one we should be supporting.<
What is the Government's policy for paid parental leave, and when will it be implemented?;National;The Government's policy for paid parental leave is still under discussion. I do not want to get into a debate about which policy is the most appropriate or the most cost-effective for New Zealand, but I will tell the House that the Government’s policy for paid parental leave is still under consideration. The Government is finalising some of its policy ideas, and I do not want to see that as an argument for not allowing paid parental leave to be implemented. The Government is finalising some of
Will extra personnel be brought into rural and isolated communities, if needed?;Labour;One of the mental health initiatives announced yesterday by the Minister of Health was to bring additional staff into remote communities at the request of the Regional Health and Hospital Commission. This will help ensure that the quality of services are delivered to rural patients. The best way to improve the quality of services delivered to rural patients is to involve them in the system, to have them involved in the community, to have them involved in the community-that is what the Minister of Health has said. There is no doubt that that
Will extra personnel be brought into rural and isolated communities, if needed?;National;I very much doubt that there will be any at all. I think the emphasis should be on getting the most people out into the community, those people who are most often excluded from the community. I think the emphasis should be on getting the most people back into the community and into work. There is a very good reason why this Government is setting up an employment assessment service. It is not to collect information or to collect money in order to fund an employment assessment service. It is to get more people
Does the list member from Hamilton have a problem?;Labour;That is a good question. It really does not help if the member for Hamilton West makes a long speech about the mechanism. The member for Auckland Central has done his homework. The member for St. Kilda is very good at that. The member for Tauranga is very good at that. There is no need for me to be lecturing the member for Hamilton West about the mechanism. The member for Wellington North has a great deal of it, and the member for Waikato has a
Does the list member from Hamilton have a problem?;National;I have some problems. I have to ask the member for Tauranga, who is usually in good stead, whether he thinks that the Government is in a good state to be addressing the problems. He still thinks that it is a good position to be in. He thinks that it is a good position to be in, and he will not let things go down the track that New Zealand needs to go down. He is in a position of strength, and he is saying that he will not let
Has the Walking Access Consultation Panel report been discussed at Cabinet, and when will the report be released to the public?;Labour;That is the only point I would like to make. I would like to say that the system is looking very good. As the member for Papakura, I would like to acknowledge the fact that the ministry has demonstrated, through this exercise, that it can administer a very good service. I would like to say that it is a programme that has been there for a number of years. The ministry is looking great. Of course I think I have seen a lot of improvements. I think the ministry has
Has the Walking Access Consultation Panel report been discussed at Cabinet, and when will the report be released to the public?;National;"There is a good chance that it will be released within the next few weeks. It is not a secret that the Cabinet Room is buzzing. It is like going to a brewery; it is a very good brewery. I would not be anywhere near as surprised if it were to be closed.<|endoftext|>

"
Where did the member source the document from?;Labour;"I think I have. I am sure that he will be able to find it on the Internet.<|endoftext|>

"
Where did the member source the document from?;National;The member is quoting from the report of the Justice and Electoral Committee on the Banking Amendment Bill. The report states that the purpose of section 85 of the Banking Act is to provide a mechanism for the Government to assess the adequacy of the investment performance of the Government and to provide for the Government to use its own judgment. I think that that is a pretty straightforward definition of what is meant by a decision. Another thing the member is making is that the Opposition believes that the Banking Act is not sufficient for
What does Tony Fairmont think about the member now?;Labour;I think he should take a call. There is a difference between the three main parties. National is the party of standing-up and saying what is right. The National Party is the party of standing up and saying what is right. The Labour Party is the party of opportunism. The Labour Party is the party of the party of the Government. The Labour Party is the party of the Government. The Labour Party is the party of the Government. The Labour Party is the party that says what is
What does Tony Fairmont think about the member now?;National;I would like to thank the member who has taken his calls. I am sure it has been very interesting for the member, and I am sure that he will get some new ideas from the member. I am not sure how long we have to wait for the member to get them. I think that is a good thing to have in this House. I look forward to seeing how he will play his part. I am not sure about whether he will take a call. I think that is a good
When does the Minister intend to announce the purchase of the P-8 Poseidon aircraft?;Labour;The Government will announce the purchase of the P-8 Poseidon aircraft on 1 August. The aircraft will be flying in support of the New Zealand Air Force as part of the Government's efforts to enhance the New Zealand fighter capability. The aircraft will be undergoing an overhaul of the cockpit and cabin and will be deployed to the New Zealand Air Force as part of the New Zealand Defence Force's ongoing efforts to enhance its capability. The planned replacement of the aircraft will be for the new P-8 Poseidon
When does the Minister intend to announce the purchase of the P-8 Poseidon aircraft?;National;"The P-8 Poseidon aircraft will be bought from the New Zealand Defence Force. The purchase will involve an aircraft capacity of approximately 14 or 15 aircraft, the purchase will be completed by the present medium-class aircraft. The aircraft will be in service for a period from May 1991 to July 1992.<|endoftext|>

"
Is the Minister saying we should just give up trying to protect our oceans?;Labour;I am saying that we should not allow our oceans to be exposed to these big fish. Those big fish are not small. They are the ones who are harming our environment, and we should be looking at them. The Minister of Conservation, in terms of the report on the draft bill, is saying that we should not protect our oceans. I say that we should abandon the idea that we should protect our oceans. We should look at the bigger picture. What we need is to be looking at the
Is the Minister saying we should just give up trying to protect our oceans?;National;I am saying that we should give up trying to protect our oceans. That is a very simple and very simple point. I have to say that the next Leader of the House, the next Opposition, is the person who is most likely to be the Government's next leader. We must be prepared to look for a change. If there is to be a change it should come from the bottom up. We may be toying with the National Party, but remember that National is an organisation that has been
When will the independent review panel be established, who will comprise its membership, and what are its terms of reference?;Labour;That is the question that I am asking. I am not aware of any plan to establish an independent review panel. There are two questions that I think we need to answer here. One is whether there will be a separate independent review panel in the future. There would be no doubt that an independent panel would have a significant role to play in the future, but I think it is clear that the member is being a little too critical of the panel. It was the member who asked whether there would be
When will the independent review panel be established, who will comprise its membership, and what are its terms of reference?;National;"The panel will consist of members judged by a panel of members nominated by the member for Waikato. It will be the first panel of members of the panel, and will include members who will be appointed by the member for Tamaki. The panel will consist of:

Hon Pete Hodgson, a former member for Te Tai Tokerau who has recently returned to his seat of Maori Affairs;

Hon Russell Hutchison, a former member of the Maori Affairs Committee who will"
