question;party;answer
Can I raise a point of order first?;Labour;Mr Samuels has raised a point of order. I think that it is important that we get the truth from the member. I was shocked by the embarrassment in that incident. I think that it is a very serious matter, and I think that it is very unfortunate that the member did not take a call this afternoon to clarify it. I say that I think that it is very important that we get the truth from the member and that she does take a call. I think she should take a
Can I raise a point of order first?;National;"I can raise the point of order first, but I have no comment to make on your ruling. I should like you to explain to the committee how you have arrived at this decision.<|endoftext|>

"
What progress is being made to reduce the Christchurch waiting-times?;Labour;That was a really good question, and I think that the member should come back to it. I think that there are a number of things that have improved in Christchurch. I think that there is a lot of work being done. One of the things that is really good is the number of people in Christchurch who are on a waiting-list, and they are a lot more than that. I think a lot of the work that is being done by the Auckland region is being done at the
What progress is being made to reduce the Christchurch waiting-times?;National;As I have just said, we are continuing to make progress in relation to waiting-times. I have just said
Is there any disagreement that leave be granted to table the papers?;Labour;"Because of the way in which the Hon. Bob Jones and Mr Jones have been acting, I am not aware there is any dispute that the papers should be tabled.<|endoftext|>

"
Is there any disagreement that leave be granted to table the papers?;National;"There is no disagreement, as I have just indicated, that the Government should proceed with caution and with the utmost caution in the matter of tables.<|endoftext|>

"
Is there any objection to that course of action being followed?;Labour;"I believe that it is the only course of action available to us. I think that the member is making a serious mistake. The member is trying to do his homework. I am not sure whether he has done his homework, but he certainly did not come with a copy of the bill.<|endoftext|>

"
Is there any objection to that course of action being followed?;National;"I am not in a position to comment. I believe that the member's comments to the effect that this is all a very large matter that we are dealing with at the moment are incorrect. This has been a very significant issue.<|endoftext|>

"
What part is the member speaking to?;Labour;"I am talking to the member who wants to speak on the Bill. I am talking to the member who wants to make it clear that those members are completely opposed to the introduction of this Bill in this House, and that is why the member has been speaking.<|endoftext|>

"
What part is the member speaking to?;National;That was the first point. I would make a couple of quick remarks on the second Bill. The first is to acknowledge the work of the committee in the area of submissions on the Bill. Members opposed the Bill at the select committee. I have to say that I have found it very interesting to watch the committee members, and I have seen the submissions, but I do not think that I should have to read them. I do not think that a select committee should be in the business of reading submissions
If such a complaint were laid what steps or actions would be taken to prevent such importation?;Labour;"The member only raised her voice.<|endoftext|>

"
If such a complaint were laid what steps or actions would be taken to prevent such importation?;National;"It is not known exactly what steps would be taken, but it is very possible that the complaint could be laid and that the matter would be reported back to the Ministry of Transport. I will give some advice, and I think it is appropriate that the Minister of Transport has the opportunity to explain that to the House.<|endoftext|>

"
have you ruled that the Standing Orders, in the case of naming members, no longer apply?;Labour;"The Standing Orders, in the case of naming members, have not been changed; they have been clarified. The Standing Orders in relation to naming members and who they are were put in place by a select committee when the select committee was not sitting. I think that this is a very good and worthwhile addition to the Standing Orders.<|endoftext|>

"
have you ruled that the Standing Orders, in the case of naming members, no longer apply?;National;I have ruled that they no longer apply. I do not think it has been part of the procedure so much as it has been a matter of specific practice. It is my view that it may be necessary, in the longer term, to look at a fresh selection process. I can see the argument that there is no need for a fresh selection process. I know that the member for Whanganui has a particular interest in that issue, so I think that one way of looking at it is to
Could the member tell us where the two Appendix A’s are?;Labour;"There are two. I am not sure that the member has noticed. She is most probably taking this question in a way that is not entirely correct. I am not happy with that. I tell her to back off, and that is not what I was saying.<|endoftext|>

"
Could the member tell us where the two Appendix A’s are?;National;It is a bit strange that the questions have been so long. The question is a general one and it is of concern to us all. The membership of the select committee is a matter for the select committee to determine. I would give the member his or her word that if he or she does not wish to continue with the Question he or she should get off the select committee before the select committee can make that call. The member for St. Kilda has been asked a question so long that he
Who does Mr Hide hold hands with?;Labour;Mr Hide is an extremely influential member of the National Party. He is a person who has been a member of the political party for a long time. He is a person who has not lost his faith in the party, in its future, or in the language. I think he is unfortunate to have to sit in Opposition with the leader of the National Party. But I have to say that Mr Hide is an extremely good representative of the National Party, and I hope that he will continue to be a
Who does Mr Hide hold hands with?;National;He is not known for his directness. He is known for his quickness of wit. He is known for his quickness of wit. He is known for his quickness of wit. He is known for his quickness of wit. He is known for his quickness of wit. He is known for his quickness of wit. He is known for his quickness of wit. He is known for his quickness of wit. He is known for his quickness of wit. He
Is this a separate point of order?;Labour;"I was not talking about an independent point of order.<|endoftext|>

"
Is this a separate point of order?;National;"It is a separate point of order, and I ask you to explain how you are going to explain it. I will ask you to explain it.<|endoftext|>

"
