question;party;answer
Does the member think Waimana Gorge is an excellent road?;Labour;"It is an excellent road. It is a bit like the Donaghys of the world. They have a great highway, with wonderful scenery, and I think that the National Government’s policy is very good. The member for Waimana has got a national highway down there, and I expect that he will be able to talk about it in the House as often as he likes.<|endoftext|>

"
Does the member think Waimana Gorge is an excellent road?;National;I think it is an excellent road, and I think the member for Whangarei is doing a good job as it relates to the regional issues of the Whangarei electorate. It is a short, winding road, and I think it is a very long and winding road in that region. It is the most congested road in the southern part of the electorate. I think the member will be pleased to know that the road is not an open access road, which would be the case
Has the Minister received any new information from the member for Roskill?;Labour;"The member for Roskill is speaking to me in the debate. I am pleased that I have a new set of reports from him.<|endoftext|>

"
Has the Minister received any new information from the member for Roskill?;National;I have received a summary report from the member for Roskill. He presents the problem of the budget deficit as a logical consequence of the fact that there has been a reduction in the number of teachers in primary school. The report states
What about the member's lying, cheating mates, Fay Richwhite?;Labour;"I ask the member to get a grip, because he has insulted my electorate. I know he has done that.<|endoftext|>

"
What about the member's lying, cheating mates, Fay Richwhite?;National;"I think that the member should answer that he was a member of the National Party for 5 years. I am surprised that he does not believe that when he said that he was not a member of the National Party for 5 years.<|endoftext|>

"
What basis does the member have for saying ``nonsense''?;Labour;That the second reading of the Bill be now adjourned. I welcome any comments that may be made on the bill. I think it is important that this important amendment to the principal Act be introduced, because it is a significant step in the evolution of the legislation. I am pleased to note the constructive comments made by the member for Auckland Central that was made. First of all the members should remember that the Bill is an evolution of the principal Act. It is considered by many to be a more complete
What basis does the member have for saying ``nonsense''?;National;"I am sorry, I’m just being silly. The member has been right. He has been right. I’ve been away from the office. I’ve been in the office for only 3 months. And I’ve already made it clear that I don’t want to raise the matter again.<|endoftext|>

"
Why is it acceptable for the Deputy Prime Minister to interrupt my questions but not the other way round?;Labour;"The timing of that answer is not right. It is not like when Dr Brash interrupted a question yesterday.<|endoftext|>

"
Why is it acceptable for the Deputy Prime Minister to interrupt my questions but not the other way round?;National;The Opposition is not accused of being a little bit too soft. It is a bit bit like the member for Tauranga, who has made it quite clear that he is under pressure. I have to say that I have not seen the figures that show the genuine difficulties that the Opposition faces to deal with the issues in that area. It is a bit like the member for Selwyn, who has made it quite clear that the Opposition is under pressure. He is getting down to a level of talking
Has the Minister seen any reports of alternative approaches to tax cuts?;Labour;I have not had any reports of alternative approaches to tax cuts. I do not think that the member is kidding when he says that the Government has been able to do more in terms of tax cuts than the Opposition can. If he is suggesting that the Government has done more in the past and that it is now time for the Opposition to get up and say
Has the Minister seen any reports of alternative approaches to tax cuts?;National;"I have seen reports of alternative approaches to tax cuts, notably from the Australian National Party and the Labour Party, which are promising to increase taxes as centrepiece of their tax reduction agenda. Labour is calling for a single rate of tax and cutting taxes, and saying that revenue should be channeled into tax cuts. The Opposition is saying that the Government should be focusing on tax cuts.<|endoftext|>

"
But why are you ignoring some but not the others?;Labour;I have taken the issue of the legislation that is the subject of the question and the member has not taken it up. I congratulate the member and I thank him for bringing it to my attention. But I am not going to take up the issue of the legislation, which is the subject of the question, because I think that the reason it is a matter of urgency is that Parliament is now sitting in the middle of a very important debate. this bill does not need to be passed by the end of
But why are you ignoring some but not the others?;National;"The Opposition is building on the Government's failure to respect the rights of people and to provide a real alternative to the Labour Party. What is the Government doing about it?<|endoftext|>

"
What are the reasons for the employment accord agreement halving the stand-down period for the dole?;Labour;"The Government has agreed to reduce the stand-down period for the dole, which has led to this agreement being reached.<|endoftext|>

"
What are the reasons for the employment accord agreement halving the stand-down period for the dole?;National;The employment agreement waiver and student loan scheme has put in place a framework and a program of work for thousands of New Zealanders who have been denied the opportunity to get a job because of the employment accord, the student loan scheme, and their family circumstances. The Government is pleased to see that number of unemployed people now at a low level. The Government is also pleased to see that since the agreement has been implemented the Government has seen the drop in the figure of unemployment at this stage. The Government has
Does the member mean evasion, by ``dodging''?;Labour;I suppose there is evasion. One has to look at the figures. I will tell you what the figures say, because the member for Tauranga has said that the Government has been dishonest. The member for Tauranga has said that the Government is not honest, that there is a Government that is dishonest, and that there is a Government that was driven by its self-interest. He has said that the Government was driven by self-interest. He has said that the Government was driven by
Does the member mean evasion, by ``dodging''?;National;"I did not say that. I did not say that the Government was going to be serious about this.<|endoftext|>

"
How many jobs have been created in the New Zealand economy over the past two years?;Labour;This afternoon I visited a plant in my electorate and for some reason the reporter has not mentioned my visit to the plant. It is good to see that the growth in employment has been so great. I was told that the plant employs about 420 people, of whom I am the only member who has a job. I have heard that the plant employs about 400 workers, but I am told that only the plant officer is employed. I am told that the plant is employing about 400 people. It is a
How many jobs have been created in the New Zealand economy over the past two years?;National;I am sure that the member would be surprised to find that the number of jobs that have been created in the New Zealand economy has increased by 29,000. That is a pretty good number, everybody would agree with that. But an average of 29,000 new jobs is a pretty good number for a small country like New Zealand, and it is not a big number when it is compared with the number of people in the country who have been unemployed for 10 years. But the number is an average
