question;party;answer
What is the member doing about it?;Labour;"I am not aware of a thing like that. We are talking about the most serious indications that the Government has of the effectiveness of the drug policy.<|endoftext|>

"
What is the member doing about it?;National;"The member is talking about the Hone Harawira Bill, and that is a very good bill, and I think it is something to look forward to in the future.<|endoftext|>

"
Would the member like one of the Labour Party’s supplementaries?;Labour;"I am not aware of that. The member who submits the supplementary question is a senior Government whip, and I am asking him to be given a little time to answer it.<|endoftext|>

"
Would the member like one of the Labour Party’s supplementaries?;National;"The member can ask me to do that.<|endoftext|>

"
What information will be made available to increase awareness of employment rights and obligations?;Labour;The Ministry of Education will make available a range of information, including information on the number of full-time equivalent positions in the education sector, the number of full-time equivalent positions in the trades, and the number of full-time equivalents in the occupations, to educate people on the employment rights and obligations. This information will be available to acquaint people that employment rights and obligations are now clearly defined, and that the current employment rights and obligations are no longer implemented through the employment tribunals or employment
What information will be made available to increase awareness of employment rights and obligations?;National;I will not speculate on that. I have to say, that I think the member is reading the question incorrectly. The number of complaints is an indication of what is known to the public. The number of complaints is also something that can be quoted. It is not something that can be just quoted. I have to say that it is a good thing that the number of complaints has increased. The member over there should supply that information to the member who has just said that the number of complaints has increased
What is the Minister going to do about costs in emergency and transitional housing?;Labour;As a result of the increased costs of housing in the last 12 months, the Government will be introducing an increase in rents, which will be in place in the first homes in October. State house prices are being increased by 10 percent, and the rents have been going up by 17 percent. That is a far cry from the Government's promise to save $5 million, to have a waiting-list of 50,000 people in emergency housing. that is what the Government is telling families.<|end
What is the Minister going to do about costs in emergency and transitional housing?;National;I am going to talk about cost, costs. I am not going to talk about housing, because we have had a very good housing policy that is helping to resolve the housing crisis. In the last 6 years just under 18,000 houses have been built. This year it is going to be over 23,000. That is an increase of 19,000. Now that is a very good statistic. It has taken a long time to build that house, it is a very good statistic. It
Could you clarify, what the vote was that was taken at the time-what did we vote on?;Labour;"That was a test vote.<|endoftext|>

"
Could you clarify, what the vote was that was taken at the time-what did we vote on?;National;I think that was the vote. You may have asked the questions, but I think it is important that you do not go around thinking that the people of New Zealand are now voting for the National Party. My colleague the member for Tauranga will tell you that there was no vote. There is a very good reason for that. The vote was taken on the very day that the New Zealand First member announced that he would not be supporting the Bill. I think that is very important. I apologise
Is that a select committee document as part of the financial reviews?;Labour;That is correct. The key points are the Government’s focus of action at this stage and the fact that we have had a number of discussions around the nature of the spending plans we have. We have had discussions around some of the spending plans, and I will return to that later. I have been at the Finance and Expenditure Committee this afternoon, and I have gone through the spending plans and the measures that have been taken. The key points in the spending plans are the target. The
Is that a select committee document as part of the financial reviews?;National;It is a select committee document, but I have it in front of me. I have it quite clearly before me. It is a devastating statement. It is a serious matter, and I think it is a shame that the member for Whangarei is now trying to play this small role and to make a small contribution in this debate. It is a very good Government’s economic strategy. It is the sort of financial strategy that I am talking about. We have been able to achieve
Does the Government’s economic strategy support the development of New Zealandowned financial institutions?;Labour;The Government’s strategy for the future development of New Zealand’s financial institutions is actually quite good. The Government also has a strong focus on the development of the capital markets in New Zealand. We have a focus on the capital markets in New Zealand, which is essential to our growth prospects in New Zealand. I would say to the member for Gyakau that this bill, as introduced by the Hon Pete Hodgson, was not successful in its intended purpose. It was not successful in
Does the Government’s economic strategy support the development of New Zealandowned financial institutions?;National;"I am not aware of any Government policy that would encourage New Zealanders to share their capital in New Zealand. The Government is committed to promoting capital-raising institutions that are more directly associated with and accountable to the general public. Government policy is therefore not supportive of supporting such a strategy.<|endoftext|>

"
Is the Treasurer's relentless wine-box crusade another example of political investment?;Labour;I am not at all concerned to see that expenditure increases, because the Government has always been budgeting for a very good Budget, and it is showing no sign of breaking through. The Government has told the people to put in a little bit of savings and to increase their disposable income, just like the National Party did. The National Party was budgeting to increase the disposable income of the average house in New Zealand, and the National Party was budgeting to increase the disposable income of the average family in
Is the Treasurer's relentless wine-box crusade another example of political investment?;National;"It is not. It is not quite as bad as that. It is not as bad as it looks like. It is less urgent than that.<|endoftext|>

"
Can I address that point of order?;Labour;"This was a very insightful question that I have to address. I am sure that if you are calling for a question of the day, you would want to hear it.<|endoftext|>

"
Can I address that point of order?;National;"I can confirm that the member’s question was phrased in the most exacting way possible, to the point of veracity. I agree with that. I am sure that we will find out in the House on Sunday whether he is right as he claims.<|endoftext|>

"
Is the protection of the Southern Ocean Whale Sanctuary over the next 10 years a bottom line for New Zealand negotiations?;Labour;Yes it is a bottom line for New Zealand negotiations. The Government is committed to the conservation of the Southern Ocean Whale Sanctuary. It is a humane, responsible, and environmentally responsible measure that will allow the sanctuary to benefit New Zealand’s marine and coastal wildlife. The sanctuary will be managed in accordance with our conservation principles and the New Zealand Marine Park Act. The sanctuary will be managed in accordance with the National Marine Parks Act, which was introduced in 1985. The sanctuary will be managed in accordance with
Is the protection of the Southern Ocean Whale Sanctuary over the next 10 years a bottom line for New Zealand negotiations?;National;The protection of the Southern Ocean Whale Sanctuary over the next 10 years will not put New Zealand on a path to a balance sheet like the Government's assurances that 1 July will be the new date for the various fisheries management plans. I note that, as of 1 July this year, there will be an announcement that the Southern Ocean Whale Sanctuary will be closed. That will be announced in a couple of days' time. I expect to see the closure announcement in the next 90 days. The sanctuary has been
