question;party;answer
How will the grant support the people and communities of Hawke’s Bay?;Labour;The grant will help improve the quality of life for the people of Hawke’s Bay and the region. It will also provide an incentive for business to invest in the region by providing support for the introduction of new businesses. We will also be supporting business development, and we will be giving local business a major boost by providing an incentive to invest in their area. The $100 million will be used to improve the health of the region. To provide that incentive businesses will have to invest in their
How will the grant support the people and communities of Hawke’s Bay?;National;The grant will enable the Ministry of Social Development to begin the process of upgrading the social services and support services that are provided by the Ministry of Social Development. The Government is extremely pleased to be able to provide a significant amount of support to the people of Hawke’s Bay. The first of many grants will be made to assist the expansion of the social services that support the people of Hawke’s Bay, and to assist with the case management and roading needs of local community members
Are these the only benefits made possible by the work of Pharmac?;Labour;The only benefits made possible by the work of Pharmac have been the reduction in the costs of non-drugs for our elderly and dependent people, reduced drug expenditure in the areas of health and education, and increased expenditure in the areas of social welfare. In the Budget, there is still a lot of money available for the pharmacists. We are not making the pharmacists any better off, as the Government is proposing. It is not, and it will not be. The Government has cut them down
Are these the only benefits made possible by the work of Pharmac?;National;The only beneficiary is Pharmac. But I want to make it clear that this Government’s contribution to the health of New Zealand is encouraging, and I congratulate the Health and Wellbeing Committee on the way in which it has managed to co-opt its work. I want to make it clear that the Government has a lot of work to do, and a lot of work that goes on. So I do commend the committee for the way in which it has been able to work, but I think
Why would I put a non-serious one?;Labour;"I am not sure. I would put it in that order, because the member has a very specific question in relation to what the Government has done to promote the tourism industry. The Government has a very specific answer to that question, and it is very much a question of economic development. The member is asking me to put this question in that order, and I will just give her an example of what I would say.<|endoftext|>

"
Why would I put a non-serious one?;National;I have had a lot of non-serious comments from Opposition parties. They make no mention of the fact that this is a Bill of this kind. They say that it is in line with the members of the Electoral Commission, and that it is a Bill of this type. They say that it is a purely technical Bill of this kind. I have to say that the opposition members can be quite rigorous in their details in the way they go about their business. They say that it is a technical Bill
Does The Economist have a view on the effect of retaining New Zealand's current superannuation scheme?;Labour;"I have a report, dated 11 July, which states that the Government has decided to retain the current scheme to pay the costs of the superannuation scheme in New Zealand. I think it is interesting that the Minister of Finance would not know that the current scheme is making a very positive impact on New Zealand.<|endoftext|>

"
Does The Economist have a view on the effect of retaining New Zealand's current superannuation scheme?;National;The Economist has a view on the effect of retaining the current scheme, which is so well liked by the majority of those who are currently choosing to participate in the scheme. The Economist has a view on the future of the scheme, and the Government is saying to New Zealanders that it is not a good idea to have this scheme, and that they should be opting out of it. The Government says that it will have more of a change and a more modern scheme, and it will make a change
What did the Auditor-General say about that publication from National?;Labour;What I did say was that the audit did not seem to be of great importance. I think that that was a very good example of how the public was perceived. That was the reason for the review. It was actually the North Island Government that wrote to the Auditor-General. The North Island Government said that we should have paid that amount to the Auditor-General. The Auditor-General said that we should have paid that amount to the Auditor-General. But the North Island Government wrote to the
What did the Auditor-General say about that publication from National?;National;That is the statement from the Auditor-General, which sets out the Auditor-General's findings on the performance of the Government Financial Reporting Act, the Auditor-General's report on the Ministry of Social Welfare, the Auditor-General’s report on the Department of Labour, the Auditor-General’s report on the Ministry of Social Welfare, the Auditor-General’s report on the Department of Labour, the Auditor-General’s report on the ministry of social welfare,
Why did unemployment go up so much under the National Government?;Labour;The unemployment statistics in New Zealand during the period from December 1989 to December 1991 shows a sharp rise in unemployment. Before the elections, the statistic for December 1990 was a little better. The figures for December 1991, which was the last time the number of unemployed people was recorded, showed a sharp increase in unemployment. The statistics for December 1992 showed a further sharp increase in unemployment, which indicates that the level of unemployment has not been able to be sustained. I want to continue with the rapid rate of unemployment
Why did unemployment go up so much under the National Government?;National;The National Government was elected by the voters of New Zealand in 1989. It is not surprising that the National Government was elected in 1989. The National Government was elected in 1989, and it is not surprising that it is not in office. It did not have the experience or the budget to get the economy back on track or to get the economy back on track in 1989, or the experience to deliver on the promises that were made. It did not have the experience to be able to achieve a surplus.
And it is available on the website?;Labour;I am advised that there are no plans to introduce a website, because of the previous question, of a list of the people who have been involved in the development of this legislation. I think that is a bit of a pity, because I think it would be a good idea to see this bill flowing through the House and, the Government getting to the point where it has made its decision. I think that the House should get to that point now, because it is good to have a bill going through
And it is available on the website?;National;The website has been updated to reflect the changes.” I am not sure whether that answer is correct. If it is correct, it is not a matter of whether the website is updated, or whether it is available through the website. It is a matter of whether the website is updated. The second point is that the previous answer was for a different party, and that is indicative of the changes. The second point is that the previous answer was for a different electorate, and that is indicative of
and exclude private members' time on Wednesday?;Labour;Yes, I just want to take a call in support of the second reading of the amendment to add a new paragraph to the Health and Safety in Employment Act 1997. I just want to congratulate the member for Tataki on her contribution in the House over the previous several hours on this bill. I congratulate her on her contribution and on the fact that she is now supporting the second reading of this amendment. I have no doubt that the member for Tauranga, who is on a roll, will come
and exclude private members' time on Wednesday?;National;The member has pointed out to me that the member for Tauranga is a very good member of the House and I thank him for that. I acknowledge his efforts in getting the Bill through the select committee. I also want to congratulate him for his efforts in bringing the Bill to the House. I know that he will be the first person to acknowledge the fact that he worked very hard on it. He has worked very hard on it, and I hope that he will be the first person to acknowledge
Do I have to seek leave to have that done separately?;Labour;"I ask you to tell me whether that is what the Minister wants to do.<|endoftext|>

"
Do I have to seek leave to have that done separately?;National;"I seek leave to have the three questions done independently.<|endoftext|>

"
What other employment relations changes is the Government planning?;Labour;It has announced the introduction of the Employment Relations Commission, the introduction of the Equal Employment Opportunity Commission, the introduction of the Ombudsmen Commission, and the introduction of the super-workers tribunal. There are some important changes with regard to the employment relations system. The Employment Relations Commission will be a permanent agency. The Commissioner of Ombudsmen will be a permanent agency. The Ombudsmen Commission will have a permanent director and will have a permanent staff. There will be a permanent deputy director. There
What other employment relations changes is the Government planning?;National;It is another one of those things that we are announcing this year. That is about to be a surprise to some people, and I think that is because they are waiting for the announcement of the employment relations package. I want to take a very short call and thank the member for Tauranga. I have got a message for her, and that is not really a lot of work. I want to congratulate her and apologise for having to raise the issue of the Employment Contracts Bill. I think that
