question;party;answer
What’s in the Supplementary Order Paper?;Labour;That’s in the Supplementary Order Paper. I’ve been sitting here for the whole speech trying to figure out what’s in it and what’s not. I’m going to go through a couple of important points, because I think it would be helpful for my colleagues to have some clarity about what’s in the Supplementary Order Paper. I’m going to refer to the amendments in the name of Dr Nick Smith, who has been a member
What’s in the Supplementary Order Paper?;National;In the supplementary order paper, which was introduced on 1 August, I have introduced this legislation to give the police powers to seize certain devices that may be used to assist an offender when he or she is trying to avoid arrest. It is a very good one, and I think it should have been introduced a little earlier so that it could have been introduced before we got to the point of making history. When we think about it, it is really important to go back and think about the fact that this
Is there a particular reason for that excellent result?;Labour;The Government is listening to the calls of the people and of the media this afternoon and this evening. The Government is putting its own stamp on the National Party by focusing on the strong, stable leadership of Maori Affairs Minister Paula Bennett. There is a lot of effort by the National Party this afternoon to draw on the very reputation of Sir Roger Douglas, who is the man who has been in the top echelon of the National Party for some 3 years. Wherever we go through the country we
Is there a particular reason for that excellent result?;National;"I would say that the programme for participation in the service, which was so successful in the past and the results achieved since, are good. The programme for participation in the service will continue to be successful. It is from the experiences of the cadets to this year that the programme for participation in the service will be successful.<|endoftext|>

"
What reports of responses to this regional consultation exercise has the Minister seen?;Labour;We are seeing very good results. We are seeing the uptake in the service, as I pointed out, is at the same level as the previous year, and we are seeing the consultation with the region as well. I want to mention briefly a couple of things. the second thing I want to talk about is the way in which the regional conveners are addressing some of the issues, which will be in the public arena, as we speak. They are discussing a number of issues, and it is
What reports of responses to this regional consultation exercise has the Minister seen?;National;The answers I have seen are very encouraging. As I made clear to the media, the Minister and I have been reaching out to local government for some background information. I also say to the member, and I say to other members opposite, that I am pleased to see that this will not be an over-invoicing exercise. It is very important that the regional consultation exercise is a timely response to the regional development strategy, which is a necessary part of the regional strategy. That is why the
What was the response from very large firms, those with 200 employees or more?;Labour;There was, an extremely positive response. The biggest firms, the biggest companies, were overwhelmed by the response. We have been inundated with letters, calls, and emails from Kiwis, and we will continue to do that. The biggest employer of 13,000 people, the largest employer of 13,000 people, the biggest employer of 13,000 people, the biggest employer of 13,000 people, the biggest employer of 13,000 people, the biggest employer of 13,000 people,
What was the response from very large firms, those with 200 employees or more?;National;"The response from very large firms was a very positive one and one that reflected the fact that, as one of the country's largest employers, the Government supported this bill. The Government will continue to support this legislation throughout the remainder of the parliamentary session.<|endoftext|>

"
Do I need to go into the details?;Labour;"I do not need to.<|endoftext|>

"
Do I need to go into the details?;National;So I want to repeat my previous answer that the total amount raised by my predecessor was $9.8 million, so it is not a total amount raised. just to clarify, the amount raised is $9.8 million. The amount raised was for the Matamata electorate, not for the Auckland electorate. That was a mistake made by the previous National Government, and I am really pleased to see that it is being corrected. I want to make a few more comments. The statement made by
Has the member had more time to watch television lately?;Labour;I have had more time to watch television than the member has. For the first time in my time in Parliament this year I would say that this is a very good Budget. I will give my maiden speech comments today another minute, because we have got the message right from the Opposition. The Opposition wants a little bit more than a little bit more, and that is why it is prepared to listen to me and its leader. I think that this Budget is a very good Budget. I say to the
Has the member had more time to watch television lately?;National;"He has had more time to watch television recently than I have. The House adjourned at 11.52 p.m.<|endoftext|>

"
Does the New Zealand Council on Healthcare Standards make assessments on the basis of New Zealand standards?;Labour;"I am not aware of that detail. I am a little surprised that they have done it.<|endoftext|>

"
Does the New Zealand Council on Healthcare Standards make assessments on the basis of New Zealand standards?;National;The council has annual training and practical training programmes for the whole of the New Zealand population. We have done that training course so many times that the council has developed a very good method for ensuring that its people have a very good understanding of New Zealand’s standards, and we have done that training course in schools for a number of years. The council has reviewed those standards regularly and has found that the standards have been improved in New Zealand. What we are doing is providing a basis for the council
Why on earth would you allow the Minister to say that?;Labour;"I do not think it has to be that way. If it is that dependent on a Minister, and if it is that dependent on transparency, what is the point in having a Minister of Communications in the House?<|endoftext|>

"
Why on earth would you allow the Minister to say that?;National;I am asked that question quite often. I was just saying that I would be delighted if the Minister was to take the opportunity to answer it. I have ample reasons for that, and the Prime Minister is well aware of them. I am not here to seek an unanswerable question, but I am asking that you take a call and give me an answer on this particular question. The Minister has been asked that question multiple times. All I am saying is that we have to finish the debate,
What procedures are in place to ensure that out, family caregivers are suitable to give care to children?;Labour;"There are procedures in place to insure that out, family caregivers are suitable to give care to a child.<|endoftext|>

"
What procedures are in place to ensure that out, family caregivers are suitable to give care to children?;National;The Ministry of Social Development has been working with out, family caregivers to ensure that they comply with the requirements of the New Zealand Child Care Act and the New Zealand Parenting Act. The Ministry of Social Development has been working with the Department of Social Welfare and with the Department of Social Welfare's child, youth, and family services to ensure that they meet the needs of the children and their families. The Ministry of Social Development and the Department of Social Welfare have been working with the Department of Social Welfare to
Do members want me to mention one or two?;Labour;"That is a very good question. All the submissions were focused on the need for the legislation to be revisited. In the legislative process it is not possible to get a unanimous agreement that would be the best way to proceed.<|endoftext|>

"
Do members want me to mention one or two?;National;"They do not like that I am asking them to do. They do not want to take a call on this Bill. They want us to debate it on its merits, and they want us to go through the issues. They simply do not want it to be tabled in the House.<|endoftext|>

"
