question;party;answer
Can we have clarification from you as to whether the content of the speaker's comments are relevant to this Bill?;Labour;I am not able to give that advice, but I am happy to give it to you. I want to take a brief call, and I want to thank the member for Selwyn, the member for Maramarua, the member for Cook Bay, and the member for Maramarua for their willingness to throw their lot in with a party that is interested in this Bill. It is interesting that the previous speaker, the member for Auckland Central, said that the Opposition opposed this legislation at the beginning
Can we have clarification from you as to whether the content of the speaker's comments are relevant to this Bill?;National;"I am told that the member for Tauranga is a very good speaker. I have a question for the member. I ask him whether he will allow the Bill to go back to the select committee. I ask him whether he will allow the Opposition to put the Bill back to a select committee, and I have the privilege of speaking in this debate. If that member is prepared to put the Bill back to a select committee, I will support it.<|endoftext|>

"
what outcomes again have been achieved by Whare Ora?;Labour;"The Whare Ora programme has achieved very much in the way of results, and I commend it to the House.<|endoftext|>

"
what outcomes again have been achieved by Whare Ora?;National;In 2005 Whare Ora achieved a reduction in unemployment of 5,200 over 3 years, from 14,000 to 7,000. That was very good, and the result is that there has been a reduction in unemployment of 5,000 under Whare Ora. I am also pleased to note that in account year 2011 this Government has done a much better job than the previous Government. This Government has increased spending by $4 billion, to give New Zealanders the comfort of knowing that the
Why didn’t you change it when you were in Government?;Labour;It seems to me that Treasury is downgrading the situation around these payments to the point where I was the Minister who introduced this legislation. I was the Minister who introduced this legislation, so I am aware of the situation. The reality is that this Government is not able to support this legislation because of the fact that Treasury has not been able to get the legislation through its select committee process. I am not in favour of this legislation because of the way in which it has been drafted, but because of the
Why didn’t you change it when you were in Government?;National;It was a different kind of legislation when I was in Government. It was the National Party’s own legislation. That was why I was opposed to it. It was a national legislation that was very much about the people. It was the National Party’s bill, and it was introduced into the House by the Leader of the House. It was introduced by the Leader of the House. I am sure that the Leader of the House would have liked to have had the opportunity to introduce it
What has been the tone of the submissions received so far to the Land Transport Pricing Study?;Labour;There has been an excellent response from the land transport industry, with the landscape of the industry being about as good as it is possible to be in the land transport industry. I give the example of one of the major issues, the continued decline in the number of land transport workers. There are many issues in the industry that are not as well known as the issues that are so concerning to the industry. The Minister said in his answer that he was not aware of any figures of that kind. I have
What has been the tone of the submissions received so far to the Land Transport Pricing Study?;National;The submissions have been very positive. The Government is pleased to see that the Government's land transport policy is not too ambitious or too expensive. The Government is making a great deal of progress on land transport. The Government is putting into action the Government’s long-term policy, which will see the transport sector optimally utilised by the end of the year. The Government is giving a call on the transport sector to ensure that a strong transport system is developed. One of the most encouraging developments
Why doesn't the Minister give up and go home?;Labour;They are saying to me that they will not wait until the election. I tell them that it will not happen. The Opposition will win the election. It has been said about the Government that it will win the election. It will be the National Party that will be in power. It will be the National Party that will have a policy of education to make up for the poor performance of the Labour Party in the polls. What a policy that will be, and what a Government it will be! I
Why doesn't the Minister give up and go home?;National;I have not had any further contact with the member for Papatoetoe. I have been informed that he will be entitled to a visit to the Whakatape electorate on Sunday, May 29. I will be able to attend that visit. I am sure that the member for Napier will be pleased to see me there. I have been impressed with the very good support shown by members across the House for the bill. Many of the changes that have been proposed in the bill are to do
What investment has this Government made to improve eating disorders services?;Labour;To build the Mental Health Commission, which will have a presence in the West Coast, I have announced that I am calling for a further $10 million, which will ensure that the commission remains in its present location. I have announced that I have a significant backlog of caseworkers. I have announced that I have an ongoing assessment plan for the commission and that I expect to be able to announce a final date for the commission’s closure in October. I have announced that an additional staff,
What investment has this Government made to improve eating disorders services?;National;"I am the chair of the committee, and I am the deputy chairman of the committee. I have a huge amount of experience in the field of eating disorders.<|endoftext|>

"
What other work is under way to further support women and girls in education and training?;Labour;The Government is currently working with organisations such as the New Zealand Council for Educational Research, the National Council of Educational Research, and the Association of Teachers of New Zealand to ensure that we can provide more support for women and girls through these organisations. We have also made it clear that we are focused on providing more support for girls and young women, and on supporting them to achieve. We have made it clear that we are not building on the achievements of the last 30 years. We have come from the positions
What other work is under way to further support women and girls in education and training?;National;I have been informed that there are currently two programmes in place to support the delivery of early childhood education, one is in primary and secondary schools, and the other is in primary and secondary centres. The focus on early childhood education is in primary and secondary schools, as we were able to see last week. The focus on early childhood education is also in primary and secondary centres, as with the other programmes, there are some changes in the curriculum and the training programmes, and the primary centres are being offered
Has the Minister seen any reports on a party pill petition currently before the Health Committee?;Labour;I have not seen any reports of party pill petitions. The committee process is a very good one. We are trying to advise the Government who should be the next Prime Minister. That is what the national party is all about. The people of New Zealand are saying to the Government
Has the Minister seen any reports on a party pill petition currently before the Health Committee?;National;I have seen reports and I have seen a petition that says
How do forecasts for higher incomes compare with expected cost of living increases?;Labour;The Government has a very good track record. I would like to congratulate the member for North Shore, who has indicated that he would like to see his own electorate brought up as soon as possible. He has indicated that he would like to have the seat in which the number of open seats has been reduced. I think the member is well aware of that, and he would like to see that happen. He has indicated that he would like to have a seat where the number of open seats has been reduced
How do forecasts for higher incomes compare with expected cost of living increases?;National;The forecast is not very good. The forecast is not very good. The forecast is not very good. The forecast is not very good. The forecast is not very good. The forecast is not very good. The forecast is not very good. The forecast is not very good. The forecast is not very good. The forecast is not very good. The forecast is not very good. The forecast is not very good. The forecast is not very good. The forecast is not very good. The forecast
could the member give me the reference again?;Labour;"The reference I have given is to the Cabinet paper, which I will explain to the member.<|endoftext|>

"
could the member give me the reference again?;National;"I am not going to make any comment on that.<|endoftext|>

"
