question;party;answer
Is it a further point of order on this?;Labour;"It is a further point of order.<|endoftext|>

"
Is it a further point of order on this?;National;"That is not a point of order,<|endoftext|>

"
Why didn't the Minister talk to them?;Labour;"I was trying to get into the weeds of what was going on. I was trying to get into the weeds.<|endoftext|>

"
Why didn't the Minister talk to them?;National;"Would the Minister tell them why we have a Department of Conservation website for the next 10 years?<|endoftext|>

"
What on earth is out of order with that question?;Labour;"The member would have to be a member of Parliament to understand what is hanging over the House today. I have spoken to the Clerk, and I have asked him why he is issuing the validity of the question. Surely if he is issuing it he should tell me whether he is issuing it in a way that is a matter of confusion, or whether he is issuing it as a matter of confusion.<|endoftext|>

"
What on earth is out of order with that question?;National;I was asking the Minister of Transport and his colleague the Hon. Royce, who is sitting there, about the Government's policy. had I been in that chair, I would have been asking him about that, and I would have been asking him about the member for Tauranga and about the member for Tauranga East and about the member for Manurewa. I believe that the Minister is trying to show his Liberal credentials. He is trying to show his credentials as a sort of John
Is there corroboration of this view from independent economic commentators?;Labour;Well, I think the member has not got the facts right. I think it was a case of saying that National will not do anything, and then saying
Is there corroboration of this view from independent economic commentators?;National;"Two of the major economic commentators in the past have suggested that New Zealand's debt problem is not as bad as it is. from the New Zealand Herald, dated 2 October 1996.<|endoftext|>

"
What is the estimated cost per transaction of the ``Kiwi Bank''?;Labour;The estimated cost per transaction of the ``Kiwi Bank'' is $22,859. That is the cost of an average week-end transaction. The cost of an average week-end transaction is $34,000. That is the cost of a typical transaction, which is not a trivial amount. For the sake of clarity, it is estimated that this will cost $22,859, which is the cost of an average week-end transaction. That is not too bad.
What is the estimated cost per transaction of the ``Kiwi Bank''?;National;A very good question. The cost per transaction of the ``Kiwi Bank'' was $9,000. That is what the question states. The question states
What about the Opposition's associate spokesman?;Labour;I have just spoken to an Opposition spokesman on the issues. It is quite a stark contrast from the last speech, when the assistant speaker said that the Opposition would not be supporting this bill. Just to give the member an example of where he stands, and how he is going to make me feel, I have a question about the tax credits. I think it is the rollout of the new health bill, and it is the rollout of the new package of benefits. The member for Auckland Central has just
What about the Opposition's associate spokesman?;National;To quote the member for Tamaki, I can tell him
Why has the Minister not taken up the suggestion made by Max Bradford to refer the policy to Treasury and the Reserve Bank?;Labour;"The proposed policy is to adopt the new approach of borrowing to secure consistent and better performance over the long term, because the Reserve Bank's governor has been advising us, over the last few weeks. The Governor of the Reserve Bank is saying that the Reserve Bank can become more flexible and flexible, and this is what we have been hearing from the Minister of Finance.<|endoftext|>

"
Why has the Minister not taken up the suggestion made by Max Bradford to refer the policy to Treasury and the Reserve Bank?;National;"What I would like to see is the Government's announcement on this matter.<|endoftext|>

"
Has the Minister had any reports that indicate impropriety or criminal behaviour in the unhappiness with the council?;Labour;"I have had reports that indicate that there is an imbalance of power in the council.<|endoftext|>

"
Has the Minister had any reports that indicate impropriety or criminal behaviour in the unhappiness with the council?;National;"I have had a number of reports that indicate serious impropriety in the council.<|endoftext|>

"
How will the Government fund its large infrastructure investment?;Labour;The Government will be investing in the roading network over the next 4 years. The Government will be investing in the rail network for the next 7 years. The Government will be investing in the transport network for the next 10 years. The National Party is pledging to continue the roading investment programme for the next 4 years, and for the next 7 years, and for the next 10 years, and for the next 10 years. The Government is committed to a long-term investment programme, which is why
How will the Government fund its large infrastructure investment?;National;The Government is investing $12.5 billion, or 1.8 percent, in the current fiscal year. This will result in a significant increase in the capital investment in New Zealand. The figures are a result of the Government's Government Procurement Strategy, which is a set of measures to manage the Government's major infrastructure investment programmes, which will result in a significant increase in investment over the coming year. It will also result in a significant increase in capital investment in New Zealand.<|endof
Was there any mention of a price increase in Electricorp's draft statement of corporate intent?;Labour;"In the draft, Electricorp has indicated that the electricity market is facing a target of $2,000 per square metre by the end of the decade, and that it expects to sell 58 percent of its electricity within the next 5 years. This is a substantial increase, and that is the kind of statement that should have been made in that draft statement of corporate intent.<|endoftext|>

"
Was there any mention of a price increase in Electricorp's draft statement of corporate intent?;National;This was not the case. Powerline New Zealand is now saying
