question;party;answer
May I speak to the point of order?;Labour;It is a very interesting point to make, because the member has been talking about the Health and Disability Commissioner and not about the Health and Disability Commissioner, and I think it is important to repeat that the Health and Disability Commissioner is the lead agency. That is the point of order, and we are hearing from her. I wonder whether she is correct when she says, ``We are just making a mess of it, and we know that it is a mess of a mess. The Government has done a
May I speak to the point of order?;National;I shall speak to your ruling in regard to the member for Auckland Central. It is that while I was speaking on the other side of the House, I should have been speaking on behalf of the member for Auckland Central. I did not know that the member for Auckland Central was a member of the Opposition. I have been a member of the National Party for five years, and I have never been a member of the National Party. I do not know whether the member for Auckland Central has been a member
As a point of clarification, can I interject softly?;Labour;As a point of clarification, I would like to draw the attention of the member for Selwyn to a point that the Hon. Chris Carter has made. I think that that is a good reminder of the fact that it is not complete rubbish. It is a case of people saying
As a point of clarification, can I interject softly?;National;"As a point of clarification, it is not quite clear what you have just said. You have just explained the situation to me in a way that seems to have been misunderstood. I would like to clarify it. I think that the member should take off your head the question and ask one of my questions.<|endoftext|>

"
How can members of the public and Kiwiblog readers track progress towards the 1 billion trees target?;Labour;The target is good progress. The Government is now working towards delivering 1 billion trees by 2020, but in April this year we announced that the first estimated target would be to have trees at the start of 2020. This is really good progress. It is progress that can only be described as, a win. I thought that was a pretty good achievement. I thought it was a win. I thought it was a win, but I am delighted that the Government is now getting the results on the ground.
How can members of the public and Kiwiblog readers track progress towards the 1 billion trees target?;National;"The 1 billion trees target is the target as it stands now, as the Minister of Conservation has said. That is the target. It is not what it was when the Government was in office.<|endoftext|>

"
What risks are there that the Waikato Expressway will not be completed within the 10-year time frame?;Labour;I am not aware of any. I am told the Government is looking at it. I mention it because the public of New Zealand have been waiting far too long for the Waikato Expressway. I say to the member who is asking the question that if the Government is prepared to give that money to the Waikato Expressway, then why is the public waiting so long? I was troubled last year to find that the Government had failed to pick up its half-yearly rail budget.
What risks are there that the Waikato Expressway will not be completed within the 10-year time frame?;National;The Government intends to provide the expressway in the form of the existing highway, which is built in a different form. The Government has undertaken extensive work to ensure the completion of the expressway as a result of the agreement with the Waikato Regional Council, and it is expected at the end of the current Hutt-Tauranga expressway to have completed completion of the expressway by the end of 1999. The Government has a plan for the expressway that will allow it to be completed
What are the details of that drop in numbers?;Labour;"I am not sure that I will be able to answer that question. I would like to confirm that the numbers are up, and I believe that the Government has been doing what it has been doing.<|endoftext|>

"
What are the details of that drop in numbers?;National;"In response to what I have said, the figures were the result of the drop in the number of people doing voluntary work. a number of voluntary work schemes have been established, and the drop in voluntary work numbers reflects that. In response to the question, which was a good one I think, I have just said that the drop in numbers of voluntary work schemes is due to the drop in the number of people in the voluntary work scheme system.<|endoftext|>

"
How much time do I have remaining in this speech?;Labour;we are only one day away from the end of the annual Christmas period, and with it the end of the year. I am just crossing my fingers and hoping that the next speaker will not just give a speech, but actually give a speech that actually provides a solution. I know that the member for Tauranga has said that she will be doing that, and I am sure that she will give a speech that actually delivers a solution, and that is what I am trying to achieve, because the
How much time do I have remaining in this speech?;National;"Well, I think that the member is counting time. I think the answer to the first question is the same as the answer to the first question. I am happy to answer the second question if that is the case.<|endoftext|>

"
What is being done to secure land for the Government’s tree-planting programme?;Labour;"We are supporting a programme that has been successful in other parts of the world, and it is being extended throughout New Zealand. The Government will be announcing the next extension soon. We are investing $1 million on this programme.<|endoftext|>

"
What is being done to secure land for the Government’s tree-planting programme?;National;"There are some improvements that are being made,<|endoftext|>

"
Why does this member spend so much time slagging off the police?;Labour;The police are the best. The police are the best. I am delighted with the police. I am happy to have them around. The police are very able to do a good job. One of the biggest problems in the community is a lack of leadership. The police are a good example of that in my area. They are well organised, they are backed by the current council, and they work well under pressure. The police are the best. They are one of the most well-organised
Why does this member spend so much time slagging off the police?;National;I am not sure what one would call the relationship that is between the police and the public. I have to say that I am not concerned for the police. I have noticed that the police have been slagging off the police at the moment, and I think that is shameful, and that is why I am calling on the police to do their jobs better. I find it absolutely shocking that the police should be slagging off the police, if the police are so concerned for the public. I think
Have you called another vote or are you just declaring a vote?;Labour;"I have just declared a vote, and I am not suggesting that I can be counted as an incoming member. I am just saying that I would like to put my name in the record, and I would like to put my name in the record of the House. I would like to put my name in the record, and I would like to put my name in the record of the House. I would like to put my name in the record of the House.<|endoftext|>
"
Have you called another vote or are you just declaring a vote?;National;I said that this is a vote in relation to the title of the bill, and that it is not a vote on the amendments that have been reported back, because I am not quite sure about the title. I am also not sure whether the honourable member from the National Party agrees with me, but I think it is quite clear that it is a bill that will be passed when the House returns, and it is a bill that will be passed by the end of the year. So I think
are you going to allow that comment?;Labour;"I certainly will allow that comment. I think it is a good idea to have a debate on this bill.<|endoftext|>

"
are you going to allow that comment?;National;"I shall allow it. In answer to the second question, I have no intention of approving any of the measures that the member raises. I have my own view, and I have it as I see it. I say to Ms Horomia that she is correct; there is no point in talking about it.<|endoftext|>

"
