question;party;answer
Under the usual adjournment rules?;Labour;That is the first question I have got to ask. I want to ask the Labour Opposition spokesman on finance, the Hon. Phil Goff, about the changes that have been in the bill, and to know whether they are appropriate to allow New Zealanders to make their first payment of child support. The Opposition spokesman has said that the bill is a good first step, but I am not sure that it will be sufficient. I say that it is probably a good first step, but it is probably not
Under the usual adjournment rules?;National;Exactly. I cannot understand why you would want to make a change in the rules, and I do not understand why you would want to make a change in the rules, but I just want to make sure that the House is aware. If you have put some time aside in the debate today, and I have, that is why I have put some time aside. I just want to make sure that the House is aware that you have been to the select committee and you have received the report. I
How many kindergarten associations have successfully negotiated contracts since the State Sector Act was amended?;Labour;"It is a pretty good list. I want to save the member’s attention for a moment. I think that it is a really good list. There are a number of contract negotiations worked out with the Auckland Regional Council, with the business association, and with the community association.<|endoftext|>

"
How many kindergarten associations have successfully negotiated contracts since the State Sector Act was amended?;National;"I am not aware of any such contract negotiations. I am sure that the segregation of, and the welfare of children in, the schools, of schools is something to be concerned about.<|endoftext|>

"
Which ones are you talking about?;Labour;I am talking about the one that says that we should return to the way it was. We are not going to have a different National Party. I am talking about the one that says we should have returned to the way it was, the National Party that has been in office for 10 years, and the National Party that is supposed to represent the New Zealand public. That is the National Party that is supposed to represent the New Zealand public. We should have gone back to the way it was in 2005
Which ones are you talking about?;National;"I am talking about police and crime.<|endoftext|>

"
Why didn't the member support it last year?;Labour;I do not remember that the member had a leading role in the select committee. I am one of those who thought that the present system was a good idea, and the select committee heard that. It was not a very good one, and I think that the member should be ashamed of herself for supporting it until the end. We had a great debate and it came to a good close. There was a good sense of consensus about this legislation, and I think it is important that we do the same
Why didn't the member support it last year?;National;If the member thinks that the member has been cleared of any wrongdoing, he is a bit confused about this matter, because I have told him that the member for Papakura was not cleared of any wrongdoing. The member doesn’t know the difference between the two positions, because he is a member of the National Party, and his position was not cleared of wrongdoing. I want to come back to the position the member has sought to put forward. He has been cleared of wrongdoing. Is that the
Will the Minister admit that justice delayed is often justice denied?;Labour;"I am not sure whether the member could tell the House.<|endoftext|>

"
Will the Minister admit that justice delayed is often justice denied?;National;"We have had some good news. How about a lower, -for the people of Auckland, and for the people of New Zealand.<|endoftext|>

"
Is this reorganisation the first step towards privatising Valuation New Zealand?;Labour;I am happy to confirm that this reorganisation is the first step towards privatising Valuation New Zealand. There are several reforms that we are taking. I have just given a brief background on a number of them. I want to speak in the second reading of a Bill that is very similar to that of the Hon Phil Goff, the member for Auckland Central, who has just finished his speech. He spoke in the second reading about the reorganisation of the Valuation Office. I am very pleased to
Is this reorganisation the first step towards privatising Valuation New Zealand?;National;"The first step is a reorganisation, as my colleague the member for Tarawera said, that is quite different from the process of privatisation that we went through in the past. It is an important step. It is not a change to the way in which we choose to run the accounting of that entity. It is not as though the Minister of Finance did not think he or she could run the accounting of that entity; the process is quite different from the process that we used in the past"
Did the Minister receive any written advice to approve the OceanaGold application, and if so, from whom?;Labour;"Not before I became aware of it, I think it was from the member for Christchurch North. He did not get a specific letter from the Minister with that particular application.<|endoftext|>

"
Did the Minister receive any written advice to approve the OceanaGold application, and if so, from whom?;National;"I did receive a number of written advice from the OceanaGold spokeswoman, and I am happy to answer that question.<|endoftext|>

"
Is this a supplementary question, Madam Speaker?;Labour;"As indicated by my answer in answer to the first supplementary question, the member for St. Kilda asked me whether this matter has been addressed by the member for Ellesmere, and whether it is appropriate that I indicate that it has not. I did not ask whether the member for Ellesmere has been addressed.<|endoftext|>

"
Is this a supplementary question, Madam Speaker?;National;This supplementary question was put. I think it was one that was raised in the Committee stage of the House, by the member for Papawai. He is taking a rather different view from the one that I have taken. He has raised it in a different form than I have. He has moved on. He has put it on a supplementary question. We still have a supplementary question, and we will continue to do so, as long as the member for Papawai wants to do so.
How are the rights and interests of iwi and all of Aotearoa protected under the resource management proposals?;Labour;"I should like to make one statement at this stage. I’ve just had a phone call from the member for Tauranga. I’m going to leave that matter there. He’s actually asking me why I’m not going. I know that the member for Tauranga said she’s going to take up the question. I think that’s a good question.<|endoftext|>

"
How are the rights and interests of iwi and all of Aotearoa protected under the resource management proposals?;National;The rights and interests of iwi are protected under the Resource Management Plan. The Minister’s comments referred to the implementation of the plan by the Governor-General as being the Government’s priority, and that was the fact that the resource management plan was completed by the end of last year. If that is the case, then the resource management plan is a Government priority, and the Government has been able to implement the plan by the end of last year. The Government has been able to
What reports has the Minister read recently in support of the Point England Development Enabling Bill?;Labour;The Minister has read quite a lot of reports, including the Ministry of Education’s report, which states that the use of point-based education will help achieve long-term change. The point is that if we are to achieve long-term change at all, if we want to improve the quality of education, we need a system that allows teachers to choose how and where they teach, and that gives them control over their own workload. So the system that would work for Point England and Point
What reports has the Minister read recently in support of the Point England Development Enabling Bill?;National;The point of this speech is to tell the House where we stand. That is all I want to say. I think that it is quite wrong that the Minister should put his remarks in these terms. I believe that the Bill is the most comprehensive and effective way of addressing the problem of poverty in New Zealand. That is why I think it is a very good move to have the Bill passed through the House. I want to say that I also congratulate the member for Horowhenua and to thank
