question;party;answer
You need to seek leave, and what is the leave you are asking for?;Labour;"I seek leave to communicate with you, on behalf of the Labour Party, a brief version of the legislation. I seek permission from the Committee to provide that notice to the House.<|endoftext|>

"
You need to seek leave, and what is the leave you are asking for?;National;"I seek leave to give the House an instruction to look forward to the Parliament sitting on 10 August, and to give the House an instruction to consider this motion.<|endoftext|>

"
How does our financial position now compare with where it was at the height of the global financial crisis?;Labour;"Our current position is the same as it was at the start of the global financial crisis. We are well in hand. That is the conclusion we have arrived at.<|endoftext|>

"
How does our financial position now compare with where it was at the height of the global financial crisis?;National;"The financial position today is better than it was at the time when that upheaval occurred in the financial markets, and what I do not think is that that is something to be dismissed by the Opposition.<|endoftext|>

"
What steps is the Government taking to support the Government Statement on Regulation?;Labour;I am aware that the Minister of Health is looking at promoting regulatory reforms that will reduce compliance costs. I am talking about moving to the legislation that will make it easier, not harder, to navigate the world of medicines and their administration. The Government has been putting forward a lot of such bills, through the Health Committee, but I am waiting to see if the select committee will accept them. If it does, I can say that this bill is a step towards making the New Zealand health system more relevant
What steps is the Government taking to support the Government Statement on Regulation?;National;"The Government is committed to supporting the statement on regulation. The Government has been making that commitment since it took office.<|endoftext|>

"
Why didn’t you put it in last year?;Labour;I could not put it in. It was too late. It was a very good idea. It was too late. It was for the best. It was so simple, and I am not going to repeat it again, but it was so simple, that I think all Members of this House should stand up and say why it should have been done in this way, because the idea was so simple. It was so simple, and I think it was too simple. I think the idea was too
Why didn’t you put it in last year?;National;As the Hon Dr Nick Smith told the committee, the National Party does not believe that the member for Auckland Central should be the leader of the National Party. It has put the member for Auckland Central in the position of the Leader of the Opposition, which is a pretty good position as far as I am concerned. I am very happy to have him as the Leader of the Opposition, but I think it would be very useful if it were a little easier for him to stand as the Leader of the Opposition
Am I to take it that you think it is an appropriate, a proper, and a fitting situation that you judge it?;Labour;I have to say that I think it is very much an appropriate and fitting situation that the member for Canterbury was elected to stand in the House tonight. She is a person who is not known for her ability to write, but she is a person who has had a certain amount of experience in the House. She is a person with a certain amount of experience in the House. She has been involved in the House for a number of years, but with that experience comes a certain level of experience. That
Am I to take it that you think it is an appropriate, a proper, and a fitting situation that you judge it?;National;The only thing that I consider that is appropriate is to allow the select committee to have the opportunity to review the legislation and to do that, on the recommendation of the select committee. I will take the opportunity to remind those members who are listening to this debate that the select committee process is very much a collegial process. It is a very professional one. It is chaired by the Hon Michael Cullen. It is chaired by the Hon Phil Goff. It is chaired by the Hon Nick Smith. It is
You’re not going to stand in Clutha-Southland, are you?;Labour;"I’ve got to go to my constituency. I’m going to my electorate.<|endoftext|>

"
You’re not going to stand in Clutha-Southland, are you?;National;I am going to go to Manawatu-Manukau and to Taranaki. I will be in the electorate of Waihi. I am going to be in the electorate of Waihehehehehehehehehehehehehehe. I am just going to go to Taranaki and I will be there in my electorate, and I will be there next week. I will be in the electorate of Waihehehehehehehehe
Is there any objection to that course of action?;Labour;The member asks the question, and I am aware of the answers. in the case of a great number of cases, the question of whether there is a need to review the Act has not been the subject of any particular review. The matter is now before the select committee, and I will provide the committee with the answers. It is not a matter of whether there is a need to review the Act or whether there is a need to consider the change. The committee has been provided with an answer to
Is there any objection to that course of action?;National;I am advised that the Opposition is concerned that the Government should be making this decision in the second reading debate, and that it is a short time before the House resumes after the holidays. I am not opposed to that course of action. I think it is appropriate that the debate should be on the second reading of the Bill tomorrow. I think it is appropriate that the member for Rangiora should be a member of the select committee. I think that is appropriate, that the member should be involved
What is one of the major questions being asked by regional leaders regarding problems facing the regions?;Labour;The main issue facing the region is the economic challenges facing the region. The member for Tamaki asked what sort of economic reform is required. The answer is that we need a much more sophisticated system that is understood by people and that is understood by the Government. It is necessary for economic development. The member for Tamaki has just asked what kind of reform is needed. I answer that it is needed because the Government is not listening to the people. The Government's economic development policy has been much more
What is one of the major questions being asked by regional leaders regarding problems facing the regions?;National;The question is this
What's the contingent liability for indemnified staff?;Labour;"The beneficiary beneficiaries, who are the staff of the ministry, are responsible for the investment in the ministry and the risk of the ministry falling over. The ministry has done a great job in terms of the services provided.<|endoftext|>

"
What's the contingent liability for indemnified staff?;National;This is a very good question. I will answer it in two parts. The first part is that it is a matter of voluntary compliance. I have not come to the House to ask the Government to go into voluntary compliance, although I certainly would welcome an opportunity to do so. The second part is that it is a matter of whether the Government wants to take liability from the staff of the Public Service. That is what the Bill does. It is a matter of whether the Government wants to take liability
So it is possible to put a question in in another person’s name, without that member knowing?;Labour;"I seek leave for the Committee of the whole House to meet on that day.<|endoftext|>

"
So it is possible to put a question in in another person’s name, without that member knowing?;National;The member might be aware that there are some very small changes that have been made to the voting system. As I said, the decision to include a question in another person’s name had been made by the member for Papatoetoe. The member for Papatoetoe had thought it would be more appropriate to put a question in an alternative person’s name, but the member for Papatoetoe said that that was not acceptable. He made a contribution to the debate,
